<svg xmlns="http://www.w3.org/2000/svg" xmlns:xlink="http://www.w3.org/1999/xlink" class="main-svg" width="100%" height="100%" style="" viewBox="1 1 799 579">
  <rect x="0" y="0" width="800" height="580" style="fill: rgb(255, 255, 255); fill-opacity: 1;"/>
  <defs id="defs-fbd51f">
    <g class="clips">
      <clipPath id="clipfbd51fxyplot" class="plotclip">
        <rect width="549" height="540"/>
      </clipPath>
      <clipPath class="axesclip" id="clipfbd51fx">
        <rect x="251" y="0" width="549" height="580"/>
      </clipPath>
      <clipPath class="axesclip" id="clipfbd51fy">
        <rect x="0" y="0" width="800" height="540"/>
      </clipPath>
      <clipPath class="axesclip" id="clipfbd51fxy">
        <rect x="251" y="0" width="549" height="540"/>
      </clipPath>
    </g>
    <g class="gradients"/>
    <g class="patterns"/>
  </defs>
  <g class="bglayer"/>
  <g class="layer-below">
    <g class="imagelayer"/>
    <g class="shapelayer"/>
  </g>
  <g class="cartesianlayer">
    <g class="subplot xy">
      <g class="layer-subplot">
        <g class="shapelayer"/>
        <g class="imagelayer"/>
      </g>
      <g class="gridlayer">
        <g class="x">
          <path class="xgrid crisp" transform="translate(371.99,0)" d="M0,0v540" style="stroke: rgb(238, 238, 238); stroke-opacity: 1; stroke-width: 1px;"/>
          <path class="xgrid crisp" transform="translate(492.98,0)" d="M0,0v540" style="stroke: rgb(238, 238, 238); stroke-opacity: 1; stroke-width: 1px;"/>
          <path class="xgrid crisp" transform="translate(613.98,0)" d="M0,0v540" style="stroke: rgb(238, 238, 238); stroke-opacity: 1; stroke-width: 1px;"/>
          <path class="xgrid crisp" transform="translate(734.97,0)" d="M0,0v540" style="stroke: rgb(238, 238, 238); stroke-opacity: 1; stroke-width: 1px;"/>
        </g>
        <g class="y"/>
      </g>
      <g class="zerolinelayer">
        <path class="xzl zl crisp" transform="translate(251,0)" d="M0,0v540" style="stroke: rgb(68, 68, 68); stroke-opacity: 1; stroke-width: 1px;"/>
      </g>
      <path class="xlines-below"/>
      <path class="ylines-below"/>
      <g class="overlines-below"/>
      <g class="xaxislayer-below"/>
      <g class="yaxislayer-below"/>
      <g class="overaxes-below"/>
      <g class="plot" transform="translate(251,0)" clip-path="url(#clipfbd51fxyplot)">
        <g class="barlayer mlayer">
          <g class="trace bars" style="opacity: 1;">
            <g class="points">
              <g class="point">
                <path d="M0,354V306H45.57V354Z" style="vector-effect: non-scaling-stroke; opacity: 1; stroke-width: 0px; fill: rgb(36, 139, 204); fill-opacity: 1;"/>
              </g>
              <g class="point">
                <path d="M0,54V6H521.55V54Z" style="vector-effect: non-scaling-stroke; opacity: 1; stroke-width: 0px; fill: rgb(36, 139, 204); fill-opacity: 1;"/>
              </g>
              <g class="point">
                <path d="M0,114V66H367.55V114Z" style="vector-effect: non-scaling-stroke; opacity: 1; stroke-width: 0px; fill: rgb(36, 139, 204); fill-opacity: 1;"/>
              </g>
              <g class="point">
                <path d="M0,234V186H213.39V234Z" style="vector-effect: non-scaling-stroke; opacity: 1; stroke-width: 0px; fill: rgb(36, 139, 204); fill-opacity: 1;"/>
              </g>
              <g class="point">
                <path d="M0,174V126H278.39V174Z" style="vector-effect: non-scaling-stroke; opacity: 1; stroke-width: 0px; fill: rgb(36, 139, 204); fill-opacity: 1;"/>
              </g>
              <g class="point">
                <path d="M0,414V366H45.16V414Z" style="vector-effect: non-scaling-stroke; opacity: 1; stroke-width: 0px; fill: rgb(36, 139, 204); fill-opacity: 1;"/>
              </g>
              <g class="point">
                <path d="M0,294V246H72.01V294Z" style="vector-effect: non-scaling-stroke; opacity: 1; stroke-width: 0px; fill: rgb(36, 139, 204); fill-opacity: 1;"/>
              </g>
              <g class="point">
                <path d="M0,534V486H5.88V534Z" style="vector-effect: non-scaling-stroke; opacity: 1; stroke-width: 0px; fill: rgb(36, 139, 204); fill-opacity: 1;"/>
              </g>
              <g class="point">
                <path d="M0,474V426H29.78V474Z" style="vector-effect: non-scaling-stroke; opacity: 1; stroke-width: 0px; fill: rgb(36, 139, 204); fill-opacity: 1;"/>
              </g>
            </g>
          </g>
        </g>
      </g>
      <g class="overplot"/>
      <path class="xlines-above crisp" d="M0,0" style="fill: none;"/>
      <path class="ylines-above crisp" d="" style="fill: none; stroke-width: 1px; stroke: rgb(0, 0, 0); stroke-opacity: 0;"/>
      <g class="overlines-above"/>
      <g class="xaxislayer-above">
        <g class="xtick">
          <text text-anchor="middle" x="0" y="553" transform="translate(251,0)" style="font-family: 'Alegreya Sans', sans-serif; font-size: 12px; fill: rgb(0, 0, 0); fill-opacity: 1; white-space: pre; opacity: 1;">0</text>
        </g>
        <g class="xtick">
          <text text-anchor="middle" x="0" y="553" style="font-family: 'Alegreya Sans', sans-serif; font-size: 12px; fill: rgb(0, 0, 0); fill-opacity: 1; white-space: pre; opacity: 1;" transform="translate(371.99,0)">50</text>
        </g>
        <g class="xtick">
          <text text-anchor="middle" x="0" y="553" style="font-family: 'Alegreya Sans', sans-serif; font-size: 12px; fill: rgb(0, 0, 0); fill-opacity: 1; white-space: pre; opacity: 1;" transform="translate(492.98,0)">100</text>
        </g>
        <g class="xtick">
          <text text-anchor="middle" x="0" y="553" style="font-family: 'Alegreya Sans', sans-serif; font-size: 12px; fill: rgb(0, 0, 0); fill-opacity: 1; white-space: pre; opacity: 1;" transform="translate(613.98,0)">150</text>
        </g>
        <g class="xtick">
          <text text-anchor="middle" x="0" y="553" style="font-family: 'Alegreya Sans', sans-serif; font-size: 12px; fill: rgb(0, 0, 0); fill-opacity: 1; white-space: pre; opacity: 1;" transform="translate(734.97,0)">200</text>
        </g>
      </g>
      <g class="yaxislayer-above">
        <path class="ytick ticks crisp" d="M250,0h-5" transform="translate(0,510)" style="stroke: rgb(68, 68, 68); stroke-opacity: 1; stroke-width: 1px;"/>
        <path class="ytick ticks crisp" d="M250,0h-5" transform="translate(0,450)" style="stroke: rgb(68, 68, 68); stroke-opacity: 1; stroke-width: 1px;"/>
        <path class="ytick ticks crisp" d="M250,0h-5" transform="translate(0,390)" style="stroke: rgb(68, 68, 68); stroke-opacity: 1; stroke-width: 1px;"/>
        <path class="ytick ticks crisp" d="M250,0h-5" transform="translate(0,330)" style="stroke: rgb(68, 68, 68); stroke-opacity: 1; stroke-width: 1px;"/>
        <path class="ytick ticks crisp" d="M250,0h-5" transform="translate(0,270)" style="stroke: rgb(68, 68, 68); stroke-opacity: 1; stroke-width: 1px;"/>
        <path class="ytick ticks crisp" d="M250,0h-5" transform="translate(0,210)" style="stroke: rgb(68, 68, 68); stroke-opacity: 1; stroke-width: 1px;"/>
        <path class="ytick ticks crisp" d="M250,0h-5" transform="translate(0,150)" style="stroke: rgb(68, 68, 68); stroke-opacity: 1; stroke-width: 1px;"/>
        <path class="ytick ticks crisp" d="M250,0h-5" transform="translate(0,90)" style="stroke: rgb(68, 68, 68); stroke-opacity: 1; stroke-width: 1px;"/>
        <path class="ytick ticks crisp" d="M250,0h-5" transform="translate(0,30)" style="stroke: rgb(68, 68, 68); stroke-opacity: 1; stroke-width: 1px;"/>
        <g class="ytick">
          <text text-anchor="end" x="242.6" y="4.199999999999999" transform="translate(0,510)" style="font-family: 'Alegreya Sans', sans-serif; font-size: 12px; fill: rgb(0, 0, 0); fill-opacity: 1; white-space: pre; opacity: 1;">anderes</text>
        </g>
        <g class="ytick">
          <text text-anchor="end" x="242.6" y="4.199999999999999" transform="translate(0,450)" style="font-family: 'Alegreya Sans', sans-serif; font-size: 12px; fill: rgb(0, 0, 0); fill-opacity: 1; white-space: pre; opacity: 1;">
            <tspan style=" fill: #808080;;font-style:italic">keine Angabe</tspan>
          </text>
        </g>
        <g class="ytick">
          <text text-anchor="end" x="242.6" y="4.199999999999999" transform="translate(0,390)" style="font-family: 'Alegreya Sans', sans-serif; font-size: 12px; fill: rgb(0, 0, 0); fill-opacity: 1; white-space: pre; opacity: 1;">wollte dafür sorgen, dass alles so bleibt, wie es ist.</text>
        </g>
        <g class="ytick">
          <text text-anchor="end" x="242.6" y="4.199999999999999" transform="translate(0,330)translate(0,-7.800000000000001)" style="font-family: 'Alegreya Sans', sans-serif; font-size: 12px; fill: rgb(0, 0, 0); fill-opacity: 1; white-space: pre; opacity: 1;">
            <tspan class="line" dy="0em" x="242.6" y="4.199999999999999">wollte in erster Linie einer bestimmten</tspan>
            <tspan class="line" dy="1.3em" x="242.6" y="4.199999999999999">Abstimmungsempfehlung folgen.</tspan>
          </text>
        </g>
        <g class="ytick">
          <text text-anchor="end" x="242.6" y="4.199999999999999" transform="translate(0,270)" style="font-family: 'Alegreya Sans', sans-serif; font-size: 12px; fill: rgb(0, 0, 0); fill-opacity: 1; white-space: pre; opacity: 1;">kein spezieller Grund</text>
        </g>
        <g class="ytick">
          <text text-anchor="end" x="242.6" y="4.199999999999999" transform="translate(0,210)translate(0,-15.600000000000001)" style="font-family: 'Alegreya Sans', sans-serif; font-size: 12px; fill: rgb(0, 0, 0); fill-opacity: 1; white-space: pre; opacity: 1;">
            <tspan class="line" dy="0em" x="242.6" y="4.199999999999999">fand, die Ombudsstelle ist keine gute Lösung, da sie</tspan>
            <tspan class="line" dy="1.3em" x="242.6" y="4.199999999999999">zahnlos bleibt und ihre beabsichtigte Funktion gar</tspan>
            <tspan class="line" dy="2.6em" x="242.6" y="4.199999999999999">nicht erfüllen kann.</tspan>
          </text>
        </g>
        <g class="ytick">
          <text text-anchor="end" x="242.6" y="4.199999999999999" transform="translate(0,150)translate(0,-15.600000000000001)" style="font-family: 'Alegreya Sans', sans-serif; font-size: 12px; fill: rgb(0, 0, 0); fill-opacity: 1; white-space: pre; opacity: 1;">
            <tspan class="line" dy="0em" x="242.6" y="4.199999999999999">finde, die direkte Demokratie garantiert bereits</tspan>
            <tspan class="line" dy="1.3em" x="242.6" y="4.199999999999999">genug Bürgernähe. Der Aargau benötigt daher keine</tspan>
            <tspan class="line" dy="2.6em" x="242.6" y="4.199999999999999">Ombudsstelle.</tspan>
          </text>
        </g>
        <g class="ytick">
          <text text-anchor="end" x="242.6" y="4.199999999999999" transform="translate(0,90)" style="font-family: 'Alegreya Sans', sans-serif; font-size: 12px; fill: rgb(0, 0, 0); fill-opacity: 1; white-space: pre; opacity: 1;">wollte zusätzliche öffentliche Ausgaben vermeiden.</text>
        </g>
        <g class="ytick">
          <text text-anchor="end" x="242.6" y="4.199999999999999" transform="translate(0,30)" style="font-family: 'Alegreya Sans', sans-serif; font-size: 12px; fill: rgb(0, 0, 0); fill-opacity: 1; white-space: pre; opacity: 1;">wollte zusätzliche Bürokratie verhindern.</text>
        </g>
      </g>
      <g class="overaxes-above"/>
    </g>
  </g>
  <g class="polarlayer"/>
  <g class="smithlayer"/>
  <g class="ternarylayer"/>
  <g class="geolayer"/>
  <g class="funnelarealayer"/>
  <g class="pielayer"/>
  <g class="iciclelayer"/>
  <g class="treemaplayer"/>
  <g class="sunburstlayer"/>
  <g class="glimages"/>
  <defs id="topdefs-fbd51f">
    <g class="clips"/>
  </defs>
  <g class="layer-above">
    <g class="imagelayer"/>
    <g class="shapelayer"/>
  </g>
  <g class="infolayer">
    <g class="g-gtitle"/>
    <g class="g-xtitle" transform="translate(0,-8)">
      <text class="xtitle" x="525.5" y="586" text-anchor="middle" style="font-family: 'Alegreya Sans', sans-serif; font-size: 12px; fill: rgb(0, 0, 0); opacity: 1; font-weight: normal; white-space: pre;">Anzahl Personen</text>
    </g>
    <g class="g-ytitle"/>
    <g class="annotation" data-index="0" style="opacity: 1;">
      <g class="annotation-text-g" transform="rotate(0,273.79,330)">
        <g class="cursor-pointer" transform="translate(264,316)">
          <rect class="bg" x="0.5" y="0.5" width="19" height="28" style="stroke-width: 1px; stroke: rgb(0, 0, 0); stroke-opacity: 0; fill: rgb(0, 0, 0); fill-opacity: 0;"/>
          <text class="annotation-text" text-anchor="middle" x="9.75" y="11" style="font-family: 'Alegreya Sans', sans-serif; font-size: 11px; fill: rgb(255, 255, 255); fill-opacity: 1; white-space: pre;">
            <tspan class="line" dy="0em" x="9.75" y="11">
              <tspan style="font-weight:bold">3 %</tspan>
            </tspan>
            <tspan class="line" dy="1.3em" x="9.75" y="11">(19)</tspan>
          </text>
        </g>
      </g>
    </g>
    <g class="annotation" data-index="1" style="opacity: 1;">
      <g class="annotation-text-g" transform="rotate(0,511.78,30)">
        <g class="cursor-pointer" transform="translate(499,16)">
          <rect class="bg" x="0.5" y="0.5" width="24" height="28" style="stroke-width: 1px; stroke: rgb(0, 0, 0); stroke-opacity: 0; fill: rgb(0, 0, 0); fill-opacity: 0;"/>
          <text class="annotation-text" text-anchor="middle" x="12.25" y="11" style="font-family: 'Alegreya Sans', sans-serif; font-size: 11px; fill: rgb(255, 255, 255); fill-opacity: 1; white-space: pre;">
            <tspan class="line" dy="0em" x="12.25" y="11">
              <tspan style="font-weight:bold">33 %</tspan>
            </tspan>
            <tspan class="line" dy="1.3em" x="12.25" y="11">(216)</tspan>
          </text>
        </g>
      </g>
    </g>
    <g class="annotation" data-index="2" style="opacity: 1;">
      <g class="annotation-text-g" transform="rotate(0,434.78,90)">
        <g class="cursor-pointer" transform="translate(422,76)">
          <rect class="bg" x="0.5" y="0.5" width="24" height="28" style="stroke-width: 1px; stroke: rgb(0, 0, 0); stroke-opacity: 0; fill: rgb(0, 0, 0); fill-opacity: 0;"/>
          <text class="annotation-text" text-anchor="middle" x="12.078125" y="11" style="font-family: 'Alegreya Sans', sans-serif; font-size: 11px; fill: rgb(255, 255, 255); fill-opacity: 1; white-space: pre;">
            <tspan class="line" dy="0em" x="12.078125" y="11">
              <tspan style="font-weight:bold">23 %</tspan>
            </tspan>
            <tspan class="line" dy="1.3em" x="12.078125" y="11">(152)</tspan>
          </text>
        </g>
      </g>
    </g>
    <g class="annotation" data-index="3" style="opacity: 1;">
      <g class="annotation-text-g" transform="rotate(0,357.7,210)">
        <g class="cursor-pointer" transform="translate(346,196)">
          <rect class="bg" x="0.5" y="0.5" width="23" height="28" style="stroke-width: 1px; stroke: rgb(0, 0, 0); stroke-opacity: 0; fill: rgb(0, 0, 0); fill-opacity: 0;"/>
          <text class="annotation-text" text-anchor="middle" x="11.859375" y="11" style="font-family: 'Alegreya Sans', sans-serif; font-size: 11px; fill: rgb(255, 255, 255); fill-opacity: 1; white-space: pre;">
            <tspan class="line" dy="0em" x="11.859375" y="11">
              <tspan style="font-weight:bold">14 %</tspan>
            </tspan>
            <tspan class="line" dy="1.3em" x="11.859375" y="11">(88)</tspan>
          </text>
        </g>
      </g>
    </g>
    <g class="annotation" data-index="4" style="opacity: 1;">
      <g class="annotation-text-g" transform="rotate(0,390.19,150)">
        <g class="cursor-pointer" transform="translate(378,136)">
          <rect class="bg" x="0.5" y="0.5" width="23" height="28" style="stroke-width: 1px; stroke: rgb(0, 0, 0); stroke-opacity: 0; fill: rgb(0, 0, 0); fill-opacity: 0;"/>
          <text class="annotation-text" text-anchor="middle" x="11.8125" y="11" style="font-family: 'Alegreya Sans', sans-serif; font-size: 11px; fill: rgb(255, 255, 255); fill-opacity: 1; white-space: pre;">
            <tspan class="line" dy="0em" x="11.8125" y="11">
              <tspan style="font-weight:bold">18 %</tspan>
            </tspan>
            <tspan class="line" dy="1.3em" x="11.8125" y="11">(115)</tspan>
          </text>
        </g>
      </g>
    </g>
    <g class="annotation" data-index="5" style="opacity: 1;">
      <g class="annotation-text-g" transform="rotate(0,273.58,390)">
        <g class="cursor-pointer" transform="translate(264,376)">
          <rect class="bg" x="0.5" y="0.5" width="19" height="28" style="stroke-width: 1px; stroke: rgb(0, 0, 0); stroke-opacity: 0; fill: rgb(0, 0, 0); fill-opacity: 0;"/>
          <text class="annotation-text" text-anchor="middle" x="9.75" y="11" style="font-family: 'Alegreya Sans', sans-serif; font-size: 11px; fill: rgb(255, 255, 255); fill-opacity: 1; white-space: pre;">
            <tspan class="line" dy="0em" x="9.75" y="11">
              <tspan style="font-weight:bold">3 %</tspan>
            </tspan>
            <tspan class="line" dy="1.3em" x="9.75" y="11">(19)</tspan>
          </text>
        </g>
      </g>
    </g>
    <g class="annotation" data-index="6" style="opacity: 1;">
      <g class="annotation-text-g" transform="rotate(0,287,270)">
        <g class="cursor-pointer" transform="translate(277,256)">
          <rect class="bg" x="0.5" y="0.5" width="20" height="28" style="stroke-width: 1px; stroke: rgb(0, 0, 0); stroke-opacity: 0; fill: rgb(0, 0, 0); fill-opacity: 0;"/>
          <text class="annotation-text" text-anchor="middle" x="10.4375" y="11" style="font-family: 'Alegreya Sans', sans-serif; font-size: 11px; fill: rgb(255, 255, 255); fill-opacity: 1; white-space: pre;">
            <tspan class="line" dy="0em" x="10.4375" y="11">
              <tspan style="font-weight:bold">5 %</tspan>
            </tspan>
            <tspan class="line" dy="1.3em" x="10.4375" y="11">(30)</tspan>
          </text>
        </g>
      </g>
    </g>
    <g class="annotation" data-index="7" style="opacity: 1;">
      <g class="annotation-text-g" transform="rotate(0,265.89,450)">
        <g class="cursor-pointer" transform="translate(256,436)">
          <rect class="bg" x="0.5" y="0.5" width="19" height="28" style="stroke-width: 1px; stroke: rgb(0, 0, 0); stroke-opacity: 0; fill: rgb(0, 0, 0); fill-opacity: 0;"/>
          <text class="annotation-text" text-anchor="middle" x="9.703125" y="11" style="font-family: 'Alegreya Sans', sans-serif; font-size: 11px; fill: rgb(255, 255, 255); fill-opacity: 1; white-space: pre;">
            <tspan class="line" dy="0em" x="9.703125" y="11">
              <tspan style="font-weight:bold">2 %</tspan>
            </tspan>
            <tspan class="line" dy="1.3em" x="9.703125" y="11">(12)</tspan>
          </text>
        </g>
      </g>
    </g>
    <g class="annotation" data-index="8" style="opacity: 1;">
      <g class="annotation-text-g" transform="rotate(0,282.96,510)">
        <g class="cursor-pointer" transform="translate(272,496)">
          <rect class="bg" x="0.5" y="0.5" width="20" height="28" style="stroke-width: 1px; stroke: rgb(0, 0, 0); stroke-opacity: 0; fill: rgb(0, 0, 0); fill-opacity: 0;"/>
          <text class="annotation-text" text-anchor="middle" x="9.984375" y="11" style="font-family: 'Alegreya Sans', sans-serif; font-size: 11px; fill: rgb(0, 0, 0); fill-opacity: 1; white-space: pre;">
            <tspan class="line" dy="0em" x="9.984375" y="11">
              <tspan style="font-weight:bold">0 %</tspan>
            </tspan>
            <tspan class="line" dy="1.3em" x="9.984375" y="11">(2)</tspan>
          </text>
        </g>
      </g>
    </g>
    <g class="annotation" data-index="9" style="opacity: 1;">
      <g class="annotation-text-g" transform="rotate(0,282.96,510)">
        <g class="cursor-pointer" transform="translate(272,496)">
          <rect class="bg" x="0.5" y="0.5" width="20" height="28" style="stroke-width: 1px; stroke: rgb(0, 0, 0); stroke-opacity: 0; fill: rgb(0, 0, 0); fill-opacity: 0;"/>
          <text class="annotation-text" text-anchor="middle" x="9.984375" y="11" style="font-family: 'Alegreya Sans', sans-serif; font-size: 11px; fill: rgb(0, 0, 0); fill-opacity: 1; white-space: pre;">
            <tspan class="line" dy="0em" x="9.984375" y="11">
              <tspan style="font-weight:bold">0 %</tspan>
            </tspan>
            <tspan class="line" dy="1.3em" x="9.984375" y="11">(2)</tspan>
          </text>
        </g>
      </g>
    </g>
  </g>
</svg>
