<svg xmlns="http://www.w3.org/2000/svg" xmlns:xlink="http://www.w3.org/1999/xlink" class="main-svg" width="100%" height="100%" style="" viewBox="1 1 799 196">
  <rect x="0" y="0" width="800" height="197" style="fill: rgb(255, 255, 255); fill-opacity: 1;"/>
  <defs id="defs-f5edca">
    <g class="clips">
      <clipPath id="clipf5edcaxyplot" class="plotclip">
        <rect width="722" height="153"/>
      </clipPath>
      <clipPath class="axesclip" id="clipf5edcax">
        <rect x="78" y="0" width="722" height="197"/>
      </clipPath>
      <clipPath class="axesclip" id="clipf5edcay">
        <rect x="0" y="0" width="800" height="153"/>
      </clipPath>
      <clipPath class="axesclip" id="clipf5edcaxy">
        <rect x="78" y="0" width="722" height="153"/>
      </clipPath>
    </g>
    <g class="gradients"/>
    <g class="patterns"/>
  </defs>
  <g class="bglayer"/>
  <g class="layer-below">
    <g class="imagelayer"/>
    <g class="shapelayer"/>
  </g>
  <g class="cartesianlayer">
    <g class="subplot xy">
      <g class="layer-subplot">
        <g class="shapelayer"/>
        <g class="imagelayer"/>
      </g>
      <g class="gridlayer">
        <g class="x">
          <path class="xgrid crisp" transform="translate(138.5,0)" d="M0,0v153" style="stroke: rgb(238, 238, 238); stroke-opacity: 1; stroke-width: 1px;"/>
          <path class="xgrid crisp" transform="translate(238.67,0)" d="M0,0v153" style="stroke: rgb(238, 238, 238); stroke-opacity: 1; stroke-width: 1px;"/>
          <path class="xgrid crisp" transform="translate(338.83,0)" d="M0,0v153" style="stroke: rgb(238, 238, 238); stroke-opacity: 1; stroke-width: 1px;"/>
          <path class="xgrid crisp" transform="translate(539.1700000000001,0)" d="M0,0v153" style="stroke: rgb(238, 238, 238); stroke-opacity: 1; stroke-width: 1px;"/>
          <path class="xgrid crisp" transform="translate(639.33,0)" d="M0,0v153" style="stroke: rgb(238, 238, 238); stroke-opacity: 1; stroke-width: 1px;"/>
          <path class="xgrid crisp" transform="translate(739.5,0)" d="M0,0v153" style="stroke: rgb(238, 238, 238); stroke-opacity: 1; stroke-width: 1px;"/>
        </g>
        <g class="y"/>
      </g>
      <g class="zerolinelayer">
        <path class="xzl zl crisp" transform="translate(439,0)" d="M0,0v153" style="stroke: rgb(238, 238, 238); stroke-opacity: 1; stroke-width: 1px;"/>
      </g>
      <path class="xlines-below"/>
      <path class="ylines-below"/>
      <g class="overlines-below"/>
      <g class="xaxislayer-below"/>
      <g class="yaxislayer-below"/>
      <g class="overaxes-below"/>
      <g class="plot" transform="translate(78,0)" clip-path="url(#clipf5edcaxyplot)">
        <g class="barlayer mlayer">
          <g class="trace bars" style="opacity: 1;">
            <g class="points">
              <g class="point">
                <path d="M361,145.35V84.15H431.41V145.35Z" style="vector-effect: non-scaling-stroke; opacity: 1; stroke-width: 1px; fill: rgb(200, 223, 32); fill-opacity: 1; stroke: rgb(255, 255, 255); stroke-opacity: 1;"/>
                <text class="bartext bartext-inside" text-anchor="middle" data-notex="1" x="0" y="0" style="font-family: 'Alegreya Sans', sans-serif; font-size: 12px; fill: rgb(200, 223, 32); fill-opacity: 1; white-space: pre;" transform="translate(417.94125,118.75)">18 %</text>
              </g>
              <g class="point">
                <path d="M361,68.85V7.65H503.96V68.85Z" style="vector-effect: non-scaling-stroke; opacity: 1; stroke-width: 1px; fill: rgb(200, 223, 32); fill-opacity: 1; stroke: rgb(255, 255, 255); stroke-opacity: 1;"/>
                <text class="bartext bartext-inside" text-anchor="middle" data-notex="1" x="0" y="0" style="font-family: 'Alegreya Sans', sans-serif; font-size: 12px; fill: rgb(200, 223, 32); fill-opacity: 1; white-space: pre;" transform="translate(490.11625,42.25)">36 %</text>
              </g>
            </g>
          </g>
          <g class="trace bars" style="opacity: 1;">
            <g class="points">
              <g class="point">
                <path d="M431.41,145.35V84.15H438.82V145.35Z" style="vector-effect: non-scaling-stroke; opacity: 1; stroke-width: 1px; fill: rgb(25, 179, 25); fill-opacity: 1; stroke: rgb(255, 255, 255); stroke-opacity: 1;"/>
                <text class="bartext bartext-inside" text-anchor="middle" data-notex="1" x="0" y="0" style="font-family: 'Alegreya Sans', sans-serif; font-size: 12px; fill: rgb(25, 179, 25); fill-opacity: 1; white-space: pre;" transform="translate(435.10857421875,115.21999999999998)scale(0.11749999999999733)rotate(90 0.0546875 -4)">2 %</text>
              </g>
              <g class="point">
                <path d="M503.96,68.85V7.65H628.72V68.85Z" style="vector-effect: non-scaling-stroke; opacity: 1; stroke-width: 1px; fill: rgb(25, 179, 25); fill-opacity: 1; stroke: rgb(255, 255, 255); stroke-opacity: 1;"/>
                <text class="bartext bartext-inside" text-anchor="middle" data-notex="1" x="0" y="0" style="font-family: 'Alegreya Sans', sans-serif; font-size: 12px; fill: rgb(25, 179, 25); fill-opacity: 1; white-space: pre;" transform="translate(615.62625,42.25)">31 %</text>
              </g>
            </g>
          </g>
          <g class="trace bars" style="opacity: 1;">
            <g class="points">
              <g class="point">
                <path d="M438.82,145.35V84.15H460.76V145.35Z" style="vector-effect: non-scaling-stroke; opacity: 1; stroke-width: 1px; fill: rgb(229, 229, 229); fill-opacity: 1; stroke: rgb(255, 255, 255); stroke-opacity: 1;"/>
                <text class="bartext bartext-inside" text-anchor="middle" data-notex="1" x="0" y="0" style="font-family: 'Alegreya Sans', sans-serif; font-size: 12px; fill: rgb(229, 229, 229); fill-opacity: 1; white-space: pre;" transform="translate(451.7053125,118.75)rotate(90 0.0546875 -4)">5 %</text>
              </g>
              <g class="point">
                <path d="M628.72,68.85V7.65H659.35V68.85Z" style="vector-effect: non-scaling-stroke; opacity: 1; stroke-width: 1px; fill: rgb(229, 229, 229); fill-opacity: 1; stroke: rgb(255, 255, 255); stroke-opacity: 1;"/>
                <text class="bartext bartext-inside" text-anchor="middle" data-notex="1" x="0" y="0" style="font-family: 'Alegreya Sans', sans-serif; font-size: 12px; fill: rgb(229, 229, 229); fill-opacity: 1; white-space: pre;" transform="translate(647.94375,42.25)">8 %</text>
              </g>
            </g>
          </g>
          <g class="trace bars" style="opacity: 1;">
            <g class="points">
              <g class="point">
                <path d="M361,145.35V84.15H183.88V145.35Z" style="vector-effect: non-scaling-stroke; opacity: 1; stroke-width: 1px; fill: rgb(245, 171, 61); fill-opacity: 1; stroke: rgb(255, 255, 255); stroke-opacity: 1;"/>
                <text class="bartext bartext-inside" text-anchor="middle" data-notex="1" x="0" y="0" style="font-family: 'Alegreya Sans', sans-serif; font-size: 12px; fill: rgb(245, 171, 61); fill-opacity: 1; white-space: pre;" transform="translate(198.09875,118.75)">44 %</text>
              </g>
              <g class="point">
                <path d="M361,68.85V7.65H287.43V68.85Z" style="vector-effect: non-scaling-stroke; opacity: 1; stroke-width: 1px; fill: rgb(245, 171, 61); fill-opacity: 1; stroke: rgb(255, 255, 255); stroke-opacity: 1;"/>
                <text class="bartext bartext-inside" text-anchor="middle" data-notex="1" x="0" y="0" style="font-family: 'Alegreya Sans', sans-serif; font-size: 12px; fill: rgb(245, 171, 61); fill-opacity: 1; white-space: pre;" transform="translate(300.789375,42.25)">18 %</text>
              </g>
            </g>
          </g>
          <g class="trace bars" style="opacity: 1;">
            <g class="points">
              <g class="point">
                <path d="M183.88,145.35V84.15H60.1V145.35Z" style="vector-effect: non-scaling-stroke; opacity: 1; stroke-width: 1px; fill: rgb(224, 64, 36); fill-opacity: 1; stroke: rgb(255, 255, 255); stroke-opacity: 1;"/>
                <text class="bartext bartext-inside" text-anchor="middle" data-notex="1" x="0" y="0" style="font-family: 'Alegreya Sans', sans-serif; font-size: 12px; fill: rgb(224, 64, 36); fill-opacity: 1; white-space: pre;" transform="translate(73.084375,118.75)">31 %</text>
              </g>
              <g class="point">
                <path d="M287.43,68.85V7.65H258.68V68.85Z" style="vector-effect: non-scaling-stroke; opacity: 1; stroke-width: 1px; fill: rgb(224, 64, 36); fill-opacity: 1; stroke: rgb(255, 255, 255); stroke-opacity: 1;"/>
                <text class="bartext bartext-inside" text-anchor="middle" data-notex="1" x="0" y="0" style="font-family: 'Alegreya Sans', sans-serif; font-size: 12px; fill: rgb(224, 64, 36); fill-opacity: 1; white-space: pre;" transform="translate(269.633125,42.25)">7 %</text>
              </g>
            </g>
          </g>
          <g class="trace bars" style="opacity: 1;">
            <g class="points">
              <g class="point">
                <path d="M0,0Z" style="vector-effect: non-scaling-stroke; opacity: 1; stroke-width: 0px; fill: rgb(229, 229, 229); fill-opacity: 1;"/>
              </g>
              <g class="point">
                <path d="M0,0Z" style="vector-effect: non-scaling-stroke; opacity: 1; stroke-width: 0px; fill: rgb(229, 229, 229); fill-opacity: 1;"/>
              </g>
            </g>
          </g>
          <g class="trace bars" style="opacity: 1;">
            <g class="points">
              <g class="point">
                <path d="M0,0Z" style="vector-effect: non-scaling-stroke; opacity: 1; stroke-width: 0px; fill: rgb(25, 179, 25); fill-opacity: 1;"/>
              </g>
              <g class="point">
                <path d="M0,0Z" style="vector-effect: non-scaling-stroke; opacity: 1; stroke-width: 0px; fill: rgb(25, 179, 25); fill-opacity: 1;"/>
              </g>
            </g>
          </g>
          <g class="trace bars" style="opacity: 1;">
            <g class="points">
              <g class="point">
                <path d="M0,0Z" style="vector-effect: non-scaling-stroke; opacity: 1; stroke-width: 0px; fill: rgb(200, 223, 32); fill-opacity: 1;"/>
              </g>
              <g class="point">
                <path d="M0,0Z" style="vector-effect: non-scaling-stroke; opacity: 1; stroke-width: 0px; fill: rgb(200, 223, 32); fill-opacity: 1;"/>
              </g>
            </g>
          </g>
          <g class="trace bars" style="opacity: 1;">
            <g class="points">
              <g class="point">
                <path d="M0,0Z" style="vector-effect: non-scaling-stroke; opacity: 1; stroke-width: 0px; fill: rgb(245, 171, 61); fill-opacity: 1;"/>
              </g>
              <g class="point">
                <path d="M0,0Z" style="vector-effect: non-scaling-stroke; opacity: 1; stroke-width: 0px; fill: rgb(245, 171, 61); fill-opacity: 1;"/>
              </g>
            </g>
          </g>
          <g class="trace bars" style="opacity: 1;">
            <g class="points">
              <g class="point">
                <path d="M0,0Z" style="vector-effect: non-scaling-stroke; opacity: 1; stroke-width: 0px; fill: rgb(224, 64, 36); fill-opacity: 1;"/>
              </g>
              <g class="point">
                <path d="M0,0Z" style="vector-effect: non-scaling-stroke; opacity: 1; stroke-width: 0px; fill: rgb(224, 64, 36); fill-opacity: 1;"/>
              </g>
            </g>
          </g>
        </g>
      </g>
      <g class="overplot"/>
      <path class="xlines-above crisp" d="M0,0" style="fill: none;"/>
      <path class="ylines-above crisp" d="M0,0" style="fill: none;"/>
      <g class="overlines-above"/>
      <g class="xaxislayer-above">
        <g class="xtick">
          <text text-anchor="middle" x="0" y="166" transform="translate(138.5,0)" style="font-family: 'Alegreya Sans', sans-serif; font-size: 12px; fill: rgb(0, 0, 0); fill-opacity: 1; white-space: pre; opacity: 1;"/>
        </g>
        <g class="xtick">
          <text text-anchor="middle" x="0" y="166" style="font-family: 'Alegreya Sans', sans-serif; font-size: 12px; fill: rgb(0, 0, 0); fill-opacity: 1; white-space: pre; opacity: 1;" transform="translate(238.67,0)">50 %</text>
        </g>
        <g class="xtick">
          <text text-anchor="middle" x="0" y="166" style="font-family: 'Alegreya Sans', sans-serif; font-size: 12px; fill: rgb(0, 0, 0); fill-opacity: 1; white-space: pre; opacity: 1;" transform="translate(338.83,0)"/>
        </g>
        <g class="xtick">
          <text text-anchor="middle" x="0" y="166" style="font-family: 'Alegreya Sans', sans-serif; font-size: 12px; fill: rgb(0, 0, 0); fill-opacity: 1; white-space: pre; opacity: 1;" transform="translate(439,0)">0 %</text>
        </g>
        <g class="xtick">
          <text text-anchor="middle" x="0" y="166" style="font-family: 'Alegreya Sans', sans-serif; font-size: 12px; fill: rgb(0, 0, 0); fill-opacity: 1; white-space: pre; opacity: 1;" transform="translate(539.1700000000001,0)"/>
        </g>
        <g class="xtick">
          <text text-anchor="middle" x="0" y="166" style="font-family: 'Alegreya Sans', sans-serif; font-size: 12px; fill: rgb(0, 0, 0); fill-opacity: 1; white-space: pre; opacity: 1;" transform="translate(639.33,0)">50 %</text>
        </g>
        <g class="xtick">
          <text text-anchor="middle" x="0" y="166" style="font-family: 'Alegreya Sans', sans-serif; font-size: 12px; fill: rgb(0, 0, 0); fill-opacity: 1; white-space: pre; opacity: 1;" transform="translate(739.5,0)"/>
        </g>
      </g>
      <g class="yaxislayer-above">
        <g class="ytick">
          <text text-anchor="end" x="77" y="3.8499999999999996" transform="translate(0,114.75)" style="font-family: 'Alegreya Sans', sans-serif; font-size: 11px; fill: rgb(0, 0, 0); fill-opacity: 1; white-space: pre; opacity: 1;">Ja (angenommen)</text>
        </g>
        <g class="ytick">
          <text text-anchor="end" x="77" y="3.8499999999999996" transform="translate(0,38.25)" style="font-family: 'Alegreya Sans', sans-serif; font-size: 11px; fill: rgb(0, 0, 0); fill-opacity: 1; white-space: pre; opacity: 1;">Nein (abgelehnt)</text>
        </g>
      </g>
      <g class="overaxes-above"/>
    </g>
  </g>
  <g class="polarlayer"/>
  <g class="smithlayer"/>
  <g class="ternarylayer"/>
  <g class="geolayer"/>
  <g class="funnelarealayer"/>
  <g class="pielayer"/>
  <g class="iciclelayer"/>
  <g class="treemaplayer"/>
  <g class="sunburstlayer"/>
  <g class="glimages"/>
  <defs id="topdefs-f5edca">
    <g class="clips"/>
    <clipPath id="legendf5edca">
      <rect width="632" height="29" x="0" y="0"/>
    </clipPath>
  </defs>
  <g class="layer-above">
    <g class="imagelayer"/>
    <g class="shapelayer"/>
  </g>
  <g class="infolayer">
    <g class="legend" pointer-events="all" transform="translate(78,168)">
      <rect class="bg" shape-rendering="crispEdges" width="632" height="29" x="0" y="0" style="stroke: rgb(68, 68, 68); stroke-opacity: 1; fill: rgb(255, 255, 255); fill-opacity: 1; stroke-width: 0px;"/>
      <g class="scrollbox" transform="" clip-path="url(#legendf5edca)">
        <g class="groups">
          <g class="traces" transform="translate(0,14.5)" style="opacity: 1;">
            <text class="legendtext" text-anchor="start" x="40" y="4.680000000000001" style="font-family: 'Alegreya Sans', sans-serif; font-size: 12px; fill: rgb(0, 0, 0); fill-opacity: 1; white-space: pre;">überhaupt nicht wichtig</text>
            <g class="layers" style="opacity: 1;">
              <g class="legendfill"/>
              <g class="legendlines"/>
              <g class="legendsymbols">
                <g class="legendpoints">
                  <path class="legendundefined" d="M6,6H-6V-6H6Z" transform="translate(20,0)" style="stroke-width: 0px; fill: rgb(224, 64, 36); fill-opacity: 1;"/>
                </g>
              </g>
            </g>
            <rect class="legendtoggle" x="0" y="-9.5" width="154.390625" height="19" style="fill: rgb(0, 0, 0); fill-opacity: 0;"/>
          </g>
          <g class="traces" transform="translate(156.890625,14.5)" style="opacity: 1;">
            <text class="legendtext" text-anchor="start" x="40" y="4.680000000000001" style="font-family: 'Alegreya Sans', sans-serif; font-size: 12px; fill: rgb(0, 0, 0); fill-opacity: 1; white-space: pre;">eher unwichtig</text>
            <g class="layers" style="opacity: 1;">
              <g class="legendfill"/>
              <g class="legendlines"/>
              <g class="legendsymbols">
                <g class="legendpoints">
                  <path class="legendundefined" d="M6,6H-6V-6H6Z" transform="translate(20,0)" style="stroke-width: 0px; fill: rgb(245, 171, 61); fill-opacity: 1;"/>
                </g>
              </g>
            </g>
            <rect class="legendtoggle" x="0" y="-9.5" width="112.21875" height="19" style="fill: rgb(0, 0, 0); fill-opacity: 0;"/>
          </g>
          <g class="traces" transform="translate(271.609375,14.5)" style="opacity: 1;">
            <text class="legendtext" text-anchor="start" x="40" y="4.680000000000001" style="font-family: 'Alegreya Sans', sans-serif; font-size: 12px; fill: rgb(0, 0, 0); fill-opacity: 1; white-space: pre;">eher wichtig</text>
            <g class="layers" style="opacity: 1;">
              <g class="legendfill"/>
              <g class="legendlines"/>
              <g class="legendsymbols">
                <g class="legendpoints">
                  <path class="legendundefined" d="M6,6H-6V-6H6Z" transform="translate(20,0)" style="stroke-width: 0px; fill: rgb(200, 223, 32); fill-opacity: 1;"/>
                </g>
              </g>
            </g>
            <rect class="legendtoggle" x="0" y="-9.5" width="100.25" height="19" style="fill: rgb(0, 0, 0); fill-opacity: 0;"/>
          </g>
          <g class="traces" transform="translate(374.359375,14.5)" style="opacity: 1;">
            <text class="legendtext" text-anchor="start" x="40" y="4.680000000000001" style="font-family: 'Alegreya Sans', sans-serif; font-size: 12px; fill: rgb(0, 0, 0); fill-opacity: 1; white-space: pre;">sehr wichtig</text>
            <g class="layers" style="opacity: 1;">
              <g class="legendfill"/>
              <g class="legendlines"/>
              <g class="legendsymbols">
                <g class="legendpoints">
                  <path class="legendundefined" d="M6,6H-6V-6H6Z" transform="translate(20,0)" style="stroke-width: 0px; fill: rgb(25, 179, 25); fill-opacity: 1;"/>
                </g>
              </g>
            </g>
            <rect class="legendtoggle" x="0" y="-9.5" width="99.046875" height="19" style="fill: rgb(0, 0, 0); fill-opacity: 0;"/>
          </g>
          <g class="traces" transform="translate(475.90625,14.5)" style="opacity: 1;">
            <text class="legendtext" text-anchor="start" x="40" y="4.680000000000001" style="font-family: 'Alegreya Sans', sans-serif; font-size: 12px; fill: rgb(0, 0, 0); fill-opacity: 1; white-space: pre;">
              <tspan style=" fill: #808080;;font-style:italic">weiss nicht / keine Angabe</tspan>
            </text>
            <g class="layers" style="opacity: 1;">
              <g class="legendfill"/>
              <g class="legendlines"/>
              <g class="legendsymbols">
                <g class="legendpoints">
                  <path class="legendundefined" d="M6,6H-6V-6H6Z" transform="translate(20,0)" style="stroke-width: 0px; fill: rgb(229, 229, 229); fill-opacity: 1;"/>
                </g>
              </g>
            </g>
            <rect class="legendtoggle" x="0" y="-9.5" width="153.4375" height="19" style="fill: rgb(0, 0, 0); fill-opacity: 0;"/>
          </g>
        </g>
      </g>
      <rect class="scrollbar" rx="20" ry="3" width="0" height="0" x="0" y="0" style="fill: rgb(128, 139, 164); fill-opacity: 1;"/>
    </g>
    <g class="g-gtitle"/>
    <g class="g-xtitle"/>
    <g class="g-ytitle"/>
    <g class="annotation" data-index="0" style="opacity: 1;">
      <g class="annotation-text-g" transform="rotate(0,199.99,114.75)">
        <g class="cursor-pointer" transform="translate(189,101)">
          <rect class="bg" x="0.5" y="0.5" width="21" height="26" style="stroke-width: 1px; stroke: rgb(0, 0, 0); stroke-opacity: 0; fill: rgb(0, 0, 0); fill-opacity: 0;"/>
          <text class="annotation-text" text-anchor="middle" x="11.1875" y="10" style="font-family: 'Alegreya Sans', sans-serif; font-size: 10px; fill: rgb(255, 255, 255); fill-opacity: 1; white-space: pre;">
            <tspan class="line" dy="0em" x="11.1875" y="10">
              <tspan style="font-weight:bold">31 %</tspan>
            </tspan>
            <tspan class="line" dy="1.3em" x="11.1875" y="10">(145)</tspan>
          </text>
        </g>
      </g>
    </g>
    <g class="annotation" data-index="1" style="opacity: 1;">
      <g class="annotation-text-g" transform="rotate(0,350.44,114.75)">
        <g class="cursor-pointer" transform="translate(338,101)">
          <rect class="bg" x="0.5" y="0.5" width="23" height="26" style="stroke-width: 1px; stroke: rgb(0, 0, 0); stroke-opacity: 0; fill: rgb(0, 0, 0); fill-opacity: 0;"/>
          <text class="annotation-text" text-anchor="middle" x="11.984375" y="10" style="font-family: 'Alegreya Sans', sans-serif; font-size: 10px; fill: rgb(255, 255, 255); fill-opacity: 1; white-space: pre;">
            <tspan class="line" dy="0em" x="11.984375" y="10">
              <tspan style="font-weight:bold">44 %</tspan>
            </tspan>
            <tspan class="line" dy="1.3em" x="11.984375" y="10">(207)</tspan>
          </text>
        </g>
      </g>
    </g>
    <g class="annotation" data-index="2" style="opacity: 1;">
      <g class="annotation-text-g" transform="rotate(0,474.21,114.75)">
        <g class="cursor-pointer" transform="translate(463,101)">
          <rect class="bg" x="0.5" y="0.5" width="21" height="26" style="stroke-width: 1px; stroke: rgb(0, 0, 0); stroke-opacity: 0; fill: rgb(0, 0, 0); fill-opacity: 0;"/>
          <text class="annotation-text" text-anchor="middle" x="10.921875" y="10" style="font-family: 'Alegreya Sans', sans-serif; font-size: 10px; fill: rgb(255, 255, 255); fill-opacity: 1; white-space: pre;">
            <tspan class="line" dy="0em" x="10.921875" y="10">
              <tspan style="font-weight:bold">18 %</tspan>
            </tspan>
            <tspan class="line" dy="1.3em" x="10.921875" y="10">(82)</tspan>
          </text>
        </g>
      </g>
    </g>
    <g class="annotation" data-index="3" style="opacity: 1;">
      <g class="annotation-text-g" transform="rotate(0,513.12,114.75)">
        <g class="cursor-pointer" transform="translate(511,113)">
          <rect class="bg" x="0.5" y="0.5" width="3" height="3" style="stroke-width: 1px; stroke: rgb(0, 0, 0); stroke-opacity: 0; fill: rgb(0, 0, 0); fill-opacity: 0;"/>
          <text class="annotation-text" text-anchor="middle" x="2" y="2" style="font-family: 'Alegreya Sans', sans-serif; font-size: 10px; fill: rgb(255, 255, 255); fill-opacity: 1; white-space: pre;"/>
        </g>
      </g>
    </g>
    <g class="annotation" data-index="4" style="opacity: 1;">
      <g class="annotation-text-g" transform="rotate(0,527.79,114.75)">
        <g class="cursor-pointer" transform="translate(526,113)">
          <rect class="bg" x="0.5" y="0.5" width="3" height="3" style="stroke-width: 1px; stroke: rgb(0, 0, 0); stroke-opacity: 0; fill: rgb(0, 0, 0); fill-opacity: 0;"/>
          <text class="annotation-text" text-anchor="middle" x="2" y="2" style="font-family: 'Alegreya Sans', sans-serif; font-size: 10px; fill: rgb(255, 255, 255); fill-opacity: 1; white-space: pre;"/>
        </g>
      </g>
    </g>
    <g class="annotation" data-index="5" style="opacity: 1;">
      <g class="annotation-text-g" transform="rotate(0,351.06,38.25)">
        <g class="cursor-pointer" transform="translate(349,36)">
          <rect class="bg" x="0.5" y="0.5" width="3" height="3" style="stroke-width: 1px; stroke: rgb(0, 0, 0); stroke-opacity: 0; fill: rgb(0, 0, 0); fill-opacity: 0;"/>
          <text class="annotation-text" text-anchor="middle" x="2" y="2" style="font-family: 'Alegreya Sans', sans-serif; font-size: 10px; fill: rgb(255, 255, 255); fill-opacity: 1; white-space: pre;"/>
        </g>
      </g>
    </g>
    <g class="annotation" data-index="6" style="opacity: 1;">
      <g class="annotation-text-g" transform="rotate(0,402.22,38.25)">
        <g class="cursor-pointer" transform="translate(391,25)">
          <rect class="bg" x="0.5" y="0.5" width="22" height="26" style="stroke-width: 1px; stroke: rgb(0, 0, 0); stroke-opacity: 0; fill: rgb(0, 0, 0); fill-opacity: 0;"/>
          <text class="annotation-text" text-anchor="middle" x="11.34375" y="10" style="font-family: 'Alegreya Sans', sans-serif; font-size: 10px; fill: rgb(255, 255, 255); fill-opacity: 1; white-space: pre;">
            <tspan class="line" dy="0em" x="11.34375" y="10">
              <tspan style="font-weight:bold">18 %</tspan>
            </tspan>
            <tspan class="line" dy="1.3em" x="11.34375" y="10">(182)</tspan>
          </text>
        </g>
      </g>
    </g>
    <g class="annotation" data-index="7" style="opacity: 1;">
      <g class="annotation-text-g" transform="rotate(0,510.48,38.25)">
        <g class="cursor-pointer" transform="translate(499,25)">
          <rect class="bg" x="0.5" y="0.5" width="22" height="26" style="stroke-width: 1px; stroke: rgb(0, 0, 0); stroke-opacity: 0; fill: rgb(0, 0, 0); fill-opacity: 0;"/>
          <text class="annotation-text" text-anchor="middle" x="11.53125" y="10" style="font-family: 'Alegreya Sans', sans-serif; font-size: 10px; fill: rgb(255, 255, 255); fill-opacity: 1; white-space: pre;">
            <tspan class="line" dy="0em" x="11.53125" y="10">
              <tspan style="font-weight:bold">36 %</tspan>
            </tspan>
            <tspan class="line" dy="1.3em" x="11.53125" y="10">(354)</tspan>
          </text>
        </g>
      </g>
    </g>
    <g class="annotation" data-index="8" style="opacity: 1;">
      <g class="annotation-text-g" transform="rotate(0,644.34,38.25)">
        <g class="cursor-pointer" transform="translate(632,25)">
          <rect class="bg" x="0.5" y="0.5" width="23" height="26" style="stroke-width: 1px; stroke: rgb(0, 0, 0); stroke-opacity: 0; fill: rgb(0, 0, 0); fill-opacity: 0;"/>
          <text class="annotation-text" text-anchor="middle" x="12.03125" y="10" style="font-family: 'Alegreya Sans', sans-serif; font-size: 10px; fill: rgb(255, 255, 255); fill-opacity: 1; white-space: pre;">
            <tspan class="line" dy="0em" x="12.03125" y="10">
              <tspan style="font-weight:bold">31 %</tspan>
            </tspan>
            <tspan class="line" dy="1.3em" x="12.03125" y="10">(309)</tspan>
          </text>
        </g>
      </g>
    </g>
    <g class="annotation" data-index="9" style="opacity: 1;">
      <g class="annotation-text-g" transform="rotate(0,722.03,38.25)">
        <g class="cursor-pointer" transform="translate(720,36)">
          <rect class="bg" x="0.5" y="0.5" width="3" height="3" style="stroke-width: 1px; stroke: rgb(0, 0, 0); stroke-opacity: 0; fill: rgb(0, 0, 0); fill-opacity: 0;"/>
          <text class="annotation-text" text-anchor="middle" x="2" y="2" style="font-family: 'Alegreya Sans', sans-serif; font-size: 10px; fill: rgb(255, 255, 255); fill-opacity: 1; white-space: pre;"/>
        </g>
      </g>
    </g>
    <g class="annotation" data-index="10" style="opacity: 1;">
      <g class="annotation-text-g" transform="rotate(0,199.99,114.75)">
        <g class="cursor-pointer" transform="translate(198,113)">
          <rect class="bg" x="0.5" y="0.5" width="3" height="3" style="stroke-width: 1px; stroke: rgb(0, 0, 0); stroke-opacity: 0; fill: rgb(0, 0, 0); fill-opacity: 0;"/>
          <text class="annotation-text" text-anchor="middle" x="2" y="2" style="font-family: 'Alegreya Sans', sans-serif; font-size: 9px; fill: rgb(255, 255, 255); fill-opacity: 1; white-space: pre;"/>
        </g>
      </g>
    </g>
    <g class="annotation" data-index="11" style="opacity: 1;">
      <g class="annotation-text-g" transform="rotate(0,350.44,114.75)">
        <g class="cursor-pointer" transform="translate(348,113)">
          <rect class="bg" x="0.5" y="0.5" width="3" height="3" style="stroke-width: 1px; stroke: rgb(0, 0, 0); stroke-opacity: 0; fill: rgb(0, 0, 0); fill-opacity: 0;"/>
          <text class="annotation-text" text-anchor="middle" x="2" y="2" style="font-family: 'Alegreya Sans', sans-serif; font-size: 9px; fill: rgb(255, 255, 255); fill-opacity: 1; white-space: pre;"/>
        </g>
      </g>
    </g>
    <g class="annotation" data-index="12" style="opacity: 1;">
      <g class="annotation-text-g" transform="rotate(0,474.21,114.75)">
        <g class="cursor-pointer" transform="translate(472,113)">
          <rect class="bg" x="0.5" y="0.5" width="3" height="3" style="stroke-width: 1px; stroke: rgb(0, 0, 0); stroke-opacity: 0; fill: rgb(0, 0, 0); fill-opacity: 0;"/>
          <text class="annotation-text" text-anchor="middle" x="2" y="2" style="font-family: 'Alegreya Sans', sans-serif; font-size: 9px; fill: rgb(255, 255, 255); fill-opacity: 1; white-space: pre;"/>
        </g>
      </g>
    </g>
    <g class="annotation" data-index="13" style="opacity: 1;">
      <g class="annotation-text-g" transform="rotate(0,513.12,114.75)">
        <g class="cursor-pointer" transform="translate(511,113)">
          <rect class="bg" x="0.5" y="0.5" width="3" height="3" style="stroke-width: 1px; stroke: rgb(0, 0, 0); stroke-opacity: 0; fill: rgb(0, 0, 0); fill-opacity: 0;"/>
          <text class="annotation-text" text-anchor="middle" x="2" y="2" style="font-family: 'Alegreya Sans', sans-serif; font-size: 9px; fill: rgb(255, 255, 255); fill-opacity: 1; white-space: pre;"/>
        </g>
      </g>
    </g>
    <g class="annotation" data-index="14" style="opacity: 1;">
      <g class="annotation-text-g" transform="rotate(0,527.79,114.75)">
        <g class="cursor-pointer" transform="translate(526,113)">
          <rect class="bg" x="0.5" y="0.5" width="3" height="3" style="stroke-width: 1px; stroke: rgb(0, 0, 0); stroke-opacity: 0; fill: rgb(0, 0, 0); fill-opacity: 0;"/>
          <text class="annotation-text" text-anchor="middle" x="2" y="2" style="font-family: 'Alegreya Sans', sans-serif; font-size: 9px; fill: rgb(255, 255, 255); fill-opacity: 1; white-space: pre;"/>
        </g>
      </g>
    </g>
    <g class="annotation" data-index="15" style="opacity: 1;">
      <g class="annotation-text-g" transform="rotate(0,351.06,38.25)">
        <g class="cursor-pointer" transform="translate(349,36)">
          <rect class="bg" x="0.5" y="0.5" width="3" height="3" style="stroke-width: 1px; stroke: rgb(0, 0, 0); stroke-opacity: 0; fill: rgb(0, 0, 0); fill-opacity: 0;"/>
          <text class="annotation-text" text-anchor="middle" x="2" y="2" style="font-family: 'Alegreya Sans', sans-serif; font-size: 9px; fill: rgb(255, 255, 255); fill-opacity: 1; white-space: pre;"/>
        </g>
      </g>
    </g>
    <g class="annotation" data-index="16" style="opacity: 1;">
      <g class="annotation-text-g" transform="rotate(0,402.22,38.25)">
        <g class="cursor-pointer" transform="translate(400,36)">
          <rect class="bg" x="0.5" y="0.5" width="3" height="3" style="stroke-width: 1px; stroke: rgb(0, 0, 0); stroke-opacity: 0; fill: rgb(0, 0, 0); fill-opacity: 0;"/>
          <text class="annotation-text" text-anchor="middle" x="2" y="2" style="font-family: 'Alegreya Sans', sans-serif; font-size: 9px; fill: rgb(255, 255, 255); fill-opacity: 1; white-space: pre;"/>
        </g>
      </g>
    </g>
    <g class="annotation" data-index="17" style="opacity: 1;">
      <g class="annotation-text-g" transform="rotate(0,510.48,38.25)">
        <g class="cursor-pointer" transform="translate(508,36)">
          <rect class="bg" x="0.5" y="0.5" width="3" height="3" style="stroke-width: 1px; stroke: rgb(0, 0, 0); stroke-opacity: 0; fill: rgb(0, 0, 0); fill-opacity: 0;"/>
          <text class="annotation-text" text-anchor="middle" x="2" y="2" style="font-family: 'Alegreya Sans', sans-serif; font-size: 9px; fill: rgb(255, 255, 255); fill-opacity: 1; white-space: pre;"/>
        </g>
      </g>
    </g>
    <g class="annotation" data-index="18" style="opacity: 1;">
      <g class="annotation-text-g" transform="rotate(0,644.34,38.25)">
        <g class="cursor-pointer" transform="translate(642,36)">
          <rect class="bg" x="0.5" y="0.5" width="3" height="3" style="stroke-width: 1px; stroke: rgb(0, 0, 0); stroke-opacity: 0; fill: rgb(0, 0, 0); fill-opacity: 0;"/>
          <text class="annotation-text" text-anchor="middle" x="2" y="2" style="font-family: 'Alegreya Sans', sans-serif; font-size: 9px; fill: rgb(255, 255, 255); fill-opacity: 1; white-space: pre;"/>
        </g>
      </g>
    </g>
    <g class="annotation" data-index="19" style="opacity: 1;">
      <g class="annotation-text-g" transform="rotate(0,722.03,38.25)">
        <g class="cursor-pointer" transform="translate(720,36)">
          <rect class="bg" x="0.5" y="0.5" width="3" height="3" style="stroke-width: 1px; stroke: rgb(0, 0, 0); stroke-opacity: 0; fill: rgb(0, 0, 0); fill-opacity: 0;"/>
          <text class="annotation-text" text-anchor="middle" x="2" y="2" style="font-family: 'Alegreya Sans', sans-serif; font-size: 9px; fill: rgb(255, 255, 255); fill-opacity: 1; white-space: pre;"/>
        </g>
      </g>
    </g>
    <g class="annotation" data-index="20" style="opacity: 1;">
      <g class="annotation-text-g" transform="rotate(0,199.99,114.75)">
        <g class="cursor-pointer" transform="translate(198,113)">
          <rect class="bg" x="0.5" y="0.5" width="3" height="3" style="stroke-width: 1px; stroke: rgb(0, 0, 0); stroke-opacity: 0; fill: rgb(0, 0, 0); fill-opacity: 0;"/>
          <text class="annotation-text" text-anchor="middle" x="2" y="2" style="font-family: 'Alegreya Sans', sans-serif; font-size: 8px; fill: rgb(255, 255, 255); fill-opacity: 1; white-space: pre;"/>
        </g>
      </g>
    </g>
    <g class="annotation" data-index="21" style="opacity: 1;">
      <g class="annotation-text-g" transform="rotate(0,350.44,114.75)">
        <g class="cursor-pointer" transform="translate(348,113)">
          <rect class="bg" x="0.5" y="0.5" width="3" height="3" style="stroke-width: 1px; stroke: rgb(0, 0, 0); stroke-opacity: 0; fill: rgb(0, 0, 0); fill-opacity: 0;"/>
          <text class="annotation-text" text-anchor="middle" x="2" y="2" style="font-family: 'Alegreya Sans', sans-serif; font-size: 8px; fill: rgb(255, 255, 255); fill-opacity: 1; white-space: pre;"/>
        </g>
      </g>
    </g>
    <g class="annotation" data-index="22" style="opacity: 1;">
      <g class="annotation-text-g" transform="rotate(0,474.21,114.75)">
        <g class="cursor-pointer" transform="translate(472,113)">
          <rect class="bg" x="0.5" y="0.5" width="3" height="3" style="stroke-width: 1px; stroke: rgb(0, 0, 0); stroke-opacity: 0; fill: rgb(0, 0, 0); fill-opacity: 0;"/>
          <text class="annotation-text" text-anchor="middle" x="2" y="2" style="font-family: 'Alegreya Sans', sans-serif; font-size: 8px; fill: rgb(255, 255, 255); fill-opacity: 1; white-space: pre;"/>
        </g>
      </g>
    </g>
    <g class="annotation" data-index="23" style="opacity: 1;">
      <g class="annotation-text-g" transform="rotate(0,513.12,114.75)">
        <g class="cursor-pointer" transform="translate(511,113)">
          <rect class="bg" x="0.5" y="0.5" width="3" height="3" style="stroke-width: 1px; stroke: rgb(0, 0, 0); stroke-opacity: 0; fill: rgb(0, 0, 0); fill-opacity: 0;"/>
          <text class="annotation-text" text-anchor="middle" x="2" y="2" style="font-family: 'Alegreya Sans', sans-serif; font-size: 8px; fill: rgb(255, 255, 255); fill-opacity: 1; white-space: pre;"/>
        </g>
      </g>
    </g>
    <g class="annotation" data-index="24" style="opacity: 1;">
      <g class="annotation-text-g" transform="rotate(0,527.79,114.75)">
        <g class="cursor-pointer" transform="translate(526,113)">
          <rect class="bg" x="0.5" y="0.5" width="3" height="3" style="stroke-width: 1px; stroke: rgb(0, 0, 0); stroke-opacity: 0; fill: rgb(0, 0, 0); fill-opacity: 0;"/>
          <text class="annotation-text" text-anchor="middle" x="2" y="2" style="font-family: 'Alegreya Sans', sans-serif; font-size: 8px; fill: rgb(255, 255, 255); fill-opacity: 1; white-space: pre;"/>
        </g>
      </g>
    </g>
    <g class="annotation" data-index="25" style="opacity: 1;">
      <g class="annotation-text-g" transform="rotate(0,351.06,38.25)">
        <g class="cursor-pointer" transform="translate(349,36)">
          <rect class="bg" x="0.5" y="0.5" width="3" height="3" style="stroke-width: 1px; stroke: rgb(0, 0, 0); stroke-opacity: 0; fill: rgb(0, 0, 0); fill-opacity: 0;"/>
          <text class="annotation-text" text-anchor="middle" x="2" y="2" style="font-family: 'Alegreya Sans', sans-serif; font-size: 8px; fill: rgb(255, 255, 255); fill-opacity: 1; white-space: pre;"/>
        </g>
      </g>
    </g>
    <g class="annotation" data-index="26" style="opacity: 1;">
      <g class="annotation-text-g" transform="rotate(0,402.22,38.25)">
        <g class="cursor-pointer" transform="translate(400,36)">
          <rect class="bg" x="0.5" y="0.5" width="3" height="3" style="stroke-width: 1px; stroke: rgb(0, 0, 0); stroke-opacity: 0; fill: rgb(0, 0, 0); fill-opacity: 0;"/>
          <text class="annotation-text" text-anchor="middle" x="2" y="2" style="font-family: 'Alegreya Sans', sans-serif; font-size: 8px; fill: rgb(255, 255, 255); fill-opacity: 1; white-space: pre;"/>
        </g>
      </g>
    </g>
    <g class="annotation" data-index="27" style="opacity: 1;">
      <g class="annotation-text-g" transform="rotate(0,510.48,38.25)">
        <g class="cursor-pointer" transform="translate(508,36)">
          <rect class="bg" x="0.5" y="0.5" width="3" height="3" style="stroke-width: 1px; stroke: rgb(0, 0, 0); stroke-opacity: 0; fill: rgb(0, 0, 0); fill-opacity: 0;"/>
          <text class="annotation-text" text-anchor="middle" x="2" y="2" style="font-family: 'Alegreya Sans', sans-serif; font-size: 8px; fill: rgb(255, 255, 255); fill-opacity: 1; white-space: pre;"/>
        </g>
      </g>
    </g>
    <g class="annotation" data-index="28" style="opacity: 1;">
      <g class="annotation-text-g" transform="rotate(0,644.34,38.25)">
        <g class="cursor-pointer" transform="translate(642,36)">
          <rect class="bg" x="0.5" y="0.5" width="3" height="3" style="stroke-width: 1px; stroke: rgb(0, 0, 0); stroke-opacity: 0; fill: rgb(0, 0, 0); fill-opacity: 0;"/>
          <text class="annotation-text" text-anchor="middle" x="2" y="2" style="font-family: 'Alegreya Sans', sans-serif; font-size: 8px; fill: rgb(255, 255, 255); fill-opacity: 1; white-space: pre;"/>
        </g>
      </g>
    </g>
    <g class="annotation" data-index="29" style="opacity: 1;">
      <g class="annotation-text-g" transform="rotate(0,722.03,38.25)">
        <g class="cursor-pointer" transform="translate(720,36)">
          <rect class="bg" x="0.5" y="0.5" width="3" height="3" style="stroke-width: 1px; stroke: rgb(0, 0, 0); stroke-opacity: 0; fill: rgb(0, 0, 0); fill-opacity: 0;"/>
          <text class="annotation-text" text-anchor="middle" x="2" y="2" style="font-family: 'Alegreya Sans', sans-serif; font-size: 8px; fill: rgb(255, 255, 255); fill-opacity: 1; white-space: pre;"/>
        </g>
      </g>
    </g>
    <g class="annotation" data-index="30" style="opacity: 1;">
      <g class="annotation-text-g" transform="rotate(0,199.99,114.75)">
        <g class="cursor-pointer" transform="translate(198,113)">
          <rect class="bg" x="0.5" y="0.5" width="3" height="3" style="stroke-width: 1px; stroke: rgb(0, 0, 0); stroke-opacity: 0; fill: rgb(0, 0, 0); fill-opacity: 0;"/>
          <text class="annotation-text" text-anchor="middle" x="2" y="2" style="font-family: 'Alegreya Sans', sans-serif; font-size: 7px; fill: rgb(255, 255, 255); fill-opacity: 1; white-space: pre;"/>
        </g>
      </g>
    </g>
    <g class="annotation" data-index="31" style="opacity: 1;">
      <g class="annotation-text-g" transform="rotate(0,350.44,114.75)">
        <g class="cursor-pointer" transform="translate(348,113)">
          <rect class="bg" x="0.5" y="0.5" width="3" height="3" style="stroke-width: 1px; stroke: rgb(0, 0, 0); stroke-opacity: 0; fill: rgb(0, 0, 0); fill-opacity: 0;"/>
          <text class="annotation-text" text-anchor="middle" x="2" y="2" style="font-family: 'Alegreya Sans', sans-serif; font-size: 7px; fill: rgb(255, 255, 255); fill-opacity: 1; white-space: pre;"/>
        </g>
      </g>
    </g>
    <g class="annotation" data-index="32" style="opacity: 1;">
      <g class="annotation-text-g" transform="rotate(0,474.21,114.75)">
        <g class="cursor-pointer" transform="translate(472,113)">
          <rect class="bg" x="0.5" y="0.5" width="3" height="3" style="stroke-width: 1px; stroke: rgb(0, 0, 0); stroke-opacity: 0; fill: rgb(0, 0, 0); fill-opacity: 0;"/>
          <text class="annotation-text" text-anchor="middle" x="2" y="2" style="font-family: 'Alegreya Sans', sans-serif; font-size: 7px; fill: rgb(255, 255, 255); fill-opacity: 1; white-space: pre;"/>
        </g>
      </g>
    </g>
    <g class="annotation" data-index="33" style="opacity: 1;">
      <g class="annotation-text-g" transform="rotate(0,513.12,114.75)">
        <g class="cursor-pointer" transform="translate(511,113)">
          <rect class="bg" x="0.5" y="0.5" width="3" height="3" style="stroke-width: 1px; stroke: rgb(0, 0, 0); stroke-opacity: 0; fill: rgb(0, 0, 0); fill-opacity: 0;"/>
          <text class="annotation-text" text-anchor="middle" x="2" y="2" style="font-family: 'Alegreya Sans', sans-serif; font-size: 7px; fill: rgb(255, 255, 255); fill-opacity: 1; white-space: pre;"/>
        </g>
      </g>
    </g>
    <g class="annotation" data-index="34" style="opacity: 1;">
      <g class="annotation-text-g" transform="rotate(0,527.79,114.75)">
        <g class="cursor-pointer" transform="translate(526,113)">
          <rect class="bg" x="0.5" y="0.5" width="3" height="3" style="stroke-width: 1px; stroke: rgb(0, 0, 0); stroke-opacity: 0; fill: rgb(0, 0, 0); fill-opacity: 0;"/>
          <text class="annotation-text" text-anchor="middle" x="2" y="2" style="font-family: 'Alegreya Sans', sans-serif; font-size: 7px; fill: rgb(255, 255, 255); fill-opacity: 1; white-space: pre;"/>
        </g>
      </g>
    </g>
    <g class="annotation" data-index="35" style="opacity: 1;">
      <g class="annotation-text-g" transform="rotate(0,351.06,38.25)">
        <g class="cursor-pointer" transform="translate(344,28)">
          <rect class="bg" x="0.5" y="0.5" width="13" height="20" style="stroke-width: 1px; stroke: rgb(0, 0, 0); stroke-opacity: 0; fill: rgb(0, 0, 0); fill-opacity: 0;"/>
          <text class="annotation-text" text-anchor="middle" x="6.765625" y="8" style="font-family: 'Alegreya Sans', sans-serif; font-size: 7px; fill: rgb(255, 255, 255); fill-opacity: 1; white-space: pre;">
            <tspan class="line" dy="0em" x="6.765625" y="8">
              <tspan style="font-weight:bold">7 %</tspan>
            </tspan>
            <tspan class="line" dy="1.3em" x="6.765625" y="8">(71)</tspan>
          </text>
        </g>
      </g>
    </g>
    <g class="annotation" data-index="36" style="opacity: 1;">
      <g class="annotation-text-g" transform="rotate(0,402.22,38.25)">
        <g class="cursor-pointer" transform="translate(400,36)">
          <rect class="bg" x="0.5" y="0.5" width="3" height="3" style="stroke-width: 1px; stroke: rgb(0, 0, 0); stroke-opacity: 0; fill: rgb(0, 0, 0); fill-opacity: 0;"/>
          <text class="annotation-text" text-anchor="middle" x="2" y="2" style="font-family: 'Alegreya Sans', sans-serif; font-size: 7px; fill: rgb(255, 255, 255); fill-opacity: 1; white-space: pre;"/>
        </g>
      </g>
    </g>
    <g class="annotation" data-index="37" style="opacity: 1;">
      <g class="annotation-text-g" transform="rotate(0,510.48,38.25)">
        <g class="cursor-pointer" transform="translate(508,36)">
          <rect class="bg" x="0.5" y="0.5" width="3" height="3" style="stroke-width: 1px; stroke: rgb(0, 0, 0); stroke-opacity: 0; fill: rgb(0, 0, 0); fill-opacity: 0;"/>
          <text class="annotation-text" text-anchor="middle" x="2" y="2" style="font-family: 'Alegreya Sans', sans-serif; font-size: 7px; fill: rgb(255, 255, 255); fill-opacity: 1; white-space: pre;"/>
        </g>
      </g>
    </g>
    <g class="annotation" data-index="38" style="opacity: 1;">
      <g class="annotation-text-g" transform="rotate(0,644.34,38.25)">
        <g class="cursor-pointer" transform="translate(642,36)">
          <rect class="bg" x="0.5" y="0.5" width="3" height="3" style="stroke-width: 1px; stroke: rgb(0, 0, 0); stroke-opacity: 0; fill: rgb(0, 0, 0); fill-opacity: 0;"/>
          <text class="annotation-text" text-anchor="middle" x="2" y="2" style="font-family: 'Alegreya Sans', sans-serif; font-size: 7px; fill: rgb(255, 255, 255); fill-opacity: 1; white-space: pre;"/>
        </g>
      </g>
    </g>
    <g class="annotation" data-index="39" style="opacity: 1;">
      <g class="annotation-text-g" transform="rotate(0,722.03,38.25)">
        <g class="cursor-pointer" transform="translate(715,28)">
          <rect class="bg" x="0.5" y="0.5" width="13" height="20" style="stroke-width: 1px; stroke: rgb(0, 0, 0); stroke-opacity: 0; fill: rgb(0, 0, 0); fill-opacity: 0;"/>
          <text class="annotation-text" text-anchor="middle" x="7.1875" y="8" style="font-family: 'Alegreya Sans', sans-serif; font-size: 7px; fill: rgb(255, 255, 255); fill-opacity: 1; white-space: pre;">
            <tspan class="line" dy="0em" x="7.1875" y="8">
              <tspan style="font-weight:bold">8 %</tspan>
            </tspan>
            <tspan class="line" dy="1.3em" x="7.1875" y="8">(76)</tspan>
          </text>
        </g>
      </g>
    </g>
    <g class="annotation" data-index="40" style="opacity: 1;">
      <g class="annotation-text-g" transform="rotate(0,199.99,114.75)">
        <g class="cursor-pointer" transform="translate(198,113)">
          <rect class="bg" x="0.5" y="0.5" width="3" height="3" style="stroke-width: 1px; stroke: rgb(0, 0, 0); stroke-opacity: 0; fill: rgb(0, 0, 0); fill-opacity: 0;"/>
          <text class="annotation-text" text-anchor="middle" x="2" y="2" style="font-family: 'Alegreya Sans', sans-serif; font-size: 6px; fill: rgb(255, 255, 255); fill-opacity: 1; white-space: pre;"/>
        </g>
      </g>
    </g>
    <g class="annotation" data-index="41" style="opacity: 1;">
      <g class="annotation-text-g" transform="rotate(0,350.44,114.75)">
        <g class="cursor-pointer" transform="translate(348,113)">
          <rect class="bg" x="0.5" y="0.5" width="3" height="3" style="stroke-width: 1px; stroke: rgb(0, 0, 0); stroke-opacity: 0; fill: rgb(0, 0, 0); fill-opacity: 0;"/>
          <text class="annotation-text" text-anchor="middle" x="2" y="2" style="font-family: 'Alegreya Sans', sans-serif; font-size: 6px; fill: rgb(255, 255, 255); fill-opacity: 1; white-space: pre;"/>
        </g>
      </g>
    </g>
    <g class="annotation" data-index="42" style="opacity: 1;">
      <g class="annotation-text-g" transform="rotate(0,474.21,114.75)">
        <g class="cursor-pointer" transform="translate(472,113)">
          <rect class="bg" x="0.5" y="0.5" width="3" height="3" style="stroke-width: 1px; stroke: rgb(0, 0, 0); stroke-opacity: 0; fill: rgb(0, 0, 0); fill-opacity: 0;"/>
          <text class="annotation-text" text-anchor="middle" x="2" y="2" style="font-family: 'Alegreya Sans', sans-serif; font-size: 6px; fill: rgb(255, 255, 255); fill-opacity: 1; white-space: pre;"/>
        </g>
      </g>
    </g>
    <g class="annotation" data-index="43" style="opacity: 1;">
      <g class="annotation-text-g" transform="rotate(0,513.12,114.75)">
        <g class="cursor-pointer" transform="translate(511,113)">
          <rect class="bg" x="0.5" y="0.5" width="3" height="3" style="stroke-width: 1px; stroke: rgb(0, 0, 0); stroke-opacity: 0; fill: rgb(0, 0, 0); fill-opacity: 0;"/>
          <text class="annotation-text" text-anchor="middle" x="2" y="2" style="font-family: 'Alegreya Sans', sans-serif; font-size: 6px; fill: rgb(255, 255, 255); fill-opacity: 1; white-space: pre;"/>
        </g>
      </g>
    </g>
    <g class="annotation" data-index="44" style="opacity: 1;">
      <g class="annotation-text-g" transform="rotate(0,527.79,114.75)">
        <g class="cursor-pointer" transform="translate(526,113)">
          <rect class="bg" x="0.5" y="0.5" width="3" height="3" style="stroke-width: 1px; stroke: rgb(0, 0, 0); stroke-opacity: 0; fill: rgb(0, 0, 0); fill-opacity: 0;"/>
          <text class="annotation-text" text-anchor="middle" x="2" y="2" style="font-family: 'Alegreya Sans', sans-serif; font-size: 6px; fill: rgb(255, 255, 255); fill-opacity: 1; white-space: pre;"/>
        </g>
      </g>
    </g>
    <g class="annotation" data-index="45" style="opacity: 1;">
      <g class="annotation-text-g" transform="rotate(0,351.06,38.25)">
        <g class="cursor-pointer" transform="translate(349,36)">
          <rect class="bg" x="0.5" y="0.5" width="3" height="3" style="stroke-width: 1px; stroke: rgb(0, 0, 0); stroke-opacity: 0; fill: rgb(0, 0, 0); fill-opacity: 0;"/>
          <text class="annotation-text" text-anchor="middle" x="2" y="2" style="font-family: 'Alegreya Sans', sans-serif; font-size: 6px; fill: rgb(255, 255, 255); fill-opacity: 1; white-space: pre;"/>
        </g>
      </g>
    </g>
    <g class="annotation" data-index="46" style="opacity: 1;">
      <g class="annotation-text-g" transform="rotate(0,402.22,38.25)">
        <g class="cursor-pointer" transform="translate(400,36)">
          <rect class="bg" x="0.5" y="0.5" width="3" height="3" style="stroke-width: 1px; stroke: rgb(0, 0, 0); stroke-opacity: 0; fill: rgb(0, 0, 0); fill-opacity: 0;"/>
          <text class="annotation-text" text-anchor="middle" x="2" y="2" style="font-family: 'Alegreya Sans', sans-serif; font-size: 6px; fill: rgb(255, 255, 255); fill-opacity: 1; white-space: pre;"/>
        </g>
      </g>
    </g>
    <g class="annotation" data-index="47" style="opacity: 1;">
      <g class="annotation-text-g" transform="rotate(0,510.48,38.25)">
        <g class="cursor-pointer" transform="translate(508,36)">
          <rect class="bg" x="0.5" y="0.5" width="3" height="3" style="stroke-width: 1px; stroke: rgb(0, 0, 0); stroke-opacity: 0; fill: rgb(0, 0, 0); fill-opacity: 0;"/>
          <text class="annotation-text" text-anchor="middle" x="2" y="2" style="font-family: 'Alegreya Sans', sans-serif; font-size: 6px; fill: rgb(255, 255, 255); fill-opacity: 1; white-space: pre;"/>
        </g>
      </g>
    </g>
    <g class="annotation" data-index="48" style="opacity: 1;">
      <g class="annotation-text-g" transform="rotate(0,644.34,38.25)">
        <g class="cursor-pointer" transform="translate(642,36)">
          <rect class="bg" x="0.5" y="0.5" width="3" height="3" style="stroke-width: 1px; stroke: rgb(0, 0, 0); stroke-opacity: 0; fill: rgb(0, 0, 0); fill-opacity: 0;"/>
          <text class="annotation-text" text-anchor="middle" x="2" y="2" style="font-family: 'Alegreya Sans', sans-serif; font-size: 6px; fill: rgb(255, 255, 255); fill-opacity: 1; white-space: pre;"/>
        </g>
      </g>
    </g>
    <g class="annotation" data-index="49" style="opacity: 1;">
      <g class="annotation-text-g" transform="rotate(0,722.03,38.25)">
        <g class="cursor-pointer" transform="translate(720,36)">
          <rect class="bg" x="0.5" y="0.5" width="3" height="3" style="stroke-width: 1px; stroke: rgb(0, 0, 0); stroke-opacity: 0; fill: rgb(0, 0, 0); fill-opacity: 0;"/>
          <text class="annotation-text" text-anchor="middle" x="2" y="2" style="font-family: 'Alegreya Sans', sans-serif; font-size: 6px; fill: rgb(255, 255, 255); fill-opacity: 1; white-space: pre;"/>
        </g>
      </g>
    </g>
    <g class="annotation" data-index="50" style="opacity: 1;">
      <g class="annotation-text-g" transform="rotate(0,199.99,114.75)">
        <g class="cursor-pointer" transform="translate(198,113)">
          <rect class="bg" x="0.5" y="0.5" width="3" height="3" style="stroke-width: 1px; stroke: rgb(0, 0, 0); stroke-opacity: 0; fill: rgb(0, 0, 0); fill-opacity: 0;"/>
          <text class="annotation-text" text-anchor="middle" x="2" y="2" style="font-family: 'Alegreya Sans', sans-serif; font-size: 5px; fill: rgb(255, 255, 255); fill-opacity: 1; white-space: pre;"/>
        </g>
      </g>
    </g>
    <g class="annotation" data-index="51" style="opacity: 1;">
      <g class="annotation-text-g" transform="rotate(0,350.44,114.75)">
        <g class="cursor-pointer" transform="translate(348,113)">
          <rect class="bg" x="0.5" y="0.5" width="3" height="3" style="stroke-width: 1px; stroke: rgb(0, 0, 0); stroke-opacity: 0; fill: rgb(0, 0, 0); fill-opacity: 0;"/>
          <text class="annotation-text" text-anchor="middle" x="2" y="2" style="font-family: 'Alegreya Sans', sans-serif; font-size: 5px; fill: rgb(255, 255, 255); fill-opacity: 1; white-space: pre;"/>
        </g>
      </g>
    </g>
    <g class="annotation" data-index="52" style="opacity: 1;">
      <g class="annotation-text-g" transform="rotate(0,474.21,114.75)">
        <g class="cursor-pointer" transform="translate(472,113)">
          <rect class="bg" x="0.5" y="0.5" width="3" height="3" style="stroke-width: 1px; stroke: rgb(0, 0, 0); stroke-opacity: 0; fill: rgb(0, 0, 0); fill-opacity: 0;"/>
          <text class="annotation-text" text-anchor="middle" x="2" y="2" style="font-family: 'Alegreya Sans', sans-serif; font-size: 5px; fill: rgb(255, 255, 255); fill-opacity: 1; white-space: pre;"/>
        </g>
      </g>
    </g>
    <g class="annotation" data-index="53" style="opacity: 1;">
      <g class="annotation-text-g" transform="rotate(0,513.12,114.75)">
        <g class="cursor-pointer" transform="translate(507,106)">
          <rect class="bg" x="0.5" y="0.5" width="11" height="16" style="stroke-width: 1px; stroke: rgb(0, 0, 0); stroke-opacity: 0; fill: rgb(0, 0, 0); fill-opacity: 0;"/>
          <text class="annotation-text" text-anchor="middle" x="5.515625" y="7" style="font-family: 'Alegreya Sans', sans-serif; font-size: 5px; fill: rgb(255, 255, 255); fill-opacity: 1; white-space: pre;">
            <tspan class="line" dy="0em" x="5.515625" y="7">
              <tspan style="font-weight:bold">2 %</tspan>
            </tspan>
            <tspan class="line" dy="1.3em" x="5.515625" y="7">(9)</tspan>
          </text>
        </g>
      </g>
    </g>
    <g class="annotation" data-index="54" style="opacity: 1;">
      <g class="annotation-text-g" transform="rotate(0,527.79,114.75)">
        <g class="cursor-pointer" transform="translate(522,106)">
          <rect class="bg" x="0.5" y="0.5" width="11" height="16" style="stroke-width: 1px; stroke: rgb(0, 0, 0); stroke-opacity: 0; fill: rgb(0, 0, 0); fill-opacity: 0;"/>
          <text class="annotation-text" text-anchor="middle" x="5.8125" y="7" style="font-family: 'Alegreya Sans', sans-serif; font-size: 5px; fill: rgb(255, 255, 255); fill-opacity: 1; white-space: pre;">
            <tspan class="line" dy="0em" x="5.8125" y="7">
              <tspan style="font-weight:bold">5 %</tspan>
            </tspan>
            <tspan class="line" dy="1.3em" x="5.8125" y="7">(26)</tspan>
          </text>
        </g>
      </g>
    </g>
    <g class="annotation" data-index="55" style="opacity: 1;">
      <g class="annotation-text-g" transform="rotate(0,351.06,38.25)">
        <g class="cursor-pointer" transform="translate(349,36)">
          <rect class="bg" x="0.5" y="0.5" width="3" height="3" style="stroke-width: 1px; stroke: rgb(0, 0, 0); stroke-opacity: 0; fill: rgb(0, 0, 0); fill-opacity: 0;"/>
          <text class="annotation-text" text-anchor="middle" x="2" y="2" style="font-family: 'Alegreya Sans', sans-serif; font-size: 5px; fill: rgb(255, 255, 255); fill-opacity: 1; white-space: pre;"/>
        </g>
      </g>
    </g>
    <g class="annotation" data-index="56" style="opacity: 1;">
      <g class="annotation-text-g" transform="rotate(0,402.22,38.25)">
        <g class="cursor-pointer" transform="translate(400,36)">
          <rect class="bg" x="0.5" y="0.5" width="3" height="3" style="stroke-width: 1px; stroke: rgb(0, 0, 0); stroke-opacity: 0; fill: rgb(0, 0, 0); fill-opacity: 0;"/>
          <text class="annotation-text" text-anchor="middle" x="2" y="2" style="font-family: 'Alegreya Sans', sans-serif; font-size: 5px; fill: rgb(255, 255, 255); fill-opacity: 1; white-space: pre;"/>
        </g>
      </g>
    </g>
    <g class="annotation" data-index="57" style="opacity: 1;">
      <g class="annotation-text-g" transform="rotate(0,510.48,38.25)">
        <g class="cursor-pointer" transform="translate(508,36)">
          <rect class="bg" x="0.5" y="0.5" width="3" height="3" style="stroke-width: 1px; stroke: rgb(0, 0, 0); stroke-opacity: 0; fill: rgb(0, 0, 0); fill-opacity: 0;"/>
          <text class="annotation-text" text-anchor="middle" x="2" y="2" style="font-family: 'Alegreya Sans', sans-serif; font-size: 5px; fill: rgb(255, 255, 255); fill-opacity: 1; white-space: pre;"/>
        </g>
      </g>
    </g>
    <g class="annotation" data-index="58" style="opacity: 1;">
      <g class="annotation-text-g" transform="rotate(0,644.34,38.25)">
        <g class="cursor-pointer" transform="translate(642,36)">
          <rect class="bg" x="0.5" y="0.5" width="3" height="3" style="stroke-width: 1px; stroke: rgb(0, 0, 0); stroke-opacity: 0; fill: rgb(0, 0, 0); fill-opacity: 0;"/>
          <text class="annotation-text" text-anchor="middle" x="2" y="2" style="font-family: 'Alegreya Sans', sans-serif; font-size: 5px; fill: rgb(255, 255, 255); fill-opacity: 1; white-space: pre;"/>
        </g>
      </g>
    </g>
    <g class="annotation" data-index="59" style="opacity: 1;">
      <g class="annotation-text-g" transform="rotate(0,722.03,38.25)">
        <g class="cursor-pointer" transform="translate(720,36)">
          <rect class="bg" x="0.5" y="0.5" width="3" height="3" style="stroke-width: 1px; stroke: rgb(0, 0, 0); stroke-opacity: 0; fill: rgb(0, 0, 0); fill-opacity: 0;"/>
          <text class="annotation-text" text-anchor="middle" x="2" y="2" style="font-family: 'Alegreya Sans', sans-serif; font-size: 5px; fill: rgb(255, 255, 255); fill-opacity: 1; white-space: pre;"/>
        </g>
      </g>
    </g>
  </g>
</svg>
