<svg xmlns="http://www.w3.org/2000/svg" xmlns:xlink="http://www.w3.org/1999/xlink" class="main-svg" width="100%" height="100%" style="" viewBox="1 1 799 196">
  <rect x="0" y="0" width="800" height="197" style="fill: rgb(255, 255, 255); fill-opacity: 1;"/>
  <defs id="defs-d91594">
    <g class="clips">
      <clipPath id="clipd91594xyplot" class="plotclip">
        <rect width="722" height="153"/>
      </clipPath>
      <clipPath class="axesclip" id="clipd91594x">
        <rect x="78" y="0" width="722" height="197"/>
      </clipPath>
      <clipPath class="axesclip" id="clipd91594y">
        <rect x="0" y="0" width="800" height="153"/>
      </clipPath>
      <clipPath class="axesclip" id="clipd91594xy">
        <rect x="78" y="0" width="722" height="153"/>
      </clipPath>
    </g>
    <g class="gradients"/>
    <g class="patterns"/>
  </defs>
  <g class="bglayer"/>
  <g class="layer-below">
    <g class="imagelayer"/>
    <g class="shapelayer"/>
  </g>
  <g class="cartesianlayer">
    <g class="subplot xy">
      <g class="layer-subplot">
        <g class="shapelayer"/>
        <g class="imagelayer"/>
      </g>
      <g class="gridlayer">
        <g class="x">
          <path class="xgrid crisp" transform="translate(112.74000000000001,0)" d="M0,0v153" style="stroke: rgb(238, 238, 238); stroke-opacity: 1; stroke-width: 1px;"/>
          <path class="xgrid crisp" transform="translate(194.3,0)" d="M0,0v153" style="stroke: rgb(238, 238, 238); stroke-opacity: 1; stroke-width: 1px;"/>
          <path class="xgrid crisp" transform="translate(275.87,0)" d="M0,0v153" style="stroke: rgb(238, 238, 238); stroke-opacity: 1; stroke-width: 1px;"/>
          <path class="xgrid crisp" transform="translate(357.43,0)" d="M0,0v153" style="stroke: rgb(238, 238, 238); stroke-opacity: 1; stroke-width: 1px;"/>
          <path class="xgrid crisp" transform="translate(520.5699999999999,0)" d="M0,0v153" style="stroke: rgb(238, 238, 238); stroke-opacity: 1; stroke-width: 1px;"/>
          <path class="xgrid crisp" transform="translate(602.13,0)" d="M0,0v153" style="stroke: rgb(238, 238, 238); stroke-opacity: 1; stroke-width: 1px;"/>
          <path class="xgrid crisp" transform="translate(683.7,0)" d="M0,0v153" style="stroke: rgb(238, 238, 238); stroke-opacity: 1; stroke-width: 1px;"/>
          <path class="xgrid crisp" transform="translate(765.26,0)" d="M0,0v153" style="stroke: rgb(238, 238, 238); stroke-opacity: 1; stroke-width: 1px;"/>
        </g>
        <g class="y"/>
      </g>
      <g class="zerolinelayer">
        <path class="xzl zl crisp" transform="translate(439,0)" d="M0,0v153" style="stroke: rgb(238, 238, 238); stroke-opacity: 1; stroke-width: 1px;"/>
      </g>
      <path class="xlines-below"/>
      <path class="ylines-below"/>
      <g class="overlines-below"/>
      <g class="xaxislayer-below"/>
      <g class="yaxislayer-below"/>
      <g class="overaxes-below"/>
      <g class="plot" transform="translate(78,0)" clip-path="url(#clipd91594xyplot)">
        <g class="barlayer mlayer">
          <g class="trace bars" style="opacity: 1;">
            <g class="points">
              <g class="point">
                <path d="M361,145.35V84.15H463.83V145.35Z" style="vector-effect: non-scaling-stroke; opacity: 1; stroke-width: 1px; fill: rgb(200, 223, 32); fill-opacity: 1; stroke: rgb(255, 255, 255); stroke-opacity: 1;"/>
                <text class="bartext bartext-inside" text-anchor="middle" data-notex="1" x="0" y="0" style="font-family: 'Alegreya Sans', sans-serif; font-size: 12px; fill: rgb(200, 223, 32); fill-opacity: 1; white-space: pre;" transform="translate(450.064375,118.75)">32 %</text>
              </g>
              <g class="point">
                <path d="M361,68.85V7.65H476.01V68.85Z" style="vector-effect: non-scaling-stroke; opacity: 1; stroke-width: 1px; fill: rgb(200, 223, 32); fill-opacity: 1; stroke: rgb(255, 255, 255); stroke-opacity: 1;"/>
                <text class="bartext bartext-inside" text-anchor="middle" data-notex="1" x="0" y="0" style="font-family: 'Alegreya Sans', sans-serif; font-size: 12px; fill: rgb(200, 223, 32); fill-opacity: 1; white-space: pre;" transform="translate(462.47875,42.25)">35 %</text>
              </g>
            </g>
          </g>
          <g class="trace bars" style="opacity: 1;">
            <g class="points">
              <g class="point">
                <path d="M463.83,145.35V84.15H660.21V145.35Z" style="vector-effect: non-scaling-stroke; opacity: 1; stroke-width: 1px; fill: rgb(25, 179, 25); fill-opacity: 1; stroke: rgb(255, 255, 255); stroke-opacity: 1;"/>
                <text class="bartext bartext-inside" text-anchor="middle" data-notex="1" x="0" y="0" style="font-family: 'Alegreya Sans', sans-serif; font-size: 12px; fill: rgb(25, 179, 25); fill-opacity: 1; white-space: pre;" transform="translate(645.663125,118.75)">60 %</text>
              </g>
              <g class="point">
                <path d="M476.01,68.85V7.65H544.08V68.85Z" style="vector-effect: non-scaling-stroke; opacity: 1; stroke-width: 1px; fill: rgb(25, 179, 25); fill-opacity: 1; stroke: rgb(255, 255, 255); stroke-opacity: 1;"/>
                <text class="bartext bartext-inside" text-anchor="middle" data-notex="1" x="0" y="0" style="font-family: 'Alegreya Sans', sans-serif; font-size: 12px; fill: rgb(25, 179, 25); fill-opacity: 1; white-space: pre;" transform="translate(530.720625,42.25)">21 %</text>
              </g>
            </g>
          </g>
          <g class="trace bars" style="opacity: 1;">
            <g class="points">
              <g class="point">
                <path d="M660.21,145.35V84.15H673.06V145.35Z" style="vector-effect: non-scaling-stroke; opacity: 1; stroke-width: 1px; fill: rgb(229, 229, 229); fill-opacity: 1; stroke: rgb(255, 255, 255); stroke-opacity: 1;"/>
                <text class="bartext bartext-outside" text-anchor="middle" data-notex="1" x="0" y="0" style="font-family: 'Alegreya Sans', sans-serif; font-size: 12px; fill: rgb(229, 229, 229); fill-opacity: 1; white-space: pre;" transform="translate(684.388125,118.75)">4 %</text>
              </g>
              <g class="point">
                <path d="M544.08,68.85V7.65H571.89V68.85Z" style="vector-effect: non-scaling-stroke; opacity: 1; stroke-width: 1px; fill: rgb(229, 229, 229); fill-opacity: 1; stroke: rgb(255, 255, 255); stroke-opacity: 1;"/>
                <text class="bartext bartext-inside" text-anchor="middle" data-notex="1" x="0" y="0" style="font-family: 'Alegreya Sans', sans-serif; font-size: 12px; fill: rgb(229, 229, 229); fill-opacity: 1; white-space: pre;" transform="translate(560.515,42.25)">9 %</text>
              </g>
            </g>
          </g>
          <g class="trace bars" style="opacity: 1;">
            <g class="points">
              <g class="point">
                <path d="M361,145.35V84.15H349.01V145.35Z" style="vector-effect: non-scaling-stroke; opacity: 1; stroke-width: 1px; fill: rgb(245, 171, 61); fill-opacity: 1; stroke: rgb(255, 255, 255); stroke-opacity: 1;"/>
                <text class="bartext bartext-inside" text-anchor="middle" data-notex="1" x="0" y="0" style="font-family: 'Alegreya Sans', sans-serif; font-size: 12px; fill: rgb(245, 171, 61); fill-opacity: 1; white-space: pre;" transform="translate(354.9777018229167,116.74666666666667)scale(0.49916666666666737)rotate(90 0.0546875 -4)">4 %</text>
              </g>
              <g class="point">
                <path d="M361,68.85V7.65H282.74V68.85Z" style="vector-effect: non-scaling-stroke; opacity: 1; stroke-width: 1px; fill: rgb(245, 171, 61); fill-opacity: 1; stroke: rgb(255, 255, 255); stroke-opacity: 1;"/>
                <text class="bartext bartext-inside" text-anchor="middle" data-notex="1" x="0" y="0" style="font-family: 'Alegreya Sans', sans-serif; font-size: 12px; fill: rgb(245, 171, 61); fill-opacity: 1; white-space: pre;" transform="translate(296.8025,42.25)">24 %</text>
              </g>
            </g>
          </g>
          <g class="trace bars" style="opacity: 1;">
            <g class="points">
              <g class="point">
                <path d="M349.01,145.35V84.15H346.8V145.35Z" style="vector-effect: non-scaling-stroke; opacity: 1; stroke-width: 1px; fill: rgb(224, 64, 36); fill-opacity: 1; stroke: rgb(255, 255, 255); stroke-opacity: 1;"/>
                <text class="bartext bartext-outside" text-anchor="middle" data-notex="1" x="0" y="0" style="font-family: 'Alegreya Sans', sans-serif; font-size: 12px; fill: rgb(224, 64, 36); fill-opacity: 1; white-space: pre;" transform="translate(336.175,118.75)">1 %</text>
              </g>
              <g class="point">
                <path d="M282.74,68.85V7.65H245.63V68.85Z" style="vector-effect: non-scaling-stroke; opacity: 1; stroke-width: 1px; fill: rgb(224, 64, 36); fill-opacity: 1; stroke: rgb(255, 255, 255); stroke-opacity: 1;"/>
                <text class="bartext bartext-inside" text-anchor="middle" data-notex="1" x="0" y="0" style="font-family: 'Alegreya Sans', sans-serif; font-size: 12px; fill: rgb(224, 64, 36); fill-opacity: 1; white-space: pre;" transform="translate(258.208125,42.25)">11 %</text>
              </g>
            </g>
          </g>
          <g class="trace bars" style="opacity: 1;">
            <g class="points">
              <g class="point">
                <path d="M0,0Z" style="vector-effect: non-scaling-stroke; opacity: 1; stroke-width: 0px; fill: rgb(229, 229, 229); fill-opacity: 1;"/>
              </g>
              <g class="point">
                <path d="M0,0Z" style="vector-effect: non-scaling-stroke; opacity: 1; stroke-width: 0px; fill: rgb(229, 229, 229); fill-opacity: 1;"/>
              </g>
            </g>
          </g>
          <g class="trace bars" style="opacity: 1;">
            <g class="points">
              <g class="point">
                <path d="M0,0Z" style="vector-effect: non-scaling-stroke; opacity: 1; stroke-width: 0px; fill: rgb(25, 179, 25); fill-opacity: 1;"/>
              </g>
              <g class="point">
                <path d="M0,0Z" style="vector-effect: non-scaling-stroke; opacity: 1; stroke-width: 0px; fill: rgb(25, 179, 25); fill-opacity: 1;"/>
              </g>
            </g>
          </g>
          <g class="trace bars" style="opacity: 1;">
            <g class="points">
              <g class="point">
                <path d="M0,0Z" style="vector-effect: non-scaling-stroke; opacity: 1; stroke-width: 0px; fill: rgb(200, 223, 32); fill-opacity: 1;"/>
              </g>
              <g class="point">
                <path d="M0,0Z" style="vector-effect: non-scaling-stroke; opacity: 1; stroke-width: 0px; fill: rgb(200, 223, 32); fill-opacity: 1;"/>
              </g>
            </g>
          </g>
          <g class="trace bars" style="opacity: 1;">
            <g class="points">
              <g class="point">
                <path d="M0,0Z" style="vector-effect: non-scaling-stroke; opacity: 1; stroke-width: 0px; fill: rgb(245, 171, 61); fill-opacity: 1;"/>
              </g>
              <g class="point">
                <path d="M0,0Z" style="vector-effect: non-scaling-stroke; opacity: 1; stroke-width: 0px; fill: rgb(245, 171, 61); fill-opacity: 1;"/>
              </g>
            </g>
          </g>
          <g class="trace bars" style="opacity: 1;">
            <g class="points">
              <g class="point">
                <path d="M0,0Z" style="vector-effect: non-scaling-stroke; opacity: 1; stroke-width: 0px; fill: rgb(224, 64, 36); fill-opacity: 1;"/>
              </g>
              <g class="point">
                <path d="M0,0Z" style="vector-effect: non-scaling-stroke; opacity: 1; stroke-width: 0px; fill: rgb(224, 64, 36); fill-opacity: 1;"/>
              </g>
            </g>
          </g>
        </g>
      </g>
      <g class="overplot"/>
      <path class="xlines-above crisp" d="M0,0" style="fill: none;"/>
      <path class="ylines-above crisp" d="M0,0" style="fill: none;"/>
      <g class="overlines-above"/>
      <g class="xaxislayer-above">
        <g class="xtick">
          <text text-anchor="middle" x="0" y="166" transform="translate(112.74000000000001,0)" style="font-family: 'Alegreya Sans', sans-serif; font-size: 12px; fill: rgb(0, 0, 0); fill-opacity: 1; white-space: pre; opacity: 1;">100 %</text>
        </g>
        <g class="xtick">
          <text text-anchor="middle" x="0" y="166" style="font-family: 'Alegreya Sans', sans-serif; font-size: 12px; fill: rgb(0, 0, 0); fill-opacity: 1; white-space: pre; opacity: 1;" transform="translate(194.3,0)"/>
        </g>
        <g class="xtick">
          <text text-anchor="middle" x="0" y="166" style="font-family: 'Alegreya Sans', sans-serif; font-size: 12px; fill: rgb(0, 0, 0); fill-opacity: 1; white-space: pre; opacity: 1;" transform="translate(275.87,0)">50 %</text>
        </g>
        <g class="xtick">
          <text text-anchor="middle" x="0" y="166" style="font-family: 'Alegreya Sans', sans-serif; font-size: 12px; fill: rgb(0, 0, 0); fill-opacity: 1; white-space: pre; opacity: 1;" transform="translate(357.43,0)"/>
        </g>
        <g class="xtick">
          <text text-anchor="middle" x="0" y="166" style="font-family: 'Alegreya Sans', sans-serif; font-size: 12px; fill: rgb(0, 0, 0); fill-opacity: 1; white-space: pre; opacity: 1;" transform="translate(439,0)">0 %</text>
        </g>
        <g class="xtick">
          <text text-anchor="middle" x="0" y="166" style="font-family: 'Alegreya Sans', sans-serif; font-size: 12px; fill: rgb(0, 0, 0); fill-opacity: 1; white-space: pre; opacity: 1;" transform="translate(520.5699999999999,0)"/>
        </g>
        <g class="xtick">
          <text text-anchor="middle" x="0" y="166" style="font-family: 'Alegreya Sans', sans-serif; font-size: 12px; fill: rgb(0, 0, 0); fill-opacity: 1; white-space: pre; opacity: 1;" transform="translate(602.13,0)">50 %</text>
        </g>
        <g class="xtick">
          <text text-anchor="middle" x="0" y="166" style="font-family: 'Alegreya Sans', sans-serif; font-size: 12px; fill: rgb(0, 0, 0); fill-opacity: 1; white-space: pre; opacity: 1;" transform="translate(683.7,0)"/>
        </g>
        <g class="xtick">
          <text text-anchor="middle" x="0" y="166" style="font-family: 'Alegreya Sans', sans-serif; font-size: 12px; fill: rgb(0, 0, 0); fill-opacity: 1; white-space: pre; opacity: 1;" transform="translate(765.26,0)">100 %</text>
        </g>
      </g>
      <g class="yaxislayer-above">
        <g class="ytick">
          <text text-anchor="end" x="77" y="3.8499999999999996" transform="translate(0,114.75)" style="font-family: 'Alegreya Sans', sans-serif; font-size: 11px; fill: rgb(0, 0, 0); fill-opacity: 1; white-space: pre; opacity: 1;">Ja (angenommen)</text>
        </g>
        <g class="ytick">
          <text text-anchor="end" x="77" y="3.8499999999999996" transform="translate(0,38.25)" style="font-family: 'Alegreya Sans', sans-serif; font-size: 11px; fill: rgb(0, 0, 0); fill-opacity: 1; white-space: pre; opacity: 1;">Nein (abgelehnt)</text>
        </g>
      </g>
      <g class="overaxes-above"/>
    </g>
  </g>
  <g class="polarlayer"/>
  <g class="smithlayer"/>
  <g class="ternarylayer"/>
  <g class="geolayer"/>
  <g class="funnelarealayer"/>
  <g class="pielayer"/>
  <g class="iciclelayer"/>
  <g class="treemaplayer"/>
  <g class="sunburstlayer"/>
  <g class="glimages"/>
  <defs id="topdefs-d91594">
    <g class="clips"/>
    <clipPath id="legendd91594">
      <rect width="632" height="29" x="0" y="0"/>
    </clipPath>
  </defs>
  <g class="layer-above">
    <g class="imagelayer"/>
    <g class="shapelayer"/>
  </g>
  <g class="infolayer">
    <g class="legend" pointer-events="all" transform="translate(78,168)">
      <rect class="bg" shape-rendering="crispEdges" width="632" height="29" x="0" y="0" style="stroke: rgb(68, 68, 68); stroke-opacity: 1; fill: rgb(255, 255, 255); fill-opacity: 1; stroke-width: 0px;"/>
      <g class="scrollbox" transform="" clip-path="url(#legendd91594)">
        <g class="groups">
          <g class="traces" transform="translate(0,14.5)" style="opacity: 1;">
            <text class="legendtext" text-anchor="start" x="40" y="4.680000000000001" style="font-family: 'Alegreya Sans', sans-serif; font-size: 12px; fill: rgb(0, 0, 0); fill-opacity: 1; white-space: pre;">überhaupt nicht wichtig</text>
            <g class="layers" style="opacity: 1;">
              <g class="legendfill"/>
              <g class="legendlines"/>
              <g class="legendsymbols">
                <g class="legendpoints">
                  <path class="legendundefined" d="M6,6H-6V-6H6Z" transform="translate(20,0)" style="stroke-width: 0px; fill: rgb(224, 64, 36); fill-opacity: 1;"/>
                </g>
              </g>
            </g>
            <rect class="legendtoggle" x="0" y="-9.5" width="154.390625" height="19" style="fill: rgb(0, 0, 0); fill-opacity: 0;"/>
          </g>
          <g class="traces" transform="translate(156.890625,14.5)" style="opacity: 1;">
            <text class="legendtext" text-anchor="start" x="40" y="4.680000000000001" style="font-family: 'Alegreya Sans', sans-serif; font-size: 12px; fill: rgb(0, 0, 0); fill-opacity: 1; white-space: pre;">eher unwichtig</text>
            <g class="layers" style="opacity: 1;">
              <g class="legendfill"/>
              <g class="legendlines"/>
              <g class="legendsymbols">
                <g class="legendpoints">
                  <path class="legendundefined" d="M6,6H-6V-6H6Z" transform="translate(20,0)" style="stroke-width: 0px; fill: rgb(245, 171, 61); fill-opacity: 1;"/>
                </g>
              </g>
            </g>
            <rect class="legendtoggle" x="0" y="-9.5" width="112.21875" height="19" style="fill: rgb(0, 0, 0); fill-opacity: 0;"/>
          </g>
          <g class="traces" transform="translate(271.609375,14.5)" style="opacity: 1;">
            <text class="legendtext" text-anchor="start" x="40" y="4.680000000000001" style="font-family: 'Alegreya Sans', sans-serif; font-size: 12px; fill: rgb(0, 0, 0); fill-opacity: 1; white-space: pre;">eher wichtig</text>
            <g class="layers" style="opacity: 1;">
              <g class="legendfill"/>
              <g class="legendlines"/>
              <g class="legendsymbols">
                <g class="legendpoints">
                  <path class="legendundefined" d="M6,6H-6V-6H6Z" transform="translate(20,0)" style="stroke-width: 0px; fill: rgb(200, 223, 32); fill-opacity: 1;"/>
                </g>
              </g>
            </g>
            <rect class="legendtoggle" x="0" y="-9.5" width="100.25" height="19" style="fill: rgb(0, 0, 0); fill-opacity: 0;"/>
          </g>
          <g class="traces" transform="translate(374.359375,14.5)" style="opacity: 1;">
            <text class="legendtext" text-anchor="start" x="40" y="4.680000000000001" style="font-family: 'Alegreya Sans', sans-serif; font-size: 12px; fill: rgb(0, 0, 0); fill-opacity: 1; white-space: pre;">sehr wichtig</text>
            <g class="layers" style="opacity: 1;">
              <g class="legendfill"/>
              <g class="legendlines"/>
              <g class="legendsymbols">
                <g class="legendpoints">
                  <path class="legendundefined" d="M6,6H-6V-6H6Z" transform="translate(20,0)" style="stroke-width: 0px; fill: rgb(25, 179, 25); fill-opacity: 1;"/>
                </g>
              </g>
            </g>
            <rect class="legendtoggle" x="0" y="-9.5" width="99.046875" height="19" style="fill: rgb(0, 0, 0); fill-opacity: 0;"/>
          </g>
          <g class="traces" transform="translate(475.90625,14.5)" style="opacity: 1;">
            <text class="legendtext" text-anchor="start" x="40" y="4.680000000000001" style="font-family: 'Alegreya Sans', sans-serif; font-size: 12px; fill: rgb(0, 0, 0); fill-opacity: 1; white-space: pre;">
              <tspan style=" fill: #808080;;font-style:italic">weiss nicht / keine Angabe</tspan>
            </text>
            <g class="layers" style="opacity: 1;">
              <g class="legendfill"/>
              <g class="legendlines"/>
              <g class="legendsymbols">
                <g class="legendpoints">
                  <path class="legendundefined" d="M6,6H-6V-6H6Z" transform="translate(20,0)" style="stroke-width: 0px; fill: rgb(229, 229, 229); fill-opacity: 1;"/>
                </g>
              </g>
            </g>
            <rect class="legendtoggle" x="0" y="-9.5" width="153.4375" height="19" style="fill: rgb(0, 0, 0); fill-opacity: 0;"/>
          </g>
        </g>
      </g>
      <rect class="scrollbar" rx="20" ry="3" width="0" height="0" x="0" y="0" style="fill: rgb(128, 139, 164); fill-opacity: 1;"/>
    </g>
    <g class="g-gtitle"/>
    <g class="g-xtitle"/>
    <g class="g-ytitle"/>
    <g class="annotation" data-index="0" style="opacity: 1;">
      <g class="annotation-text-g" transform="rotate(0,425.9,114.75)">
        <g class="cursor-pointer" transform="translate(424,113)">
          <rect class="bg" x="0.5" y="0.5" width="3" height="3" style="stroke-width: 1px; stroke: rgb(0, 0, 0); stroke-opacity: 0; fill: rgb(0, 0, 0); fill-opacity: 0;"/>
          <text class="annotation-text" text-anchor="middle" x="2" y="2" style="font-family: 'Alegreya Sans', sans-serif; font-size: 10px; fill: rgb(255, 255, 255); fill-opacity: 1; white-space: pre;"/>
        </g>
      </g>
    </g>
    <g class="annotation" data-index="1" style="opacity: 1;">
      <g class="annotation-text-g" transform="rotate(0,433,114.75)">
        <g class="cursor-pointer" transform="translate(431,113)">
          <rect class="bg" x="0.5" y="0.5" width="3" height="3" style="stroke-width: 1px; stroke: rgb(0, 0, 0); stroke-opacity: 0; fill: rgb(0, 0, 0); fill-opacity: 0;"/>
          <text class="annotation-text" text-anchor="middle" x="2" y="2" style="font-family: 'Alegreya Sans', sans-serif; font-size: 10px; fill: rgb(255, 255, 255); fill-opacity: 1; white-space: pre;"/>
        </g>
      </g>
    </g>
    <g class="annotation" data-index="2" style="opacity: 1;">
      <g class="annotation-text-g" transform="rotate(0,490.42,114.75)">
        <g class="cursor-pointer" transform="translate(478,101)">
          <rect class="bg" x="0.5" y="0.5" width="24" height="26" style="stroke-width: 1px; stroke: rgb(0, 0, 0); stroke-opacity: 0; fill: rgb(0, 0, 0); fill-opacity: 0;"/>
          <text class="annotation-text" text-anchor="middle" x="12.265625" y="10" style="font-family: 'Alegreya Sans', sans-serif; font-size: 10px; fill: rgb(255, 255, 255); fill-opacity: 1; white-space: pre;">
            <tspan class="line" dy="0em" x="12.265625" y="10">
              <tspan style="font-weight:bold">32 %</tspan>
            </tspan>
            <tspan class="line" dy="1.3em" x="12.265625" y="10">(208)</tspan>
          </text>
        </g>
      </g>
    </g>
    <g class="annotation" data-index="3" style="opacity: 1;">
      <g class="annotation-text-g" transform="rotate(0,640.02,114.75)">
        <g class="cursor-pointer" transform="translate(628,101)">
          <rect class="bg" x="0.5" y="0.5" width="23" height="26" style="stroke-width: 1px; stroke: rgb(0, 0, 0); stroke-opacity: 0; fill: rgb(0, 0, 0); fill-opacity: 0;"/>
          <text class="annotation-text" text-anchor="middle" x="11.734375" y="10" style="font-family: 'Alegreya Sans', sans-serif; font-size: 10px; fill: rgb(255, 255, 255); fill-opacity: 1; white-space: pre;">
            <tspan class="line" dy="0em" x="11.734375" y="10">
              <tspan style="font-weight:bold">60 %</tspan>
            </tspan>
            <tspan class="line" dy="1.3em" x="11.734375" y="10">(396)</tspan>
          </text>
        </g>
      </g>
    </g>
    <g class="annotation" data-index="4" style="opacity: 1;">
      <g class="annotation-text-g" transform="rotate(0,744.64,114.75)">
        <g class="cursor-pointer" transform="translate(743,113)">
          <rect class="bg" x="0.5" y="0.5" width="3" height="3" style="stroke-width: 1px; stroke: rgb(0, 0, 0); stroke-opacity: 0; fill: rgb(0, 0, 0); fill-opacity: 0;"/>
          <text class="annotation-text" text-anchor="middle" x="2" y="2" style="font-family: 'Alegreya Sans', sans-serif; font-size: 10px; fill: rgb(255, 255, 255); fill-opacity: 1; white-space: pre;"/>
        </g>
      </g>
    </g>
    <g class="annotation" data-index="5" style="opacity: 1;">
      <g class="annotation-text-g" transform="rotate(0,342.18,38.25)">
        <g class="cursor-pointer" transform="translate(332,25)">
          <rect class="bg" x="0.5" y="0.5" width="20" height="26" style="stroke-width: 1px; stroke: rgb(0, 0, 0); stroke-opacity: 0; fill: rgb(0, 0, 0); fill-opacity: 0;"/>
          <text class="annotation-text" text-anchor="middle" x="10.25" y="10" style="font-family: 'Alegreya Sans', sans-serif; font-size: 10px; fill: rgb(255, 255, 255); fill-opacity: 1; white-space: pre;">
            <tspan class="line" dy="0em" x="10.25" y="10">
              <tspan style="font-weight:bold">11 %</tspan>
            </tspan>
            <tspan class="line" dy="1.3em" x="10.25" y="10">(74)</tspan>
          </text>
        </g>
      </g>
    </g>
    <g class="annotation" data-index="6" style="opacity: 1;">
      <g class="annotation-text-g" transform="rotate(0,399.87,38.25)">
        <g class="cursor-pointer" transform="translate(388,25)">
          <rect class="bg" x="0.5" y="0.5" width="23" height="26" style="stroke-width: 1px; stroke: rgb(0, 0, 0); stroke-opacity: 0; fill: rgb(0, 0, 0); fill-opacity: 0;"/>
          <text class="annotation-text" text-anchor="middle" x="11.53125" y="10" style="font-family: 'Alegreya Sans', sans-serif; font-size: 10px; fill: rgb(255, 255, 255); fill-opacity: 1; white-space: pre;">
            <tspan class="line" dy="0em" x="11.53125" y="10">
              <tspan style="font-weight:bold">24 %</tspan>
            </tspan>
            <tspan class="line" dy="1.3em" x="11.53125" y="10">(157)</tspan>
          </text>
        </g>
      </g>
    </g>
    <g class="annotation" data-index="7" style="opacity: 1;">
      <g class="annotation-text-g" transform="rotate(0,496.5,38.25)">
        <g class="cursor-pointer" transform="translate(485,25)">
          <rect class="bg" x="0.5" y="0.5" width="23" height="26" style="stroke-width: 1px; stroke: rgb(0, 0, 0); stroke-opacity: 0; fill: rgb(0, 0, 0); fill-opacity: 0;"/>
          <text class="annotation-text" text-anchor="middle" x="11.953125" y="10" style="font-family: 'Alegreya Sans', sans-serif; font-size: 10px; fill: rgb(255, 255, 255); fill-opacity: 1; white-space: pre;">
            <tspan class="line" dy="0em" x="11.953125" y="10">
              <tspan style="font-weight:bold">35 %</tspan>
            </tspan>
            <tspan class="line" dy="1.3em" x="11.953125" y="10">(230)</tspan>
          </text>
        </g>
      </g>
    </g>
    <g class="annotation" data-index="8" style="opacity: 1;">
      <g class="annotation-text-g" transform="rotate(0,588.04,38.25)">
        <g class="cursor-pointer" transform="translate(577,25)">
          <rect class="bg" x="0.5" y="0.5" width="21" height="26" style="stroke-width: 1px; stroke: rgb(0, 0, 0); stroke-opacity: 0; fill: rgb(0, 0, 0); fill-opacity: 0;"/>
          <text class="annotation-text" text-anchor="middle" x="11.109375" y="10" style="font-family: 'Alegreya Sans', sans-serif; font-size: 10px; fill: rgb(255, 255, 255); fill-opacity: 1; white-space: pre;">
            <tspan class="line" dy="0em" x="11.109375" y="10">
              <tspan style="font-weight:bold">21 %</tspan>
            </tspan>
            <tspan class="line" dy="1.3em" x="11.109375" y="10">(136)</tspan>
          </text>
        </g>
      </g>
    </g>
    <g class="annotation" data-index="9" style="opacity: 1;">
      <g class="annotation-text-g" transform="rotate(0,635.98,38.25)">
        <g class="cursor-pointer" transform="translate(634,36)">
          <rect class="bg" x="0.5" y="0.5" width="3" height="3" style="stroke-width: 1px; stroke: rgb(0, 0, 0); stroke-opacity: 0; fill: rgb(0, 0, 0); fill-opacity: 0;"/>
          <text class="annotation-text" text-anchor="middle" x="2" y="2" style="font-family: 'Alegreya Sans', sans-serif; font-size: 10px; fill: rgb(255, 255, 255); fill-opacity: 1; white-space: pre;"/>
        </g>
      </g>
    </g>
    <g class="annotation" data-index="10" style="opacity: 1;">
      <g class="annotation-text-g" transform="rotate(0,425.9,114.75)">
        <g class="cursor-pointer" transform="translate(424,113)">
          <rect class="bg" x="0.5" y="0.5" width="3" height="3" style="stroke-width: 1px; stroke: rgb(0, 0, 0); stroke-opacity: 0; fill: rgb(0, 0, 0); fill-opacity: 0;"/>
          <text class="annotation-text" text-anchor="middle" x="2" y="2" style="font-family: 'Alegreya Sans', sans-serif; font-size: 9px; fill: rgb(255, 255, 255); fill-opacity: 1; white-space: pre;"/>
        </g>
      </g>
    </g>
    <g class="annotation" data-index="11" style="opacity: 1;">
      <g class="annotation-text-g" transform="rotate(0,433,114.75)">
        <g class="cursor-pointer" transform="translate(431,113)">
          <rect class="bg" x="0.5" y="0.5" width="3" height="3" style="stroke-width: 1px; stroke: rgb(0, 0, 0); stroke-opacity: 0; fill: rgb(0, 0, 0); fill-opacity: 0;"/>
          <text class="annotation-text" text-anchor="middle" x="2" y="2" style="font-family: 'Alegreya Sans', sans-serif; font-size: 9px; fill: rgb(255, 255, 255); fill-opacity: 1; white-space: pre;"/>
        </g>
      </g>
    </g>
    <g class="annotation" data-index="12" style="opacity: 1;">
      <g class="annotation-text-g" transform="rotate(0,490.42,114.75)">
        <g class="cursor-pointer" transform="translate(488,113)">
          <rect class="bg" x="0.5" y="0.5" width="3" height="3" style="stroke-width: 1px; stroke: rgb(0, 0, 0); stroke-opacity: 0; fill: rgb(0, 0, 0); fill-opacity: 0;"/>
          <text class="annotation-text" text-anchor="middle" x="2" y="2" style="font-family: 'Alegreya Sans', sans-serif; font-size: 9px; fill: rgb(255, 255, 255); fill-opacity: 1; white-space: pre;"/>
        </g>
      </g>
    </g>
    <g class="annotation" data-index="13" style="opacity: 1;">
      <g class="annotation-text-g" transform="rotate(0,640.02,114.75)">
        <g class="cursor-pointer" transform="translate(638,113)">
          <rect class="bg" x="0.5" y="0.5" width="3" height="3" style="stroke-width: 1px; stroke: rgb(0, 0, 0); stroke-opacity: 0; fill: rgb(0, 0, 0); fill-opacity: 0;"/>
          <text class="annotation-text" text-anchor="middle" x="2" y="2" style="font-family: 'Alegreya Sans', sans-serif; font-size: 9px; fill: rgb(255, 255, 255); fill-opacity: 1; white-space: pre;"/>
        </g>
      </g>
    </g>
    <g class="annotation" data-index="14" style="opacity: 1;">
      <g class="annotation-text-g" transform="rotate(0,744.64,114.75)">
        <g class="cursor-pointer" transform="translate(743,113)">
          <rect class="bg" x="0.5" y="0.5" width="3" height="3" style="stroke-width: 1px; stroke: rgb(0, 0, 0); stroke-opacity: 0; fill: rgb(0, 0, 0); fill-opacity: 0;"/>
          <text class="annotation-text" text-anchor="middle" x="2" y="2" style="font-family: 'Alegreya Sans', sans-serif; font-size: 9px; fill: rgb(255, 255, 255); fill-opacity: 1; white-space: pre;"/>
        </g>
      </g>
    </g>
    <g class="annotation" data-index="15" style="opacity: 1;">
      <g class="annotation-text-g" transform="rotate(0,342.18,38.25)">
        <g class="cursor-pointer" transform="translate(340,36)">
          <rect class="bg" x="0.5" y="0.5" width="3" height="3" style="stroke-width: 1px; stroke: rgb(0, 0, 0); stroke-opacity: 0; fill: rgb(0, 0, 0); fill-opacity: 0;"/>
          <text class="annotation-text" text-anchor="middle" x="2" y="2" style="font-family: 'Alegreya Sans', sans-serif; font-size: 9px; fill: rgb(255, 255, 255); fill-opacity: 1; white-space: pre;"/>
        </g>
      </g>
    </g>
    <g class="annotation" data-index="16" style="opacity: 1;">
      <g class="annotation-text-g" transform="rotate(0,399.87,38.25)">
        <g class="cursor-pointer" transform="translate(398,36)">
          <rect class="bg" x="0.5" y="0.5" width="3" height="3" style="stroke-width: 1px; stroke: rgb(0, 0, 0); stroke-opacity: 0; fill: rgb(0, 0, 0); fill-opacity: 0;"/>
          <text class="annotation-text" text-anchor="middle" x="2" y="2" style="font-family: 'Alegreya Sans', sans-serif; font-size: 9px; fill: rgb(255, 255, 255); fill-opacity: 1; white-space: pre;"/>
        </g>
      </g>
    </g>
    <g class="annotation" data-index="17" style="opacity: 1;">
      <g class="annotation-text-g" transform="rotate(0,496.5,38.25)">
        <g class="cursor-pointer" transform="translate(495,36)">
          <rect class="bg" x="0.5" y="0.5" width="3" height="3" style="stroke-width: 1px; stroke: rgb(0, 0, 0); stroke-opacity: 0; fill: rgb(0, 0, 0); fill-opacity: 0;"/>
          <text class="annotation-text" text-anchor="middle" x="2" y="2" style="font-family: 'Alegreya Sans', sans-serif; font-size: 9px; fill: rgb(255, 255, 255); fill-opacity: 1; white-space: pre;"/>
        </g>
      </g>
    </g>
    <g class="annotation" data-index="18" style="opacity: 1;">
      <g class="annotation-text-g" transform="rotate(0,588.04,38.25)">
        <g class="cursor-pointer" transform="translate(586,36)">
          <rect class="bg" x="0.5" y="0.5" width="3" height="3" style="stroke-width: 1px; stroke: rgb(0, 0, 0); stroke-opacity: 0; fill: rgb(0, 0, 0); fill-opacity: 0;"/>
          <text class="annotation-text" text-anchor="middle" x="2" y="2" style="font-family: 'Alegreya Sans', sans-serif; font-size: 9px; fill: rgb(255, 255, 255); fill-opacity: 1; white-space: pre;"/>
        </g>
      </g>
    </g>
    <g class="annotation" data-index="19" style="opacity: 1;">
      <g class="annotation-text-g" transform="rotate(0,635.98,38.25)">
        <g class="cursor-pointer" transform="translate(634,36)">
          <rect class="bg" x="0.5" y="0.5" width="3" height="3" style="stroke-width: 1px; stroke: rgb(0, 0, 0); stroke-opacity: 0; fill: rgb(0, 0, 0); fill-opacity: 0;"/>
          <text class="annotation-text" text-anchor="middle" x="2" y="2" style="font-family: 'Alegreya Sans', sans-serif; font-size: 9px; fill: rgb(255, 255, 255); fill-opacity: 1; white-space: pre;"/>
        </g>
      </g>
    </g>
    <g class="annotation" data-index="20" style="opacity: 1;">
      <g class="annotation-text-g" transform="rotate(0,425.9,114.75)">
        <g class="cursor-pointer" transform="translate(424,113)">
          <rect class="bg" x="0.5" y="0.5" width="3" height="3" style="stroke-width: 1px; stroke: rgb(0, 0, 0); stroke-opacity: 0; fill: rgb(0, 0, 0); fill-opacity: 0;"/>
          <text class="annotation-text" text-anchor="middle" x="2" y="2" style="font-family: 'Alegreya Sans', sans-serif; font-size: 8px; fill: rgb(255, 255, 255); fill-opacity: 1; white-space: pre;"/>
        </g>
      </g>
    </g>
    <g class="annotation" data-index="21" style="opacity: 1;">
      <g class="annotation-text-g" transform="rotate(0,433,114.75)">
        <g class="cursor-pointer" transform="translate(431,113)">
          <rect class="bg" x="0.5" y="0.5" width="3" height="3" style="stroke-width: 1px; stroke: rgb(0, 0, 0); stroke-opacity: 0; fill: rgb(0, 0, 0); fill-opacity: 0;"/>
          <text class="annotation-text" text-anchor="middle" x="2" y="2" style="font-family: 'Alegreya Sans', sans-serif; font-size: 8px; fill: rgb(255, 255, 255); fill-opacity: 1; white-space: pre;"/>
        </g>
      </g>
    </g>
    <g class="annotation" data-index="22" style="opacity: 1;">
      <g class="annotation-text-g" transform="rotate(0,490.42,114.75)">
        <g class="cursor-pointer" transform="translate(488,113)">
          <rect class="bg" x="0.5" y="0.5" width="3" height="3" style="stroke-width: 1px; stroke: rgb(0, 0, 0); stroke-opacity: 0; fill: rgb(0, 0, 0); fill-opacity: 0;"/>
          <text class="annotation-text" text-anchor="middle" x="2" y="2" style="font-family: 'Alegreya Sans', sans-serif; font-size: 8px; fill: rgb(255, 255, 255); fill-opacity: 1; white-space: pre;"/>
        </g>
      </g>
    </g>
    <g class="annotation" data-index="23" style="opacity: 1;">
      <g class="annotation-text-g" transform="rotate(0,640.02,114.75)">
        <g class="cursor-pointer" transform="translate(638,113)">
          <rect class="bg" x="0.5" y="0.5" width="3" height="3" style="stroke-width: 1px; stroke: rgb(0, 0, 0); stroke-opacity: 0; fill: rgb(0, 0, 0); fill-opacity: 0;"/>
          <text class="annotation-text" text-anchor="middle" x="2" y="2" style="font-family: 'Alegreya Sans', sans-serif; font-size: 8px; fill: rgb(255, 255, 255); fill-opacity: 1; white-space: pre;"/>
        </g>
      </g>
    </g>
    <g class="annotation" data-index="24" style="opacity: 1;">
      <g class="annotation-text-g" transform="rotate(0,744.64,114.75)">
        <g class="cursor-pointer" transform="translate(743,113)">
          <rect class="bg" x="0.5" y="0.5" width="3" height="3" style="stroke-width: 1px; stroke: rgb(0, 0, 0); stroke-opacity: 0; fill: rgb(0, 0, 0); fill-opacity: 0;"/>
          <text class="annotation-text" text-anchor="middle" x="2" y="2" style="font-family: 'Alegreya Sans', sans-serif; font-size: 8px; fill: rgb(255, 255, 255); fill-opacity: 1; white-space: pre;"/>
        </g>
      </g>
    </g>
    <g class="annotation" data-index="25" style="opacity: 1;">
      <g class="annotation-text-g" transform="rotate(0,342.18,38.25)">
        <g class="cursor-pointer" transform="translate(340,36)">
          <rect class="bg" x="0.5" y="0.5" width="3" height="3" style="stroke-width: 1px; stroke: rgb(0, 0, 0); stroke-opacity: 0; fill: rgb(0, 0, 0); fill-opacity: 0;"/>
          <text class="annotation-text" text-anchor="middle" x="2" y="2" style="font-family: 'Alegreya Sans', sans-serif; font-size: 8px; fill: rgb(255, 255, 255); fill-opacity: 1; white-space: pre;"/>
        </g>
      </g>
    </g>
    <g class="annotation" data-index="26" style="opacity: 1;">
      <g class="annotation-text-g" transform="rotate(0,399.87,38.25)">
        <g class="cursor-pointer" transform="translate(398,36)">
          <rect class="bg" x="0.5" y="0.5" width="3" height="3" style="stroke-width: 1px; stroke: rgb(0, 0, 0); stroke-opacity: 0; fill: rgb(0, 0, 0); fill-opacity: 0;"/>
          <text class="annotation-text" text-anchor="middle" x="2" y="2" style="font-family: 'Alegreya Sans', sans-serif; font-size: 8px; fill: rgb(255, 255, 255); fill-opacity: 1; white-space: pre;"/>
        </g>
      </g>
    </g>
    <g class="annotation" data-index="27" style="opacity: 1;">
      <g class="annotation-text-g" transform="rotate(0,496.5,38.25)">
        <g class="cursor-pointer" transform="translate(495,36)">
          <rect class="bg" x="0.5" y="0.5" width="3" height="3" style="stroke-width: 1px; stroke: rgb(0, 0, 0); stroke-opacity: 0; fill: rgb(0, 0, 0); fill-opacity: 0;"/>
          <text class="annotation-text" text-anchor="middle" x="2" y="2" style="font-family: 'Alegreya Sans', sans-serif; font-size: 8px; fill: rgb(255, 255, 255); fill-opacity: 1; white-space: pre;"/>
        </g>
      </g>
    </g>
    <g class="annotation" data-index="28" style="opacity: 1;">
      <g class="annotation-text-g" transform="rotate(0,588.04,38.25)">
        <g class="cursor-pointer" transform="translate(586,36)">
          <rect class="bg" x="0.5" y="0.5" width="3" height="3" style="stroke-width: 1px; stroke: rgb(0, 0, 0); stroke-opacity: 0; fill: rgb(0, 0, 0); fill-opacity: 0;"/>
          <text class="annotation-text" text-anchor="middle" x="2" y="2" style="font-family: 'Alegreya Sans', sans-serif; font-size: 8px; fill: rgb(255, 255, 255); fill-opacity: 1; white-space: pre;"/>
        </g>
      </g>
    </g>
    <g class="annotation" data-index="29" style="opacity: 1;">
      <g class="annotation-text-g" transform="rotate(0,635.98,38.25)">
        <g class="cursor-pointer" transform="translate(628,27)">
          <rect class="bg" x="0.5" y="0.5" width="15" height="21" style="stroke-width: 1px; stroke: rgb(0, 0, 0); stroke-opacity: 0; fill: rgb(0, 0, 0); fill-opacity: 0;"/>
          <text class="annotation-text" text-anchor="middle" x="7.9375" y="8" style="font-family: 'Alegreya Sans', sans-serif; font-size: 8px; fill: rgb(255, 255, 255); fill-opacity: 1; white-space: pre;">
            <tspan class="line" dy="0em" x="7.9375" y="8">
              <tspan style="font-weight:bold">9 %</tspan>
            </tspan>
            <tspan class="line" dy="1.3em" x="7.9375" y="8">(56)</tspan>
          </text>
        </g>
      </g>
    </g>
    <g class="annotation" data-index="30" style="opacity: 1;">
      <g class="annotation-text-g" transform="rotate(0,425.9,114.75)">
        <g class="cursor-pointer" transform="translate(424,113)">
          <rect class="bg" x="0.5" y="0.5" width="3" height="3" style="stroke-width: 1px; stroke: rgb(0, 0, 0); stroke-opacity: 0; fill: rgb(0, 0, 0); fill-opacity: 0;"/>
          <text class="annotation-text" text-anchor="middle" x="2" y="2" style="font-family: 'Alegreya Sans', sans-serif; font-size: 7px; fill: rgb(255, 255, 255); fill-opacity: 1; white-space: pre;"/>
        </g>
      </g>
    </g>
    <g class="annotation" data-index="31" style="opacity: 1;">
      <g class="annotation-text-g" transform="rotate(0,433,114.75)">
        <g class="cursor-pointer" transform="translate(431,113)">
          <rect class="bg" x="0.5" y="0.5" width="3" height="3" style="stroke-width: 1px; stroke: rgb(0, 0, 0); stroke-opacity: 0; fill: rgb(0, 0, 0); fill-opacity: 0;"/>
          <text class="annotation-text" text-anchor="middle" x="2" y="2" style="font-family: 'Alegreya Sans', sans-serif; font-size: 7px; fill: rgb(255, 255, 255); fill-opacity: 1; white-space: pre;"/>
        </g>
      </g>
    </g>
    <g class="annotation" data-index="32" style="opacity: 1;">
      <g class="annotation-text-g" transform="rotate(0,490.42,114.75)">
        <g class="cursor-pointer" transform="translate(488,113)">
          <rect class="bg" x="0.5" y="0.5" width="3" height="3" style="stroke-width: 1px; stroke: rgb(0, 0, 0); stroke-opacity: 0; fill: rgb(0, 0, 0); fill-opacity: 0;"/>
          <text class="annotation-text" text-anchor="middle" x="2" y="2" style="font-family: 'Alegreya Sans', sans-serif; font-size: 7px; fill: rgb(255, 255, 255); fill-opacity: 1; white-space: pre;"/>
        </g>
      </g>
    </g>
    <g class="annotation" data-index="33" style="opacity: 1;">
      <g class="annotation-text-g" transform="rotate(0,640.02,114.75)">
        <g class="cursor-pointer" transform="translate(638,113)">
          <rect class="bg" x="0.5" y="0.5" width="3" height="3" style="stroke-width: 1px; stroke: rgb(0, 0, 0); stroke-opacity: 0; fill: rgb(0, 0, 0); fill-opacity: 0;"/>
          <text class="annotation-text" text-anchor="middle" x="2" y="2" style="font-family: 'Alegreya Sans', sans-serif; font-size: 7px; fill: rgb(255, 255, 255); fill-opacity: 1; white-space: pre;"/>
        </g>
      </g>
    </g>
    <g class="annotation" data-index="34" style="opacity: 1;">
      <g class="annotation-text-g" transform="rotate(0,744.64,114.75)">
        <g class="cursor-pointer" transform="translate(743,113)">
          <rect class="bg" x="0.5" y="0.5" width="3" height="3" style="stroke-width: 1px; stroke: rgb(0, 0, 0); stroke-opacity: 0; fill: rgb(0, 0, 0); fill-opacity: 0;"/>
          <text class="annotation-text" text-anchor="middle" x="2" y="2" style="font-family: 'Alegreya Sans', sans-serif; font-size: 7px; fill: rgb(255, 255, 255); fill-opacity: 1; white-space: pre;"/>
        </g>
      </g>
    </g>
    <g class="annotation" data-index="35" style="opacity: 1;">
      <g class="annotation-text-g" transform="rotate(0,342.18,38.25)">
        <g class="cursor-pointer" transform="translate(340,36)">
          <rect class="bg" x="0.5" y="0.5" width="3" height="3" style="stroke-width: 1px; stroke: rgb(0, 0, 0); stroke-opacity: 0; fill: rgb(0, 0, 0); fill-opacity: 0;"/>
          <text class="annotation-text" text-anchor="middle" x="2" y="2" style="font-family: 'Alegreya Sans', sans-serif; font-size: 7px; fill: rgb(255, 255, 255); fill-opacity: 1; white-space: pre;"/>
        </g>
      </g>
    </g>
    <g class="annotation" data-index="36" style="opacity: 1;">
      <g class="annotation-text-g" transform="rotate(0,399.87,38.25)">
        <g class="cursor-pointer" transform="translate(398,36)">
          <rect class="bg" x="0.5" y="0.5" width="3" height="3" style="stroke-width: 1px; stroke: rgb(0, 0, 0); stroke-opacity: 0; fill: rgb(0, 0, 0); fill-opacity: 0;"/>
          <text class="annotation-text" text-anchor="middle" x="2" y="2" style="font-family: 'Alegreya Sans', sans-serif; font-size: 7px; fill: rgb(255, 255, 255); fill-opacity: 1; white-space: pre;"/>
        </g>
      </g>
    </g>
    <g class="annotation" data-index="37" style="opacity: 1;">
      <g class="annotation-text-g" transform="rotate(0,496.5,38.25)">
        <g class="cursor-pointer" transform="translate(495,36)">
          <rect class="bg" x="0.5" y="0.5" width="3" height="3" style="stroke-width: 1px; stroke: rgb(0, 0, 0); stroke-opacity: 0; fill: rgb(0, 0, 0); fill-opacity: 0;"/>
          <text class="annotation-text" text-anchor="middle" x="2" y="2" style="font-family: 'Alegreya Sans', sans-serif; font-size: 7px; fill: rgb(255, 255, 255); fill-opacity: 1; white-space: pre;"/>
        </g>
      </g>
    </g>
    <g class="annotation" data-index="38" style="opacity: 1;">
      <g class="annotation-text-g" transform="rotate(0,588.04,38.25)">
        <g class="cursor-pointer" transform="translate(586,36)">
          <rect class="bg" x="0.5" y="0.5" width="3" height="3" style="stroke-width: 1px; stroke: rgb(0, 0, 0); stroke-opacity: 0; fill: rgb(0, 0, 0); fill-opacity: 0;"/>
          <text class="annotation-text" text-anchor="middle" x="2" y="2" style="font-family: 'Alegreya Sans', sans-serif; font-size: 7px; fill: rgb(255, 255, 255); fill-opacity: 1; white-space: pre;"/>
        </g>
      </g>
    </g>
    <g class="annotation" data-index="39" style="opacity: 1;">
      <g class="annotation-text-g" transform="rotate(0,635.98,38.25)">
        <g class="cursor-pointer" transform="translate(634,36)">
          <rect class="bg" x="0.5" y="0.5" width="3" height="3" style="stroke-width: 1px; stroke: rgb(0, 0, 0); stroke-opacity: 0; fill: rgb(0, 0, 0); fill-opacity: 0;"/>
          <text class="annotation-text" text-anchor="middle" x="2" y="2" style="font-family: 'Alegreya Sans', sans-serif; font-size: 7px; fill: rgb(255, 255, 255); fill-opacity: 1; white-space: pre;"/>
        </g>
      </g>
    </g>
    <g class="annotation" data-index="40" style="opacity: 1;">
      <g class="annotation-text-g" transform="rotate(0,425.9,114.75)">
        <g class="cursor-pointer" transform="translate(424,113)">
          <rect class="bg" x="0.5" y="0.5" width="3" height="3" style="stroke-width: 1px; stroke: rgb(0, 0, 0); stroke-opacity: 0; fill: rgb(0, 0, 0); fill-opacity: 0;"/>
          <text class="annotation-text" text-anchor="middle" x="2" y="2" style="font-family: 'Alegreya Sans', sans-serif; font-size: 6px; fill: rgb(255, 255, 255); fill-opacity: 1; white-space: pre;"/>
        </g>
      </g>
    </g>
    <g class="annotation" data-index="41" style="opacity: 1;">
      <g class="annotation-text-g" transform="rotate(0,433,114.75)">
        <g class="cursor-pointer" transform="translate(431,113)">
          <rect class="bg" x="0.5" y="0.5" width="3" height="3" style="stroke-width: 1px; stroke: rgb(0, 0, 0); stroke-opacity: 0; fill: rgb(0, 0, 0); fill-opacity: 0;"/>
          <text class="annotation-text" text-anchor="middle" x="2" y="2" style="font-family: 'Alegreya Sans', sans-serif; font-size: 6px; fill: rgb(255, 255, 255); fill-opacity: 1; white-space: pre;"/>
        </g>
      </g>
    </g>
    <g class="annotation" data-index="42" style="opacity: 1;">
      <g class="annotation-text-g" transform="rotate(0,490.42,114.75)">
        <g class="cursor-pointer" transform="translate(488,113)">
          <rect class="bg" x="0.5" y="0.5" width="3" height="3" style="stroke-width: 1px; stroke: rgb(0, 0, 0); stroke-opacity: 0; fill: rgb(0, 0, 0); fill-opacity: 0;"/>
          <text class="annotation-text" text-anchor="middle" x="2" y="2" style="font-family: 'Alegreya Sans', sans-serif; font-size: 6px; fill: rgb(255, 255, 255); fill-opacity: 1; white-space: pre;"/>
        </g>
      </g>
    </g>
    <g class="annotation" data-index="43" style="opacity: 1;">
      <g class="annotation-text-g" transform="rotate(0,640.02,114.75)">
        <g class="cursor-pointer" transform="translate(638,113)">
          <rect class="bg" x="0.5" y="0.5" width="3" height="3" style="stroke-width: 1px; stroke: rgb(0, 0, 0); stroke-opacity: 0; fill: rgb(0, 0, 0); fill-opacity: 0;"/>
          <text class="annotation-text" text-anchor="middle" x="2" y="2" style="font-family: 'Alegreya Sans', sans-serif; font-size: 6px; fill: rgb(255, 255, 255); fill-opacity: 1; white-space: pre;"/>
        </g>
      </g>
    </g>
    <g class="annotation" data-index="44" style="opacity: 1;">
      <g class="annotation-text-g" transform="rotate(0,744.64,114.75)">
        <g class="cursor-pointer" transform="translate(743,113)">
          <rect class="bg" x="0.5" y="0.5" width="3" height="3" style="stroke-width: 1px; stroke: rgb(0, 0, 0); stroke-opacity: 0; fill: rgb(0, 0, 0); fill-opacity: 0;"/>
          <text class="annotation-text" text-anchor="middle" x="2" y="2" style="font-family: 'Alegreya Sans', sans-serif; font-size: 6px; fill: rgb(255, 255, 255); fill-opacity: 1; white-space: pre;"/>
        </g>
      </g>
    </g>
    <g class="annotation" data-index="45" style="opacity: 1;">
      <g class="annotation-text-g" transform="rotate(0,342.18,38.25)">
        <g class="cursor-pointer" transform="translate(340,36)">
          <rect class="bg" x="0.5" y="0.5" width="3" height="3" style="stroke-width: 1px; stroke: rgb(0, 0, 0); stroke-opacity: 0; fill: rgb(0, 0, 0); fill-opacity: 0;"/>
          <text class="annotation-text" text-anchor="middle" x="2" y="2" style="font-family: 'Alegreya Sans', sans-serif; font-size: 6px; fill: rgb(255, 255, 255); fill-opacity: 1; white-space: pre;"/>
        </g>
      </g>
    </g>
    <g class="annotation" data-index="46" style="opacity: 1;">
      <g class="annotation-text-g" transform="rotate(0,399.87,38.25)">
        <g class="cursor-pointer" transform="translate(398,36)">
          <rect class="bg" x="0.5" y="0.5" width="3" height="3" style="stroke-width: 1px; stroke: rgb(0, 0, 0); stroke-opacity: 0; fill: rgb(0, 0, 0); fill-opacity: 0;"/>
          <text class="annotation-text" text-anchor="middle" x="2" y="2" style="font-family: 'Alegreya Sans', sans-serif; font-size: 6px; fill: rgb(255, 255, 255); fill-opacity: 1; white-space: pre;"/>
        </g>
      </g>
    </g>
    <g class="annotation" data-index="47" style="opacity: 1;">
      <g class="annotation-text-g" transform="rotate(0,496.5,38.25)">
        <g class="cursor-pointer" transform="translate(495,36)">
          <rect class="bg" x="0.5" y="0.5" width="3" height="3" style="stroke-width: 1px; stroke: rgb(0, 0, 0); stroke-opacity: 0; fill: rgb(0, 0, 0); fill-opacity: 0;"/>
          <text class="annotation-text" text-anchor="middle" x="2" y="2" style="font-family: 'Alegreya Sans', sans-serif; font-size: 6px; fill: rgb(255, 255, 255); fill-opacity: 1; white-space: pre;"/>
        </g>
      </g>
    </g>
    <g class="annotation" data-index="48" style="opacity: 1;">
      <g class="annotation-text-g" transform="rotate(0,588.04,38.25)">
        <g class="cursor-pointer" transform="translate(586,36)">
          <rect class="bg" x="0.5" y="0.5" width="3" height="3" style="stroke-width: 1px; stroke: rgb(0, 0, 0); stroke-opacity: 0; fill: rgb(0, 0, 0); fill-opacity: 0;"/>
          <text class="annotation-text" text-anchor="middle" x="2" y="2" style="font-family: 'Alegreya Sans', sans-serif; font-size: 6px; fill: rgb(255, 255, 255); fill-opacity: 1; white-space: pre;"/>
        </g>
      </g>
    </g>
    <g class="annotation" data-index="49" style="opacity: 1;">
      <g class="annotation-text-g" transform="rotate(0,635.98,38.25)">
        <g class="cursor-pointer" transform="translate(634,36)">
          <rect class="bg" x="0.5" y="0.5" width="3" height="3" style="stroke-width: 1px; stroke: rgb(0, 0, 0); stroke-opacity: 0; fill: rgb(0, 0, 0); fill-opacity: 0;"/>
          <text class="annotation-text" text-anchor="middle" x="2" y="2" style="font-family: 'Alegreya Sans', sans-serif; font-size: 6px; fill: rgb(255, 255, 255); fill-opacity: 1; white-space: pre;"/>
        </g>
      </g>
    </g>
    <g class="annotation" data-index="50" style="opacity: 1;">
      <g class="annotation-text-g" transform="rotate(0,425.9,114.75)">
        <g class="cursor-pointer" transform="translate(420,106)">
          <rect class="bg" x="0.5" y="0.5" width="10" height="16" style="stroke-width: 1px; stroke: rgb(0, 0, 0); stroke-opacity: 0; fill: rgb(0, 0, 0); fill-opacity: 0;"/>
          <text class="annotation-text" text-anchor="middle" x="5.234375" y="7" style="font-family: 'Alegreya Sans', sans-serif; font-size: 5px; fill: rgb(255, 255, 255); fill-opacity: 1; white-space: pre;">
            <tspan class="line" dy="0em" x="5.234375" y="7">
              <tspan style="font-weight:bold">1 %</tspan>
            </tspan>
            <tspan class="line" dy="1.3em" x="5.234375" y="7">(4)</tspan>
          </text>
        </g>
      </g>
    </g>
    <g class="annotation" data-index="51" style="opacity: 1;">
      <g class="annotation-text-g" transform="rotate(0,433,114.75)">
        <g class="cursor-pointer" transform="translate(427,106)">
          <rect class="bg" x="0.5" y="0.5" width="11" height="16" style="stroke-width: 1px; stroke: rgb(0, 0, 0); stroke-opacity: 0; fill: rgb(0, 0, 0); fill-opacity: 0;"/>
          <text class="annotation-text" text-anchor="middle" x="5.828125" y="7" style="font-family: 'Alegreya Sans', sans-serif; font-size: 5px; fill: rgb(255, 255, 255); fill-opacity: 1; white-space: pre;">
            <tspan class="line" dy="0em" x="5.828125" y="7">
              <tspan style="font-weight:bold">4 %</tspan>
            </tspan>
            <tspan class="line" dy="1.3em" x="5.828125" y="7">(24)</tspan>
          </text>
        </g>
      </g>
    </g>
    <g class="annotation" data-index="52" style="opacity: 1;">
      <g class="annotation-text-g" transform="rotate(0,490.42,114.75)">
        <g class="cursor-pointer" transform="translate(488,113)">
          <rect class="bg" x="0.5" y="0.5" width="3" height="3" style="stroke-width: 1px; stroke: rgb(0, 0, 0); stroke-opacity: 0; fill: rgb(0, 0, 0); fill-opacity: 0;"/>
          <text class="annotation-text" text-anchor="middle" x="2" y="2" style="font-family: 'Alegreya Sans', sans-serif; font-size: 5px; fill: rgb(255, 255, 255); fill-opacity: 1; white-space: pre;"/>
        </g>
      </g>
    </g>
    <g class="annotation" data-index="53" style="opacity: 1;">
      <g class="annotation-text-g" transform="rotate(0,640.02,114.75)">
        <g class="cursor-pointer" transform="translate(638,113)">
          <rect class="bg" x="0.5" y="0.5" width="3" height="3" style="stroke-width: 1px; stroke: rgb(0, 0, 0); stroke-opacity: 0; fill: rgb(0, 0, 0); fill-opacity: 0;"/>
          <text class="annotation-text" text-anchor="middle" x="2" y="2" style="font-family: 'Alegreya Sans', sans-serif; font-size: 5px; fill: rgb(255, 255, 255); fill-opacity: 1; white-space: pre;"/>
        </g>
      </g>
    </g>
    <g class="annotation" data-index="54" style="opacity: 1;">
      <g class="annotation-text-g" transform="rotate(0,744.64,114.75)">
        <g class="cursor-pointer" transform="translate(739,106)">
          <rect class="bg" x="0.5" y="0.5" width="11" height="16" style="stroke-width: 1px; stroke: rgb(0, 0, 0); stroke-opacity: 0; fill: rgb(0, 0, 0); fill-opacity: 0;"/>
          <text class="annotation-text" text-anchor="middle" x="5.8125" y="7" style="font-family: 'Alegreya Sans', sans-serif; font-size: 5px; fill: rgb(255, 255, 255); fill-opacity: 1; white-space: pre;">
            <tspan class="line" dy="0em" x="5.8125" y="7">
              <tspan style="font-weight:bold">4 %</tspan>
            </tspan>
            <tspan class="line" dy="1.3em" x="5.8125" y="7">(26)</tspan>
          </text>
        </g>
      </g>
    </g>
    <g class="annotation" data-index="55" style="opacity: 1;">
      <g class="annotation-text-g" transform="rotate(0,342.18,38.25)">
        <g class="cursor-pointer" transform="translate(340,36)">
          <rect class="bg" x="0.5" y="0.5" width="3" height="3" style="stroke-width: 1px; stroke: rgb(0, 0, 0); stroke-opacity: 0; fill: rgb(0, 0, 0); fill-opacity: 0;"/>
          <text class="annotation-text" text-anchor="middle" x="2" y="2" style="font-family: 'Alegreya Sans', sans-serif; font-size: 5px; fill: rgb(255, 255, 255); fill-opacity: 1; white-space: pre;"/>
        </g>
      </g>
    </g>
    <g class="annotation" data-index="56" style="opacity: 1;">
      <g class="annotation-text-g" transform="rotate(0,399.87,38.25)">
        <g class="cursor-pointer" transform="translate(398,36)">
          <rect class="bg" x="0.5" y="0.5" width="3" height="3" style="stroke-width: 1px; stroke: rgb(0, 0, 0); stroke-opacity: 0; fill: rgb(0, 0, 0); fill-opacity: 0;"/>
          <text class="annotation-text" text-anchor="middle" x="2" y="2" style="font-family: 'Alegreya Sans', sans-serif; font-size: 5px; fill: rgb(255, 255, 255); fill-opacity: 1; white-space: pre;"/>
        </g>
      </g>
    </g>
    <g class="annotation" data-index="57" style="opacity: 1;">
      <g class="annotation-text-g" transform="rotate(0,496.5,38.25)">
        <g class="cursor-pointer" transform="translate(495,36)">
          <rect class="bg" x="0.5" y="0.5" width="3" height="3" style="stroke-width: 1px; stroke: rgb(0, 0, 0); stroke-opacity: 0; fill: rgb(0, 0, 0); fill-opacity: 0;"/>
          <text class="annotation-text" text-anchor="middle" x="2" y="2" style="font-family: 'Alegreya Sans', sans-serif; font-size: 5px; fill: rgb(255, 255, 255); fill-opacity: 1; white-space: pre;"/>
        </g>
      </g>
    </g>
    <g class="annotation" data-index="58" style="opacity: 1;">
      <g class="annotation-text-g" transform="rotate(0,588.04,38.25)">
        <g class="cursor-pointer" transform="translate(586,36)">
          <rect class="bg" x="0.5" y="0.5" width="3" height="3" style="stroke-width: 1px; stroke: rgb(0, 0, 0); stroke-opacity: 0; fill: rgb(0, 0, 0); fill-opacity: 0;"/>
          <text class="annotation-text" text-anchor="middle" x="2" y="2" style="font-family: 'Alegreya Sans', sans-serif; font-size: 5px; fill: rgb(255, 255, 255); fill-opacity: 1; white-space: pre;"/>
        </g>
      </g>
    </g>
    <g class="annotation" data-index="59" style="opacity: 1;">
      <g class="annotation-text-g" transform="rotate(0,635.98,38.25)">
        <g class="cursor-pointer" transform="translate(634,36)">
          <rect class="bg" x="0.5" y="0.5" width="3" height="3" style="stroke-width: 1px; stroke: rgb(0, 0, 0); stroke-opacity: 0; fill: rgb(0, 0, 0); fill-opacity: 0;"/>
          <text class="annotation-text" text-anchor="middle" x="2" y="2" style="font-family: 'Alegreya Sans', sans-serif; font-size: 5px; fill: rgb(255, 255, 255); fill-opacity: 1; white-space: pre;"/>
        </g>
      </g>
    </g>
  </g>
</svg>
