<svg xmlns="http://www.w3.org/2000/svg" xmlns:xlink="http://www.w3.org/1999/xlink" class="main-svg" width="100%" height="100%" style="" viewBox="1 1 799 196">
  <rect x="0" y="0" width="800" height="197" style="fill: rgb(255, 255, 255); fill-opacity: 1;"/>
  <defs id="defs-0c566f">
    <g class="clips">
      <clipPath id="clip0c566fxyplot" class="plotclip">
        <rect width="722" height="135"/>
      </clipPath>
      <clipPath class="axesclip" id="clip0c566fx">
        <rect x="78" y="0" width="722" height="197"/>
      </clipPath>
      <clipPath class="axesclip" id="clip0c566fy">
        <rect x="0" y="0" width="800" height="135"/>
      </clipPath>
      <clipPath class="axesclip" id="clip0c566fxy">
        <rect x="78" y="0" width="722" height="135"/>
      </clipPath>
    </g>
    <g class="gradients"/>
    <g class="patterns"/>
  </defs>
  <g class="bglayer"/>
  <g class="layer-below">
    <g class="imagelayer"/>
    <g class="shapelayer"/>
  </g>
  <g class="cartesianlayer">
    <g class="subplot xy">
      <g class="layer-subplot">
        <g class="shapelayer"/>
        <g class="imagelayer"/>
      </g>
      <g class="gridlayer">
        <g class="x">
          <path class="xgrid crisp" transform="translate(154.51999999999998,0)" d="M0,0v135" style="stroke: rgb(238, 238, 238); stroke-opacity: 1; stroke-width: 1px;"/>
          <path class="xgrid crisp" transform="translate(249.35,0)" d="M0,0v135" style="stroke: rgb(238, 238, 238); stroke-opacity: 1; stroke-width: 1px;"/>
          <path class="xgrid crisp" transform="translate(344.17,0)" d="M0,0v135" style="stroke: rgb(238, 238, 238); stroke-opacity: 1; stroke-width: 1px;"/>
          <path class="xgrid crisp" transform="translate(533.8299999999999,0)" d="M0,0v135" style="stroke: rgb(238, 238, 238); stroke-opacity: 1; stroke-width: 1px;"/>
          <path class="xgrid crisp" transform="translate(628.65,0)" d="M0,0v135" style="stroke: rgb(238, 238, 238); stroke-opacity: 1; stroke-width: 1px;"/>
          <path class="xgrid crisp" transform="translate(723.48,0)" d="M0,0v135" style="stroke: rgb(238, 238, 238); stroke-opacity: 1; stroke-width: 1px;"/>
        </g>
        <g class="y"/>
      </g>
      <g class="zerolinelayer">
        <path class="xzl zl crisp" transform="translate(439,0)" d="M0,0v135" style="stroke: rgb(238, 238, 238); stroke-opacity: 1; stroke-width: 1px;"/>
      </g>
      <path class="xlines-below"/>
      <path class="ylines-below"/>
      <g class="overlines-below"/>
      <g class="xaxislayer-below"/>
      <g class="yaxislayer-below"/>
      <g class="overaxes-below"/>
      <g class="plot" transform="translate(78,0)" clip-path="url(#clip0c566fxyplot)">
        <g class="barlayer mlayer">
          <g class="trace bars" style="opacity: 1;">
            <g class="points">
              <g class="point">
                <path d="M361,128.25V74.25H494.82V128.25Z" style="vector-effect: non-scaling-stroke; opacity: 1; stroke-width: 1px; fill: rgb(200, 223, 32); fill-opacity: 1; stroke: rgb(255, 255, 255); stroke-opacity: 1;"/>
                <text class="bartext bartext-inside" text-anchor="middle" data-notex="1" x="0" y="0" style="font-family: 'Alegreya Sans', sans-serif; font-size: 12px; fill: rgb(200, 223, 32); fill-opacity: 1; white-space: pre;" transform="translate(481.28875,105.25)">35 %</text>
              </g>
              <g class="point">
                <path d="M361,60.75V6.75H488.6V60.75Z" style="vector-effect: non-scaling-stroke; opacity: 1; stroke-width: 1px; fill: rgb(200, 223, 32); fill-opacity: 1; stroke: rgb(255, 255, 255); stroke-opacity: 1;"/>
                <text class="bartext bartext-inside" text-anchor="middle" data-notex="1" x="0" y="0" style="font-family: 'Alegreya Sans', sans-serif; font-size: 12px; fill: rgb(200, 223, 32); fill-opacity: 1; white-space: pre;" transform="translate(474.678125,37.75)">34 %</text>
              </g>
            </g>
          </g>
          <g class="trace bars" style="opacity: 1;">
            <g class="points">
              <g class="point">
                <path d="M494.82,128.25V74.25H650.47V128.25Z" style="vector-effect: non-scaling-stroke; opacity: 1; stroke-width: 1px; fill: rgb(25, 179, 25); fill-opacity: 1; stroke: rgb(255, 255, 255); stroke-opacity: 1;"/>
                <text class="bartext bartext-inside" text-anchor="middle" data-notex="1" x="0" y="0" style="font-family: 'Alegreya Sans', sans-serif; font-size: 12px; fill: rgb(25, 179, 25); fill-opacity: 1; white-space: pre;" transform="translate(636.954375,105.25)">41 %</text>
              </g>
              <g class="point">
                <path d="M488.6,60.75V6.75H523.1V60.75Z" style="vector-effect: non-scaling-stroke; opacity: 1; stroke-width: 1px; fill: rgb(25, 179, 25); fill-opacity: 1; stroke: rgb(255, 255, 255); stroke-opacity: 1;"/>
                <text class="bartext bartext-inside" text-anchor="middle" data-notex="1" x="0" y="0" style="font-family: 'Alegreya Sans', sans-serif; font-size: 12px; fill: rgb(25, 179, 25); fill-opacity: 1; white-space: pre;" transform="translate(511.725,37.75)">9 %</text>
              </g>
            </g>
          </g>
          <g class="trace bars" style="opacity: 1;">
            <g class="points">
              <g class="point">
                <path d="M650.47,128.25V74.25H665.1V128.25Z" style="vector-effect: non-scaling-stroke; opacity: 1; stroke-width: 1px; fill: rgb(229, 229, 229); fill-opacity: 1; stroke: rgb(255, 255, 255); stroke-opacity: 1;"/>
                <text class="bartext bartext-outside" text-anchor="middle" data-notex="1" x="0" y="0" style="font-family: 'Alegreya Sans', sans-serif; font-size: 12px; fill: rgb(229, 229, 229); fill-opacity: 1; white-space: pre;" transform="translate(676.428125,105.25)">4 %</text>
              </g>
              <g class="point">
                <path d="M523.1,60.75V6.75H567.26V60.75Z" style="vector-effect: non-scaling-stroke; opacity: 1; stroke-width: 1px; fill: rgb(229, 229, 229); fill-opacity: 1; stroke: rgb(255, 255, 255); stroke-opacity: 1;"/>
                <text class="bartext bartext-inside" text-anchor="middle" data-notex="1" x="0" y="0" style="font-family: 'Alegreya Sans', sans-serif; font-size: 12px; fill: rgb(229, 229, 229); fill-opacity: 1; white-space: pre;" transform="translate(553.900625,37.75)">12 %</text>
              </g>
            </g>
          </g>
          <g class="trace bars" style="opacity: 1;">
            <g class="points">
              <g class="point">
                <path d="M361,128.25V74.25H305.04V128.25Z" style="vector-effect: non-scaling-stroke; opacity: 1; stroke-width: 1px; fill: rgb(245, 171, 61); fill-opacity: 1; stroke: rgb(255, 255, 255); stroke-opacity: 1;"/>
                <text class="bartext bartext-inside" text-anchor="middle" data-notex="1" x="0" y="0" style="font-family: 'Alegreya Sans', sans-serif; font-size: 12px; fill: rgb(245, 171, 61); fill-opacity: 1; white-space: pre;" transform="translate(318.055625,105.25)">15 %</text>
              </g>
              <g class="point">
                <path d="M361,60.75V6.75H245.72V60.75Z" style="vector-effect: non-scaling-stroke; opacity: 1; stroke-width: 1px; fill: rgb(245, 171, 61); fill-opacity: 1; stroke: rgb(255, 255, 255); stroke-opacity: 1;"/>
                <text class="bartext bartext-inside" text-anchor="middle" data-notex="1" x="0" y="0" style="font-family: 'Alegreya Sans', sans-serif; font-size: 12px; fill: rgb(245, 171, 61); fill-opacity: 1; white-space: pre;" transform="translate(259.81375,37.75)">30 %</text>
              </g>
            </g>
          </g>
          <g class="trace bars" style="opacity: 1;">
            <g class="points">
              <g class="point">
                <path d="M305.04,128.25V74.25H285.8V128.25Z" style="vector-effect: non-scaling-stroke; opacity: 1; stroke-width: 1px; fill: rgb(224, 64, 36); fill-opacity: 1; stroke: rgb(255, 255, 255); stroke-opacity: 1;"/>
                <text class="bartext bartext-inside" text-anchor="middle" data-notex="1" x="0" y="0" style="font-family: 'Alegreya Sans', sans-serif; font-size: 12px; fill: rgb(224, 64, 36); fill-opacity: 1; white-space: pre;" transform="translate(294.7453125,105.25)rotate(90 0.0546875 -4)">5 %</text>
              </g>
              <g class="point">
                <path d="M245.72,60.75V6.75H187.95V60.75Z" style="vector-effect: non-scaling-stroke; opacity: 1; stroke-width: 1px; fill: rgb(224, 64, 36); fill-opacity: 1; stroke: rgb(255, 255, 255); stroke-opacity: 1;"/>
                <text class="bartext bartext-inside" text-anchor="middle" data-notex="1" x="0" y="0" style="font-family: 'Alegreya Sans', sans-serif; font-size: 12px; fill: rgb(224, 64, 36); fill-opacity: 1; white-space: pre;" transform="translate(200.965625,37.75)">15 %</text>
              </g>
            </g>
          </g>
          <g class="trace bars" style="opacity: 1;">
            <g class="points">
              <g class="point">
                <path d="M0,0Z" style="vector-effect: non-scaling-stroke; opacity: 1; stroke-width: 0px; fill: rgb(229, 229, 229); fill-opacity: 1;"/>
              </g>
              <g class="point">
                <path d="M0,0Z" style="vector-effect: non-scaling-stroke; opacity: 1; stroke-width: 0px; fill: rgb(229, 229, 229); fill-opacity: 1;"/>
              </g>
            </g>
          </g>
          <g class="trace bars" style="opacity: 1;">
            <g class="points">
              <g class="point">
                <path d="M0,0Z" style="vector-effect: non-scaling-stroke; opacity: 1; stroke-width: 0px; fill: rgb(25, 179, 25); fill-opacity: 1;"/>
              </g>
              <g class="point">
                <path d="M0,0Z" style="vector-effect: non-scaling-stroke; opacity: 1; stroke-width: 0px; fill: rgb(25, 179, 25); fill-opacity: 1;"/>
              </g>
            </g>
          </g>
          <g class="trace bars" style="opacity: 1;">
            <g class="points">
              <g class="point">
                <path d="M0,0Z" style="vector-effect: non-scaling-stroke; opacity: 1; stroke-width: 0px; fill: rgb(200, 223, 32); fill-opacity: 1;"/>
              </g>
              <g class="point">
                <path d="M0,0Z" style="vector-effect: non-scaling-stroke; opacity: 1; stroke-width: 0px; fill: rgb(200, 223, 32); fill-opacity: 1;"/>
              </g>
            </g>
          </g>
          <g class="trace bars" style="opacity: 1;">
            <g class="points">
              <g class="point">
                <path d="M0,0Z" style="vector-effect: non-scaling-stroke; opacity: 1; stroke-width: 0px; fill: rgb(245, 171, 61); fill-opacity: 1;"/>
              </g>
              <g class="point">
                <path d="M0,0Z" style="vector-effect: non-scaling-stroke; opacity: 1; stroke-width: 0px; fill: rgb(245, 171, 61); fill-opacity: 1;"/>
              </g>
            </g>
          </g>
          <g class="trace bars" style="opacity: 1;">
            <g class="points">
              <g class="point">
                <path d="M0,0Z" style="vector-effect: non-scaling-stroke; opacity: 1; stroke-width: 0px; fill: rgb(224, 64, 36); fill-opacity: 1;"/>
              </g>
              <g class="point">
                <path d="M0,0Z" style="vector-effect: non-scaling-stroke; opacity: 1; stroke-width: 0px; fill: rgb(224, 64, 36); fill-opacity: 1;"/>
              </g>
            </g>
          </g>
        </g>
      </g>
      <g class="overplot"/>
      <path class="xlines-above crisp" d="M0,0" style="fill: none;"/>
      <path class="ylines-above crisp" d="M0,0" style="fill: none;"/>
      <g class="overlines-above"/>
      <g class="xaxislayer-above">
        <g class="xtick">
          <text text-anchor="middle" x="0" y="148" transform="translate(154.51999999999998,0)" style="font-family: 'Alegreya Sans', sans-serif; font-size: 12px; fill: rgb(0, 0, 0); fill-opacity: 1; white-space: pre; opacity: 1;"/>
        </g>
        <g class="xtick">
          <text text-anchor="middle" x="0" y="148" style="font-family: 'Alegreya Sans', sans-serif; font-size: 12px; fill: rgb(0, 0, 0); fill-opacity: 1; white-space: pre; opacity: 1;" transform="translate(249.35,0)">50 %</text>
        </g>
        <g class="xtick">
          <text text-anchor="middle" x="0" y="148" style="font-family: 'Alegreya Sans', sans-serif; font-size: 12px; fill: rgb(0, 0, 0); fill-opacity: 1; white-space: pre; opacity: 1;" transform="translate(344.17,0)"/>
        </g>
        <g class="xtick">
          <text text-anchor="middle" x="0" y="148" style="font-family: 'Alegreya Sans', sans-serif; font-size: 12px; fill: rgb(0, 0, 0); fill-opacity: 1; white-space: pre; opacity: 1;" transform="translate(439,0)">0 %</text>
        </g>
        <g class="xtick">
          <text text-anchor="middle" x="0" y="148" style="font-family: 'Alegreya Sans', sans-serif; font-size: 12px; fill: rgb(0, 0, 0); fill-opacity: 1; white-space: pre; opacity: 1;" transform="translate(533.8299999999999,0)"/>
        </g>
        <g class="xtick">
          <text text-anchor="middle" x="0" y="148" style="font-family: 'Alegreya Sans', sans-serif; font-size: 12px; fill: rgb(0, 0, 0); fill-opacity: 1; white-space: pre; opacity: 1;" transform="translate(628.65,0)">50 %</text>
        </g>
        <g class="xtick">
          <text text-anchor="middle" x="0" y="148" style="font-family: 'Alegreya Sans', sans-serif; font-size: 12px; fill: rgb(0, 0, 0); fill-opacity: 1; white-space: pre; opacity: 1;" transform="translate(723.48,0)"/>
        </g>
      </g>
      <g class="yaxislayer-above">
        <g class="ytick">
          <text text-anchor="end" x="77" y="3.8499999999999996" transform="translate(0,101.25)" style="font-family: 'Alegreya Sans', sans-serif; font-size: 11px; fill: rgb(0, 0, 0); fill-opacity: 1; white-space: pre; opacity: 1;">Ja (angenommen)</text>
        </g>
        <g class="ytick">
          <text text-anchor="end" x="77" y="3.8499999999999996" transform="translate(0,33.75)" style="font-family: 'Alegreya Sans', sans-serif; font-size: 11px; fill: rgb(0, 0, 0); fill-opacity: 1; white-space: pre; opacity: 1;">Nein (abgelehnt)</text>
        </g>
      </g>
      <g class="overaxes-above"/>
    </g>
  </g>
  <g class="polarlayer"/>
  <g class="smithlayer"/>
  <g class="ternarylayer"/>
  <g class="geolayer"/>
  <g class="funnelarealayer"/>
  <g class="pielayer"/>
  <g class="iciclelayer"/>
  <g class="treemaplayer"/>
  <g class="sunburstlayer"/>
  <g class="glimages"/>
  <defs id="topdefs-0c566f">
    <g class="clips"/>
    <clipPath id="legend0c566f">
      <rect width="513" height="48" x="0" y="0"/>
    </clipPath>
  </defs>
  <g class="layer-above">
    <g class="imagelayer"/>
    <g class="shapelayer"/>
  </g>
  <g class="infolayer">
    <g class="legend" pointer-events="all" transform="translate(78,148.5)">
      <rect class="bg" shape-rendering="crispEdges" width="513" height="48" x="0" y="0" style="stroke: rgb(68, 68, 68); stroke-opacity: 1; fill: rgb(255, 255, 255); fill-opacity: 1; stroke-width: 0px;"/>
      <g class="scrollbox" transform="" clip-path="url(#legend0c566f)">
        <g class="groups">
          <g class="traces" transform="translate(0,14.5)" style="opacity: 1;">
            <text class="legendtext" text-anchor="start" x="40" y="4.680000000000001" style="font-family: 'Alegreya Sans', sans-serif; font-size: 12px; fill: rgb(0, 0, 0); fill-opacity: 1; white-space: pre;">überhaupt nicht einverstanden</text>
            <g class="layers" style="opacity: 1;">
              <g class="legendfill"/>
              <g class="legendlines"/>
              <g class="legendsymbols">
                <g class="legendpoints">
                  <path class="legendundefined" d="M6,6H-6V-6H6Z" transform="translate(20,0)" style="stroke-width: 0px; fill: rgb(224, 64, 36); fill-opacity: 1;"/>
                </g>
              </g>
            </g>
            <rect class="legendtoggle" x="0" y="-9.5" width="186.34375" height="19" style="fill: rgb(0, 0, 0); fill-opacity: 0;"/>
          </g>
          <g class="traces" transform="translate(188.84375,14.5)" style="opacity: 1;">
            <text class="legendtext" text-anchor="start" x="40" y="4.680000000000001" style="font-family: 'Alegreya Sans', sans-serif; font-size: 12px; fill: rgb(0, 0, 0); fill-opacity: 1; white-space: pre;">eher nicht einverstanden</text>
            <g class="layers" style="opacity: 1;">
              <g class="legendfill"/>
              <g class="legendlines"/>
              <g class="legendsymbols">
                <g class="legendpoints">
                  <path class="legendundefined" d="M6,6H-6V-6H6Z" transform="translate(20,0)" style="stroke-width: 0px; fill: rgb(245, 171, 61); fill-opacity: 1;"/>
                </g>
              </g>
            </g>
            <rect class="legendtoggle" x="0" y="-9.5" width="157.96875" height="19" style="fill: rgb(0, 0, 0); fill-opacity: 0;"/>
          </g>
          <g class="traces" transform="translate(377.6875,14.5)" style="opacity: 1;">
            <text class="legendtext" text-anchor="start" x="40" y="4.680000000000001" style="font-family: 'Alegreya Sans', sans-serif; font-size: 12px; fill: rgb(0, 0, 0); fill-opacity: 1; white-space: pre;">eher einverstanden</text>
            <g class="layers" style="opacity: 1;">
              <g class="legendfill"/>
              <g class="legendlines"/>
              <g class="legendsymbols">
                <g class="legendpoints">
                  <path class="legendundefined" d="M6,6H-6V-6H6Z" transform="translate(20,0)" style="stroke-width: 0px; fill: rgb(200, 223, 32); fill-opacity: 1;"/>
                </g>
              </g>
            </g>
            <rect class="legendtoggle" x="0" y="-9.5" width="132.203125" height="19" style="fill: rgb(0, 0, 0); fill-opacity: 0;"/>
          </g>
          <g class="traces" transform="translate(0,33.5)" style="opacity: 1;">
            <text class="legendtext" text-anchor="start" x="40" y="4.680000000000001" style="font-family: 'Alegreya Sans', sans-serif; font-size: 12px; fill: rgb(0, 0, 0); fill-opacity: 1; white-space: pre;">voll und ganz einverstanden</text>
            <g class="layers" style="opacity: 1;">
              <g class="legendfill"/>
              <g class="legendlines"/>
              <g class="legendsymbols">
                <g class="legendpoints">
                  <path class="legendundefined" d="M6,6H-6V-6H6Z" transform="translate(20,0)" style="stroke-width: 0px; fill: rgb(25, 179, 25); fill-opacity: 1;"/>
                </g>
              </g>
            </g>
            <rect class="legendtoggle" x="0" y="-9.5" width="172.375" height="19" style="fill: rgb(0, 0, 0); fill-opacity: 0;"/>
          </g>
          <g class="traces" transform="translate(188.84375,33.5)" style="opacity: 1;">
            <text class="legendtext" text-anchor="start" x="40" y="4.680000000000001" style="font-family: 'Alegreya Sans', sans-serif; font-size: 12px; fill: rgb(0, 0, 0); fill-opacity: 1; white-space: pre;">
              <tspan style=" fill: #808080;;font-style:italic">weiss nicht / keine Angabe</tspan>
            </text>
            <g class="layers" style="opacity: 1;">
              <g class="legendfill"/>
              <g class="legendlines"/>
              <g class="legendsymbols">
                <g class="legendpoints">
                  <path class="legendundefined" d="M6,6H-6V-6H6Z" transform="translate(20,0)" style="stroke-width: 0px; fill: rgb(229, 229, 229); fill-opacity: 1;"/>
                </g>
              </g>
            </g>
            <rect class="legendtoggle" x="0" y="-9.5" width="153.4375" height="19" style="fill: rgb(0, 0, 0); fill-opacity: 0;"/>
          </g>
        </g>
      </g>
      <rect class="scrollbar" rx="20" ry="3" width="0" height="0" x="0" y="0" style="fill: rgb(128, 139, 164); fill-opacity: 1;"/>
    </g>
    <g class="g-gtitle"/>
    <g class="g-xtitle"/>
    <g class="g-ytitle"/>
    <g class="annotation" data-index="0" style="opacity: 1;">
      <g class="annotation-text-g" transform="rotate(0,373.42,101.25)">
        <g class="cursor-pointer" transform="translate(371,99)">
          <rect class="bg" x="0.5" y="0.5" width="3" height="3" style="stroke-width: 1px; stroke: rgb(0, 0, 0); stroke-opacity: 0; fill: rgb(0, 0, 0); fill-opacity: 0;"/>
          <text class="annotation-text" text-anchor="middle" x="2" y="2" style="font-family: 'Alegreya Sans', sans-serif; font-size: 10px; fill: rgb(255, 255, 255); fill-opacity: 1; white-space: pre;"/>
        </g>
      </g>
    </g>
    <g class="annotation" data-index="1" style="opacity: 1;">
      <g class="annotation-text-g" transform="rotate(0,411.02,101.25)">
        <g class="cursor-pointer" transform="translate(400,88)">
          <rect class="bg" x="0.5" y="0.5" width="21" height="26" style="stroke-width: 1px; stroke: rgb(0, 0, 0); stroke-opacity: 0; fill: rgb(0, 0, 0); fill-opacity: 0;"/>
          <text class="annotation-text" text-anchor="middle" x="10.609375" y="10" style="font-family: 'Alegreya Sans', sans-serif; font-size: 10px; fill: rgb(255, 255, 255); fill-opacity: 1; white-space: pre;">
            <tspan class="line" dy="0em" x="10.609375" y="10">
              <tspan style="font-weight:bold">15 %</tspan>
            </tspan>
            <tspan class="line" dy="1.3em" x="10.609375" y="10">(33)</tspan>
          </text>
        </g>
      </g>
    </g>
    <g class="annotation" data-index="2" style="opacity: 1;">
      <g class="annotation-text-g" transform="rotate(0,505.91,101.25)">
        <g class="cursor-pointer" transform="translate(495,88)">
          <rect class="bg" x="0.5" y="0.5" width="21" height="26" style="stroke-width: 1px; stroke: rgb(0, 0, 0); stroke-opacity: 0; fill: rgb(0, 0, 0); fill-opacity: 0;"/>
          <text class="annotation-text" text-anchor="middle" x="10.96875" y="10" style="font-family: 'Alegreya Sans', sans-serif; font-size: 10px; fill: rgb(255, 255, 255); fill-opacity: 1; white-space: pre;">
            <tspan class="line" dy="0em" x="10.96875" y="10">
              <tspan style="font-weight:bold">35 %</tspan>
            </tspan>
            <tspan class="line" dy="1.3em" x="10.96875" y="10">(78)</tspan>
          </text>
        </g>
      </g>
    </g>
    <g class="annotation" data-index="3" style="opacity: 1;">
      <g class="annotation-text-g" transform="rotate(0,650.65,101.25)">
        <g class="cursor-pointer" transform="translate(640,88)">
          <rect class="bg" x="0.5" y="0.5" width="21" height="26" style="stroke-width: 1px; stroke: rgb(0, 0, 0); stroke-opacity: 0; fill: rgb(0, 0, 0); fill-opacity: 0;"/>
          <text class="annotation-text" text-anchor="middle" x="10.96875" y="10" style="font-family: 'Alegreya Sans', sans-serif; font-size: 10px; fill: rgb(255, 255, 255); fill-opacity: 1; white-space: pre;">
            <tspan class="line" dy="0em" x="10.96875" y="10">
              <tspan style="font-weight:bold">41 %</tspan>
            </tspan>
            <tspan class="line" dy="1.3em" x="10.96875" y="10">(91)</tspan>
          </text>
        </g>
      </g>
    </g>
    <g class="annotation" data-index="4" style="opacity: 1;">
      <g class="annotation-text-g" transform="rotate(0,735.79,101.25)">
        <g class="cursor-pointer" transform="translate(734,99)">
          <rect class="bg" x="0.5" y="0.5" width="3" height="3" style="stroke-width: 1px; stroke: rgb(0, 0, 0); stroke-opacity: 0; fill: rgb(0, 0, 0); fill-opacity: 0;"/>
          <text class="annotation-text" text-anchor="middle" x="2" y="2" style="font-family: 'Alegreya Sans', sans-serif; font-size: 10px; fill: rgb(255, 255, 255); fill-opacity: 1; white-space: pre;"/>
        </g>
      </g>
    </g>
    <g class="annotation" data-index="5" style="opacity: 1;">
      <g class="annotation-text-g" transform="rotate(0,294.84000000000003,33.75)">
        <g class="cursor-pointer" transform="translate(284,20)">
          <rect class="bg" x="0.5" y="0.5" width="21" height="26" style="stroke-width: 1px; stroke: rgb(0, 0, 0); stroke-opacity: 0; fill: rgb(0, 0, 0); fill-opacity: 0;"/>
          <text class="annotation-text" text-anchor="middle" x="10.609375" y="10" style="font-family: 'Alegreya Sans', sans-serif; font-size: 10px; fill: rgb(255, 255, 255); fill-opacity: 1; white-space: pre;">
            <tspan class="line" dy="0em" x="10.609375" y="10">
              <tspan style="font-weight:bold">15 %</tspan>
            </tspan>
            <tspan class="line" dy="1.3em" x="10.609375" y="10">(99)</tspan>
          </text>
        </g>
      </g>
    </g>
    <g class="annotation" data-index="6" style="opacity: 1;">
      <g class="annotation-text-g" transform="rotate(0,381.36,33.75)">
        <g class="cursor-pointer" transform="translate(370,20)">
          <rect class="bg" x="0.5" y="0.5" width="22" height="26" style="stroke-width: 1px; stroke: rgb(0, 0, 0); stroke-opacity: 0; fill: rgb(0, 0, 0); fill-opacity: 0;"/>
          <text class="annotation-text" text-anchor="middle" x="11.421875" y="10" style="font-family: 'Alegreya Sans', sans-serif; font-size: 10px; fill: rgb(255, 255, 255); fill-opacity: 1; white-space: pre;">
            <tspan class="line" dy="0em" x="11.421875" y="10">
              <tspan style="font-weight:bold">30 %</tspan>
            </tspan>
            <tspan class="line" dy="1.3em" x="11.421875" y="10">(198)</tspan>
          </text>
        </g>
      </g>
    </g>
    <g class="annotation" data-index="7" style="opacity: 1;">
      <g class="annotation-text-g" transform="rotate(0,502.8,33.75)">
        <g class="cursor-pointer" transform="translate(491,20)">
          <rect class="bg" x="0.5" y="0.5" width="22" height="26" style="stroke-width: 1px; stroke: rgb(0, 0, 0); stroke-opacity: 0; fill: rgb(0, 0, 0); fill-opacity: 0;"/>
          <text class="annotation-text" text-anchor="middle" x="11.328125" y="10" style="font-family: 'Alegreya Sans', sans-serif; font-size: 10px; fill: rgb(255, 255, 255); fill-opacity: 1; white-space: pre;">
            <tspan class="line" dy="0em" x="11.328125" y="10">
              <tspan style="font-weight:bold">34 %</tspan>
            </tspan>
            <tspan class="line" dy="1.3em" x="11.328125" y="10">(219)</tspan>
          </text>
        </g>
      </g>
    </g>
    <g class="annotation" data-index="8" style="opacity: 1;">
      <g class="annotation-text-g" transform="rotate(0,583.85,33.75)">
        <g class="cursor-pointer" transform="translate(582,32)">
          <rect class="bg" x="0.5" y="0.5" width="3" height="3" style="stroke-width: 1px; stroke: rgb(0, 0, 0); stroke-opacity: 0; fill: rgb(0, 0, 0); fill-opacity: 0;"/>
          <text class="annotation-text" text-anchor="middle" x="2" y="2" style="font-family: 'Alegreya Sans', sans-serif; font-size: 10px; fill: rgb(255, 255, 255); fill-opacity: 1; white-space: pre;"/>
        </g>
      </g>
    </g>
    <g class="annotation" data-index="9" style="opacity: 1;">
      <g class="annotation-text-g" transform="rotate(0,623.18,33.75)">
        <g class="cursor-pointer" transform="translate(612,20)">
          <rect class="bg" x="0.5" y="0.5" width="21" height="26" style="stroke-width: 1px; stroke: rgb(0, 0, 0); stroke-opacity: 0; fill: rgb(0, 0, 0); fill-opacity: 0;"/>
          <text class="annotation-text" text-anchor="middle" x="10.8125" y="10" style="font-family: 'Alegreya Sans', sans-serif; font-size: 10px; fill: rgb(255, 255, 255); fill-opacity: 1; white-space: pre;">
            <tspan class="line" dy="0em" x="10.8125" y="10">
              <tspan style="font-weight:bold">12 %</tspan>
            </tspan>
            <tspan class="line" dy="1.3em" x="10.8125" y="10">(76)</tspan>
          </text>
        </g>
      </g>
    </g>
    <g class="annotation" data-index="10" style="opacity: 1;">
      <g class="annotation-text-g" transform="rotate(0,373.42,101.25)">
        <g class="cursor-pointer" transform="translate(371,99)">
          <rect class="bg" x="0.5" y="0.5" width="3" height="3" style="stroke-width: 1px; stroke: rgb(0, 0, 0); stroke-opacity: 0; fill: rgb(0, 0, 0); fill-opacity: 0;"/>
          <text class="annotation-text" text-anchor="middle" x="2" y="2" style="font-family: 'Alegreya Sans', sans-serif; font-size: 9px; fill: rgb(255, 255, 255); fill-opacity: 1; white-space: pre;"/>
        </g>
      </g>
    </g>
    <g class="annotation" data-index="11" style="opacity: 1;">
      <g class="annotation-text-g" transform="rotate(0,411.02,101.25)">
        <g class="cursor-pointer" transform="translate(409,99)">
          <rect class="bg" x="0.5" y="0.5" width="3" height="3" style="stroke-width: 1px; stroke: rgb(0, 0, 0); stroke-opacity: 0; fill: rgb(0, 0, 0); fill-opacity: 0;"/>
          <text class="annotation-text" text-anchor="middle" x="2" y="2" style="font-family: 'Alegreya Sans', sans-serif; font-size: 9px; fill: rgb(255, 255, 255); fill-opacity: 1; white-space: pre;"/>
        </g>
      </g>
    </g>
    <g class="annotation" data-index="12" style="opacity: 1;">
      <g class="annotation-text-g" transform="rotate(0,505.91,101.25)">
        <g class="cursor-pointer" transform="translate(504,99)">
          <rect class="bg" x="0.5" y="0.5" width="3" height="3" style="stroke-width: 1px; stroke: rgb(0, 0, 0); stroke-opacity: 0; fill: rgb(0, 0, 0); fill-opacity: 0;"/>
          <text class="annotation-text" text-anchor="middle" x="2" y="2" style="font-family: 'Alegreya Sans', sans-serif; font-size: 9px; fill: rgb(255, 255, 255); fill-opacity: 1; white-space: pre;"/>
        </g>
      </g>
    </g>
    <g class="annotation" data-index="13" style="opacity: 1;">
      <g class="annotation-text-g" transform="rotate(0,650.65,101.25)">
        <g class="cursor-pointer" transform="translate(649,99)">
          <rect class="bg" x="0.5" y="0.5" width="3" height="3" style="stroke-width: 1px; stroke: rgb(0, 0, 0); stroke-opacity: 0; fill: rgb(0, 0, 0); fill-opacity: 0;"/>
          <text class="annotation-text" text-anchor="middle" x="2" y="2" style="font-family: 'Alegreya Sans', sans-serif; font-size: 9px; fill: rgb(255, 255, 255); fill-opacity: 1; white-space: pre;"/>
        </g>
      </g>
    </g>
    <g class="annotation" data-index="14" style="opacity: 1;">
      <g class="annotation-text-g" transform="rotate(0,735.79,101.25)">
        <g class="cursor-pointer" transform="translate(734,99)">
          <rect class="bg" x="0.5" y="0.5" width="3" height="3" style="stroke-width: 1px; stroke: rgb(0, 0, 0); stroke-opacity: 0; fill: rgb(0, 0, 0); fill-opacity: 0;"/>
          <text class="annotation-text" text-anchor="middle" x="2" y="2" style="font-family: 'Alegreya Sans', sans-serif; font-size: 9px; fill: rgb(255, 255, 255); fill-opacity: 1; white-space: pre;"/>
        </g>
      </g>
    </g>
    <g class="annotation" data-index="15" style="opacity: 1;">
      <g class="annotation-text-g" transform="rotate(0,294.84000000000003,33.75)">
        <g class="cursor-pointer" transform="translate(293,32)">
          <rect class="bg" x="0.5" y="0.5" width="3" height="3" style="stroke-width: 1px; stroke: rgb(0, 0, 0); stroke-opacity: 0; fill: rgb(0, 0, 0); fill-opacity: 0;"/>
          <text class="annotation-text" text-anchor="middle" x="2" y="2" style="font-family: 'Alegreya Sans', sans-serif; font-size: 9px; fill: rgb(255, 255, 255); fill-opacity: 1; white-space: pre;"/>
        </g>
      </g>
    </g>
    <g class="annotation" data-index="16" style="opacity: 1;">
      <g class="annotation-text-g" transform="rotate(0,381.36,33.75)">
        <g class="cursor-pointer" transform="translate(379,32)">
          <rect class="bg" x="0.5" y="0.5" width="3" height="3" style="stroke-width: 1px; stroke: rgb(0, 0, 0); stroke-opacity: 0; fill: rgb(0, 0, 0); fill-opacity: 0;"/>
          <text class="annotation-text" text-anchor="middle" x="2" y="2" style="font-family: 'Alegreya Sans', sans-serif; font-size: 9px; fill: rgb(255, 255, 255); fill-opacity: 1; white-space: pre;"/>
        </g>
      </g>
    </g>
    <g class="annotation" data-index="17" style="opacity: 1;">
      <g class="annotation-text-g" transform="rotate(0,502.8,33.75)">
        <g class="cursor-pointer" transform="translate(501,32)">
          <rect class="bg" x="0.5" y="0.5" width="3" height="3" style="stroke-width: 1px; stroke: rgb(0, 0, 0); stroke-opacity: 0; fill: rgb(0, 0, 0); fill-opacity: 0;"/>
          <text class="annotation-text" text-anchor="middle" x="2" y="2" style="font-family: 'Alegreya Sans', sans-serif; font-size: 9px; fill: rgb(255, 255, 255); fill-opacity: 1; white-space: pre;"/>
        </g>
      </g>
    </g>
    <g class="annotation" data-index="18" style="opacity: 1;">
      <g class="annotation-text-g" transform="rotate(0,583.85,33.75)">
        <g class="cursor-pointer" transform="translate(575,21)">
          <rect class="bg" x="0.5" y="0.5" width="16" height="24" style="stroke-width: 1px; stroke: rgb(0, 0, 0); stroke-opacity: 0; fill: rgb(0, 0, 0); fill-opacity: 0;"/>
          <text class="annotation-text" text-anchor="middle" x="8.671875" y="9" style="font-family: 'Alegreya Sans', sans-serif; font-size: 9px; fill: rgb(255, 255, 255); fill-opacity: 1; white-space: pre;">
            <tspan class="line" dy="0em" x="8.671875" y="9">
              <tspan style="font-weight:bold">9 %</tspan>
            </tspan>
            <tspan class="line" dy="1.3em" x="8.671875" y="9">(59)</tspan>
          </text>
        </g>
      </g>
    </g>
    <g class="annotation" data-index="19" style="opacity: 1;">
      <g class="annotation-text-g" transform="rotate(0,623.18,33.75)">
        <g class="cursor-pointer" transform="translate(621,32)">
          <rect class="bg" x="0.5" y="0.5" width="3" height="3" style="stroke-width: 1px; stroke: rgb(0, 0, 0); stroke-opacity: 0; fill: rgb(0, 0, 0); fill-opacity: 0;"/>
          <text class="annotation-text" text-anchor="middle" x="2" y="2" style="font-family: 'Alegreya Sans', sans-serif; font-size: 9px; fill: rgb(255, 255, 255); fill-opacity: 1; white-space: pre;"/>
        </g>
      </g>
    </g>
    <g class="annotation" data-index="20" style="opacity: 1;">
      <g class="annotation-text-g" transform="rotate(0,373.42,101.25)">
        <g class="cursor-pointer" transform="translate(371,99)">
          <rect class="bg" x="0.5" y="0.5" width="3" height="3" style="stroke-width: 1px; stroke: rgb(0, 0, 0); stroke-opacity: 0; fill: rgb(0, 0, 0); fill-opacity: 0;"/>
          <text class="annotation-text" text-anchor="middle" x="2" y="2" style="font-family: 'Alegreya Sans', sans-serif; font-size: 8px; fill: rgb(255, 255, 255); fill-opacity: 1; white-space: pre;"/>
        </g>
      </g>
    </g>
    <g class="annotation" data-index="21" style="opacity: 1;">
      <g class="annotation-text-g" transform="rotate(0,411.02,101.25)">
        <g class="cursor-pointer" transform="translate(409,99)">
          <rect class="bg" x="0.5" y="0.5" width="3" height="3" style="stroke-width: 1px; stroke: rgb(0, 0, 0); stroke-opacity: 0; fill: rgb(0, 0, 0); fill-opacity: 0;"/>
          <text class="annotation-text" text-anchor="middle" x="2" y="2" style="font-family: 'Alegreya Sans', sans-serif; font-size: 8px; fill: rgb(255, 255, 255); fill-opacity: 1; white-space: pre;"/>
        </g>
      </g>
    </g>
    <g class="annotation" data-index="22" style="opacity: 1;">
      <g class="annotation-text-g" transform="rotate(0,505.91,101.25)">
        <g class="cursor-pointer" transform="translate(504,99)">
          <rect class="bg" x="0.5" y="0.5" width="3" height="3" style="stroke-width: 1px; stroke: rgb(0, 0, 0); stroke-opacity: 0; fill: rgb(0, 0, 0); fill-opacity: 0;"/>
          <text class="annotation-text" text-anchor="middle" x="2" y="2" style="font-family: 'Alegreya Sans', sans-serif; font-size: 8px; fill: rgb(255, 255, 255); fill-opacity: 1; white-space: pre;"/>
        </g>
      </g>
    </g>
    <g class="annotation" data-index="23" style="opacity: 1;">
      <g class="annotation-text-g" transform="rotate(0,650.65,101.25)">
        <g class="cursor-pointer" transform="translate(649,99)">
          <rect class="bg" x="0.5" y="0.5" width="3" height="3" style="stroke-width: 1px; stroke: rgb(0, 0, 0); stroke-opacity: 0; fill: rgb(0, 0, 0); fill-opacity: 0;"/>
          <text class="annotation-text" text-anchor="middle" x="2" y="2" style="font-family: 'Alegreya Sans', sans-serif; font-size: 8px; fill: rgb(255, 255, 255); fill-opacity: 1; white-space: pre;"/>
        </g>
      </g>
    </g>
    <g class="annotation" data-index="24" style="opacity: 1;">
      <g class="annotation-text-g" transform="rotate(0,735.79,101.25)">
        <g class="cursor-pointer" transform="translate(734,99)">
          <rect class="bg" x="0.5" y="0.5" width="3" height="3" style="stroke-width: 1px; stroke: rgb(0, 0, 0); stroke-opacity: 0; fill: rgb(0, 0, 0); fill-opacity: 0;"/>
          <text class="annotation-text" text-anchor="middle" x="2" y="2" style="font-family: 'Alegreya Sans', sans-serif; font-size: 8px; fill: rgb(255, 255, 255); fill-opacity: 1; white-space: pre;"/>
        </g>
      </g>
    </g>
    <g class="annotation" data-index="25" style="opacity: 1;">
      <g class="annotation-text-g" transform="rotate(0,294.84000000000003,33.75)">
        <g class="cursor-pointer" transform="translate(293,32)">
          <rect class="bg" x="0.5" y="0.5" width="3" height="3" style="stroke-width: 1px; stroke: rgb(0, 0, 0); stroke-opacity: 0; fill: rgb(0, 0, 0); fill-opacity: 0;"/>
          <text class="annotation-text" text-anchor="middle" x="2" y="2" style="font-family: 'Alegreya Sans', sans-serif; font-size: 8px; fill: rgb(255, 255, 255); fill-opacity: 1; white-space: pre;"/>
        </g>
      </g>
    </g>
    <g class="annotation" data-index="26" style="opacity: 1;">
      <g class="annotation-text-g" transform="rotate(0,381.36,33.75)">
        <g class="cursor-pointer" transform="translate(379,32)">
          <rect class="bg" x="0.5" y="0.5" width="3" height="3" style="stroke-width: 1px; stroke: rgb(0, 0, 0); stroke-opacity: 0; fill: rgb(0, 0, 0); fill-opacity: 0;"/>
          <text class="annotation-text" text-anchor="middle" x="2" y="2" style="font-family: 'Alegreya Sans', sans-serif; font-size: 8px; fill: rgb(255, 255, 255); fill-opacity: 1; white-space: pre;"/>
        </g>
      </g>
    </g>
    <g class="annotation" data-index="27" style="opacity: 1;">
      <g class="annotation-text-g" transform="rotate(0,502.8,33.75)">
        <g class="cursor-pointer" transform="translate(501,32)">
          <rect class="bg" x="0.5" y="0.5" width="3" height="3" style="stroke-width: 1px; stroke: rgb(0, 0, 0); stroke-opacity: 0; fill: rgb(0, 0, 0); fill-opacity: 0;"/>
          <text class="annotation-text" text-anchor="middle" x="2" y="2" style="font-family: 'Alegreya Sans', sans-serif; font-size: 8px; fill: rgb(255, 255, 255); fill-opacity: 1; white-space: pre;"/>
        </g>
      </g>
    </g>
    <g class="annotation" data-index="28" style="opacity: 1;">
      <g class="annotation-text-g" transform="rotate(0,583.85,33.75)">
        <g class="cursor-pointer" transform="translate(582,32)">
          <rect class="bg" x="0.5" y="0.5" width="3" height="3" style="stroke-width: 1px; stroke: rgb(0, 0, 0); stroke-opacity: 0; fill: rgb(0, 0, 0); fill-opacity: 0;"/>
          <text class="annotation-text" text-anchor="middle" x="2" y="2" style="font-family: 'Alegreya Sans', sans-serif; font-size: 8px; fill: rgb(255, 255, 255); fill-opacity: 1; white-space: pre;"/>
        </g>
      </g>
    </g>
    <g class="annotation" data-index="29" style="opacity: 1;">
      <g class="annotation-text-g" transform="rotate(0,623.18,33.75)">
        <g class="cursor-pointer" transform="translate(621,32)">
          <rect class="bg" x="0.5" y="0.5" width="3" height="3" style="stroke-width: 1px; stroke: rgb(0, 0, 0); stroke-opacity: 0; fill: rgb(0, 0, 0); fill-opacity: 0;"/>
          <text class="annotation-text" text-anchor="middle" x="2" y="2" style="font-family: 'Alegreya Sans', sans-serif; font-size: 8px; fill: rgb(255, 255, 255); fill-opacity: 1; white-space: pre;"/>
        </g>
      </g>
    </g>
    <g class="annotation" data-index="30" style="opacity: 1;">
      <g class="annotation-text-g" transform="rotate(0,373.42,101.25)">
        <g class="cursor-pointer" transform="translate(371,99)">
          <rect class="bg" x="0.5" y="0.5" width="3" height="3" style="stroke-width: 1px; stroke: rgb(0, 0, 0); stroke-opacity: 0; fill: rgb(0, 0, 0); fill-opacity: 0;"/>
          <text class="annotation-text" text-anchor="middle" x="2" y="2" style="font-family: 'Alegreya Sans', sans-serif; font-size: 7px; fill: rgb(255, 255, 255); fill-opacity: 1; white-space: pre;"/>
        </g>
      </g>
    </g>
    <g class="annotation" data-index="31" style="opacity: 1;">
      <g class="annotation-text-g" transform="rotate(0,411.02,101.25)">
        <g class="cursor-pointer" transform="translate(409,99)">
          <rect class="bg" x="0.5" y="0.5" width="3" height="3" style="stroke-width: 1px; stroke: rgb(0, 0, 0); stroke-opacity: 0; fill: rgb(0, 0, 0); fill-opacity: 0;"/>
          <text class="annotation-text" text-anchor="middle" x="2" y="2" style="font-family: 'Alegreya Sans', sans-serif; font-size: 7px; fill: rgb(255, 255, 255); fill-opacity: 1; white-space: pre;"/>
        </g>
      </g>
    </g>
    <g class="annotation" data-index="32" style="opacity: 1;">
      <g class="annotation-text-g" transform="rotate(0,505.91,101.25)">
        <g class="cursor-pointer" transform="translate(504,99)">
          <rect class="bg" x="0.5" y="0.5" width="3" height="3" style="stroke-width: 1px; stroke: rgb(0, 0, 0); stroke-opacity: 0; fill: rgb(0, 0, 0); fill-opacity: 0;"/>
          <text class="annotation-text" text-anchor="middle" x="2" y="2" style="font-family: 'Alegreya Sans', sans-serif; font-size: 7px; fill: rgb(255, 255, 255); fill-opacity: 1; white-space: pre;"/>
        </g>
      </g>
    </g>
    <g class="annotation" data-index="33" style="opacity: 1;">
      <g class="annotation-text-g" transform="rotate(0,650.65,101.25)">
        <g class="cursor-pointer" transform="translate(649,99)">
          <rect class="bg" x="0.5" y="0.5" width="3" height="3" style="stroke-width: 1px; stroke: rgb(0, 0, 0); stroke-opacity: 0; fill: rgb(0, 0, 0); fill-opacity: 0;"/>
          <text class="annotation-text" text-anchor="middle" x="2" y="2" style="font-family: 'Alegreya Sans', sans-serif; font-size: 7px; fill: rgb(255, 255, 255); fill-opacity: 1; white-space: pre;"/>
        </g>
      </g>
    </g>
    <g class="annotation" data-index="34" style="opacity: 1;">
      <g class="annotation-text-g" transform="rotate(0,735.79,101.25)">
        <g class="cursor-pointer" transform="translate(734,99)">
          <rect class="bg" x="0.5" y="0.5" width="3" height="3" style="stroke-width: 1px; stroke: rgb(0, 0, 0); stroke-opacity: 0; fill: rgb(0, 0, 0); fill-opacity: 0;"/>
          <text class="annotation-text" text-anchor="middle" x="2" y="2" style="font-family: 'Alegreya Sans', sans-serif; font-size: 7px; fill: rgb(255, 255, 255); fill-opacity: 1; white-space: pre;"/>
        </g>
      </g>
    </g>
    <g class="annotation" data-index="35" style="opacity: 1;">
      <g class="annotation-text-g" transform="rotate(0,294.84000000000003,33.75)">
        <g class="cursor-pointer" transform="translate(293,32)">
          <rect class="bg" x="0.5" y="0.5" width="3" height="3" style="stroke-width: 1px; stroke: rgb(0, 0, 0); stroke-opacity: 0; fill: rgb(0, 0, 0); fill-opacity: 0;"/>
          <text class="annotation-text" text-anchor="middle" x="2" y="2" style="font-family: 'Alegreya Sans', sans-serif; font-size: 7px; fill: rgb(255, 255, 255); fill-opacity: 1; white-space: pre;"/>
        </g>
      </g>
    </g>
    <g class="annotation" data-index="36" style="opacity: 1;">
      <g class="annotation-text-g" transform="rotate(0,381.36,33.75)">
        <g class="cursor-pointer" transform="translate(379,32)">
          <rect class="bg" x="0.5" y="0.5" width="3" height="3" style="stroke-width: 1px; stroke: rgb(0, 0, 0); stroke-opacity: 0; fill: rgb(0, 0, 0); fill-opacity: 0;"/>
          <text class="annotation-text" text-anchor="middle" x="2" y="2" style="font-family: 'Alegreya Sans', sans-serif; font-size: 7px; fill: rgb(255, 255, 255); fill-opacity: 1; white-space: pre;"/>
        </g>
      </g>
    </g>
    <g class="annotation" data-index="37" style="opacity: 1;">
      <g class="annotation-text-g" transform="rotate(0,502.8,33.75)">
        <g class="cursor-pointer" transform="translate(501,32)">
          <rect class="bg" x="0.5" y="0.5" width="3" height="3" style="stroke-width: 1px; stroke: rgb(0, 0, 0); stroke-opacity: 0; fill: rgb(0, 0, 0); fill-opacity: 0;"/>
          <text class="annotation-text" text-anchor="middle" x="2" y="2" style="font-family: 'Alegreya Sans', sans-serif; font-size: 7px; fill: rgb(255, 255, 255); fill-opacity: 1; white-space: pre;"/>
        </g>
      </g>
    </g>
    <g class="annotation" data-index="38" style="opacity: 1;">
      <g class="annotation-text-g" transform="rotate(0,583.85,33.75)">
        <g class="cursor-pointer" transform="translate(582,32)">
          <rect class="bg" x="0.5" y="0.5" width="3" height="3" style="stroke-width: 1px; stroke: rgb(0, 0, 0); stroke-opacity: 0; fill: rgb(0, 0, 0); fill-opacity: 0;"/>
          <text class="annotation-text" text-anchor="middle" x="2" y="2" style="font-family: 'Alegreya Sans', sans-serif; font-size: 7px; fill: rgb(255, 255, 255); fill-opacity: 1; white-space: pre;"/>
        </g>
      </g>
    </g>
    <g class="annotation" data-index="39" style="opacity: 1;">
      <g class="annotation-text-g" transform="rotate(0,623.18,33.75)">
        <g class="cursor-pointer" transform="translate(621,32)">
          <rect class="bg" x="0.5" y="0.5" width="3" height="3" style="stroke-width: 1px; stroke: rgb(0, 0, 0); stroke-opacity: 0; fill: rgb(0, 0, 0); fill-opacity: 0;"/>
          <text class="annotation-text" text-anchor="middle" x="2" y="2" style="font-family: 'Alegreya Sans', sans-serif; font-size: 7px; fill: rgb(255, 255, 255); fill-opacity: 1; white-space: pre;"/>
        </g>
      </g>
    </g>
    <g class="annotation" data-index="40" style="opacity: 1;">
      <g class="annotation-text-g" transform="rotate(0,373.42,101.25)">
        <g class="cursor-pointer" transform="translate(371,99)">
          <rect class="bg" x="0.5" y="0.5" width="3" height="3" style="stroke-width: 1px; stroke: rgb(0, 0, 0); stroke-opacity: 0; fill: rgb(0, 0, 0); fill-opacity: 0;"/>
          <text class="annotation-text" text-anchor="middle" x="2" y="2" style="font-family: 'Alegreya Sans', sans-serif; font-size: 6px; fill: rgb(255, 255, 255); fill-opacity: 1; white-space: pre;"/>
        </g>
      </g>
    </g>
    <g class="annotation" data-index="41" style="opacity: 1;">
      <g class="annotation-text-g" transform="rotate(0,411.02,101.25)">
        <g class="cursor-pointer" transform="translate(409,99)">
          <rect class="bg" x="0.5" y="0.5" width="3" height="3" style="stroke-width: 1px; stroke: rgb(0, 0, 0); stroke-opacity: 0; fill: rgb(0, 0, 0); fill-opacity: 0;"/>
          <text class="annotation-text" text-anchor="middle" x="2" y="2" style="font-family: 'Alegreya Sans', sans-serif; font-size: 6px; fill: rgb(255, 255, 255); fill-opacity: 1; white-space: pre;"/>
        </g>
      </g>
    </g>
    <g class="annotation" data-index="42" style="opacity: 1;">
      <g class="annotation-text-g" transform="rotate(0,505.91,101.25)">
        <g class="cursor-pointer" transform="translate(504,99)">
          <rect class="bg" x="0.5" y="0.5" width="3" height="3" style="stroke-width: 1px; stroke: rgb(0, 0, 0); stroke-opacity: 0; fill: rgb(0, 0, 0); fill-opacity: 0;"/>
          <text class="annotation-text" text-anchor="middle" x="2" y="2" style="font-family: 'Alegreya Sans', sans-serif; font-size: 6px; fill: rgb(255, 255, 255); fill-opacity: 1; white-space: pre;"/>
        </g>
      </g>
    </g>
    <g class="annotation" data-index="43" style="opacity: 1;">
      <g class="annotation-text-g" transform="rotate(0,650.65,101.25)">
        <g class="cursor-pointer" transform="translate(649,99)">
          <rect class="bg" x="0.5" y="0.5" width="3" height="3" style="stroke-width: 1px; stroke: rgb(0, 0, 0); stroke-opacity: 0; fill: rgb(0, 0, 0); fill-opacity: 0;"/>
          <text class="annotation-text" text-anchor="middle" x="2" y="2" style="font-family: 'Alegreya Sans', sans-serif; font-size: 6px; fill: rgb(255, 255, 255); fill-opacity: 1; white-space: pre;"/>
        </g>
      </g>
    </g>
    <g class="annotation" data-index="44" style="opacity: 1;">
      <g class="annotation-text-g" transform="rotate(0,735.79,101.25)">
        <g class="cursor-pointer" transform="translate(734,99)">
          <rect class="bg" x="0.5" y="0.5" width="3" height="3" style="stroke-width: 1px; stroke: rgb(0, 0, 0); stroke-opacity: 0; fill: rgb(0, 0, 0); fill-opacity: 0;"/>
          <text class="annotation-text" text-anchor="middle" x="2" y="2" style="font-family: 'Alegreya Sans', sans-serif; font-size: 6px; fill: rgb(255, 255, 255); fill-opacity: 1; white-space: pre;"/>
        </g>
      </g>
    </g>
    <g class="annotation" data-index="45" style="opacity: 1;">
      <g class="annotation-text-g" transform="rotate(0,294.84000000000003,33.75)">
        <g class="cursor-pointer" transform="translate(293,32)">
          <rect class="bg" x="0.5" y="0.5" width="3" height="3" style="stroke-width: 1px; stroke: rgb(0, 0, 0); stroke-opacity: 0; fill: rgb(0, 0, 0); fill-opacity: 0;"/>
          <text class="annotation-text" text-anchor="middle" x="2" y="2" style="font-family: 'Alegreya Sans', sans-serif; font-size: 6px; fill: rgb(255, 255, 255); fill-opacity: 1; white-space: pre;"/>
        </g>
      </g>
    </g>
    <g class="annotation" data-index="46" style="opacity: 1;">
      <g class="annotation-text-g" transform="rotate(0,381.36,33.75)">
        <g class="cursor-pointer" transform="translate(379,32)">
          <rect class="bg" x="0.5" y="0.5" width="3" height="3" style="stroke-width: 1px; stroke: rgb(0, 0, 0); stroke-opacity: 0; fill: rgb(0, 0, 0); fill-opacity: 0;"/>
          <text class="annotation-text" text-anchor="middle" x="2" y="2" style="font-family: 'Alegreya Sans', sans-serif; font-size: 6px; fill: rgb(255, 255, 255); fill-opacity: 1; white-space: pre;"/>
        </g>
      </g>
    </g>
    <g class="annotation" data-index="47" style="opacity: 1;">
      <g class="annotation-text-g" transform="rotate(0,502.8,33.75)">
        <g class="cursor-pointer" transform="translate(501,32)">
          <rect class="bg" x="0.5" y="0.5" width="3" height="3" style="stroke-width: 1px; stroke: rgb(0, 0, 0); stroke-opacity: 0; fill: rgb(0, 0, 0); fill-opacity: 0;"/>
          <text class="annotation-text" text-anchor="middle" x="2" y="2" style="font-family: 'Alegreya Sans', sans-serif; font-size: 6px; fill: rgb(255, 255, 255); fill-opacity: 1; white-space: pre;"/>
        </g>
      </g>
    </g>
    <g class="annotation" data-index="48" style="opacity: 1;">
      <g class="annotation-text-g" transform="rotate(0,583.85,33.75)">
        <g class="cursor-pointer" transform="translate(582,32)">
          <rect class="bg" x="0.5" y="0.5" width="3" height="3" style="stroke-width: 1px; stroke: rgb(0, 0, 0); stroke-opacity: 0; fill: rgb(0, 0, 0); fill-opacity: 0;"/>
          <text class="annotation-text" text-anchor="middle" x="2" y="2" style="font-family: 'Alegreya Sans', sans-serif; font-size: 6px; fill: rgb(255, 255, 255); fill-opacity: 1; white-space: pre;"/>
        </g>
      </g>
    </g>
    <g class="annotation" data-index="49" style="opacity: 1;">
      <g class="annotation-text-g" transform="rotate(0,623.18,33.75)">
        <g class="cursor-pointer" transform="translate(621,32)">
          <rect class="bg" x="0.5" y="0.5" width="3" height="3" style="stroke-width: 1px; stroke: rgb(0, 0, 0); stroke-opacity: 0; fill: rgb(0, 0, 0); fill-opacity: 0;"/>
          <text class="annotation-text" text-anchor="middle" x="2" y="2" style="font-family: 'Alegreya Sans', sans-serif; font-size: 6px; fill: rgb(255, 255, 255); fill-opacity: 1; white-space: pre;"/>
        </g>
      </g>
    </g>
    <g class="annotation" data-index="50" style="opacity: 1;">
      <g class="annotation-text-g" transform="rotate(0,373.42,101.25)">
        <g class="cursor-pointer" transform="translate(367,93)">
          <rect class="bg" x="0.5" y="0.5" width="11" height="16" style="stroke-width: 1px; stroke: rgb(0, 0, 0); stroke-opacity: 0; fill: rgb(0, 0, 0); fill-opacity: 0;"/>
          <text class="annotation-text" text-anchor="middle" x="5.40625" y="7" style="font-family: 'Alegreya Sans', sans-serif; font-size: 5px; fill: rgb(255, 255, 255); fill-opacity: 1; white-space: pre;">
            <tspan class="line" dy="0em" x="5.40625" y="7">
              <tspan style="font-weight:bold">5 %</tspan>
            </tspan>
            <tspan class="line" dy="1.3em" x="5.40625" y="7">(11)</tspan>
          </text>
        </g>
      </g>
    </g>
    <g class="annotation" data-index="51" style="opacity: 1;">
      <g class="annotation-text-g" transform="rotate(0,411.02,101.25)">
        <g class="cursor-pointer" transform="translate(409,99)">
          <rect class="bg" x="0.5" y="0.5" width="3" height="3" style="stroke-width: 1px; stroke: rgb(0, 0, 0); stroke-opacity: 0; fill: rgb(0, 0, 0); fill-opacity: 0;"/>
          <text class="annotation-text" text-anchor="middle" x="2" y="2" style="font-family: 'Alegreya Sans', sans-serif; font-size: 5px; fill: rgb(255, 255, 255); fill-opacity: 1; white-space: pre;"/>
        </g>
      </g>
    </g>
    <g class="annotation" data-index="52" style="opacity: 1;">
      <g class="annotation-text-g" transform="rotate(0,505.91,101.25)">
        <g class="cursor-pointer" transform="translate(504,99)">
          <rect class="bg" x="0.5" y="0.5" width="3" height="3" style="stroke-width: 1px; stroke: rgb(0, 0, 0); stroke-opacity: 0; fill: rgb(0, 0, 0); fill-opacity: 0;"/>
          <text class="annotation-text" text-anchor="middle" x="2" y="2" style="font-family: 'Alegreya Sans', sans-serif; font-size: 5px; fill: rgb(255, 255, 255); fill-opacity: 1; white-space: pre;"/>
        </g>
      </g>
    </g>
    <g class="annotation" data-index="53" style="opacity: 1;">
      <g class="annotation-text-g" transform="rotate(0,650.65,101.25)">
        <g class="cursor-pointer" transform="translate(649,99)">
          <rect class="bg" x="0.5" y="0.5" width="3" height="3" style="stroke-width: 1px; stroke: rgb(0, 0, 0); stroke-opacity: 0; fill: rgb(0, 0, 0); fill-opacity: 0;"/>
          <text class="annotation-text" text-anchor="middle" x="2" y="2" style="font-family: 'Alegreya Sans', sans-serif; font-size: 5px; fill: rgb(255, 255, 255); fill-opacity: 1; white-space: pre;"/>
        </g>
      </g>
    </g>
    <g class="annotation" data-index="54" style="opacity: 1;">
      <g class="annotation-text-g" transform="rotate(0,735.79,101.25)">
        <g class="cursor-pointer" transform="translate(730,93)">
          <rect class="bg" x="0.5" y="0.5" width="11" height="16" style="stroke-width: 1px; stroke: rgb(0, 0, 0); stroke-opacity: 0; fill: rgb(0, 0, 0); fill-opacity: 0;"/>
          <text class="annotation-text" text-anchor="middle" x="5.59375" y="7" style="font-family: 'Alegreya Sans', sans-serif; font-size: 5px; fill: rgb(255, 255, 255); fill-opacity: 1; white-space: pre;">
            <tspan class="line" dy="0em" x="5.59375" y="7">
              <tspan style="font-weight:bold">4 %</tspan>
            </tspan>
            <tspan class="line" dy="1.3em" x="5.59375" y="7">(9)</tspan>
          </text>
        </g>
      </g>
    </g>
    <g class="annotation" data-index="55" style="opacity: 1;">
      <g class="annotation-text-g" transform="rotate(0,294.84000000000003,33.75)">
        <g class="cursor-pointer" transform="translate(293,32)">
          <rect class="bg" x="0.5" y="0.5" width="3" height="3" style="stroke-width: 1px; stroke: rgb(0, 0, 0); stroke-opacity: 0; fill: rgb(0, 0, 0); fill-opacity: 0;"/>
          <text class="annotation-text" text-anchor="middle" x="2" y="2" style="font-family: 'Alegreya Sans', sans-serif; font-size: 5px; fill: rgb(255, 255, 255); fill-opacity: 1; white-space: pre;"/>
        </g>
      </g>
    </g>
    <g class="annotation" data-index="56" style="opacity: 1;">
      <g class="annotation-text-g" transform="rotate(0,381.36,33.75)">
        <g class="cursor-pointer" transform="translate(379,32)">
          <rect class="bg" x="0.5" y="0.5" width="3" height="3" style="stroke-width: 1px; stroke: rgb(0, 0, 0); stroke-opacity: 0; fill: rgb(0, 0, 0); fill-opacity: 0;"/>
          <text class="annotation-text" text-anchor="middle" x="2" y="2" style="font-family: 'Alegreya Sans', sans-serif; font-size: 5px; fill: rgb(255, 255, 255); fill-opacity: 1; white-space: pre;"/>
        </g>
      </g>
    </g>
    <g class="annotation" data-index="57" style="opacity: 1;">
      <g class="annotation-text-g" transform="rotate(0,502.8,33.75)">
        <g class="cursor-pointer" transform="translate(501,32)">
          <rect class="bg" x="0.5" y="0.5" width="3" height="3" style="stroke-width: 1px; stroke: rgb(0, 0, 0); stroke-opacity: 0; fill: rgb(0, 0, 0); fill-opacity: 0;"/>
          <text class="annotation-text" text-anchor="middle" x="2" y="2" style="font-family: 'Alegreya Sans', sans-serif; font-size: 5px; fill: rgb(255, 255, 255); fill-opacity: 1; white-space: pre;"/>
        </g>
      </g>
    </g>
    <g class="annotation" data-index="58" style="opacity: 1;">
      <g class="annotation-text-g" transform="rotate(0,583.85,33.75)">
        <g class="cursor-pointer" transform="translate(582,32)">
          <rect class="bg" x="0.5" y="0.5" width="3" height="3" style="stroke-width: 1px; stroke: rgb(0, 0, 0); stroke-opacity: 0; fill: rgb(0, 0, 0); fill-opacity: 0;"/>
          <text class="annotation-text" text-anchor="middle" x="2" y="2" style="font-family: 'Alegreya Sans', sans-serif; font-size: 5px; fill: rgb(255, 255, 255); fill-opacity: 1; white-space: pre;"/>
        </g>
      </g>
    </g>
    <g class="annotation" data-index="59" style="opacity: 1;">
      <g class="annotation-text-g" transform="rotate(0,623.18,33.75)">
        <g class="cursor-pointer" transform="translate(621,32)">
          <rect class="bg" x="0.5" y="0.5" width="3" height="3" style="stroke-width: 1px; stroke: rgb(0, 0, 0); stroke-opacity: 0; fill: rgb(0, 0, 0); fill-opacity: 0;"/>
          <text class="annotation-text" text-anchor="middle" x="2" y="2" style="font-family: 'Alegreya Sans', sans-serif; font-size: 5px; fill: rgb(255, 255, 255); fill-opacity: 1; white-space: pre;"/>
        </g>
      </g>
    </g>
  </g>
</svg>
