<svg xmlns="http://www.w3.org/2000/svg" xmlns:xlink="http://www.w3.org/1999/xlink" class="main-svg" width="100%" height="100%" style="" viewBox="1 1 799 196">
  <rect x="0" y="0" width="800" height="197" style="fill: rgb(255, 255, 255); fill-opacity: 1;"/>
  <defs id="defs-e64507">
    <g class="clips">
      <clipPath id="clipe64507xyplot" class="plotclip">
        <rect width="722" height="153"/>
      </clipPath>
      <clipPath class="axesclip" id="clipe64507x">
        <rect x="78" y="0" width="722" height="197"/>
      </clipPath>
      <clipPath class="axesclip" id="clipe64507y">
        <rect x="0" y="0" width="800" height="153"/>
      </clipPath>
      <clipPath class="axesclip" id="clipe64507xy">
        <rect x="78" y="0" width="722" height="153"/>
      </clipPath>
    </g>
    <g class="gradients"/>
    <g class="patterns"/>
  </defs>
  <g class="bglayer"/>
  <g class="layer-below">
    <g class="imagelayer"/>
    <g class="shapelayer"/>
  </g>
  <g class="cartesianlayer">
    <g class="subplot xy">
      <g class="layer-subplot">
        <g class="shapelayer"/>
        <g class="imagelayer"/>
      </g>
      <g class="gridlayer">
        <g class="x">
          <path class="xgrid crisp" transform="translate(153.97,0)" d="M0,0v153" style="stroke: rgb(238, 238, 238); stroke-opacity: 1; stroke-width: 1px;"/>
          <path class="xgrid crisp" transform="translate(248.98,0)" d="M0,0v153" style="stroke: rgb(238, 238, 238); stroke-opacity: 1; stroke-width: 1px;"/>
          <path class="xgrid crisp" transform="translate(343.99,0)" d="M0,0v153" style="stroke: rgb(238, 238, 238); stroke-opacity: 1; stroke-width: 1px;"/>
          <path class="xgrid crisp" transform="translate(534.01,0)" d="M0,0v153" style="stroke: rgb(238, 238, 238); stroke-opacity: 1; stroke-width: 1px;"/>
          <path class="xgrid crisp" transform="translate(629.02,0)" d="M0,0v153" style="stroke: rgb(238, 238, 238); stroke-opacity: 1; stroke-width: 1px;"/>
          <path class="xgrid crisp" transform="translate(724.03,0)" d="M0,0v153" style="stroke: rgb(238, 238, 238); stroke-opacity: 1; stroke-width: 1px;"/>
        </g>
        <g class="y"/>
      </g>
      <g class="zerolinelayer">
        <path class="xzl zl crisp" transform="translate(439,0)" d="M0,0v153" style="stroke: rgb(238, 238, 238); stroke-opacity: 1; stroke-width: 1px;"/>
      </g>
      <path class="xlines-below"/>
      <path class="ylines-below"/>
      <g class="overlines-below"/>
      <g class="xaxislayer-below"/>
      <g class="yaxislayer-below"/>
      <g class="overaxes-below"/>
      <g class="plot" transform="translate(78,0)" clip-path="url(#clipe64507xyplot)">
        <g class="barlayer mlayer">
          <g class="trace bars" style="opacity: 1;">
            <g class="points">
              <g class="point">
                <path d="M361,145.35V84.15H492.73V145.35Z" style="vector-effect: non-scaling-stroke; opacity: 1; stroke-width: 1px; fill: rgb(200, 223, 32); fill-opacity: 1; stroke: rgb(255, 255, 255); stroke-opacity: 1;"/>
                <text class="bartext bartext-inside" text-anchor="middle" data-notex="1" x="0" y="0" style="font-family: 'Alegreya Sans', sans-serif; font-size: 12px; fill: rgb(200, 223, 32); fill-opacity: 1; white-space: pre;" transform="translate(479.19875,118.75)">35 %</text>
              </g>
              <g class="point">
                <path d="M361,68.85V7.65H511.28V68.85Z" style="vector-effect: non-scaling-stroke; opacity: 1; stroke-width: 1px; fill: rgb(200, 223, 32); fill-opacity: 1; stroke: rgb(255, 255, 255); stroke-opacity: 1;"/>
                <text class="bartext bartext-inside" text-anchor="middle" data-notex="1" x="0" y="0" style="font-family: 'Alegreya Sans', sans-serif; font-size: 12px; fill: rgb(200, 223, 32); fill-opacity: 1; white-space: pre;" transform="translate(496.670625,42.25)">40 %</text>
              </g>
            </g>
          </g>
          <g class="trace bars" style="opacity: 1;">
            <g class="points">
              <g class="point">
                <path d="M492.73,145.35V84.15H553.85V145.35Z" style="vector-effect: non-scaling-stroke; opacity: 1; stroke-width: 1px; fill: rgb(25, 179, 25); fill-opacity: 1; stroke: rgb(255, 255, 255); stroke-opacity: 1;"/>
                <text class="bartext bartext-inside" text-anchor="middle" data-notex="1" x="0" y="0" style="font-family: 'Alegreya Sans', sans-serif; font-size: 12px; fill: rgb(25, 179, 25); fill-opacity: 1; white-space: pre;" transform="translate(540.4125,118.75)">16 %</text>
              </g>
              <g class="point">
                <path d="M511.28,68.85V7.65H600.66V68.85Z" style="vector-effect: non-scaling-stroke; opacity: 1; stroke-width: 1px; fill: rgb(25, 179, 25); fill-opacity: 1; stroke: rgb(255, 255, 255); stroke-opacity: 1;"/>
                <text class="bartext bartext-inside" text-anchor="middle" data-notex="1" x="0" y="0" style="font-family: 'Alegreya Sans', sans-serif; font-size: 12px; fill: rgb(25, 179, 25); fill-opacity: 1; white-space: pre;" transform="translate(586.488125,42.25)">24 %</text>
              </g>
            </g>
          </g>
          <g class="trace bars" style="opacity: 1;">
            <g class="points">
              <g class="point">
                <path d="M553.85,145.35V84.15H598.34V145.35Z" style="vector-effect: non-scaling-stroke; opacity: 1; stroke-width: 1px; fill: rgb(229, 229, 229); fill-opacity: 1; stroke: rgb(255, 255, 255); stroke-opacity: 1;"/>
                <text class="bartext bartext-inside" text-anchor="middle" data-notex="1" x="0" y="0" style="font-family: 'Alegreya Sans', sans-serif; font-size: 12px; fill: rgb(229, 229, 229); fill-opacity: 1; white-space: pre;" transform="translate(584.980625,118.75)">12 %</text>
              </g>
              <g class="point">
                <path d="M600.66,68.85V7.65H664.99V68.85Z" style="vector-effect: non-scaling-stroke; opacity: 1; stroke-width: 1px; fill: rgb(229, 229, 229); fill-opacity: 1; stroke: rgb(255, 255, 255); stroke-opacity: 1;"/>
                <text class="bartext bartext-inside" text-anchor="middle" data-notex="1" x="0" y="0" style="font-family: 'Alegreya Sans', sans-serif; font-size: 12px; fill: rgb(229, 229, 229); fill-opacity: 1; white-space: pre;" transform="translate(651.865,42.25)">17 %</text>
              </g>
            </g>
          </g>
          <g class="trace bars" style="opacity: 1;">
            <g class="points">
              <g class="point">
                <path d="M361,145.35V84.15H249.93V145.35Z" style="vector-effect: non-scaling-stroke; opacity: 1; stroke-width: 1px; fill: rgb(245, 171, 61); fill-opacity: 1; stroke: rgb(255, 255, 255); stroke-opacity: 1;"/>
                <text class="bartext bartext-inside" text-anchor="middle" data-notex="1" x="0" y="0" style="font-family: 'Alegreya Sans', sans-serif; font-size: 12px; fill: rgb(245, 171, 61); fill-opacity: 1; white-space: pre;" transform="translate(263.93,118.75)">29 %</text>
              </g>
              <g class="point">
                <path d="M361,68.85V7.65H307.08V68.85Z" style="vector-effect: non-scaling-stroke; opacity: 1; stroke-width: 1px; fill: rgb(245, 171, 61); fill-opacity: 1; stroke: rgb(255, 255, 255); stroke-opacity: 1;"/>
                <text class="bartext bartext-inside" text-anchor="middle" data-notex="1" x="0" y="0" style="font-family: 'Alegreya Sans', sans-serif; font-size: 12px; fill: rgb(245, 171, 61); fill-opacity: 1; white-space: pre;" transform="translate(320.470625,42.25)">14 %</text>
              </g>
            </g>
          </g>
          <g class="trace bars" style="opacity: 1;">
            <g class="points">
              <g class="point">
                <path d="M249.93,145.35V84.15H218.3V145.35Z" style="vector-effect: non-scaling-stroke; opacity: 1; stroke-width: 1px; fill: rgb(224, 64, 36); fill-opacity: 1; stroke: rgb(255, 255, 255); stroke-opacity: 1;"/>
                <text class="bartext bartext-inside" text-anchor="middle" data-notex="1" x="0" y="0" style="font-family: 'Alegreya Sans', sans-serif; font-size: 12px; fill: rgb(224, 64, 36); fill-opacity: 1; white-space: pre;" transform="translate(229.596875,118.75)">8 %</text>
              </g>
              <g class="point">
                <path d="M307.08,68.85V7.65H284.95V68.85Z" style="vector-effect: non-scaling-stroke; opacity: 1; stroke-width: 1px; fill: rgb(224, 64, 36); fill-opacity: 1; stroke: rgb(255, 255, 255); stroke-opacity: 1;"/>
                <text class="bartext bartext-inside" text-anchor="middle" data-notex="1" x="0" y="0" style="font-family: 'Alegreya Sans', sans-serif; font-size: 12px; fill: rgb(224, 64, 36); fill-opacity: 1; white-space: pre;" transform="translate(293.8953125,42.25)rotate(90 0.0546875 -4)">6 %</text>
              </g>
            </g>
          </g>
          <g class="trace bars" style="opacity: 1;">
            <g class="points">
              <g class="point">
                <path d="M0,0Z" style="vector-effect: non-scaling-stroke; opacity: 1; stroke-width: 0px; fill: rgb(229, 229, 229); fill-opacity: 1;"/>
              </g>
              <g class="point">
                <path d="M0,0Z" style="vector-effect: non-scaling-stroke; opacity: 1; stroke-width: 0px; fill: rgb(229, 229, 229); fill-opacity: 1;"/>
              </g>
            </g>
          </g>
          <g class="trace bars" style="opacity: 1;">
            <g class="points">
              <g class="point">
                <path d="M0,0Z" style="vector-effect: non-scaling-stroke; opacity: 1; stroke-width: 0px; fill: rgb(25, 179, 25); fill-opacity: 1;"/>
              </g>
              <g class="point">
                <path d="M0,0Z" style="vector-effect: non-scaling-stroke; opacity: 1; stroke-width: 0px; fill: rgb(25, 179, 25); fill-opacity: 1;"/>
              </g>
            </g>
          </g>
          <g class="trace bars" style="opacity: 1;">
            <g class="points">
              <g class="point">
                <path d="M0,0Z" style="vector-effect: non-scaling-stroke; opacity: 1; stroke-width: 0px; fill: rgb(200, 223, 32); fill-opacity: 1;"/>
              </g>
              <g class="point">
                <path d="M0,0Z" style="vector-effect: non-scaling-stroke; opacity: 1; stroke-width: 0px; fill: rgb(200, 223, 32); fill-opacity: 1;"/>
              </g>
            </g>
          </g>
          <g class="trace bars" style="opacity: 1;">
            <g class="points">
              <g class="point">
                <path d="M0,0Z" style="vector-effect: non-scaling-stroke; opacity: 1; stroke-width: 0px; fill: rgb(245, 171, 61); fill-opacity: 1;"/>
              </g>
              <g class="point">
                <path d="M0,0Z" style="vector-effect: non-scaling-stroke; opacity: 1; stroke-width: 0px; fill: rgb(245, 171, 61); fill-opacity: 1;"/>
              </g>
            </g>
          </g>
          <g class="trace bars" style="opacity: 1;">
            <g class="points">
              <g class="point">
                <path d="M0,0Z" style="vector-effect: non-scaling-stroke; opacity: 1; stroke-width: 0px; fill: rgb(224, 64, 36); fill-opacity: 1;"/>
              </g>
              <g class="point">
                <path d="M0,0Z" style="vector-effect: non-scaling-stroke; opacity: 1; stroke-width: 0px; fill: rgb(224, 64, 36); fill-opacity: 1;"/>
              </g>
            </g>
          </g>
        </g>
      </g>
      <g class="overplot"/>
      <path class="xlines-above crisp" d="M0,0" style="fill: none;"/>
      <path class="ylines-above crisp" d="M0,0" style="fill: none;"/>
      <g class="overlines-above"/>
      <g class="xaxislayer-above">
        <g class="xtick">
          <text text-anchor="middle" x="0" y="166" transform="translate(153.97,0)" style="font-family: 'Alegreya Sans', sans-serif; font-size: 12px; fill: rgb(0, 0, 0); fill-opacity: 1; white-space: pre; opacity: 1;"/>
        </g>
        <g class="xtick">
          <text text-anchor="middle" x="0" y="166" style="font-family: 'Alegreya Sans', sans-serif; font-size: 12px; fill: rgb(0, 0, 0); fill-opacity: 1; white-space: pre; opacity: 1;" transform="translate(248.98,0)">50 %</text>
        </g>
        <g class="xtick">
          <text text-anchor="middle" x="0" y="166" style="font-family: 'Alegreya Sans', sans-serif; font-size: 12px; fill: rgb(0, 0, 0); fill-opacity: 1; white-space: pre; opacity: 1;" transform="translate(343.99,0)"/>
        </g>
        <g class="xtick">
          <text text-anchor="middle" x="0" y="166" style="font-family: 'Alegreya Sans', sans-serif; font-size: 12px; fill: rgb(0, 0, 0); fill-opacity: 1; white-space: pre; opacity: 1;" transform="translate(439,0)">0 %</text>
        </g>
        <g class="xtick">
          <text text-anchor="middle" x="0" y="166" style="font-family: 'Alegreya Sans', sans-serif; font-size: 12px; fill: rgb(0, 0, 0); fill-opacity: 1; white-space: pre; opacity: 1;" transform="translate(534.01,0)"/>
        </g>
        <g class="xtick">
          <text text-anchor="middle" x="0" y="166" style="font-family: 'Alegreya Sans', sans-serif; font-size: 12px; fill: rgb(0, 0, 0); fill-opacity: 1; white-space: pre; opacity: 1;" transform="translate(629.02,0)">50 %</text>
        </g>
        <g class="xtick">
          <text text-anchor="middle" x="0" y="166" style="font-family: 'Alegreya Sans', sans-serif; font-size: 12px; fill: rgb(0, 0, 0); fill-opacity: 1; white-space: pre; opacity: 1;" transform="translate(724.03,0)"/>
        </g>
      </g>
      <g class="yaxislayer-above">
        <g class="ytick">
          <text text-anchor="end" x="77" y="3.8499999999999996" transform="translate(0,114.75)" style="font-family: 'Alegreya Sans', sans-serif; font-size: 11px; fill: rgb(0, 0, 0); fill-opacity: 1; white-space: pre; opacity: 1;">Ja (angenommen)</text>
        </g>
        <g class="ytick">
          <text text-anchor="end" x="77" y="3.8499999999999996" transform="translate(0,38.25)" style="font-family: 'Alegreya Sans', sans-serif; font-size: 11px; fill: rgb(0, 0, 0); fill-opacity: 1; white-space: pre; opacity: 1;">Nein (abgelehnt)</text>
        </g>
      </g>
      <g class="overaxes-above"/>
    </g>
  </g>
  <g class="polarlayer"/>
  <g class="smithlayer"/>
  <g class="ternarylayer"/>
  <g class="geolayer"/>
  <g class="funnelarealayer"/>
  <g class="pielayer"/>
  <g class="iciclelayer"/>
  <g class="treemaplayer"/>
  <g class="sunburstlayer"/>
  <g class="glimages"/>
  <defs id="topdefs-e64507">
    <g class="clips"/>
    <clipPath id="legende64507">
      <rect width="590" height="29" x="0" y="0"/>
    </clipPath>
  </defs>
  <g class="layer-above">
    <g class="imagelayer"/>
    <g class="shapelayer"/>
  </g>
  <g class="infolayer">
    <g class="legend" pointer-events="all" transform="translate(78,168)">
      <rect class="bg" shape-rendering="crispEdges" width="590" height="29" x="0" y="0" style="stroke: rgb(68, 68, 68); stroke-opacity: 1; fill: rgb(255, 255, 255); fill-opacity: 1; stroke-width: 0px;"/>
      <g class="scrollbox" transform="" clip-path="url(#legende64507)">
        <g class="groups">
          <g class="traces" transform="translate(0,14.5)" style="opacity: 1;">
            <text class="legendtext" text-anchor="start" x="40" y="4.680000000000001" style="font-family: 'Alegreya Sans', sans-serif; font-size: 12px; fill: rgb(0, 0, 0); fill-opacity: 1; white-space: pre;">bedeutungslos</text>
            <g class="layers" style="opacity: 1;">
              <g class="legendfill"/>
              <g class="legendlines"/>
              <g class="legendsymbols">
                <g class="legendpoints">
                  <path class="legendundefined" d="M6,6H-6V-6H6Z" transform="translate(20,0)" style="stroke-width: 0px; fill: rgb(224, 64, 36); fill-opacity: 1;"/>
                </g>
              </g>
            </g>
            <rect class="legendtoggle" x="0" y="-9.5" width="111.671875" height="19" style="fill: rgb(0, 0, 0); fill-opacity: 0;"/>
          </g>
          <g class="traces" transform="translate(114.171875,14.5)" style="opacity: 1;">
            <text class="legendtext" text-anchor="start" x="40" y="4.680000000000001" style="font-family: 'Alegreya Sans', sans-serif; font-size: 12px; fill: rgb(0, 0, 0); fill-opacity: 1; white-space: pre;">eher unwichtig</text>
            <g class="layers" style="opacity: 1;">
              <g class="legendfill"/>
              <g class="legendlines"/>
              <g class="legendsymbols">
                <g class="legendpoints">
                  <path class="legendundefined" d="M6,6H-6V-6H6Z" transform="translate(20,0)" style="stroke-width: 0px; fill: rgb(245, 171, 61); fill-opacity: 1;"/>
                </g>
              </g>
            </g>
            <rect class="legendtoggle" x="0" y="-9.5" width="112.21875" height="19" style="fill: rgb(0, 0, 0); fill-opacity: 0;"/>
          </g>
          <g class="traces" transform="translate(228.890625,14.5)" style="opacity: 1;">
            <text class="legendtext" text-anchor="start" x="40" y="4.680000000000001" style="font-family: 'Alegreya Sans', sans-serif; font-size: 12px; fill: rgb(0, 0, 0); fill-opacity: 1; white-space: pre;">eher wichtig</text>
            <g class="layers" style="opacity: 1;">
              <g class="legendfill"/>
              <g class="legendlines"/>
              <g class="legendsymbols">
                <g class="legendpoints">
                  <path class="legendundefined" d="M6,6H-6V-6H6Z" transform="translate(20,0)" style="stroke-width: 0px; fill: rgb(200, 223, 32); fill-opacity: 1;"/>
                </g>
              </g>
            </g>
            <rect class="legendtoggle" x="0" y="-9.5" width="100.25" height="19" style="fill: rgb(0, 0, 0); fill-opacity: 0;"/>
          </g>
          <g class="traces" transform="translate(331.640625,14.5)" style="opacity: 1;">
            <text class="legendtext" text-anchor="start" x="40" y="4.680000000000001" style="font-family: 'Alegreya Sans', sans-serif; font-size: 12px; fill: rgb(0, 0, 0); fill-opacity: 1; white-space: pre;">sehr wichtig</text>
            <g class="layers" style="opacity: 1;">
              <g class="legendfill"/>
              <g class="legendlines"/>
              <g class="legendsymbols">
                <g class="legendpoints">
                  <path class="legendundefined" d="M6,6H-6V-6H6Z" transform="translate(20,0)" style="stroke-width: 0px; fill: rgb(25, 179, 25); fill-opacity: 1;"/>
                </g>
              </g>
            </g>
            <rect class="legendtoggle" x="0" y="-9.5" width="99.046875" height="19" style="fill: rgb(0, 0, 0); fill-opacity: 0;"/>
          </g>
          <g class="traces" transform="translate(433.1875,14.5)" style="opacity: 1;">
            <text class="legendtext" text-anchor="start" x="40" y="4.680000000000001" style="font-family: 'Alegreya Sans', sans-serif; font-size: 12px; fill: rgb(0, 0, 0); fill-opacity: 1; white-space: pre;">
              <tspan style=" fill: #808080;;font-style:italic">weiss nicht / keine Angabe</tspan>
            </text>
            <g class="layers" style="opacity: 1;">
              <g class="legendfill"/>
              <g class="legendlines"/>
              <g class="legendsymbols">
                <g class="legendpoints">
                  <path class="legendundefined" d="M6,6H-6V-6H6Z" transform="translate(20,0)" style="stroke-width: 0px; fill: rgb(229, 229, 229); fill-opacity: 1;"/>
                </g>
              </g>
            </g>
            <rect class="legendtoggle" x="0" y="-9.5" width="153.4375" height="19" style="fill: rgb(0, 0, 0); fill-opacity: 0;"/>
          </g>
        </g>
      </g>
      <rect class="scrollbar" rx="20" ry="3" width="0" height="0" x="0" y="0" style="fill: rgb(128, 139, 164); fill-opacity: 1;"/>
    </g>
    <g class="g-gtitle"/>
    <g class="g-xtitle"/>
    <g class="g-ytitle"/>
    <g class="annotation" data-index="0" style="opacity: 1;">
      <g class="annotation-text-g" transform="rotate(0,312.12,114.75)">
        <g class="cursor-pointer" transform="translate(310,113)">
          <rect class="bg" x="0.5" y="0.5" width="3" height="3" style="stroke-width: 1px; stroke: rgb(0, 0, 0); stroke-opacity: 0; fill: rgb(0, 0, 0); fill-opacity: 0;"/>
          <text class="annotation-text" text-anchor="middle" x="2" y="2" style="font-family: 'Alegreya Sans', sans-serif; font-size: 10px; fill: rgb(255, 255, 255); fill-opacity: 1; white-space: pre;"/>
        </g>
      </g>
    </g>
    <g class="annotation" data-index="1" style="opacity: 1;">
      <g class="annotation-text-g" transform="rotate(0,383.46,114.75)">
        <g class="cursor-pointer" transform="translate(372,101)">
          <rect class="bg" x="0.5" y="0.5" width="22" height="26" style="stroke-width: 1px; stroke: rgb(0, 0, 0); stroke-opacity: 0; fill: rgb(0, 0, 0); fill-opacity: 0;"/>
          <text class="annotation-text" text-anchor="middle" x="11.421875" y="10" style="font-family: 'Alegreya Sans', sans-serif; font-size: 10px; fill: rgb(255, 255, 255); fill-opacity: 1; white-space: pre;">
            <tspan class="line" dy="0em" x="11.421875" y="10">
              <tspan style="font-weight:bold">29 %</tspan>
            </tspan>
            <tspan class="line" dy="1.3em" x="11.421875" y="10">(65)</tspan>
          </text>
        </g>
      </g>
    </g>
    <g class="annotation" data-index="2" style="opacity: 1;">
      <g class="annotation-text-g" transform="rotate(0,504.86,114.75)">
        <g class="cursor-pointer" transform="translate(494,101)">
          <rect class="bg" x="0.5" y="0.5" width="21" height="26" style="stroke-width: 1px; stroke: rgb(0, 0, 0); stroke-opacity: 0; fill: rgb(0, 0, 0); fill-opacity: 0;"/>
          <text class="annotation-text" text-anchor="middle" x="10.96875" y="10" style="font-family: 'Alegreya Sans', sans-serif; font-size: 10px; fill: rgb(255, 255, 255); fill-opacity: 1; white-space: pre;">
            <tspan class="line" dy="0em" x="10.96875" y="10">
              <tspan style="font-weight:bold">35 %</tspan>
            </tspan>
            <tspan class="line" dy="1.3em" x="10.96875" y="10">(77)</tspan>
          </text>
        </g>
      </g>
    </g>
    <g class="annotation" data-index="3" style="opacity: 1;">
      <g class="annotation-text-g" transform="rotate(0,601.29,114.75)">
        <g class="cursor-pointer" transform="translate(590,101)">
          <rect class="bg" x="0.5" y="0.5" width="21" height="26" style="stroke-width: 1px; stroke: rgb(0, 0, 0); stroke-opacity: 0; fill: rgb(0, 0, 0); fill-opacity: 0;"/>
          <text class="annotation-text" text-anchor="middle" x="10.875" y="10" style="font-family: 'Alegreya Sans', sans-serif; font-size: 10px; fill: rgb(255, 255, 255); fill-opacity: 1; white-space: pre;">
            <tspan class="line" dy="0em" x="10.875" y="10">
              <tspan style="font-weight:bold">16 %</tspan>
            </tspan>
            <tspan class="line" dy="1.3em" x="10.875" y="10">(36)</tspan>
          </text>
        </g>
      </g>
    </g>
    <g class="annotation" data-index="4" style="opacity: 1;">
      <g class="annotation-text-g" transform="rotate(0,654.1,114.75)">
        <g class="cursor-pointer" transform="translate(643,101)">
          <rect class="bg" x="0.5" y="0.5" width="21" height="26" style="stroke-width: 1px; stroke: rgb(0, 0, 0); stroke-opacity: 0; fill: rgb(0, 0, 0); fill-opacity: 0;"/>
          <text class="annotation-text" text-anchor="middle" x="10.8125" y="10" style="font-family: 'Alegreya Sans', sans-serif; font-size: 10px; fill: rgb(255, 255, 255); fill-opacity: 1; white-space: pre;">
            <tspan class="line" dy="0em" x="10.8125" y="10">
              <tspan style="font-weight:bold">12 %</tspan>
            </tspan>
            <tspan class="line" dy="1.3em" x="10.8125" y="10">(26)</tspan>
          </text>
        </g>
      </g>
    </g>
    <g class="annotation" data-index="5" style="opacity: 1;">
      <g class="annotation-text-g" transform="rotate(0,374.02,38.25)">
        <g class="cursor-pointer" transform="translate(372,36)">
          <rect class="bg" x="0.5" y="0.5" width="3" height="3" style="stroke-width: 1px; stroke: rgb(0, 0, 0); stroke-opacity: 0; fill: rgb(0, 0, 0); fill-opacity: 0;"/>
          <text class="annotation-text" text-anchor="middle" x="2" y="2" style="font-family: 'Alegreya Sans', sans-serif; font-size: 10px; fill: rgb(255, 255, 255); fill-opacity: 1; white-space: pre;"/>
        </g>
      </g>
    </g>
    <g class="annotation" data-index="6" style="opacity: 1;">
      <g class="annotation-text-g" transform="rotate(0,412.04,38.25)">
        <g class="cursor-pointer" transform="translate(401,25)">
          <rect class="bg" x="0.5" y="0.5" width="21" height="26" style="stroke-width: 1px; stroke: rgb(0, 0, 0); stroke-opacity: 0; fill: rgb(0, 0, 0); fill-opacity: 0;"/>
          <text class="annotation-text" text-anchor="middle" x="10.96875" y="10" style="font-family: 'Alegreya Sans', sans-serif; font-size: 10px; fill: rgb(255, 255, 255); fill-opacity: 1; white-space: pre;">
            <tspan class="line" dy="0em" x="10.96875" y="10">
              <tspan style="font-weight:bold">14 %</tspan>
            </tspan>
            <tspan class="line" dy="1.3em" x="10.96875" y="10">(92)</tspan>
          </text>
        </g>
      </g>
    </g>
    <g class="annotation" data-index="7" style="opacity: 1;">
      <g class="annotation-text-g" transform="rotate(0,514.14,38.25)">
        <g class="cursor-pointer" transform="translate(502,25)">
          <rect class="bg" x="0.5" y="0.5" width="23" height="26" style="stroke-width: 1px; stroke: rgb(0, 0, 0); stroke-opacity: 0; fill: rgb(0, 0, 0); fill-opacity: 0;"/>
          <text class="annotation-text" text-anchor="middle" x="11.78125" y="10" style="font-family: 'Alegreya Sans', sans-serif; font-size: 10px; fill: rgb(255, 255, 255); fill-opacity: 1; white-space: pre;">
            <tspan class="line" dy="0em" x="11.78125" y="10">
              <tspan style="font-weight:bold">40 %</tspan>
            </tspan>
            <tspan class="line" dy="1.3em" x="11.78125" y="10">(258)</tspan>
          </text>
        </g>
      </g>
    </g>
    <g class="annotation" data-index="8" style="opacity: 1;">
      <g class="annotation-text-g" transform="rotate(0,633.97,38.25)">
        <g class="cursor-pointer" transform="translate(622,25)">
          <rect class="bg" x="0.5" y="0.5" width="23" height="26" style="stroke-width: 1px; stroke: rgb(0, 0, 0); stroke-opacity: 0; fill: rgb(0, 0, 0); fill-opacity: 0;"/>
          <text class="annotation-text" text-anchor="middle" x="11.53125" y="10" style="font-family: 'Alegreya Sans', sans-serif; font-size: 10px; fill: rgb(255, 255, 255); fill-opacity: 1; white-space: pre;">
            <tspan class="line" dy="0em" x="11.53125" y="10">
              <tspan style="font-weight:bold">24 %</tspan>
            </tspan>
            <tspan class="line" dy="1.3em" x="11.53125" y="10">(153)</tspan>
          </text>
        </g>
      </g>
    </g>
    <g class="annotation" data-index="9" style="opacity: 1;">
      <g class="annotation-text-g" transform="rotate(0,710.83,38.25)">
        <g class="cursor-pointer" transform="translate(700,25)">
          <rect class="bg" x="0.5" y="0.5" width="21" height="26" style="stroke-width: 1px; stroke: rgb(0, 0, 0); stroke-opacity: 0; fill: rgb(0, 0, 0); fill-opacity: 0;"/>
          <text class="annotation-text" text-anchor="middle" x="11.0625" y="10" style="font-family: 'Alegreya Sans', sans-serif; font-size: 10px; fill: rgb(255, 255, 255); fill-opacity: 1; white-space: pre;">
            <tspan class="line" dy="0em" x="11.0625" y="10">
              <tspan style="font-weight:bold">17 %</tspan>
            </tspan>
            <tspan class="line" dy="1.3em" x="11.0625" y="10">(110)</tspan>
          </text>
        </g>
      </g>
    </g>
    <g class="annotation" data-index="10" style="opacity: 1;">
      <g class="annotation-text-g" transform="rotate(0,312.12,114.75)">
        <g class="cursor-pointer" transform="translate(310,113)">
          <rect class="bg" x="0.5" y="0.5" width="3" height="3" style="stroke-width: 1px; stroke: rgb(0, 0, 0); stroke-opacity: 0; fill: rgb(0, 0, 0); fill-opacity: 0;"/>
          <text class="annotation-text" text-anchor="middle" x="2" y="2" style="font-family: 'Alegreya Sans', sans-serif; font-size: 9px; fill: rgb(255, 255, 255); fill-opacity: 1; white-space: pre;"/>
        </g>
      </g>
    </g>
    <g class="annotation" data-index="11" style="opacity: 1;">
      <g class="annotation-text-g" transform="rotate(0,383.46,114.75)">
        <g class="cursor-pointer" transform="translate(381,113)">
          <rect class="bg" x="0.5" y="0.5" width="3" height="3" style="stroke-width: 1px; stroke: rgb(0, 0, 0); stroke-opacity: 0; fill: rgb(0, 0, 0); fill-opacity: 0;"/>
          <text class="annotation-text" text-anchor="middle" x="2" y="2" style="font-family: 'Alegreya Sans', sans-serif; font-size: 9px; fill: rgb(255, 255, 255); fill-opacity: 1; white-space: pre;"/>
        </g>
      </g>
    </g>
    <g class="annotation" data-index="12" style="opacity: 1;">
      <g class="annotation-text-g" transform="rotate(0,504.86,114.75)">
        <g class="cursor-pointer" transform="translate(503,113)">
          <rect class="bg" x="0.5" y="0.5" width="3" height="3" style="stroke-width: 1px; stroke: rgb(0, 0, 0); stroke-opacity: 0; fill: rgb(0, 0, 0); fill-opacity: 0;"/>
          <text class="annotation-text" text-anchor="middle" x="2" y="2" style="font-family: 'Alegreya Sans', sans-serif; font-size: 9px; fill: rgb(255, 255, 255); fill-opacity: 1; white-space: pre;"/>
        </g>
      </g>
    </g>
    <g class="annotation" data-index="13" style="opacity: 1;">
      <g class="annotation-text-g" transform="rotate(0,601.29,114.75)">
        <g class="cursor-pointer" transform="translate(599,113)">
          <rect class="bg" x="0.5" y="0.5" width="3" height="3" style="stroke-width: 1px; stroke: rgb(0, 0, 0); stroke-opacity: 0; fill: rgb(0, 0, 0); fill-opacity: 0;"/>
          <text class="annotation-text" text-anchor="middle" x="2" y="2" style="font-family: 'Alegreya Sans', sans-serif; font-size: 9px; fill: rgb(255, 255, 255); fill-opacity: 1; white-space: pre;"/>
        </g>
      </g>
    </g>
    <g class="annotation" data-index="14" style="opacity: 1;">
      <g class="annotation-text-g" transform="rotate(0,654.1,114.75)">
        <g class="cursor-pointer" transform="translate(652,113)">
          <rect class="bg" x="0.5" y="0.5" width="3" height="3" style="stroke-width: 1px; stroke: rgb(0, 0, 0); stroke-opacity: 0; fill: rgb(0, 0, 0); fill-opacity: 0;"/>
          <text class="annotation-text" text-anchor="middle" x="2" y="2" style="font-family: 'Alegreya Sans', sans-serif; font-size: 9px; fill: rgb(255, 255, 255); fill-opacity: 1; white-space: pre;"/>
        </g>
      </g>
    </g>
    <g class="annotation" data-index="15" style="opacity: 1;">
      <g class="annotation-text-g" transform="rotate(0,374.02,38.25)">
        <g class="cursor-pointer" transform="translate(372,36)">
          <rect class="bg" x="0.5" y="0.5" width="3" height="3" style="stroke-width: 1px; stroke: rgb(0, 0, 0); stroke-opacity: 0; fill: rgb(0, 0, 0); fill-opacity: 0;"/>
          <text class="annotation-text" text-anchor="middle" x="2" y="2" style="font-family: 'Alegreya Sans', sans-serif; font-size: 9px; fill: rgb(255, 255, 255); fill-opacity: 1; white-space: pre;"/>
        </g>
      </g>
    </g>
    <g class="annotation" data-index="16" style="opacity: 1;">
      <g class="annotation-text-g" transform="rotate(0,412.04,38.25)">
        <g class="cursor-pointer" transform="translate(410,36)">
          <rect class="bg" x="0.5" y="0.5" width="3" height="3" style="stroke-width: 1px; stroke: rgb(0, 0, 0); stroke-opacity: 0; fill: rgb(0, 0, 0); fill-opacity: 0;"/>
          <text class="annotation-text" text-anchor="middle" x="2" y="2" style="font-family: 'Alegreya Sans', sans-serif; font-size: 9px; fill: rgb(255, 255, 255); fill-opacity: 1; white-space: pre;"/>
        </g>
      </g>
    </g>
    <g class="annotation" data-index="17" style="opacity: 1;">
      <g class="annotation-text-g" transform="rotate(0,514.14,38.25)">
        <g class="cursor-pointer" transform="translate(512,36)">
          <rect class="bg" x="0.5" y="0.5" width="3" height="3" style="stroke-width: 1px; stroke: rgb(0, 0, 0); stroke-opacity: 0; fill: rgb(0, 0, 0); fill-opacity: 0;"/>
          <text class="annotation-text" text-anchor="middle" x="2" y="2" style="font-family: 'Alegreya Sans', sans-serif; font-size: 9px; fill: rgb(255, 255, 255); fill-opacity: 1; white-space: pre;"/>
        </g>
      </g>
    </g>
    <g class="annotation" data-index="18" style="opacity: 1;">
      <g class="annotation-text-g" transform="rotate(0,633.97,38.25)">
        <g class="cursor-pointer" transform="translate(632,36)">
          <rect class="bg" x="0.5" y="0.5" width="3" height="3" style="stroke-width: 1px; stroke: rgb(0, 0, 0); stroke-opacity: 0; fill: rgb(0, 0, 0); fill-opacity: 0;"/>
          <text class="annotation-text" text-anchor="middle" x="2" y="2" style="font-family: 'Alegreya Sans', sans-serif; font-size: 9px; fill: rgb(255, 255, 255); fill-opacity: 1; white-space: pre;"/>
        </g>
      </g>
    </g>
    <g class="annotation" data-index="19" style="opacity: 1;">
      <g class="annotation-text-g" transform="rotate(0,710.83,38.25)">
        <g class="cursor-pointer" transform="translate(709,36)">
          <rect class="bg" x="0.5" y="0.5" width="3" height="3" style="stroke-width: 1px; stroke: rgb(0, 0, 0); stroke-opacity: 0; fill: rgb(0, 0, 0); fill-opacity: 0;"/>
          <text class="annotation-text" text-anchor="middle" x="2" y="2" style="font-family: 'Alegreya Sans', sans-serif; font-size: 9px; fill: rgb(255, 255, 255); fill-opacity: 1; white-space: pre;"/>
        </g>
      </g>
    </g>
    <g class="annotation" data-index="20" style="opacity: 1;">
      <g class="annotation-text-g" transform="rotate(0,312.12,114.75)">
        <g class="cursor-pointer" transform="translate(304,104)">
          <rect class="bg" x="0.5" y="0.5" width="15" height="21" style="stroke-width: 1px; stroke: rgb(0, 0, 0); stroke-opacity: 0; fill: rgb(0, 0, 0); fill-opacity: 0;"/>
          <text class="annotation-text" text-anchor="middle" x="7.703125" y="8" style="font-family: 'Alegreya Sans', sans-serif; font-size: 8px; fill: rgb(255, 255, 255); fill-opacity: 1; white-space: pre;">
            <tspan class="line" dy="0em" x="7.703125" y="8">
              <tspan style="font-weight:bold">8 %</tspan>
            </tspan>
            <tspan class="line" dy="1.3em" x="7.703125" y="8">(18)</tspan>
          </text>
        </g>
      </g>
    </g>
    <g class="annotation" data-index="21" style="opacity: 1;">
      <g class="annotation-text-g" transform="rotate(0,383.46,114.75)">
        <g class="cursor-pointer" transform="translate(381,113)">
          <rect class="bg" x="0.5" y="0.5" width="3" height="3" style="stroke-width: 1px; stroke: rgb(0, 0, 0); stroke-opacity: 0; fill: rgb(0, 0, 0); fill-opacity: 0;"/>
          <text class="annotation-text" text-anchor="middle" x="2" y="2" style="font-family: 'Alegreya Sans', sans-serif; font-size: 8px; fill: rgb(255, 255, 255); fill-opacity: 1; white-space: pre;"/>
        </g>
      </g>
    </g>
    <g class="annotation" data-index="22" style="opacity: 1;">
      <g class="annotation-text-g" transform="rotate(0,504.86,114.75)">
        <g class="cursor-pointer" transform="translate(503,113)">
          <rect class="bg" x="0.5" y="0.5" width="3" height="3" style="stroke-width: 1px; stroke: rgb(0, 0, 0); stroke-opacity: 0; fill: rgb(0, 0, 0); fill-opacity: 0;"/>
          <text class="annotation-text" text-anchor="middle" x="2" y="2" style="font-family: 'Alegreya Sans', sans-serif; font-size: 8px; fill: rgb(255, 255, 255); fill-opacity: 1; white-space: pre;"/>
        </g>
      </g>
    </g>
    <g class="annotation" data-index="23" style="opacity: 1;">
      <g class="annotation-text-g" transform="rotate(0,601.29,114.75)">
        <g class="cursor-pointer" transform="translate(599,113)">
          <rect class="bg" x="0.5" y="0.5" width="3" height="3" style="stroke-width: 1px; stroke: rgb(0, 0, 0); stroke-opacity: 0; fill: rgb(0, 0, 0); fill-opacity: 0;"/>
          <text class="annotation-text" text-anchor="middle" x="2" y="2" style="font-family: 'Alegreya Sans', sans-serif; font-size: 8px; fill: rgb(255, 255, 255); fill-opacity: 1; white-space: pre;"/>
        </g>
      </g>
    </g>
    <g class="annotation" data-index="24" style="opacity: 1;">
      <g class="annotation-text-g" transform="rotate(0,654.1,114.75)">
        <g class="cursor-pointer" transform="translate(652,113)">
          <rect class="bg" x="0.5" y="0.5" width="3" height="3" style="stroke-width: 1px; stroke: rgb(0, 0, 0); stroke-opacity: 0; fill: rgb(0, 0, 0); fill-opacity: 0;"/>
          <text class="annotation-text" text-anchor="middle" x="2" y="2" style="font-family: 'Alegreya Sans', sans-serif; font-size: 8px; fill: rgb(255, 255, 255); fill-opacity: 1; white-space: pre;"/>
        </g>
      </g>
    </g>
    <g class="annotation" data-index="25" style="opacity: 1;">
      <g class="annotation-text-g" transform="rotate(0,374.02,38.25)">
        <g class="cursor-pointer" transform="translate(372,36)">
          <rect class="bg" x="0.5" y="0.5" width="3" height="3" style="stroke-width: 1px; stroke: rgb(0, 0, 0); stroke-opacity: 0; fill: rgb(0, 0, 0); fill-opacity: 0;"/>
          <text class="annotation-text" text-anchor="middle" x="2" y="2" style="font-family: 'Alegreya Sans', sans-serif; font-size: 8px; fill: rgb(255, 255, 255); fill-opacity: 1; white-space: pre;"/>
        </g>
      </g>
    </g>
    <g class="annotation" data-index="26" style="opacity: 1;">
      <g class="annotation-text-g" transform="rotate(0,412.04,38.25)">
        <g class="cursor-pointer" transform="translate(410,36)">
          <rect class="bg" x="0.5" y="0.5" width="3" height="3" style="stroke-width: 1px; stroke: rgb(0, 0, 0); stroke-opacity: 0; fill: rgb(0, 0, 0); fill-opacity: 0;"/>
          <text class="annotation-text" text-anchor="middle" x="2" y="2" style="font-family: 'Alegreya Sans', sans-serif; font-size: 8px; fill: rgb(255, 255, 255); fill-opacity: 1; white-space: pre;"/>
        </g>
      </g>
    </g>
    <g class="annotation" data-index="27" style="opacity: 1;">
      <g class="annotation-text-g" transform="rotate(0,514.14,38.25)">
        <g class="cursor-pointer" transform="translate(512,36)">
          <rect class="bg" x="0.5" y="0.5" width="3" height="3" style="stroke-width: 1px; stroke: rgb(0, 0, 0); stroke-opacity: 0; fill: rgb(0, 0, 0); fill-opacity: 0;"/>
          <text class="annotation-text" text-anchor="middle" x="2" y="2" style="font-family: 'Alegreya Sans', sans-serif; font-size: 8px; fill: rgb(255, 255, 255); fill-opacity: 1; white-space: pre;"/>
        </g>
      </g>
    </g>
    <g class="annotation" data-index="28" style="opacity: 1;">
      <g class="annotation-text-g" transform="rotate(0,633.97,38.25)">
        <g class="cursor-pointer" transform="translate(632,36)">
          <rect class="bg" x="0.5" y="0.5" width="3" height="3" style="stroke-width: 1px; stroke: rgb(0, 0, 0); stroke-opacity: 0; fill: rgb(0, 0, 0); fill-opacity: 0;"/>
          <text class="annotation-text" text-anchor="middle" x="2" y="2" style="font-family: 'Alegreya Sans', sans-serif; font-size: 8px; fill: rgb(255, 255, 255); fill-opacity: 1; white-space: pre;"/>
        </g>
      </g>
    </g>
    <g class="annotation" data-index="29" style="opacity: 1;">
      <g class="annotation-text-g" transform="rotate(0,710.83,38.25)">
        <g class="cursor-pointer" transform="translate(709,36)">
          <rect class="bg" x="0.5" y="0.5" width="3" height="3" style="stroke-width: 1px; stroke: rgb(0, 0, 0); stroke-opacity: 0; fill: rgb(0, 0, 0); fill-opacity: 0;"/>
          <text class="annotation-text" text-anchor="middle" x="2" y="2" style="font-family: 'Alegreya Sans', sans-serif; font-size: 8px; fill: rgb(255, 255, 255); fill-opacity: 1; white-space: pre;"/>
        </g>
      </g>
    </g>
    <g class="annotation" data-index="30" style="opacity: 1;">
      <g class="annotation-text-g" transform="rotate(0,312.12,114.75)">
        <g class="cursor-pointer" transform="translate(310,113)">
          <rect class="bg" x="0.5" y="0.5" width="3" height="3" style="stroke-width: 1px; stroke: rgb(0, 0, 0); stroke-opacity: 0; fill: rgb(0, 0, 0); fill-opacity: 0;"/>
          <text class="annotation-text" text-anchor="middle" x="2" y="2" style="font-family: 'Alegreya Sans', sans-serif; font-size: 7px; fill: rgb(255, 255, 255); fill-opacity: 1; white-space: pre;"/>
        </g>
      </g>
    </g>
    <g class="annotation" data-index="31" style="opacity: 1;">
      <g class="annotation-text-g" transform="rotate(0,383.46,114.75)">
        <g class="cursor-pointer" transform="translate(381,113)">
          <rect class="bg" x="0.5" y="0.5" width="3" height="3" style="stroke-width: 1px; stroke: rgb(0, 0, 0); stroke-opacity: 0; fill: rgb(0, 0, 0); fill-opacity: 0;"/>
          <text class="annotation-text" text-anchor="middle" x="2" y="2" style="font-family: 'Alegreya Sans', sans-serif; font-size: 7px; fill: rgb(255, 255, 255); fill-opacity: 1; white-space: pre;"/>
        </g>
      </g>
    </g>
    <g class="annotation" data-index="32" style="opacity: 1;">
      <g class="annotation-text-g" transform="rotate(0,504.86,114.75)">
        <g class="cursor-pointer" transform="translate(503,113)">
          <rect class="bg" x="0.5" y="0.5" width="3" height="3" style="stroke-width: 1px; stroke: rgb(0, 0, 0); stroke-opacity: 0; fill: rgb(0, 0, 0); fill-opacity: 0;"/>
          <text class="annotation-text" text-anchor="middle" x="2" y="2" style="font-family: 'Alegreya Sans', sans-serif; font-size: 7px; fill: rgb(255, 255, 255); fill-opacity: 1; white-space: pre;"/>
        </g>
      </g>
    </g>
    <g class="annotation" data-index="33" style="opacity: 1;">
      <g class="annotation-text-g" transform="rotate(0,601.29,114.75)">
        <g class="cursor-pointer" transform="translate(599,113)">
          <rect class="bg" x="0.5" y="0.5" width="3" height="3" style="stroke-width: 1px; stroke: rgb(0, 0, 0); stroke-opacity: 0; fill: rgb(0, 0, 0); fill-opacity: 0;"/>
          <text class="annotation-text" text-anchor="middle" x="2" y="2" style="font-family: 'Alegreya Sans', sans-serif; font-size: 7px; fill: rgb(255, 255, 255); fill-opacity: 1; white-space: pre;"/>
        </g>
      </g>
    </g>
    <g class="annotation" data-index="34" style="opacity: 1;">
      <g class="annotation-text-g" transform="rotate(0,654.1,114.75)">
        <g class="cursor-pointer" transform="translate(652,113)">
          <rect class="bg" x="0.5" y="0.5" width="3" height="3" style="stroke-width: 1px; stroke: rgb(0, 0, 0); stroke-opacity: 0; fill: rgb(0, 0, 0); fill-opacity: 0;"/>
          <text class="annotation-text" text-anchor="middle" x="2" y="2" style="font-family: 'Alegreya Sans', sans-serif; font-size: 7px; fill: rgb(255, 255, 255); fill-opacity: 1; white-space: pre;"/>
        </g>
      </g>
    </g>
    <g class="annotation" data-index="35" style="opacity: 1;">
      <g class="annotation-text-g" transform="rotate(0,374.02,38.25)">
        <g class="cursor-pointer" transform="translate(372,36)">
          <rect class="bg" x="0.5" y="0.5" width="3" height="3" style="stroke-width: 1px; stroke: rgb(0, 0, 0); stroke-opacity: 0; fill: rgb(0, 0, 0); fill-opacity: 0;"/>
          <text class="annotation-text" text-anchor="middle" x="2" y="2" style="font-family: 'Alegreya Sans', sans-serif; font-size: 7px; fill: rgb(255, 255, 255); fill-opacity: 1; white-space: pre;"/>
        </g>
      </g>
    </g>
    <g class="annotation" data-index="36" style="opacity: 1;">
      <g class="annotation-text-g" transform="rotate(0,412.04,38.25)">
        <g class="cursor-pointer" transform="translate(410,36)">
          <rect class="bg" x="0.5" y="0.5" width="3" height="3" style="stroke-width: 1px; stroke: rgb(0, 0, 0); stroke-opacity: 0; fill: rgb(0, 0, 0); fill-opacity: 0;"/>
          <text class="annotation-text" text-anchor="middle" x="2" y="2" style="font-family: 'Alegreya Sans', sans-serif; font-size: 7px; fill: rgb(255, 255, 255); fill-opacity: 1; white-space: pre;"/>
        </g>
      </g>
    </g>
    <g class="annotation" data-index="37" style="opacity: 1;">
      <g class="annotation-text-g" transform="rotate(0,514.14,38.25)">
        <g class="cursor-pointer" transform="translate(512,36)">
          <rect class="bg" x="0.5" y="0.5" width="3" height="3" style="stroke-width: 1px; stroke: rgb(0, 0, 0); stroke-opacity: 0; fill: rgb(0, 0, 0); fill-opacity: 0;"/>
          <text class="annotation-text" text-anchor="middle" x="2" y="2" style="font-family: 'Alegreya Sans', sans-serif; font-size: 7px; fill: rgb(255, 255, 255); fill-opacity: 1; white-space: pre;"/>
        </g>
      </g>
    </g>
    <g class="annotation" data-index="38" style="opacity: 1;">
      <g class="annotation-text-g" transform="rotate(0,633.97,38.25)">
        <g class="cursor-pointer" transform="translate(632,36)">
          <rect class="bg" x="0.5" y="0.5" width="3" height="3" style="stroke-width: 1px; stroke: rgb(0, 0, 0); stroke-opacity: 0; fill: rgb(0, 0, 0); fill-opacity: 0;"/>
          <text class="annotation-text" text-anchor="middle" x="2" y="2" style="font-family: 'Alegreya Sans', sans-serif; font-size: 7px; fill: rgb(255, 255, 255); fill-opacity: 1; white-space: pre;"/>
        </g>
      </g>
    </g>
    <g class="annotation" data-index="39" style="opacity: 1;">
      <g class="annotation-text-g" transform="rotate(0,710.83,38.25)">
        <g class="cursor-pointer" transform="translate(709,36)">
          <rect class="bg" x="0.5" y="0.5" width="3" height="3" style="stroke-width: 1px; stroke: rgb(0, 0, 0); stroke-opacity: 0; fill: rgb(0, 0, 0); fill-opacity: 0;"/>
          <text class="annotation-text" text-anchor="middle" x="2" y="2" style="font-family: 'Alegreya Sans', sans-serif; font-size: 7px; fill: rgb(255, 255, 255); fill-opacity: 1; white-space: pre;"/>
        </g>
      </g>
    </g>
    <g class="annotation" data-index="40" style="opacity: 1;">
      <g class="annotation-text-g" transform="rotate(0,312.12,114.75)">
        <g class="cursor-pointer" transform="translate(310,113)">
          <rect class="bg" x="0.5" y="0.5" width="3" height="3" style="stroke-width: 1px; stroke: rgb(0, 0, 0); stroke-opacity: 0; fill: rgb(0, 0, 0); fill-opacity: 0;"/>
          <text class="annotation-text" text-anchor="middle" x="2" y="2" style="font-family: 'Alegreya Sans', sans-serif; font-size: 6px; fill: rgb(255, 255, 255); fill-opacity: 1; white-space: pre;"/>
        </g>
      </g>
    </g>
    <g class="annotation" data-index="41" style="opacity: 1;">
      <g class="annotation-text-g" transform="rotate(0,383.46,114.75)">
        <g class="cursor-pointer" transform="translate(381,113)">
          <rect class="bg" x="0.5" y="0.5" width="3" height="3" style="stroke-width: 1px; stroke: rgb(0, 0, 0); stroke-opacity: 0; fill: rgb(0, 0, 0); fill-opacity: 0;"/>
          <text class="annotation-text" text-anchor="middle" x="2" y="2" style="font-family: 'Alegreya Sans', sans-serif; font-size: 6px; fill: rgb(255, 255, 255); fill-opacity: 1; white-space: pre;"/>
        </g>
      </g>
    </g>
    <g class="annotation" data-index="42" style="opacity: 1;">
      <g class="annotation-text-g" transform="rotate(0,504.86,114.75)">
        <g class="cursor-pointer" transform="translate(503,113)">
          <rect class="bg" x="0.5" y="0.5" width="3" height="3" style="stroke-width: 1px; stroke: rgb(0, 0, 0); stroke-opacity: 0; fill: rgb(0, 0, 0); fill-opacity: 0;"/>
          <text class="annotation-text" text-anchor="middle" x="2" y="2" style="font-family: 'Alegreya Sans', sans-serif; font-size: 6px; fill: rgb(255, 255, 255); fill-opacity: 1; white-space: pre;"/>
        </g>
      </g>
    </g>
    <g class="annotation" data-index="43" style="opacity: 1;">
      <g class="annotation-text-g" transform="rotate(0,601.29,114.75)">
        <g class="cursor-pointer" transform="translate(599,113)">
          <rect class="bg" x="0.5" y="0.5" width="3" height="3" style="stroke-width: 1px; stroke: rgb(0, 0, 0); stroke-opacity: 0; fill: rgb(0, 0, 0); fill-opacity: 0;"/>
          <text class="annotation-text" text-anchor="middle" x="2" y="2" style="font-family: 'Alegreya Sans', sans-serif; font-size: 6px; fill: rgb(255, 255, 255); fill-opacity: 1; white-space: pre;"/>
        </g>
      </g>
    </g>
    <g class="annotation" data-index="44" style="opacity: 1;">
      <g class="annotation-text-g" transform="rotate(0,654.1,114.75)">
        <g class="cursor-pointer" transform="translate(652,113)">
          <rect class="bg" x="0.5" y="0.5" width="3" height="3" style="stroke-width: 1px; stroke: rgb(0, 0, 0); stroke-opacity: 0; fill: rgb(0, 0, 0); fill-opacity: 0;"/>
          <text class="annotation-text" text-anchor="middle" x="2" y="2" style="font-family: 'Alegreya Sans', sans-serif; font-size: 6px; fill: rgb(255, 255, 255); fill-opacity: 1; white-space: pre;"/>
        </g>
      </g>
    </g>
    <g class="annotation" data-index="45" style="opacity: 1;">
      <g class="annotation-text-g" transform="rotate(0,374.02,38.25)">
        <g class="cursor-pointer" transform="translate(372,36)">
          <rect class="bg" x="0.5" y="0.5" width="3" height="3" style="stroke-width: 1px; stroke: rgb(0, 0, 0); stroke-opacity: 0; fill: rgb(0, 0, 0); fill-opacity: 0;"/>
          <text class="annotation-text" text-anchor="middle" x="2" y="2" style="font-family: 'Alegreya Sans', sans-serif; font-size: 6px; fill: rgb(255, 255, 255); fill-opacity: 1; white-space: pre;"/>
        </g>
      </g>
    </g>
    <g class="annotation" data-index="46" style="opacity: 1;">
      <g class="annotation-text-g" transform="rotate(0,412.04,38.25)">
        <g class="cursor-pointer" transform="translate(410,36)">
          <rect class="bg" x="0.5" y="0.5" width="3" height="3" style="stroke-width: 1px; stroke: rgb(0, 0, 0); stroke-opacity: 0; fill: rgb(0, 0, 0); fill-opacity: 0;"/>
          <text class="annotation-text" text-anchor="middle" x="2" y="2" style="font-family: 'Alegreya Sans', sans-serif; font-size: 6px; fill: rgb(255, 255, 255); fill-opacity: 1; white-space: pre;"/>
        </g>
      </g>
    </g>
    <g class="annotation" data-index="47" style="opacity: 1;">
      <g class="annotation-text-g" transform="rotate(0,514.14,38.25)">
        <g class="cursor-pointer" transform="translate(512,36)">
          <rect class="bg" x="0.5" y="0.5" width="3" height="3" style="stroke-width: 1px; stroke: rgb(0, 0, 0); stroke-opacity: 0; fill: rgb(0, 0, 0); fill-opacity: 0;"/>
          <text class="annotation-text" text-anchor="middle" x="2" y="2" style="font-family: 'Alegreya Sans', sans-serif; font-size: 6px; fill: rgb(255, 255, 255); fill-opacity: 1; white-space: pre;"/>
        </g>
      </g>
    </g>
    <g class="annotation" data-index="48" style="opacity: 1;">
      <g class="annotation-text-g" transform="rotate(0,633.97,38.25)">
        <g class="cursor-pointer" transform="translate(632,36)">
          <rect class="bg" x="0.5" y="0.5" width="3" height="3" style="stroke-width: 1px; stroke: rgb(0, 0, 0); stroke-opacity: 0; fill: rgb(0, 0, 0); fill-opacity: 0;"/>
          <text class="annotation-text" text-anchor="middle" x="2" y="2" style="font-family: 'Alegreya Sans', sans-serif; font-size: 6px; fill: rgb(255, 255, 255); fill-opacity: 1; white-space: pre;"/>
        </g>
      </g>
    </g>
    <g class="annotation" data-index="49" style="opacity: 1;">
      <g class="annotation-text-g" transform="rotate(0,710.83,38.25)">
        <g class="cursor-pointer" transform="translate(709,36)">
          <rect class="bg" x="0.5" y="0.5" width="3" height="3" style="stroke-width: 1px; stroke: rgb(0, 0, 0); stroke-opacity: 0; fill: rgb(0, 0, 0); fill-opacity: 0;"/>
          <text class="annotation-text" text-anchor="middle" x="2" y="2" style="font-family: 'Alegreya Sans', sans-serif; font-size: 6px; fill: rgb(255, 255, 255); fill-opacity: 1; white-space: pre;"/>
        </g>
      </g>
    </g>
    <g class="annotation" data-index="50" style="opacity: 1;">
      <g class="annotation-text-g" transform="rotate(0,312.12,114.75)">
        <g class="cursor-pointer" transform="translate(310,113)">
          <rect class="bg" x="0.5" y="0.5" width="3" height="3" style="stroke-width: 1px; stroke: rgb(0, 0, 0); stroke-opacity: 0; fill: rgb(0, 0, 0); fill-opacity: 0;"/>
          <text class="annotation-text" text-anchor="middle" x="2" y="2" style="font-family: 'Alegreya Sans', sans-serif; font-size: 5px; fill: rgb(255, 255, 255); fill-opacity: 1; white-space: pre;"/>
        </g>
      </g>
    </g>
    <g class="annotation" data-index="51" style="opacity: 1;">
      <g class="annotation-text-g" transform="rotate(0,383.46,114.75)">
        <g class="cursor-pointer" transform="translate(381,113)">
          <rect class="bg" x="0.5" y="0.5" width="3" height="3" style="stroke-width: 1px; stroke: rgb(0, 0, 0); stroke-opacity: 0; fill: rgb(0, 0, 0); fill-opacity: 0;"/>
          <text class="annotation-text" text-anchor="middle" x="2" y="2" style="font-family: 'Alegreya Sans', sans-serif; font-size: 5px; fill: rgb(255, 255, 255); fill-opacity: 1; white-space: pre;"/>
        </g>
      </g>
    </g>
    <g class="annotation" data-index="52" style="opacity: 1;">
      <g class="annotation-text-g" transform="rotate(0,504.86,114.75)">
        <g class="cursor-pointer" transform="translate(503,113)">
          <rect class="bg" x="0.5" y="0.5" width="3" height="3" style="stroke-width: 1px; stroke: rgb(0, 0, 0); stroke-opacity: 0; fill: rgb(0, 0, 0); fill-opacity: 0;"/>
          <text class="annotation-text" text-anchor="middle" x="2" y="2" style="font-family: 'Alegreya Sans', sans-serif; font-size: 5px; fill: rgb(255, 255, 255); fill-opacity: 1; white-space: pre;"/>
        </g>
      </g>
    </g>
    <g class="annotation" data-index="53" style="opacity: 1;">
      <g class="annotation-text-g" transform="rotate(0,601.29,114.75)">
        <g class="cursor-pointer" transform="translate(599,113)">
          <rect class="bg" x="0.5" y="0.5" width="3" height="3" style="stroke-width: 1px; stroke: rgb(0, 0, 0); stroke-opacity: 0; fill: rgb(0, 0, 0); fill-opacity: 0;"/>
          <text class="annotation-text" text-anchor="middle" x="2" y="2" style="font-family: 'Alegreya Sans', sans-serif; font-size: 5px; fill: rgb(255, 255, 255); fill-opacity: 1; white-space: pre;"/>
        </g>
      </g>
    </g>
    <g class="annotation" data-index="54" style="opacity: 1;">
      <g class="annotation-text-g" transform="rotate(0,654.1,114.75)">
        <g class="cursor-pointer" transform="translate(652,113)">
          <rect class="bg" x="0.5" y="0.5" width="3" height="3" style="stroke-width: 1px; stroke: rgb(0, 0, 0); stroke-opacity: 0; fill: rgb(0, 0, 0); fill-opacity: 0;"/>
          <text class="annotation-text" text-anchor="middle" x="2" y="2" style="font-family: 'Alegreya Sans', sans-serif; font-size: 5px; fill: rgb(255, 255, 255); fill-opacity: 1; white-space: pre;"/>
        </g>
      </g>
    </g>
    <g class="annotation" data-index="55" style="opacity: 1;">
      <g class="annotation-text-g" transform="rotate(0,374.02,38.25)">
        <g class="cursor-pointer" transform="translate(368,30)">
          <rect class="bg" x="0.5" y="0.5" width="11" height="16" style="stroke-width: 1px; stroke: rgb(0, 0, 0); stroke-opacity: 0; fill: rgb(0, 0, 0); fill-opacity: 0;"/>
          <text class="annotation-text" text-anchor="middle" x="5.703125" y="7" style="font-family: 'Alegreya Sans', sans-serif; font-size: 5px; fill: rgb(255, 255, 255); fill-opacity: 1; white-space: pre;">
            <tspan class="line" dy="0em" x="5.703125" y="7">
              <tspan style="font-weight:bold">6 %</tspan>
            </tspan>
            <tspan class="line" dy="1.3em" x="5.703125" y="7">(38)</tspan>
          </text>
        </g>
      </g>
    </g>
    <g class="annotation" data-index="56" style="opacity: 1;">
      <g class="annotation-text-g" transform="rotate(0,412.04,38.25)">
        <g class="cursor-pointer" transform="translate(410,36)">
          <rect class="bg" x="0.5" y="0.5" width="3" height="3" style="stroke-width: 1px; stroke: rgb(0, 0, 0); stroke-opacity: 0; fill: rgb(0, 0, 0); fill-opacity: 0;"/>
          <text class="annotation-text" text-anchor="middle" x="2" y="2" style="font-family: 'Alegreya Sans', sans-serif; font-size: 5px; fill: rgb(255, 255, 255); fill-opacity: 1; white-space: pre;"/>
        </g>
      </g>
    </g>
    <g class="annotation" data-index="57" style="opacity: 1;">
      <g class="annotation-text-g" transform="rotate(0,514.14,38.25)">
        <g class="cursor-pointer" transform="translate(512,36)">
          <rect class="bg" x="0.5" y="0.5" width="3" height="3" style="stroke-width: 1px; stroke: rgb(0, 0, 0); stroke-opacity: 0; fill: rgb(0, 0, 0); fill-opacity: 0;"/>
          <text class="annotation-text" text-anchor="middle" x="2" y="2" style="font-family: 'Alegreya Sans', sans-serif; font-size: 5px; fill: rgb(255, 255, 255); fill-opacity: 1; white-space: pre;"/>
        </g>
      </g>
    </g>
    <g class="annotation" data-index="58" style="opacity: 1;">
      <g class="annotation-text-g" transform="rotate(0,633.97,38.25)">
        <g class="cursor-pointer" transform="translate(632,36)">
          <rect class="bg" x="0.5" y="0.5" width="3" height="3" style="stroke-width: 1px; stroke: rgb(0, 0, 0); stroke-opacity: 0; fill: rgb(0, 0, 0); fill-opacity: 0;"/>
          <text class="annotation-text" text-anchor="middle" x="2" y="2" style="font-family: 'Alegreya Sans', sans-serif; font-size: 5px; fill: rgb(255, 255, 255); fill-opacity: 1; white-space: pre;"/>
        </g>
      </g>
    </g>
    <g class="annotation" data-index="59" style="opacity: 1;">
      <g class="annotation-text-g" transform="rotate(0,710.83,38.25)">
        <g class="cursor-pointer" transform="translate(709,36)">
          <rect class="bg" x="0.5" y="0.5" width="3" height="3" style="stroke-width: 1px; stroke: rgb(0, 0, 0); stroke-opacity: 0; fill: rgb(0, 0, 0); fill-opacity: 0;"/>
          <text class="annotation-text" text-anchor="middle" x="2" y="2" style="font-family: 'Alegreya Sans', sans-serif; font-size: 5px; fill: rgb(255, 255, 255); fill-opacity: 1; white-space: pre;"/>
        </g>
      </g>
    </g>
  </g>
</svg>
