<svg xmlns="http://www.w3.org/2000/svg" xmlns:xlink="http://www.w3.org/1999/xlink" class="main-svg" width="100%" height="100%" style="" viewBox="1 1 1049 499">
  <rect x="0" y="0" width="1050" height="500" style="fill: rgb(255, 255, 255); fill-opacity: 1;"/>
  <defs id="defs-66a438">
    <g class="clips">
      <clipPath id="clip66a438xyplot" class="plotclip">
        <rect width="997" height="428"/>
      </clipPath>
      <clipPath class="axesclip" id="clip66a438x">
        <rect x="18" y="0" width="997" height="500"/>
      </clipPath>
      <clipPath class="axesclip" id="clip66a438y">
        <rect x="0" y="0" width="1050" height="428"/>
      </clipPath>
      <clipPath class="axesclip" id="clip66a438xy">
        <rect x="18" y="0" width="997" height="428"/>
      </clipPath>
    </g>
    <g class="gradients"/>
    <g class="patterns"/>
  </defs>
  <g class="bglayer"/>
  <g class="layer-below">
    <g class="imagelayer"/>
    <g class="shapelayer"/>
  </g>
  <g class="cartesianlayer">
    <g class="subplot xy">
      <g class="layer-subplot">
        <g class="shapelayer"/>
        <g class="imagelayer"/>
      </g>
      <g class="gridlayer">
        <g class="x">
          <path class="xgrid crisp" transform="translate(86,0)" d="M0,0v428" style="stroke: rgb(238, 238, 238); stroke-opacity: 1; stroke-width: 1px;"/>
          <path class="xgrid crisp" transform="translate(118.03,0)" d="M0,0v428" style="stroke: rgb(238, 238, 238); stroke-opacity: 1; stroke-width: 1px;"/>
          <path class="xgrid crisp" transform="translate(150.07,0)" d="M0,0v428" style="stroke: rgb(238, 238, 238); stroke-opacity: 1; stroke-width: 1px;"/>
          <path class="xgrid crisp" transform="translate(182.1,0)" d="M0,0v428" style="stroke: rgb(238, 238, 238); stroke-opacity: 1; stroke-width: 1px;"/>
          <path class="xgrid crisp" transform="translate(214.14,0)" d="M0,0v428" style="stroke: rgb(238, 238, 238); stroke-opacity: 1; stroke-width: 1px;"/>
          <path class="xgrid crisp" transform="translate(246.17,0)" d="M0,0v428" style="stroke: rgb(238, 238, 238); stroke-opacity: 1; stroke-width: 1px;"/>
          <path class="xgrid crisp" transform="translate(278.21,0)" d="M0,0v428" style="stroke: rgb(238, 238, 238); stroke-opacity: 1; stroke-width: 1px;"/>
          <path class="xgrid crisp" transform="translate(310.24,0)" d="M0,0v428" style="stroke: rgb(238, 238, 238); stroke-opacity: 1; stroke-width: 1px;"/>
          <path class="xgrid crisp" transform="translate(342.28,0)" d="M0,0v428" style="stroke: rgb(238, 238, 238); stroke-opacity: 1; stroke-width: 1px;"/>
          <path class="xgrid crisp" transform="translate(374.31,0)" d="M0,0v428" style="stroke: rgb(238, 238, 238); stroke-opacity: 1; stroke-width: 1px;"/>
          <path class="xgrid crisp" transform="translate(406.34,0)" d="M0,0v428" style="stroke: rgb(238, 238, 238); stroke-opacity: 1; stroke-width: 1px;"/>
          <path class="xgrid crisp" transform="translate(438.38,0)" d="M0,0v428" style="stroke: rgb(238, 238, 238); stroke-opacity: 1; stroke-width: 1px;"/>
          <path class="xgrid crisp" transform="translate(470.41,0)" d="M0,0v428" style="stroke: rgb(238, 238, 238); stroke-opacity: 1; stroke-width: 1px;"/>
          <path class="xgrid crisp" transform="translate(502.45,0)" d="M0,0v428" style="stroke: rgb(238, 238, 238); stroke-opacity: 1; stroke-width: 1px;"/>
          <path class="xgrid crisp" transform="translate(534.48,0)" d="M0,0v428" style="stroke: rgb(238, 238, 238); stroke-opacity: 1; stroke-width: 1px;"/>
          <path class="xgrid crisp" transform="translate(566.52,0)" d="M0,0v428" style="stroke: rgb(238, 238, 238); stroke-opacity: 1; stroke-width: 1px;"/>
          <path class="xgrid crisp" transform="translate(598.55,0)" d="M0,0v428" style="stroke: rgb(238, 238, 238); stroke-opacity: 1; stroke-width: 1px;"/>
          <path class="xgrid crisp" transform="translate(630.59,0)" d="M0,0v428" style="stroke: rgb(238, 238, 238); stroke-opacity: 1; stroke-width: 1px;"/>
          <path class="xgrid crisp" transform="translate(662.62,0)" d="M0,0v428" style="stroke: rgb(238, 238, 238); stroke-opacity: 1; stroke-width: 1px;"/>
          <path class="xgrid crisp" transform="translate(694.66,0)" d="M0,0v428" style="stroke: rgb(238, 238, 238); stroke-opacity: 1; stroke-width: 1px;"/>
          <path class="xgrid crisp" transform="translate(726.69,0)" d="M0,0v428" style="stroke: rgb(238, 238, 238); stroke-opacity: 1; stroke-width: 1px;"/>
          <path class="xgrid crisp" transform="translate(758.72,0)" d="M0,0v428" style="stroke: rgb(238, 238, 238); stroke-opacity: 1; stroke-width: 1px;"/>
          <path class="xgrid crisp" transform="translate(790.76,0)" d="M0,0v428" style="stroke: rgb(238, 238, 238); stroke-opacity: 1; stroke-width: 1px;"/>
          <path class="xgrid crisp" transform="translate(822.79,0)" d="M0,0v428" style="stroke: rgb(238, 238, 238); stroke-opacity: 1; stroke-width: 1px;"/>
          <path class="xgrid crisp" transform="translate(854.83,0)" d="M0,0v428" style="stroke: rgb(238, 238, 238); stroke-opacity: 1; stroke-width: 1px;"/>
          <path class="xgrid crisp" transform="translate(886.86,0)" d="M0,0v428" style="stroke: rgb(238, 238, 238); stroke-opacity: 1; stroke-width: 1px;"/>
          <path class="xgrid crisp" transform="translate(918.9,0)" d="M0,0v428" style="stroke: rgb(238, 238, 238); stroke-opacity: 1; stroke-width: 1px;"/>
          <path class="xgrid crisp" transform="translate(950.93,0)" d="M0,0v428" style="stroke: rgb(238, 238, 238); stroke-opacity: 1; stroke-width: 1px;"/>
          <path class="xgrid crisp" transform="translate(982.97,0)" d="M0,0v428" style="stroke: rgb(238, 238, 238); stroke-opacity: 1; stroke-width: 1px;"/>
        </g>
        <g class="y">
          <path class="ygrid crisp" transform="translate(0,338.4)" d="M18,0h997" style="stroke: rgb(238, 238, 238); stroke-opacity: 1; stroke-width: 1px;"/>
          <path class="ygrid crisp" transform="translate(0,257.8)" d="M18,0h997" style="stroke: rgb(238, 238, 238); stroke-opacity: 1; stroke-width: 1px;"/>
          <path class="ygrid crisp" transform="translate(0,177.2)" d="M18,0h997" style="stroke: rgb(238, 238, 238); stroke-opacity: 1; stroke-width: 1px;"/>
          <path class="ygrid crisp" transform="translate(0,96.6)" d="M18,0h997" style="stroke: rgb(238, 238, 238); stroke-opacity: 1; stroke-width: 1px;"/>
          <path class="ygrid crisp" transform="translate(0,16)" d="M18,0h997" style="stroke: rgb(238, 238, 238); stroke-opacity: 1; stroke-width: 1px;"/>
        </g>
      </g>
      <g class="zerolinelayer">
        <path class="yzl zl crisp" transform="translate(0,419)" d="M18,0h997" style="stroke: rgb(68, 68, 68); stroke-opacity: 1; stroke-width: 1px;"/>
      </g>
      <path class="xlines-below"/>
      <path class="ylines-below"/>
      <g class="overlines-below"/>
      <g class="xaxislayer-below"/>
      <g class="yaxislayer-below"/>
      <g class="overaxes-below"/>
      <g class="plot" transform="translate(18,0)" clip-path="url(#clip66a438xyplot)">
        <g class="scatterlayer mlayer">
          <g class="trace scatter trace18990d" style="stroke-miterlimit: 2;">
            <g class="fills">
              <g>
                <path class="js-fill" d="M997,419L68,419L68,419L260.21,419L292.24,350.49L324.28,124.81L356.31,269.89L388.34,310.19L420.38,334.37L452.41,342.43L484.45,334.37L516.48,358.55L548.52,378.7L580.55,72.42L612.59,273.92L644.62,290.04L676.66,269.89L708.69,257.8L740.72,290.04L772.76,394.82L804.79,189.29L836.83,310.19L868.86,350.49L900.9,302.13L932.93,330.34L964.97,406.91L997,398.85" style="fill: rgb(36, 139, 204); fill-opacity: 0.5; stroke-width: 0;"/>
              </g>
            </g>
            <g class="errorbars"/>
            <g class="lines">
              <path class="js-line" d="M68,419L260.21,419L292.24,350.49L324.28,124.81L356.31,269.89L388.34,310.19L420.38,334.37L452.41,342.43L484.45,334.37L516.48,358.55L548.52,378.7L580.55,72.42L612.59,273.92L644.62,290.04L676.66,269.89L708.69,257.8L740.72,290.04L772.76,394.82L804.79,189.29L836.83,310.19L868.86,350.49L900.9,302.13L932.93,330.34L964.97,406.91L997,398.85" style="vector-effect: non-scaling-stroke; fill: none; stroke: rgb(36, 139, 204); stroke-opacity: 1; stroke-width: 2px; opacity: 1;"/>
            </g>
            <g class="points"/>
            <g class="text"/>
          </g>
          <g class="trace scatter tracea42227" style="stroke-miterlimit: 2;">
            <g class="fills">
              <g>
                <path class="js-fill" d="M997,419L68,419L68,419L292.24,419L324.28,402.88L356.31,261.83L388.34,72.42L420.38,330.34L452.41,419L484.45,165.11L516.48,148.99L548.52,225.56L580.55,273.92L612.59,346.46L644.62,346.46L676.66,419L708.69,269.89L740.72,273.92L772.76,306.16L804.79,402.88L836.83,358.55L868.86,225.56L900.9,419L932.93,338.4L964.97,173.17L997,346.46" style="fill: rgb(0, 0, 0); fill-opacity: 0.5; stroke-width: 0;"/>
              </g>
            </g>
            <g class="errorbars"/>
            <g class="lines">
              <path class="js-line" d="M68,419L292.24,419L324.28,402.88L356.31,261.83L388.34,72.42L420.38,330.34L452.41,419L484.45,165.11L516.48,148.99L548.52,225.56L580.55,273.92L612.59,346.46L644.62,346.46L676.66,419L708.69,269.89L740.72,273.92L772.76,306.16L804.79,402.88L836.83,358.55L868.86,225.56L900.9,419L932.93,338.4L964.97,173.17L997,346.46" style="vector-effect: non-scaling-stroke; fill: none; stroke: rgb(0, 0, 0); stroke-opacity: 1; stroke-width: 2px; opacity: 1;"/>
            </g>
            <g class="points"/>
            <g class="text"/>
          </g>
        </g>
      </g>
      <g class="overplot"/>
      <path class="xlines-above crisp" d="M0,0" style="fill: none;"/>
      <path class="ylines-above crisp" d="M0,0" style="fill: none;"/>
      <g class="overlines-above"/>
      <g class="xaxislayer-above">
        <g class="xtick">
          <text text-anchor="start" x="0" y="441" transform="translate(86,0) rotate(30,0,435)" style="font-family: 'Alegreya Sans', sans-serif; font-size: 12px; fill: rgb(0, 0, 0); fill-opacity: 1; white-space: pre; opacity: 1;">2018-09-18</text>
        </g>
        <g class="xtick">
          <text text-anchor="start" x="0" y="441" transform="translate(118.03,0) rotate(30,0,435)" style="font-family: 'Alegreya Sans', sans-serif; font-size: 12px; fill: rgb(0, 0, 0); fill-opacity: 1; white-space: pre; opacity: 1;">2018-09-19</text>
        </g>
        <g class="xtick">
          <text text-anchor="start" x="0" y="441" transform="translate(150.07,0) rotate(30,0,435)" style="font-family: 'Alegreya Sans', sans-serif; font-size: 12px; fill: rgb(0, 0, 0); fill-opacity: 1; white-space: pre; opacity: 1;">2018-09-20</text>
        </g>
        <g class="xtick">
          <text text-anchor="start" x="0" y="441" transform="translate(182.1,0) rotate(30,0,435)" style="font-family: 'Alegreya Sans', sans-serif; font-size: 12px; fill: rgb(0, 0, 0); fill-opacity: 1; white-space: pre; opacity: 1;">2018-09-21</text>
        </g>
        <g class="xtick">
          <text text-anchor="start" x="0" y="441" transform="translate(214.14,0) rotate(30,0,435)" style="font-family: 'Alegreya Sans', sans-serif; font-size: 12px; fill: rgb(0, 0, 0); fill-opacity: 1; white-space: pre; opacity: 1;">2018-09-22</text>
        </g>
        <g class="xtick">
          <text text-anchor="start" x="0" y="441" transform="translate(246.17,0) rotate(30,0,435)" style="font-family: 'Alegreya Sans', sans-serif; font-size: 12px; fill: rgb(0, 0, 0); fill-opacity: 1; white-space: pre; opacity: 1;">2018-09-23</text>
        </g>
        <g class="xtick">
          <text text-anchor="start" x="0" y="441" transform="translate(278.21,0) rotate(30,0,435)" style="font-family: 'Alegreya Sans', sans-serif; font-size: 12px; fill: rgb(0, 0, 0); fill-opacity: 1; white-space: pre; opacity: 1;">2018-09-24</text>
        </g>
        <g class="xtick">
          <text text-anchor="start" x="0" y="441" transform="translate(310.24,0) rotate(30,0,435)" style="font-family: 'Alegreya Sans', sans-serif; font-size: 12px; fill: rgb(0, 0, 0); fill-opacity: 1; white-space: pre; opacity: 1;">2018-09-25</text>
        </g>
        <g class="xtick">
          <text text-anchor="start" x="0" y="441" transform="translate(342.28,0) rotate(30,0,435)" style="font-family: 'Alegreya Sans', sans-serif; font-size: 12px; fill: rgb(0, 0, 0); fill-opacity: 1; white-space: pre; opacity: 1;">2018-09-26</text>
        </g>
        <g class="xtick">
          <text text-anchor="start" x="0" y="441" transform="translate(374.31,0) rotate(30,0,435)" style="font-family: 'Alegreya Sans', sans-serif; font-size: 12px; fill: rgb(0, 0, 0); fill-opacity: 1; white-space: pre; opacity: 1;">2018-09-27</text>
        </g>
        <g class="xtick">
          <text text-anchor="start" x="0" y="441" transform="translate(406.34,0) rotate(30,0,435)" style="font-family: 'Alegreya Sans', sans-serif; font-size: 12px; fill: rgb(0, 0, 0); fill-opacity: 1; white-space: pre; opacity: 1;">2018-09-28</text>
        </g>
        <g class="xtick">
          <text text-anchor="start" x="0" y="441" transform="translate(438.38,0) rotate(30,0,435)" style="font-family: 'Alegreya Sans', sans-serif; font-size: 12px; fill: rgb(0, 0, 0); fill-opacity: 1; white-space: pre; opacity: 1;">2018-09-29</text>
        </g>
        <g class="xtick">
          <text text-anchor="start" x="0" y="441" transform="translate(470.41,0) rotate(30,0,435)" style="font-family: 'Alegreya Sans', sans-serif; font-size: 12px; fill: rgb(0, 0, 0); fill-opacity: 1; white-space: pre; opacity: 1;">2018-09-30</text>
        </g>
        <g class="xtick">
          <text text-anchor="start" x="0" y="441" transform="translate(502.45,0) rotate(30,0,435)" style="font-family: 'Alegreya Sans', sans-serif; font-size: 12px; fill: rgb(0, 0, 0); fill-opacity: 1; white-space: pre; opacity: 1;">2018-10-01</text>
        </g>
        <g class="xtick">
          <text text-anchor="start" x="0" y="441" transform="translate(534.48,0) rotate(30,0,435)" style="font-family: 'Alegreya Sans', sans-serif; font-size: 12px; fill: rgb(0, 0, 0); fill-opacity: 1; white-space: pre; opacity: 1;">2018-10-02</text>
        </g>
        <g class="xtick">
          <text text-anchor="start" x="0" y="441" transform="translate(566.52,0) rotate(30,0,435)" style="font-family: 'Alegreya Sans', sans-serif; font-size: 12px; fill: rgb(0, 0, 0); fill-opacity: 1; white-space: pre; opacity: 1;">2018-10-03</text>
        </g>
        <g class="xtick">
          <text text-anchor="start" x="0" y="441" transform="translate(598.55,0) rotate(30,0,435)" style="font-family: 'Alegreya Sans', sans-serif; font-size: 12px; fill: rgb(0, 0, 0); fill-opacity: 1; white-space: pre; opacity: 1;">2018-10-04</text>
        </g>
        <g class="xtick">
          <text text-anchor="start" x="0" y="441" transform="translate(630.59,0) rotate(30,0,435)" style="font-family: 'Alegreya Sans', sans-serif; font-size: 12px; fill: rgb(0, 0, 0); fill-opacity: 1; white-space: pre; opacity: 1;">2018-10-05</text>
        </g>
        <g class="xtick">
          <text text-anchor="start" x="0" y="441" transform="translate(662.62,0) rotate(30,0,435)" style="font-family: 'Alegreya Sans', sans-serif; font-size: 12px; fill: rgb(0, 0, 0); fill-opacity: 1; white-space: pre; opacity: 1;">2018-10-06</text>
        </g>
        <g class="xtick">
          <text text-anchor="start" x="0" y="441" transform="translate(694.66,0) rotate(30,0,435)" style="font-family: 'Alegreya Sans', sans-serif; font-size: 12px; fill: rgb(0, 0, 0); fill-opacity: 1; white-space: pre; opacity: 1;">2018-10-07</text>
        </g>
        <g class="xtick">
          <text text-anchor="start" x="0" y="441" transform="translate(726.69,0) rotate(30,0,435)" style="font-family: 'Alegreya Sans', sans-serif; font-size: 12px; fill: rgb(0, 0, 0); fill-opacity: 1; white-space: pre; opacity: 1;">2018-10-08</text>
        </g>
        <g class="xtick">
          <text text-anchor="start" x="0" y="441" transform="translate(758.72,0) rotate(30,0,435)" style="font-family: 'Alegreya Sans', sans-serif; font-size: 12px; fill: rgb(0, 0, 0); fill-opacity: 1; white-space: pre; opacity: 1;">2018-10-09</text>
        </g>
        <g class="xtick">
          <text text-anchor="start" x="0" y="441" transform="translate(790.76,0) rotate(30,0,435)" style="font-family: 'Alegreya Sans', sans-serif; font-size: 12px; fill: rgb(0, 0, 0); fill-opacity: 1; white-space: pre; opacity: 1;">2018-10-10</text>
        </g>
        <g class="xtick">
          <text text-anchor="start" x="0" y="441" transform="translate(822.79,0) rotate(30,0,435)" style="font-family: 'Alegreya Sans', sans-serif; font-size: 12px; fill: rgb(0, 0, 0); fill-opacity: 1; white-space: pre; opacity: 1;">2018-10-11</text>
        </g>
        <g class="xtick">
          <text text-anchor="start" x="0" y="441" transform="translate(854.83,0) rotate(30,0,435)" style="font-family: 'Alegreya Sans', sans-serif; font-size: 12px; fill: rgb(0, 0, 0); fill-opacity: 1; white-space: pre; opacity: 1;">2018-10-12</text>
        </g>
        <g class="xtick">
          <text text-anchor="start" x="0" y="441" transform="translate(886.86,0) rotate(30,0,435)" style="font-family: 'Alegreya Sans', sans-serif; font-size: 12px; fill: rgb(0, 0, 0); fill-opacity: 1; white-space: pre; opacity: 1;">2018-10-13</text>
        </g>
        <g class="xtick">
          <text text-anchor="start" x="0" y="441" transform="translate(918.9,0) rotate(30,0,435)" style="font-family: 'Alegreya Sans', sans-serif; font-size: 12px; fill: rgb(0, 0, 0); fill-opacity: 1; white-space: pre; opacity: 1;">2018-10-14</text>
        </g>
        <g class="xtick">
          <text text-anchor="start" x="0" y="441" transform="translate(950.93,0) rotate(30,0,435)" style="font-family: 'Alegreya Sans', sans-serif; font-size: 12px; fill: rgb(0, 0, 0); fill-opacity: 1; white-space: pre; opacity: 1;">2018-10-15</text>
        </g>
        <g class="xtick">
          <text text-anchor="start" x="0" y="441" transform="translate(982.97,0) rotate(30,0,435)" style="font-family: 'Alegreya Sans', sans-serif; font-size: 12px; fill: rgb(0, 0, 0); fill-opacity: 1; white-space: pre; opacity: 1;">2018-10-16</text>
        </g>
        <g class="xtick">
          <text text-anchor="start" x="0" y="441" transform="translate(1015,0) rotate(30,0,435)" style="font-family: 'Alegreya Sans', sans-serif; font-size: 12px; fill: rgb(0, 0, 0); fill-opacity: 1; white-space: pre; opacity: 1;">later</text>
        </g>
      </g>
      <g class="yaxislayer-above">
        <g class="ytick">
          <text text-anchor="end" x="17" y="4.199999999999999" transform="translate(0,419)" style="font-family: 'Alegreya Sans', sans-serif; font-size: 12px; fill: rgb(0, 0, 0); fill-opacity: 1; white-space: pre; opacity: 1;">0</text>
        </g>
        <g class="ytick">
          <text text-anchor="end" x="17" y="4.199999999999999" style="font-family: 'Alegreya Sans', sans-serif; font-size: 12px; fill: rgb(0, 0, 0); fill-opacity: 1; white-space: pre; opacity: 1;" transform="translate(0,338.4)">20</text>
        </g>
        <g class="ytick">
          <text text-anchor="end" x="17" y="4.199999999999999" style="font-family: 'Alegreya Sans', sans-serif; font-size: 12px; fill: rgb(0, 0, 0); fill-opacity: 1; white-space: pre; opacity: 1;" transform="translate(0,257.8)">40</text>
        </g>
        <g class="ytick">
          <text text-anchor="end" x="17" y="4.199999999999999" style="font-family: 'Alegreya Sans', sans-serif; font-size: 12px; fill: rgb(0, 0, 0); fill-opacity: 1; white-space: pre; opacity: 1;" transform="translate(0,177.2)">60</text>
        </g>
        <g class="ytick">
          <text text-anchor="end" x="17" y="4.199999999999999" style="font-family: 'Alegreya Sans', sans-serif; font-size: 12px; fill: rgb(0, 0, 0); fill-opacity: 1; white-space: pre; opacity: 1;" transform="translate(0,96.6)">80</text>
        </g>
        <g class="ytick">
          <text text-anchor="end" x="17" y="4.199999999999999" style="font-family: 'Alegreya Sans', sans-serif; font-size: 12px; fill: rgb(0, 0, 0); fill-opacity: 1; white-space: pre; opacity: 1;" transform="translate(0,16)">100</text>
        </g>
      </g>
      <g class="overaxes-above"/>
    </g>
  </g>
  <g class="polarlayer"/>
  <g class="smithlayer"/>
  <g class="ternarylayer"/>
  <g class="geolayer"/>
  <g class="funnelarealayer"/>
  <g class="pielayer"/>
  <g class="iciclelayer"/>
  <g class="treemaplayer"/>
  <g class="sunburstlayer"/>
  <g class="glimages"/>
  <defs id="topdefs-66a438">
    <g class="clips"/>
    <clipPath id="legend66a438">
      <rect width="329" height="29" x="0" y="0"/>
    </clipPath>
  </defs>
  <g class="layer-above">
    <g class="imagelayer"/>
    <g class="shapelayer"/>
  </g>
  <g class="infolayer">
    <g class="legend" pointer-events="all" transform="translate(18,470.8)">
      <rect class="bg" shape-rendering="crispEdges" style="stroke: rgb(68, 68, 68); stroke-opacity: 1; fill: rgb(255, 255, 255); fill-opacity: 1; stroke-width: 0px;" width="329" height="29" x="0" y="0"/>
      <g class="scrollbox" transform="" clip-path="url(#legend66a438)">
        <g class="groups">
          <g class="traces" transform="translate(0,14.5)" style="opacity: 1;">
            <text class="legendtext" text-anchor="start" x="40" y="4.680000000000001" style="font-family: 'Alegreya Sans', sans-serif; font-size: 12px; fill: rgb(0, 0, 0); fill-opacity: 1; white-space: pre;">online</text>
            <g class="layers">
              <g class="legendfill">
                <path class="js-fill" d="M5,-2h30v6h-30z" style="stroke-width: 0; fill: rgb(36, 139, 204); fill-opacity: 0.5;"/>
              </g>
              <g class="legendlines">
                <path class="js-line" d="M5,-2h30" style="fill: none; stroke: rgb(36, 139, 204); stroke-opacity: 1; stroke-width: 2px;"/>
              </g>
              <g class="legendsymbols">
                <g class="legendpoints"/>
              </g>
            </g>
            <rect class="legendtoggle" x="0" y="-9.5" width="72.0625" height="19" style="fill: rgb(0, 0, 0); fill-opacity: 0;"/>
          </g>
          <g class="traces" transform="translate(74.5625,14.5)" style="opacity: 1;">
            <text class="legendtext" text-anchor="start" x="40" y="4.680000000000001" style="font-family: 'Alegreya Sans', sans-serif; font-size: 12px; fill: rgb(0, 0, 0); fill-opacity: 1; white-space: pre;">print (prepaid reply envelope, A priority mail)</text>
            <g class="layers">
              <g class="legendfill">
                <path class="js-fill" d="M5,-2h30v6h-30z" style="stroke-width: 0; fill: rgb(0, 0, 0); fill-opacity: 0.5;"/>
              </g>
              <g class="legendlines">
                <path class="js-line" d="M5,-2h30" style="fill: none; stroke: rgb(0, 0, 0); stroke-opacity: 1; stroke-width: 2px;"/>
              </g>
              <g class="legendsymbols">
                <g class="legendpoints"/>
              </g>
            </g>
            <rect class="legendtoggle" x="0" y="-9.5" width="251.0625" height="19" style="fill: rgb(0, 0, 0); fill-opacity: 0;"/>
          </g>
        </g>
      </g>
      <rect class="scrollbar" rx="20" ry="3" width="0" height="0" style="fill: rgb(128, 139, 164); fill-opacity: 1;" x="0" y="0"/>
    </g>
    <g class="g-gtitle"/>
    <g class="g-xtitle"/>
    <g class="g-ytitle"/>
    <g class="annotation" data-index="0" style="opacity: 1;">
      <g class="annotation-text-g" transform="rotate(0,246.17,16)">
        <g class="cursor-pointer" transform="translate(209,8)">
          <rect class="bg" x="0.5" y="0.5" width="73" height="16" style="stroke-width: 1px; stroke: rgb(0, 0, 0); stroke-opacity: 0; fill: rgb(0, 0, 0); fill-opacity: 0;"/>
          <text class="annotation-text" text-anchor="middle" x="36.828125" y="12" style="font-family: 'Alegreya Sans', sans-serif; font-size: 12px; fill: rgb(36, 139, 204); fill-opacity: 1; white-space: pre;">
            <tspan style="font-weight:bold">Voting Sunday</tspan>
          </text>
        </g>
      </g>
      <g class="annotation-arrow-g" style="opacity: 1;">
        <path d="M246.17,24L246.17,419" style="stroke-width: 3px; stroke: rgb(36, 139, 204); stroke-opacity: 1; stroke-dasharray: 0px, 0px, 395px, 395px;"/>
        <path d="M2,0A2,2 0 1,1 0,-2A2,2 0 0,1 2,0Z" transform="translate(246.1699981689453,419)scale(3)" style="fill: rgb(36, 139, 204); stroke-width: 0;"/>
      </g>
    </g>
    <g class="annotation" data-index="1" style="opacity: 1;">
      <g class="annotation-text-g" transform="rotate(0,86,16)">
        <g class="cursor-pointer" transform="translate(18,0)">
          <rect class="bg" x="0.5" y="0.5" width="135" height="31" style="stroke-width: 1px; stroke: rgb(0, 0, 0); stroke-opacity: 0; fill: rgb(0, 0, 0); fill-opacity: 0;"/>
          <text class="annotation-text" text-anchor="middle" x="67.640625" y="12" style="font-family: 'Alegreya Sans', sans-serif; font-size: 12px; fill: rgb(153, 0, 0); fill-opacity: 1; white-space: pre;">
            <tspan class="line" dy="0em" x="67.640625" y="12">
              <tspan style="font-weight:bold">Dispatch of invitation letter</tspan>
            </tspan>
            <tspan class="line" dy="1.3em" x="67.640625" y="12">(B mail)</tspan>
          </text>
        </g>
      </g>
      <g class="annotation-arrow-g" style="opacity: 1;">
        <path d="M86,31.5L86,419" style="stroke-width: 3px; stroke: rgb(153, 0, 0); stroke-opacity: 1; stroke-dasharray: 0px, 0px, 387.5px, 387.5px;"/>
        <path d="M2,0A2,2 0 1,1 0,-2A2,2 0 0,1 2,0Z" transform="translate(86,419)scale(3)" style="fill: rgb(153, 0, 0); stroke-width: 0;"/>
      </g>
    </g>
    <g class="annotation" data-index="2" style="opacity: 1;">
      <g class="annotation-text-g" transform="rotate(0,534.48,16)">
        <g class="cursor-pointer" transform="translate(467,0)">
          <rect class="bg" x="0.5" y="0.5" width="133" height="31" style="stroke-width: 1px; stroke: rgb(0, 0, 0); stroke-opacity: 0; fill: rgb(0, 0, 0); fill-opacity: 0;"/>
          <text class="annotation-text" text-anchor="middle" x="66.734375" y="12" style="font-family: 'Alegreya Sans', sans-serif; font-size: 12px; fill: rgb(153, 0, 0); fill-opacity: 1; white-space: pre;">
            <tspan class="line" dy="0em" x="66.734375" y="12">
              <tspan style="font-weight:bold">Dispatch of reminder letter</tspan>
            </tspan>
            <tspan class="line" dy="1.3em" x="66.734375" y="12">(B mail)</tspan>
          </text>
        </g>
      </g>
      <g class="annotation-arrow-g" style="opacity: 1;">
        <path d="M534.48,31.5L534.48,419" style="stroke-width: 3px; stroke: rgb(153, 0, 0); stroke-opacity: 1; stroke-dasharray: 0px, 0px, 387.5px, 387.5px;"/>
        <path d="M2,0A2,2 0 1,1 0,-2A2,2 0 0,1 2,0Z" transform="translate(534.47998046875,419)scale(3)" style="fill: rgb(153, 0, 0); stroke-width: 0;"/>
      </g>
    </g>
  </g>
</svg>
