<svg xmlns="http://www.w3.org/2000/svg" xmlns:xlink="http://www.w3.org/1999/xlink" class="main-svg" width="100%" height="100%" style="" viewBox="1 1 1049 499">
  <rect x="0" y="0" width="1050" height="500" style="fill: rgb(255, 255, 255); fill-opacity: 1;"/>
  <defs id="defs-cd63b7">
    <g class="clips">
      <clipPath id="clipcd63b7xyplot" class="plotclip">
        <rect width="997" height="428"/>
      </clipPath>
      <clipPath class="axesclip" id="clipcd63b7x">
        <rect x="18" y="0" width="997" height="500"/>
      </clipPath>
      <clipPath class="axesclip" id="clipcd63b7y">
        <rect x="0" y="0" width="1050" height="428"/>
      </clipPath>
      <clipPath class="axesclip" id="clipcd63b7xy">
        <rect x="18" y="0" width="997" height="428"/>
      </clipPath>
    </g>
    <g class="gradients"/>
    <g class="patterns"/>
  </defs>
  <g class="bglayer"/>
  <g class="layer-below">
    <g class="imagelayer"/>
    <g class="shapelayer"/>
  </g>
  <g class="cartesianlayer">
    <g class="subplot xy">
      <g class="layer-subplot">
        <g class="shapelayer"/>
        <g class="imagelayer"/>
      </g>
      <g class="gridlayer">
        <g class="x">
          <path class="xgrid crisp" transform="translate(91,0)" d="M0,0v428" style="stroke: rgb(238, 238, 238); stroke-opacity: 1; stroke-width: 1px;"/>
          <path class="xgrid crisp" transform="translate(122.86,0)" d="M0,0v428" style="stroke: rgb(238, 238, 238); stroke-opacity: 1; stroke-width: 1px;"/>
          <path class="xgrid crisp" transform="translate(154.72,0)" d="M0,0v428" style="stroke: rgb(238, 238, 238); stroke-opacity: 1; stroke-width: 1px;"/>
          <path class="xgrid crisp" transform="translate(186.59,0)" d="M0,0v428" style="stroke: rgb(238, 238, 238); stroke-opacity: 1; stroke-width: 1px;"/>
          <path class="xgrid crisp" transform="translate(218.45,0)" d="M0,0v428" style="stroke: rgb(238, 238, 238); stroke-opacity: 1; stroke-width: 1px;"/>
          <path class="xgrid crisp" transform="translate(250.31,0)" d="M0,0v428" style="stroke: rgb(238, 238, 238); stroke-opacity: 1; stroke-width: 1px;"/>
          <path class="xgrid crisp" transform="translate(282.17,0)" d="M0,0v428" style="stroke: rgb(238, 238, 238); stroke-opacity: 1; stroke-width: 1px;"/>
          <path class="xgrid crisp" transform="translate(314.03,0)" d="M0,0v428" style="stroke: rgb(238, 238, 238); stroke-opacity: 1; stroke-width: 1px;"/>
          <path class="xgrid crisp" transform="translate(345.9,0)" d="M0,0v428" style="stroke: rgb(238, 238, 238); stroke-opacity: 1; stroke-width: 1px;"/>
          <path class="xgrid crisp" transform="translate(377.76,0)" d="M0,0v428" style="stroke: rgb(238, 238, 238); stroke-opacity: 1; stroke-width: 1px;"/>
          <path class="xgrid crisp" transform="translate(409.62,0)" d="M0,0v428" style="stroke: rgb(238, 238, 238); stroke-opacity: 1; stroke-width: 1px;"/>
          <path class="xgrid crisp" transform="translate(441.48,0)" d="M0,0v428" style="stroke: rgb(238, 238, 238); stroke-opacity: 1; stroke-width: 1px;"/>
          <path class="xgrid crisp" transform="translate(473.34,0)" d="M0,0v428" style="stroke: rgb(238, 238, 238); stroke-opacity: 1; stroke-width: 1px;"/>
          <path class="xgrid crisp" transform="translate(505.21,0)" d="M0,0v428" style="stroke: rgb(238, 238, 238); stroke-opacity: 1; stroke-width: 1px;"/>
          <path class="xgrid crisp" transform="translate(537.07,0)" d="M0,0v428" style="stroke: rgb(238, 238, 238); stroke-opacity: 1; stroke-width: 1px;"/>
          <path class="xgrid crisp" transform="translate(568.93,0)" d="M0,0v428" style="stroke: rgb(238, 238, 238); stroke-opacity: 1; stroke-width: 1px;"/>
          <path class="xgrid crisp" transform="translate(600.79,0)" d="M0,0v428" style="stroke: rgb(238, 238, 238); stroke-opacity: 1; stroke-width: 1px;"/>
          <path class="xgrid crisp" transform="translate(632.66,0)" d="M0,0v428" style="stroke: rgb(238, 238, 238); stroke-opacity: 1; stroke-width: 1px;"/>
          <path class="xgrid crisp" transform="translate(664.52,0)" d="M0,0v428" style="stroke: rgb(238, 238, 238); stroke-opacity: 1; stroke-width: 1px;"/>
          <path class="xgrid crisp" transform="translate(696.38,0)" d="M0,0v428" style="stroke: rgb(238, 238, 238); stroke-opacity: 1; stroke-width: 1px;"/>
          <path class="xgrid crisp" transform="translate(728.24,0)" d="M0,0v428" style="stroke: rgb(238, 238, 238); stroke-opacity: 1; stroke-width: 1px;"/>
          <path class="xgrid crisp" transform="translate(760.1,0)" d="M0,0v428" style="stroke: rgb(238, 238, 238); stroke-opacity: 1; stroke-width: 1px;"/>
          <path class="xgrid crisp" transform="translate(791.97,0)" d="M0,0v428" style="stroke: rgb(238, 238, 238); stroke-opacity: 1; stroke-width: 1px;"/>
          <path class="xgrid crisp" transform="translate(823.83,0)" d="M0,0v428" style="stroke: rgb(238, 238, 238); stroke-opacity: 1; stroke-width: 1px;"/>
          <path class="xgrid crisp" transform="translate(855.69,0)" d="M0,0v428" style="stroke: rgb(238, 238, 238); stroke-opacity: 1; stroke-width: 1px;"/>
          <path class="xgrid crisp" transform="translate(887.55,0)" d="M0,0v428" style="stroke: rgb(238, 238, 238); stroke-opacity: 1; stroke-width: 1px;"/>
          <path class="xgrid crisp" transform="translate(919.41,0)" d="M0,0v428" style="stroke: rgb(238, 238, 238); stroke-opacity: 1; stroke-width: 1px;"/>
          <path class="xgrid crisp" transform="translate(951.28,0)" d="M0,0v428" style="stroke: rgb(238, 238, 238); stroke-opacity: 1; stroke-width: 1px;"/>
          <path class="xgrid crisp" transform="translate(983.14,0)" d="M0,0v428" style="stroke: rgb(238, 238, 238); stroke-opacity: 1; stroke-width: 1px;"/>
        </g>
        <g class="y">
          <path class="ygrid crisp" transform="translate(0,338.4)" d="M18,0h997" style="stroke: rgb(238, 238, 238); stroke-opacity: 1; stroke-width: 1px;"/>
          <path class="ygrid crisp" transform="translate(0,257.8)" d="M18,0h997" style="stroke: rgb(238, 238, 238); stroke-opacity: 1; stroke-width: 1px;"/>
          <path class="ygrid crisp" transform="translate(0,177.2)" d="M18,0h997" style="stroke: rgb(238, 238, 238); stroke-opacity: 1; stroke-width: 1px;"/>
          <path class="ygrid crisp" transform="translate(0,96.6)" d="M18,0h997" style="stroke: rgb(238, 238, 238); stroke-opacity: 1; stroke-width: 1px;"/>
          <path class="ygrid crisp" transform="translate(0,16)" d="M18,0h997" style="stroke: rgb(238, 238, 238); stroke-opacity: 1; stroke-width: 1px;"/>
        </g>
      </g>
      <g class="zerolinelayer">
        <path class="yzl zl crisp" transform="translate(0,419)" d="M18,0h997" style="stroke: rgb(68, 68, 68); stroke-opacity: 1; stroke-width: 1px;"/>
      </g>
      <path class="xlines-below"/>
      <path class="ylines-below"/>
      <g class="overlines-below"/>
      <g class="xaxislayer-below"/>
      <g class="yaxislayer-below"/>
      <g class="overaxes-below"/>
      <g class="plot" transform="translate(18,0)" clip-path="url(#clipcd63b7xyplot)">
        <g class="scatterlayer mlayer">
          <g class="trace scatter trace941130" style="stroke-miterlimit: 2;">
            <g class="fills">
              <g>
                <path class="js-fill" d="M997,419L73,419L73,419L264.17,419L296.03,350.49L327.9,124.81L359.76,269.89L391.62,310.19L423.48,334.37L455.34,342.43L487.21,334.37L519.07,358.55L550.93,378.7L582.79,72.42L614.66,273.92L646.52,290.04L678.38,269.89L710.24,257.8L742.1,290.04L773.97,394.82L805.83,189.29L837.69,310.19L869.55,350.49L901.41,302.13L933.28,330.34L965.14,406.91L997,398.85" style="fill: rgb(36, 139, 204); fill-opacity: 0.5; stroke-width: 0;"/>
              </g>
            </g>
            <g class="errorbars"/>
            <g class="lines">
              <path class="js-line" d="M73,419L264.17,419L296.03,350.49L327.9,124.81L359.76,269.89L391.62,310.19L423.48,334.37L455.34,342.43L487.21,334.37L519.07,358.55L550.93,378.7L582.79,72.42L614.66,273.92L646.52,290.04L678.38,269.89L710.24,257.8L742.1,290.04L773.97,394.82L805.83,189.29L837.69,310.19L869.55,350.49L901.41,302.13L933.28,330.34L965.14,406.91L997,398.85" style="vector-effect: non-scaling-stroke; fill: none; stroke: rgb(36, 139, 204); stroke-opacity: 1; stroke-width: 2px; opacity: 1;"/>
            </g>
            <g class="points"/>
            <g class="text"/>
          </g>
          <g class="trace scatter trace085060" style="stroke-miterlimit: 2;">
            <g class="fills">
              <g>
                <path class="js-fill" d="M997,419L73,419L73,419L296.03,419L327.9,402.88L359.76,261.83L391.62,72.42L423.48,330.34L455.34,419L487.21,165.11L519.07,148.99L550.93,225.56L582.79,273.92L614.66,346.46L646.52,346.46L678.38,419L710.24,269.89L742.1,273.92L773.97,306.16L805.83,402.88L837.69,358.55L869.55,225.56L901.41,419L933.28,338.4L965.14,173.17L997,346.46" style="fill: rgb(0, 0, 0); fill-opacity: 0.5; stroke-width: 0;"/>
              </g>
            </g>
            <g class="errorbars"/>
            <g class="lines">
              <path class="js-line" d="M73,419L296.03,419L327.9,402.88L359.76,261.83L391.62,72.42L423.48,330.34L455.34,419L487.21,165.11L519.07,148.99L550.93,225.56L582.79,273.92L614.66,346.46L646.52,346.46L678.38,419L710.24,269.89L742.1,273.92L773.97,306.16L805.83,402.88L837.69,358.55L869.55,225.56L901.41,419L933.28,338.4L965.14,173.17L997,346.46" style="vector-effect: non-scaling-stroke; fill: none; stroke: rgb(0, 0, 0); stroke-opacity: 1; stroke-width: 2px; opacity: 1;"/>
            </g>
            <g class="points"/>
            <g class="text"/>
          </g>
        </g>
      </g>
      <g class="overplot"/>
      <path class="xlines-above crisp" d="M0,0" style="fill: none;"/>
      <path class="ylines-above crisp" d="M0,0" style="fill: none;"/>
      <g class="overlines-above"/>
      <g class="xaxislayer-above">
        <g class="xtick">
          <text text-anchor="start" x="0" y="441" transform="translate(91,0) rotate(30,0,435)" style="font-family: 'Alegreya Sans', sans-serif; font-size: 12px; fill: rgb(0, 0, 0); fill-opacity: 1; white-space: pre; opacity: 1;">2018-09-18</text>
        </g>
        <g class="xtick">
          <text text-anchor="start" x="0" y="441" transform="translate(122.86,0) rotate(30,0,435)" style="font-family: 'Alegreya Sans', sans-serif; font-size: 12px; fill: rgb(0, 0, 0); fill-opacity: 1; white-space: pre; opacity: 1;">2018-09-19</text>
        </g>
        <g class="xtick">
          <text text-anchor="start" x="0" y="441" transform="translate(154.72,0) rotate(30,0,435)" style="font-family: 'Alegreya Sans', sans-serif; font-size: 12px; fill: rgb(0, 0, 0); fill-opacity: 1; white-space: pre; opacity: 1;">2018-09-20</text>
        </g>
        <g class="xtick">
          <text text-anchor="start" x="0" y="441" transform="translate(186.59,0) rotate(30,0,435)" style="font-family: 'Alegreya Sans', sans-serif; font-size: 12px; fill: rgb(0, 0, 0); fill-opacity: 1; white-space: pre; opacity: 1;">2018-09-21</text>
        </g>
        <g class="xtick">
          <text text-anchor="start" x="0" y="441" transform="translate(218.45,0) rotate(30,0,435)" style="font-family: 'Alegreya Sans', sans-serif; font-size: 12px; fill: rgb(0, 0, 0); fill-opacity: 1; white-space: pre; opacity: 1;">2018-09-22</text>
        </g>
        <g class="xtick">
          <text text-anchor="start" x="0" y="441" transform="translate(250.31,0) rotate(30,0,435)" style="font-family: 'Alegreya Sans', sans-serif; font-size: 12px; fill: rgb(0, 0, 0); fill-opacity: 1; white-space: pre; opacity: 1;">2018-09-23</text>
        </g>
        <g class="xtick">
          <text text-anchor="start" x="0" y="441" transform="translate(282.17,0) rotate(30,0,435)" style="font-family: 'Alegreya Sans', sans-serif; font-size: 12px; fill: rgb(0, 0, 0); fill-opacity: 1; white-space: pre; opacity: 1;">2018-09-24</text>
        </g>
        <g class="xtick">
          <text text-anchor="start" x="0" y="441" transform="translate(314.03,0) rotate(30,0,435)" style="font-family: 'Alegreya Sans', sans-serif; font-size: 12px; fill: rgb(0, 0, 0); fill-opacity: 1; white-space: pre; opacity: 1;">2018-09-25</text>
        </g>
        <g class="xtick">
          <text text-anchor="start" x="0" y="441" transform="translate(345.9,0) rotate(30,0,435)" style="font-family: 'Alegreya Sans', sans-serif; font-size: 12px; fill: rgb(0, 0, 0); fill-opacity: 1; white-space: pre; opacity: 1;">2018-09-26</text>
        </g>
        <g class="xtick">
          <text text-anchor="start" x="0" y="441" transform="translate(377.76,0) rotate(30,0,435)" style="font-family: 'Alegreya Sans', sans-serif; font-size: 12px; fill: rgb(0, 0, 0); fill-opacity: 1; white-space: pre; opacity: 1;">2018-09-27</text>
        </g>
        <g class="xtick">
          <text text-anchor="start" x="0" y="441" transform="translate(409.62,0) rotate(30,0,435)" style="font-family: 'Alegreya Sans', sans-serif; font-size: 12px; fill: rgb(0, 0, 0); fill-opacity: 1; white-space: pre; opacity: 1;">2018-09-28</text>
        </g>
        <g class="xtick">
          <text text-anchor="start" x="0" y="441" transform="translate(441.48,0) rotate(30,0,435)" style="font-family: 'Alegreya Sans', sans-serif; font-size: 12px; fill: rgb(0, 0, 0); fill-opacity: 1; white-space: pre; opacity: 1;">2018-09-29</text>
        </g>
        <g class="xtick">
          <text text-anchor="start" x="0" y="441" transform="translate(473.34,0) rotate(30,0,435)" style="font-family: 'Alegreya Sans', sans-serif; font-size: 12px; fill: rgb(0, 0, 0); fill-opacity: 1; white-space: pre; opacity: 1;">2018-09-30</text>
        </g>
        <g class="xtick">
          <text text-anchor="start" x="0" y="441" transform="translate(505.21,0) rotate(30,0,435)" style="font-family: 'Alegreya Sans', sans-serif; font-size: 12px; fill: rgb(0, 0, 0); fill-opacity: 1; white-space: pre; opacity: 1;">2018-10-01</text>
        </g>
        <g class="xtick">
          <text text-anchor="start" x="0" y="441" transform="translate(537.07,0) rotate(30,0,435)" style="font-family: 'Alegreya Sans', sans-serif; font-size: 12px; fill: rgb(0, 0, 0); fill-opacity: 1; white-space: pre; opacity: 1;">2018-10-02</text>
        </g>
        <g class="xtick">
          <text text-anchor="start" x="0" y="441" transform="translate(568.93,0) rotate(30,0,435)" style="font-family: 'Alegreya Sans', sans-serif; font-size: 12px; fill: rgb(0, 0, 0); fill-opacity: 1; white-space: pre; opacity: 1;">2018-10-03</text>
        </g>
        <g class="xtick">
          <text text-anchor="start" x="0" y="441" transform="translate(600.79,0) rotate(30,0,435)" style="font-family: 'Alegreya Sans', sans-serif; font-size: 12px; fill: rgb(0, 0, 0); fill-opacity: 1; white-space: pre; opacity: 1;">2018-10-04</text>
        </g>
        <g class="xtick">
          <text text-anchor="start" x="0" y="441" transform="translate(632.66,0) rotate(30,0,435)" style="font-family: 'Alegreya Sans', sans-serif; font-size: 12px; fill: rgb(0, 0, 0); fill-opacity: 1; white-space: pre; opacity: 1;">2018-10-05</text>
        </g>
        <g class="xtick">
          <text text-anchor="start" x="0" y="441" transform="translate(664.52,0) rotate(30,0,435)" style="font-family: 'Alegreya Sans', sans-serif; font-size: 12px; fill: rgb(0, 0, 0); fill-opacity: 1; white-space: pre; opacity: 1;">2018-10-06</text>
        </g>
        <g class="xtick">
          <text text-anchor="start" x="0" y="441" transform="translate(696.38,0) rotate(30,0,435)" style="font-family: 'Alegreya Sans', sans-serif; font-size: 12px; fill: rgb(0, 0, 0); fill-opacity: 1; white-space: pre; opacity: 1;">2018-10-07</text>
        </g>
        <g class="xtick">
          <text text-anchor="start" x="0" y="441" transform="translate(728.24,0) rotate(30,0,435)" style="font-family: 'Alegreya Sans', sans-serif; font-size: 12px; fill: rgb(0, 0, 0); fill-opacity: 1; white-space: pre; opacity: 1;">2018-10-08</text>
        </g>
        <g class="xtick">
          <text text-anchor="start" x="0" y="441" transform="translate(760.1,0) rotate(30,0,435)" style="font-family: 'Alegreya Sans', sans-serif; font-size: 12px; fill: rgb(0, 0, 0); fill-opacity: 1; white-space: pre; opacity: 1;">2018-10-09</text>
        </g>
        <g class="xtick">
          <text text-anchor="start" x="0" y="441" transform="translate(791.97,0) rotate(30,0,435)" style="font-family: 'Alegreya Sans', sans-serif; font-size: 12px; fill: rgb(0, 0, 0); fill-opacity: 1; white-space: pre; opacity: 1;">2018-10-10</text>
        </g>
        <g class="xtick">
          <text text-anchor="start" x="0" y="441" transform="translate(823.83,0) rotate(30,0,435)" style="font-family: 'Alegreya Sans', sans-serif; font-size: 12px; fill: rgb(0, 0, 0); fill-opacity: 1; white-space: pre; opacity: 1;">2018-10-11</text>
        </g>
        <g class="xtick">
          <text text-anchor="start" x="0" y="441" transform="translate(855.69,0) rotate(30,0,435)" style="font-family: 'Alegreya Sans', sans-serif; font-size: 12px; fill: rgb(0, 0, 0); fill-opacity: 1; white-space: pre; opacity: 1;">2018-10-12</text>
        </g>
        <g class="xtick">
          <text text-anchor="start" x="0" y="441" transform="translate(887.55,0) rotate(30,0,435)" style="font-family: 'Alegreya Sans', sans-serif; font-size: 12px; fill: rgb(0, 0, 0); fill-opacity: 1; white-space: pre; opacity: 1;">2018-10-13</text>
        </g>
        <g class="xtick">
          <text text-anchor="start" x="0" y="441" transform="translate(919.41,0) rotate(30,0,435)" style="font-family: 'Alegreya Sans', sans-serif; font-size: 12px; fill: rgb(0, 0, 0); fill-opacity: 1; white-space: pre; opacity: 1;">2018-10-14</text>
        </g>
        <g class="xtick">
          <text text-anchor="start" x="0" y="441" transform="translate(951.28,0) rotate(30,0,435)" style="font-family: 'Alegreya Sans', sans-serif; font-size: 12px; fill: rgb(0, 0, 0); fill-opacity: 1; white-space: pre; opacity: 1;">2018-10-15</text>
        </g>
        <g class="xtick">
          <text text-anchor="start" x="0" y="441" transform="translate(983.14,0) rotate(30,0,435)" style="font-family: 'Alegreya Sans', sans-serif; font-size: 12px; fill: rgb(0, 0, 0); fill-opacity: 1; white-space: pre; opacity: 1;">2018-10-16</text>
        </g>
        <g class="xtick">
          <text text-anchor="start" x="0" y="441" transform="translate(1015,0) rotate(30,0,435)" style="font-family: 'Alegreya Sans', sans-serif; font-size: 12px; fill: rgb(0, 0, 0); fill-opacity: 1; white-space: pre; opacity: 1;">später</text>
        </g>
      </g>
      <g class="yaxislayer-above">
        <g class="ytick">
          <text text-anchor="end" x="17" y="4.199999999999999" transform="translate(0,419)" style="font-family: 'Alegreya Sans', sans-serif; font-size: 12px; fill: rgb(0, 0, 0); fill-opacity: 1; white-space: pre; opacity: 1;">0</text>
        </g>
        <g class="ytick">
          <text text-anchor="end" x="17" y="4.199999999999999" style="font-family: 'Alegreya Sans', sans-serif; font-size: 12px; fill: rgb(0, 0, 0); fill-opacity: 1; white-space: pre; opacity: 1;" transform="translate(0,338.4)">20</text>
        </g>
        <g class="ytick">
          <text text-anchor="end" x="17" y="4.199999999999999" style="font-family: 'Alegreya Sans', sans-serif; font-size: 12px; fill: rgb(0, 0, 0); fill-opacity: 1; white-space: pre; opacity: 1;" transform="translate(0,257.8)">40</text>
        </g>
        <g class="ytick">
          <text text-anchor="end" x="17" y="4.199999999999999" style="font-family: 'Alegreya Sans', sans-serif; font-size: 12px; fill: rgb(0, 0, 0); fill-opacity: 1; white-space: pre; opacity: 1;" transform="translate(0,177.2)">60</text>
        </g>
        <g class="ytick">
          <text text-anchor="end" x="17" y="4.199999999999999" style="font-family: 'Alegreya Sans', sans-serif; font-size: 12px; fill: rgb(0, 0, 0); fill-opacity: 1; white-space: pre; opacity: 1;" transform="translate(0,96.6)">80</text>
        </g>
        <g class="ytick">
          <text text-anchor="end" x="17" y="4.199999999999999" style="font-family: 'Alegreya Sans', sans-serif; font-size: 12px; fill: rgb(0, 0, 0); fill-opacity: 1; white-space: pre; opacity: 1;" transform="translate(0,16)">100</text>
        </g>
      </g>
      <g class="overaxes-above"/>
    </g>
  </g>
  <g class="polarlayer"/>
  <g class="smithlayer"/>
  <g class="ternarylayer"/>
  <g class="geolayer"/>
  <g class="funnelarealayer"/>
  <g class="pielayer"/>
  <g class="iciclelayer"/>
  <g class="treemaplayer"/>
  <g class="sunburstlayer"/>
  <g class="glimages"/>
  <defs id="topdefs-cd63b7">
    <g class="clips"/>
    <clipPath id="legendcd63b7">
      <rect width="347" height="29" x="0" y="0"/>
    </clipPath>
  </defs>
  <g class="layer-above">
    <g class="imagelayer"/>
    <g class="shapelayer"/>
  </g>
  <g class="infolayer">
    <g class="legend" pointer-events="all" transform="translate(18,470.8)">
      <rect class="bg" shape-rendering="crispEdges" style="stroke: rgb(68, 68, 68); stroke-opacity: 1; fill: rgb(255, 255, 255); fill-opacity: 1; stroke-width: 0px;" width="347" height="29" x="0" y="0"/>
      <g class="scrollbox" transform="" clip-path="url(#legendcd63b7)">
        <g class="groups">
          <g class="traces" transform="translate(0,14.5)" style="opacity: 1;">
            <text class="legendtext" text-anchor="start" x="40" y="4.680000000000001" style="font-family: 'Alegreya Sans', sans-serif; font-size: 12px; fill: rgb(0, 0, 0); fill-opacity: 1; white-space: pre;">online</text>
            <g class="layers">
              <g class="legendfill">
                <path class="js-fill" d="M5,-2h30v6h-30z" style="stroke-width: 0; fill: rgb(36, 139, 204); fill-opacity: 0.5;"/>
              </g>
              <g class="legendlines">
                <path class="js-line" d="M5,-2h30" style="fill: none; stroke: rgb(36, 139, 204); stroke-opacity: 1; stroke-width: 2px;"/>
              </g>
              <g class="legendsymbols">
                <g class="legendpoints"/>
              </g>
            </g>
            <rect class="legendtoggle" x="0" y="-9.5" width="72.0625" height="19" style="fill: rgb(0, 0, 0); fill-opacity: 0;"/>
          </g>
          <g class="traces" transform="translate(74.5625,14.5)" style="opacity: 1;">
            <text class="legendtext" text-anchor="start" x="40" y="4.680000000000001" style="font-family: 'Alegreya Sans', sans-serif; font-size: 12px; fill: rgb(0, 0, 0); fill-opacity: 1; white-space: pre;">print (vorfrankiertes Rückantwortcouvert, A-Post)</text>
            <g class="layers">
              <g class="legendfill">
                <path class="js-fill" d="M5,-2h30v6h-30z" style="stroke-width: 0; fill: rgb(0, 0, 0); fill-opacity: 0.5;"/>
              </g>
              <g class="legendlines">
                <path class="js-line" d="M5,-2h30" style="fill: none; stroke: rgb(0, 0, 0); stroke-opacity: 1; stroke-width: 2px;"/>
              </g>
              <g class="legendsymbols">
                <g class="legendpoints"/>
              </g>
            </g>
            <rect class="legendtoggle" x="0" y="-9.5" width="268.953125" height="19" style="fill: rgb(0, 0, 0); fill-opacity: 0;"/>
          </g>
        </g>
      </g>
      <rect class="scrollbar" rx="20" ry="3" width="0" height="0" style="fill: rgb(128, 139, 164); fill-opacity: 1;" x="0" y="0"/>
    </g>
    <g class="g-gtitle"/>
    <g class="g-xtitle"/>
    <g class="g-ytitle"/>
    <g class="annotation" data-index="0" style="opacity: 1;">
      <g class="annotation-text-g" transform="rotate(0,250.31,16)">
        <g class="cursor-pointer" transform="translate(194,8)">
          <rect class="bg" x="0.5" y="0.5" width="111" height="15" style="stroke-width: 1px; stroke: rgb(0, 0, 0); stroke-opacity: 0; fill: rgb(0, 0, 0); fill-opacity: 0;"/>
          <text class="annotation-text" text-anchor="middle" x="55.375" y="12" style="font-family: 'Alegreya Sans', sans-serif; font-size: 12px; fill: rgb(36, 139, 204); fill-opacity: 1; white-space: pre;">
            <tspan style="font-weight:bold">Abstimmungssonntag</tspan>
          </text>
        </g>
      </g>
      <g class="annotation-arrow-g" style="opacity: 1;">
        <path d="M250.31,23.5L250.31,419" style="stroke-width: 3px; stroke: rgb(36, 139, 204); stroke-opacity: 1; stroke-dasharray: 0px, 0px, 395.5px, 395.5px;"/>
        <path d="M2,0A2,2 0 1,1 0,-2A2,2 0 0,1 2,0Z" transform="translate(250.30999755859375,419)scale(3)" style="fill: rgb(36, 139, 204); stroke-width: 0;"/>
      </g>
    </g>
    <g class="annotation" data-index="1" style="opacity: 1;">
      <g class="annotation-text-g" transform="rotate(0,91,16)">
        <g class="cursor-pointer" transform="translate(18,0)">
          <rect class="bg" x="0.5" y="0.5" width="145" height="31" style="stroke-width: 1px; stroke: rgb(0, 0, 0); stroke-opacity: 0; fill: rgb(0, 0, 0); fill-opacity: 0;"/>
          <text class="annotation-text" text-anchor="middle" x="72.921875" y="12" style="font-family: 'Alegreya Sans', sans-serif; font-size: 12px; fill: rgb(153, 0, 0); fill-opacity: 1; white-space: pre;">
            <tspan class="line" dy="0em" x="72.921875" y="12">
              <tspan style="font-weight:bold">Versand Einladungsschreiben</tspan>
            </tspan>
            <tspan class="line" dy="1.3em" x="72.921875" y="12">(B-Post)</tspan>
          </text>
        </g>
      </g>
      <g class="annotation-arrow-g" style="opacity: 1;">
        <path d="M91,31.5L91,419" style="stroke-width: 3px; stroke: rgb(153, 0, 0); stroke-opacity: 1; stroke-dasharray: 0px, 0px, 387.5px, 387.5px;"/>
        <path d="M2,0A2,2 0 1,1 0,-2A2,2 0 0,1 2,0Z" transform="translate(91,419)scale(3)" style="fill: rgb(153, 0, 0); stroke-width: 0;"/>
      </g>
    </g>
    <g class="annotation" data-index="2" style="opacity: 1;">
      <g class="annotation-text-g" transform="rotate(0,537.07,16)">
        <g class="cursor-pointer" transform="translate(462,0)">
          <rect class="bg" x="0.5" y="0.5" width="150" height="31" style="stroke-width: 1px; stroke: rgb(0, 0, 0); stroke-opacity: 0; fill: rgb(0, 0, 0); fill-opacity: 0;"/>
          <text class="annotation-text" text-anchor="middle" x="75.421875" y="12" style="font-family: 'Alegreya Sans', sans-serif; font-size: 12px; fill: rgb(153, 0, 0); fill-opacity: 1; white-space: pre;">
            <tspan class="line" dy="0em" x="75.421875" y="12">
              <tspan style="font-weight:bold">Versand Erinnerungsschreiben</tspan>
            </tspan>
            <tspan class="line" dy="1.3em" x="75.421875" y="12">(B-Post)</tspan>
          </text>
        </g>
      </g>
      <g class="annotation-arrow-g" style="opacity: 1;">
        <path d="M537.07,31.5L537.07,419" style="stroke-width: 3px; stroke: rgb(153, 0, 0); stroke-opacity: 1; stroke-dasharray: 0px, 0px, 387.5px, 387.5px;"/>
        <path d="M2,0A2,2 0 1,1 0,-2A2,2 0 0,1 2,0Z" transform="translate(537.0700073242188,419)scale(3)" style="fill: rgb(153, 0, 0); stroke-width: 0;"/>
      </g>
    </g>
  </g>
</svg>
