<svg xmlns="http://www.w3.org/2000/svg" xmlns:xlink="http://www.w3.org/1999/xlink" class="main-svg" width="100%" height="100%" style="" viewBox="1 1 799 1199">
  <rect x="0" y="0" width="800" height="1200" style="fill: rgb(255, 255, 255); fill-opacity: 1;"/>
  <defs id="defs-139c3f">
    <g class="clips">
      <clipPath id="clip139c3fxyplot" class="plotclip">
        <rect width="166.75" height="225.63"/>
      </clipPath>
      <clipPath id="clip139c3fxy2plot" class="plotclip">
        <rect width="166.75" height="206.00999999999996"/>
      </clipPath>
      <clipPath id="clip139c3fxy3plot" class="plotclip">
        <rect width="166.75" height="206.00999999999996"/>
      </clipPath>
      <clipPath id="clip139c3fxy4plot" class="plotclip">
        <rect width="166.75" height="225.63000000000002"/>
      </clipPath>
      <clipPath id="clip139c3fx2yplot" class="plotclip">
        <rect width="152.24999999999997" height="225.63"/>
      </clipPath>
      <clipPath id="clip139c3fx2y2plot" class="plotclip">
        <rect width="152.24999999999997" height="206.00999999999996"/>
      </clipPath>
      <clipPath id="clip139c3fx2y3plot" class="plotclip">
        <rect width="152.24999999999997" height="206.00999999999996"/>
      </clipPath>
      <clipPath id="clip139c3fx3yplot" class="plotclip">
        <rect width="152.24999999999997" height="225.63"/>
      </clipPath>
      <clipPath id="clip139c3fx3y2plot" class="plotclip">
        <rect width="152.24999999999997" height="206.00999999999996"/>
      </clipPath>
      <clipPath id="clip139c3fx3y3plot" class="plotclip">
        <rect width="152.24999999999997" height="206.00999999999996"/>
      </clipPath>
      <clipPath id="clip139c3fx4yplot" class="plotclip">
        <rect width="166.75" height="225.63"/>
      </clipPath>
      <clipPath id="clip139c3fx4y2plot" class="plotclip">
        <rect width="166.75" height="206.00999999999996"/>
      </clipPath>
      <clipPath id="clip139c3fx4y3plot" class="plotclip">
        <rect width="166.75" height="206.00999999999996"/>
      </clipPath>
      <clipPath class="axesclip" id="clip139c3fx">
        <rect x="60" y="0" width="166.75" height="1200"/>
      </clipPath>
      <clipPath class="axesclip" id="clip139c3fy">
        <rect x="0" y="25" width="800" height="225.63"/>
      </clipPath>
      <clipPath class="axesclip" id="clip139c3fxy">
        <rect x="60" y="25" width="166.75" height="225.63"/>
      </clipPath>
      <clipPath class="axesclip" id="clip139c3fy2">
        <rect x="0" y="289.87" width="800" height="206.00999999999996"/>
      </clipPath>
      <clipPath class="axesclip" id="clip139c3fxy2">
        <rect x="60" y="289.87" width="166.75" height="206.00999999999996"/>
      </clipPath>
      <clipPath class="axesclip" id="clip139c3fy3">
        <rect x="0" y="535.12" width="800" height="206.00999999999996"/>
      </clipPath>
      <clipPath class="axesclip" id="clip139c3fxy3">
        <rect x="60" y="535.12" width="166.75" height="206.00999999999996"/>
      </clipPath>
      <clipPath class="axesclip" id="clip139c3fy4">
        <rect x="0" y="780.37" width="800" height="225.63000000000002"/>
      </clipPath>
      <clipPath class="axesclip" id="clip139c3fxy4">
        <rect x="60" y="780.37" width="166.75" height="225.63000000000002"/>
      </clipPath>
      <clipPath class="axesclip" id="clip139c3fx2">
        <rect x="255.75" y="0" width="152.24999999999997" height="1200"/>
      </clipPath>
      <clipPath class="axesclip" id="clip139c3fx2y">
        <rect x="255.75" y="25" width="152.24999999999997" height="225.63"/>
      </clipPath>
      <clipPath class="axesclip" id="clip139c3fx2y2">
        <rect x="255.75" y="289.87" width="152.24999999999997" height="206.00999999999996"/>
      </clipPath>
      <clipPath class="axesclip" id="clip139c3fx2y3">
        <rect x="255.75" y="535.12" width="152.24999999999997" height="206.00999999999996"/>
      </clipPath>
      <clipPath class="axesclip" id="clip139c3fx2y4">
        <rect x="255.75" y="780.37" width="152.24999999999997" height="225.63000000000002"/>
      </clipPath>
      <clipPath class="axesclip" id="clip139c3fx3">
        <rect x="437" y="0" width="152.24999999999997" height="1200"/>
      </clipPath>
      <clipPath class="axesclip" id="clip139c3fx3y">
        <rect x="437" y="25" width="152.24999999999997" height="225.63"/>
      </clipPath>
      <clipPath class="axesclip" id="clip139c3fx3y2">
        <rect x="437" y="289.87" width="152.24999999999997" height="206.00999999999996"/>
      </clipPath>
      <clipPath class="axesclip" id="clip139c3fx3y3">
        <rect x="437" y="535.12" width="152.24999999999997" height="206.00999999999996"/>
      </clipPath>
      <clipPath class="axesclip" id="clip139c3fx3y4">
        <rect x="437" y="780.37" width="152.24999999999997" height="225.63000000000002"/>
      </clipPath>
      <clipPath class="axesclip" id="clip139c3fx4">
        <rect x="618.25" y="0" width="166.75" height="1200"/>
      </clipPath>
      <clipPath class="axesclip" id="clip139c3fx4y">
        <rect x="618.25" y="25" width="166.75" height="225.63"/>
      </clipPath>
      <clipPath class="axesclip" id="clip139c3fx4y2">
        <rect x="618.25" y="289.87" width="166.75" height="206.00999999999996"/>
      </clipPath>
      <clipPath class="axesclip" id="clip139c3fx4y3">
        <rect x="618.25" y="535.12" width="166.75" height="206.00999999999996"/>
      </clipPath>
      <clipPath class="axesclip" id="clip139c3fx4y4">
        <rect x="618.25" y="780.37" width="166.75" height="225.63000000000002"/>
      </clipPath>
    </g>
    <g class="gradients"/>
    <g class="patterns"/>
  </defs>
  <g class="bglayer"/>
  <g class="layer-below">
    <g class="imagelayer"/>
    <g class="shapelayer"/>
  </g>
  <g class="cartesianlayer">
    <g class="subplot xy">
      <g class="layer-subplot">
        <g class="shapelayer"/>
        <g class="imagelayer"/>
      </g>
      <g class="gridlayer">
        <g class="x">
          <path class="xgrid crisp" transform="translate(76.68,0)" d="M0,25v225.63" style="stroke: rgb(238, 238, 238); stroke-opacity: 1; stroke-width: 1px;"/>
          <path class="xgrid crisp" transform="translate(93.35,0)" d="M0,25v225.63" style="stroke: rgb(238, 238, 238); stroke-opacity: 1; stroke-width: 1px;"/>
          <path class="xgrid crisp" transform="translate(110.03,0)" d="M0,25v225.63" style="stroke: rgb(238, 238, 238); stroke-opacity: 1; stroke-width: 1px;"/>
          <path class="xgrid crisp" transform="translate(126.7,0)" d="M0,25v225.63" style="stroke: rgb(238, 238, 238); stroke-opacity: 1; stroke-width: 1px;"/>
          <path class="xgrid crisp" transform="translate(143.38,0)" d="M0,25v225.63" style="stroke: rgb(238, 238, 238); stroke-opacity: 1; stroke-width: 1px;"/>
          <path class="xgrid crisp" transform="translate(160.05,0)" d="M0,25v225.63" style="stroke: rgb(238, 238, 238); stroke-opacity: 1; stroke-width: 1px;"/>
          <path class="xgrid crisp" transform="translate(176.73000000000002,0)" d="M0,25v225.63" style="stroke: rgb(238, 238, 238); stroke-opacity: 1; stroke-width: 1px;"/>
          <path class="xgrid crisp" transform="translate(193.4,0)" d="M0,25v225.63" style="stroke: rgb(238, 238, 238); stroke-opacity: 1; stroke-width: 1px;"/>
          <path class="xgrid crisp" transform="translate(210.08,0)" d="M0,25v225.63" style="stroke: rgb(238, 238, 238); stroke-opacity: 1; stroke-width: 1px;"/>
        </g>
        <g class="y">
          <path class="ygrid crisp" transform="translate(0,187.6)" d="M60,0h166.75" style="stroke: rgb(238, 238, 238); stroke-opacity: 1; stroke-width: 1px;"/>
          <path class="ygrid crisp" transform="translate(0,124.58)" d="M60,0h166.75" style="stroke: rgb(238, 238, 238); stroke-opacity: 1; stroke-width: 1px;"/>
          <path class="ygrid crisp" transform="translate(0,61.55)" d="M60,0h166.75" style="stroke: rgb(238, 238, 238); stroke-opacity: 1; stroke-width: 1px;"/>
        </g>
      </g>
      <g class="zerolinelayer">
        <path class="yzl zl crisp" transform="translate(0,250.63)" d="M60,0h166.75" style="stroke: rgb(68, 68, 68); stroke-opacity: 1; stroke-width: 1px;"/>
      </g>
      <path class="xlines-below"/>
      <path class="ylines-below"/>
      <g class="overlines-below"/>
      <g class="xaxislayer-below"/>
      <g class="yaxislayer-below"/>
      <g class="overaxes-below"/>
      <g class="plot" transform="translate(60,25)" clip-path="url(#clip139c3fxyplot)">
        <g class="scatterlayer mlayer">
          <g class="trace scatter tracef3ec81" style="stroke-miterlimit: 2;">
            <g class="fills">
              <g>
                <path class="js-fill" d="M166.75,225.63L0,225.63L0,221.59L16.68,215.94L33.35,195.44L50.03,177.84L66.7,201.9L83.38,204.8L100.05,217.24L116.73,224.82L133.4,224.82L150.08,225.63L166.75,225.63" style="fill: rgb(238, 42, 59); fill-opacity: 1; stroke-width: 0;"/>
              </g>
            </g>
            <g class="errorbars"/>
            <g class="lines">
              <path class="js-line" d="M0,221.59L16.68,215.94L33.35,195.44L50.03,177.84L66.7,201.9L83.38,204.8L100.05,217.24L116.73,224.82L133.4,224.82L150.08,225.63L166.75,225.63" style="vector-effect: non-scaling-stroke; fill: none; stroke: rgb(238, 42, 59); stroke-opacity: 1; stroke-width: 0px; opacity: 1;"/>
            </g>
            <g class="points"/>
            <g class="text"/>
          </g>
        </g>
      </g>
      <g class="overplot"/>
      <path class="xlines-above crisp" d="M0,0" style="fill: none;"/>
      <path class="ylines-above crisp" d="M0,0" style="fill: none;"/>
      <g class="overlines-above"/>
      <g class="xaxislayer-above"/>
      <g class="yaxislayer-above">
        <g class="ytick">
          <text text-anchor="end" x="59" y="4.199999999999999" transform="translate(0,250.63)" style="font-family: 'Open Sans', verdana, arial, sans-serif; font-size: 12px; fill: rgb(68, 68, 68); fill-opacity: 1; white-space: pre; opacity: 1;">0</text>
        </g>
        <g class="ytick">
          <text text-anchor="end" x="59" y="4.199999999999999" style="font-family: 'Open Sans', verdana, arial, sans-serif; font-size: 12px; fill: rgb(68, 68, 68); fill-opacity: 1; white-space: pre; opacity: 1;" transform="translate(0,187.6)">50</text>
        </g>
        <g class="ytick">
          <text text-anchor="end" x="59" y="4.199999999999999" style="font-family: 'Open Sans', verdana, arial, sans-serif; font-size: 12px; fill: rgb(68, 68, 68); fill-opacity: 1; white-space: pre; opacity: 1;" transform="translate(0,124.58)">100</text>
        </g>
        <g class="ytick">
          <text text-anchor="end" x="59" y="4.199999999999999" style="font-family: 'Open Sans', verdana, arial, sans-serif; font-size: 12px; fill: rgb(68, 68, 68); fill-opacity: 1; white-space: pre; opacity: 1;" transform="translate(0,61.55)">150</text>
        </g>
      </g>
      <g class="overaxes-above"/>
    </g>
    <g class="subplot xy2">
      <g class="layer-subplot">
        <g class="shapelayer"/>
        <g class="imagelayer"/>
      </g>
      <g class="gridlayer">
        <g class="x">
          <path class="xgrid crisp" transform="translate(76.68,0)" d="M0,289.87v206.00999999999996" style="stroke: rgb(238, 238, 238); stroke-opacity: 1; stroke-width: 1px;"/>
          <path class="xgrid crisp" transform="translate(93.35,0)" d="M0,289.87v206.00999999999996" style="stroke: rgb(238, 238, 238); stroke-opacity: 1; stroke-width: 1px;"/>
          <path class="xgrid crisp" transform="translate(110.03,0)" d="M0,289.87v206.00999999999996" style="stroke: rgb(238, 238, 238); stroke-opacity: 1; stroke-width: 1px;"/>
          <path class="xgrid crisp" transform="translate(126.7,0)" d="M0,289.87v206.00999999999996" style="stroke: rgb(238, 238, 238); stroke-opacity: 1; stroke-width: 1px;"/>
          <path class="xgrid crisp" transform="translate(143.38,0)" d="M0,289.87v206.00999999999996" style="stroke: rgb(238, 238, 238); stroke-opacity: 1; stroke-width: 1px;"/>
          <path class="xgrid crisp" transform="translate(160.05,0)" d="M0,289.87v206.00999999999996" style="stroke: rgb(238, 238, 238); stroke-opacity: 1; stroke-width: 1px;"/>
          <path class="xgrid crisp" transform="translate(176.73000000000002,0)" d="M0,289.87v206.00999999999996" style="stroke: rgb(238, 238, 238); stroke-opacity: 1; stroke-width: 1px;"/>
          <path class="xgrid crisp" transform="translate(193.4,0)" d="M0,289.87v206.00999999999996" style="stroke: rgb(238, 238, 238); stroke-opacity: 1; stroke-width: 1px;"/>
          <path class="xgrid crisp" transform="translate(210.08,0)" d="M0,289.87v206.00999999999996" style="stroke: rgb(238, 238, 238); stroke-opacity: 1; stroke-width: 1px;"/>
        </g>
        <g class="y2">
          <path class="y2grid crisp" transform="translate(0,438.34000000000003)" d="M60,0h166.75" style="stroke: rgb(238, 238, 238); stroke-opacity: 1; stroke-width: 1px;"/>
          <path class="y2grid crisp" transform="translate(0,380.79)" d="M60,0h166.75" style="stroke: rgb(238, 238, 238); stroke-opacity: 1; stroke-width: 1px;"/>
          <path class="y2grid crisp" transform="translate(0,323.25)" d="M60,0h166.75" style="stroke: rgb(238, 238, 238); stroke-opacity: 1; stroke-width: 1px;"/>
        </g>
      </g>
      <g class="zerolinelayer">
        <path class="y2zl zl crisp" transform="translate(0,495.88)" d="M60,0h166.75" style="stroke: rgb(68, 68, 68); stroke-opacity: 1; stroke-width: 1px;"/>
      </g>
      <path class="xlines-below"/>
      <path class="ylines-below"/>
      <g class="overlines-below"/>
      <g class="xaxislayer-below"/>
      <g class="yaxislayer-below"/>
      <g class="overaxes-below"/>
      <g class="plot" transform="translate(60,289.87)" clip-path="url(#clip139c3fxy2plot)">
        <g class="scatterlayer mlayer">
          <g class="trace scatter trace69cd4a" style="stroke-miterlimit: 2;">
            <g class="fills">
              <g>
                <path class="js-fill" d="M166.75,206.01L0,206.01L0,205.27L33.35,204.54L50.03,200.7L66.7,204.54L83.38,203.65L100.05,206.01L116.73,205.27L150.08,206.01L166.75,206.01" style="fill: rgb(148, 184, 184); fill-opacity: 1; stroke-width: 0;"/>
              </g>
            </g>
            <g class="errorbars"/>
            <g class="lines">
              <path class="js-line" d="M0,205.27L33.35,204.54L50.03,200.7L66.7,204.54L83.38,203.65L100.05,206.01L116.73,205.27L150.08,206.01L166.75,206.01" style="vector-effect: non-scaling-stroke; fill: none; stroke: rgb(148, 184, 184); stroke-opacity: 1; stroke-width: 0px; opacity: 1;"/>
            </g>
            <g class="points"/>
            <g class="text"/>
          </g>
        </g>
      </g>
      <g class="overplot"/>
      <path class="xlines-above crisp" d="M0,0" style="fill: none;"/>
      <path class="ylines-above crisp" d="M0,0" style="fill: none;"/>
      <g class="overlines-above"/>
      <g class="xaxislayer-above"/>
      <g class="yaxislayer-above">
        <g class="y2tick">
          <text text-anchor="end" x="59" y="4.199999999999999" transform="translate(0,495.88)" style="font-family: 'Open Sans', verdana, arial, sans-serif; font-size: 12px; fill: rgb(68, 68, 68); fill-opacity: 1; white-space: pre; opacity: 1;">0</text>
        </g>
        <g class="y2tick">
          <text text-anchor="end" x="59" y="4.199999999999999" style="font-family: 'Open Sans', verdana, arial, sans-serif; font-size: 12px; fill: rgb(68, 68, 68); fill-opacity: 1; white-space: pre; opacity: 1;" transform="translate(0,438.34000000000003)">50</text>
        </g>
        <g class="y2tick">
          <text text-anchor="end" x="59" y="4.199999999999999" style="font-family: 'Open Sans', verdana, arial, sans-serif; font-size: 12px; fill: rgb(68, 68, 68); fill-opacity: 1; white-space: pre; opacity: 1;" transform="translate(0,380.79)">100</text>
        </g>
        <g class="y2tick">
          <text text-anchor="end" x="59" y="4.199999999999999" style="font-family: 'Open Sans', verdana, arial, sans-serif; font-size: 12px; fill: rgb(68, 68, 68); fill-opacity: 1; white-space: pre; opacity: 1;" transform="translate(0,323.25)">150</text>
        </g>
      </g>
      <g class="overaxes-above"/>
    </g>
    <g class="subplot xy3">
      <g class="layer-subplot">
        <g class="shapelayer"/>
        <g class="imagelayer"/>
      </g>
      <g class="gridlayer">
        <g class="x">
          <path class="xgrid crisp" transform="translate(76.68,0)" d="M0,535.12v206.00999999999996" style="stroke: rgb(238, 238, 238); stroke-opacity: 1; stroke-width: 1px;"/>
          <path class="xgrid crisp" transform="translate(93.35,0)" d="M0,535.12v206.00999999999996" style="stroke: rgb(238, 238, 238); stroke-opacity: 1; stroke-width: 1px;"/>
          <path class="xgrid crisp" transform="translate(110.03,0)" d="M0,535.12v206.00999999999996" style="stroke: rgb(238, 238, 238); stroke-opacity: 1; stroke-width: 1px;"/>
          <path class="xgrid crisp" transform="translate(126.7,0)" d="M0,535.12v206.00999999999996" style="stroke: rgb(238, 238, 238); stroke-opacity: 1; stroke-width: 1px;"/>
          <path class="xgrid crisp" transform="translate(143.38,0)" d="M0,535.12v206.00999999999996" style="stroke: rgb(238, 238, 238); stroke-opacity: 1; stroke-width: 1px;"/>
          <path class="xgrid crisp" transform="translate(160.05,0)" d="M0,535.12v206.00999999999996" style="stroke: rgb(238, 238, 238); stroke-opacity: 1; stroke-width: 1px;"/>
          <path class="xgrid crisp" transform="translate(176.73000000000002,0)" d="M0,535.12v206.00999999999996" style="stroke: rgb(238, 238, 238); stroke-opacity: 1; stroke-width: 1px;"/>
          <path class="xgrid crisp" transform="translate(193.4,0)" d="M0,535.12v206.00999999999996" style="stroke: rgb(238, 238, 238); stroke-opacity: 1; stroke-width: 1px;"/>
          <path class="xgrid crisp" transform="translate(210.08,0)" d="M0,535.12v206.00999999999996" style="stroke: rgb(238, 238, 238); stroke-opacity: 1; stroke-width: 1px;"/>
        </g>
        <g class="y3">
          <path class="y3grid crisp" transform="translate(0,683.59)" d="M60,0h166.75" style="stroke: rgb(238, 238, 238); stroke-opacity: 1; stroke-width: 1px;"/>
          <path class="y3grid crisp" transform="translate(0,626.04)" d="M60,0h166.75" style="stroke: rgb(238, 238, 238); stroke-opacity: 1; stroke-width: 1px;"/>
          <path class="y3grid crisp" transform="translate(0,568.5)" d="M60,0h166.75" style="stroke: rgb(238, 238, 238); stroke-opacity: 1; stroke-width: 1px;"/>
        </g>
      </g>
      <g class="zerolinelayer">
        <path class="y3zl zl crisp" transform="translate(0,741.13)" d="M60,0h166.75" style="stroke: rgb(68, 68, 68); stroke-opacity: 1; stroke-width: 1px;"/>
      </g>
      <path class="xlines-below"/>
      <path class="ylines-below"/>
      <g class="overlines-below"/>
      <g class="xaxislayer-below"/>
      <g class="yaxislayer-below"/>
      <g class="overaxes-below"/>
      <g class="plot" transform="translate(60,535.12)" clip-path="url(#clip139c3fxy3plot)">
        <g class="scatterlayer mlayer">
          <g class="trace scatter tracef884af" style="stroke-miterlimit: 2;">
            <g class="fills">
              <g>
                <path class="js-fill" d="M166.75,206.01L0,206.01L0,206.01L50.03,206.01L66.7,203.8L83.38,203.8L100.05,205.27L116.73,196.72L133.4,205.27L166.75,206.01" style="fill: rgb(255, 221, 0); fill-opacity: 1; stroke-width: 0;"/>
              </g>
            </g>
            <g class="errorbars"/>
            <g class="lines">
              <path class="js-line" d="M0,206.01L50.03,206.01L66.7,203.8L83.38,203.8L100.05,205.27L116.73,196.72L133.4,205.27L166.75,206.01" style="vector-effect: non-scaling-stroke; fill: none; stroke: rgb(255, 221, 0); stroke-opacity: 1; stroke-width: 0px; opacity: 1;"/>
            </g>
            <g class="points"/>
            <g class="text"/>
          </g>
        </g>
      </g>
      <g class="overplot"/>
      <path class="xlines-above crisp" d="M0,0" style="fill: none;"/>
      <path class="ylines-above crisp" d="M0,0" style="fill: none;"/>
      <g class="overlines-above"/>
      <g class="xaxislayer-above"/>
      <g class="yaxislayer-above">
        <g class="y3tick">
          <text text-anchor="end" x="59" y="4.199999999999999" transform="translate(0,741.13)" style="font-family: 'Open Sans', verdana, arial, sans-serif; font-size: 12px; fill: rgb(68, 68, 68); fill-opacity: 1; white-space: pre; opacity: 1;">0</text>
        </g>
        <g class="y3tick">
          <text text-anchor="end" x="59" y="4.199999999999999" style="font-family: 'Open Sans', verdana, arial, sans-serif; font-size: 12px; fill: rgb(68, 68, 68); fill-opacity: 1; white-space: pre; opacity: 1;" transform="translate(0,683.59)">50</text>
        </g>
        <g class="y3tick">
          <text text-anchor="end" x="59" y="4.199999999999999" style="font-family: 'Open Sans', verdana, arial, sans-serif; font-size: 12px; fill: rgb(68, 68, 68); fill-opacity: 1; white-space: pre; opacity: 1;" transform="translate(0,626.04)">100</text>
        </g>
        <g class="y3tick">
          <text text-anchor="end" x="59" y="4.199999999999999" style="font-family: 'Open Sans', verdana, arial, sans-serif; font-size: 12px; fill: rgb(68, 68, 68); fill-opacity: 1; white-space: pre; opacity: 1;" transform="translate(0,568.5)">150</text>
        </g>
      </g>
      <g class="overaxes-above"/>
    </g>
    <g class="subplot xy4">
      <g class="layer-subplot">
        <g class="shapelayer"/>
        <g class="imagelayer"/>
      </g>
      <g class="gridlayer">
        <g class="x">
          <path class="xgrid crisp" transform="translate(76.68,0)" d="M0,780.37v225.63000000000002" style="stroke: rgb(238, 238, 238); stroke-opacity: 1; stroke-width: 1px;"/>
          <path class="xgrid crisp" transform="translate(93.35,0)" d="M0,780.37v225.63000000000002" style="stroke: rgb(238, 238, 238); stroke-opacity: 1; stroke-width: 1px;"/>
          <path class="xgrid crisp" transform="translate(110.03,0)" d="M0,780.37v225.63000000000002" style="stroke: rgb(238, 238, 238); stroke-opacity: 1; stroke-width: 1px;"/>
          <path class="xgrid crisp" transform="translate(126.7,0)" d="M0,780.37v225.63000000000002" style="stroke: rgb(238, 238, 238); stroke-opacity: 1; stroke-width: 1px;"/>
          <path class="xgrid crisp" transform="translate(143.38,0)" d="M0,780.37v225.63000000000002" style="stroke: rgb(238, 238, 238); stroke-opacity: 1; stroke-width: 1px;"/>
          <path class="xgrid crisp" transform="translate(160.05,0)" d="M0,780.37v225.63000000000002" style="stroke: rgb(238, 238, 238); stroke-opacity: 1; stroke-width: 1px;"/>
          <path class="xgrid crisp" transform="translate(176.73000000000002,0)" d="M0,780.37v225.63000000000002" style="stroke: rgb(238, 238, 238); stroke-opacity: 1; stroke-width: 1px;"/>
          <path class="xgrid crisp" transform="translate(193.4,0)" d="M0,780.37v225.63000000000002" style="stroke: rgb(238, 238, 238); stroke-opacity: 1; stroke-width: 1px;"/>
          <path class="xgrid crisp" transform="translate(210.08,0)" d="M0,780.37v225.63000000000002" style="stroke: rgb(238, 238, 238); stroke-opacity: 1; stroke-width: 1px;"/>
        </g>
        <g class="y4">
          <path class="y4grid crisp" transform="translate(0,942.97)" d="M60,0h166.75" style="stroke: rgb(238, 238, 238); stroke-opacity: 1; stroke-width: 1px;"/>
          <path class="y4grid crisp" transform="translate(0,879.95)" d="M60,0h166.75" style="stroke: rgb(238, 238, 238); stroke-opacity: 1; stroke-width: 1px;"/>
          <path class="y4grid crisp" transform="translate(0,816.92)" d="M60,0h166.75" style="stroke: rgb(238, 238, 238); stroke-opacity: 1; stroke-width: 1px;"/>
        </g>
      </g>
      <g class="zerolinelayer">
        <path class="y4zl zl crisp" transform="translate(0,1006)" d="M60,0h166.75" style="stroke: rgb(68, 68, 68); stroke-opacity: 1; stroke-width: 1px;"/>
      </g>
      <path class="xlines-below"/>
      <path class="ylines-below"/>
      <g class="overlines-below"/>
      <g class="xaxislayer-below"/>
      <g class="yaxislayer-below"/>
      <g class="overaxes-below"/>
      <g class="plot" transform="translate(60,780.37)" clip-path="url(#clip139c3fxy4plot)">
        <g class="scatterlayer mlayer">
          <g class="trace scatter trace072e0c" style="stroke-miterlimit: 2;">
            <g class="fills">
              <g>
                <path class="js-fill" d="M166.75,225.63L0,225.63L0,222.24L16.68,215.46L33.35,224.82L50.03,186.89L66.7,183.82L83.38,12.7L100.05,186.08L116.73,195.76L133.4,212.88L150.08,225.63L166.75,224.82" style="fill: rgb(166, 166, 166); fill-opacity: 1; stroke-width: 0;"/>
              </g>
            </g>
            <g class="errorbars"/>
            <g class="lines">
              <path class="js-line" d="M0,222.24L16.68,215.46L33.35,224.82L50.03,186.89L66.7,183.82L83.38,12.7L100.05,186.08L116.73,195.76L133.4,212.88L150.08,225.63L166.75,224.82" style="vector-effect: non-scaling-stroke; fill: none; stroke: rgb(166, 166, 166); stroke-opacity: 1; stroke-width: 0px; opacity: 1;"/>
            </g>
            <g class="points"/>
            <g class="text"/>
          </g>
        </g>
      </g>
      <g class="overplot"/>
      <path class="xlines-above crisp" d="" style="fill: none; stroke-width: 1px; stroke: rgb(0, 0, 0); stroke-opacity: 0;"/>
      <path class="ylines-above crisp" d="M0,0" style="fill: none;"/>
      <g class="overlines-above"/>
      <g class="xaxislayer-above">
        <path class="xtick ticks crisp" d="M0,1007v15" transform="translate(60,0)" style="stroke: rgb(238, 238, 238); stroke-opacity: 1; stroke-width: 1px;"/>
        <path class="xtick ticks crisp" d="M0,1007v15" transform="translate(76.68,0)" style="stroke: rgb(238, 238, 238); stroke-opacity: 1; stroke-width: 1px;"/>
        <path class="xtick ticks crisp" d="M0,1007v15" transform="translate(93.35,0)" style="stroke: rgb(238, 238, 238); stroke-opacity: 1; stroke-width: 1px;"/>
        <path class="xtick ticks crisp" d="M0,1007v15" transform="translate(110.03,0)" style="stroke: rgb(238, 238, 238); stroke-opacity: 1; stroke-width: 1px;"/>
        <path class="xtick ticks crisp" d="M0,1007v15" transform="translate(126.7,0)" style="stroke: rgb(238, 238, 238); stroke-opacity: 1; stroke-width: 1px;"/>
        <path class="xtick ticks crisp" d="M0,1007v15" transform="translate(143.38,0)" style="stroke: rgb(238, 238, 238); stroke-opacity: 1; stroke-width: 1px;"/>
        <path class="xtick ticks crisp" d="M0,1007v15" transform="translate(160.05,0)" style="stroke: rgb(238, 238, 238); stroke-opacity: 1; stroke-width: 1px;"/>
        <path class="xtick ticks crisp" d="M0,1007v15" transform="translate(176.73000000000002,0)" style="stroke: rgb(238, 238, 238); stroke-opacity: 1; stroke-width: 1px;"/>
        <path class="xtick ticks crisp" d="M0,1007v15" transform="translate(193.4,0)" style="stroke: rgb(238, 238, 238); stroke-opacity: 1; stroke-width: 1px;"/>
        <path class="xtick ticks crisp" d="M0,1007v15" transform="translate(210.08,0)" style="stroke: rgb(238, 238, 238); stroke-opacity: 1; stroke-width: 1px;"/>
        <path class="xtick ticks crisp" d="M0,1007v15" transform="translate(226.75,0)" style="stroke: rgb(238, 238, 238); stroke-opacity: 1; stroke-width: 1px;"/>
        <g class="xtick">
          <text text-anchor="start" x="0" y="1036.4" transform="translate(60,0) rotate(90,0,1030.4)" style="font-family: 'Open Sans', verdana, arial, sans-serif; font-size: 12px; fill: rgb(68, 68, 68); fill-opacity: 1; white-space: pre; opacity: 1;">0 (ganz links)</text>
        </g>
        <g class="xtick">
          <text text-anchor="start" x="0" y="1036.4" transform="translate(76.68,0) rotate(90,0,1030.4)" style="font-family: 'Open Sans', verdana, arial, sans-serif; font-size: 12px; fill: rgb(68, 68, 68); fill-opacity: 1; white-space: pre; opacity: 1;">1</text>
        </g>
        <g class="xtick">
          <text text-anchor="start" x="0" y="1036.4" transform="translate(93.35,0) rotate(90,0,1030.4)" style="font-family: 'Open Sans', verdana, arial, sans-serif; font-size: 12px; fill: rgb(68, 68, 68); fill-opacity: 1; white-space: pre; opacity: 1;">2</text>
        </g>
        <g class="xtick">
          <text text-anchor="start" x="0" y="1036.4" transform="translate(110.03,0) rotate(90,0,1030.4)" style="font-family: 'Open Sans', verdana, arial, sans-serif; font-size: 12px; fill: rgb(68, 68, 68); fill-opacity: 1; white-space: pre; opacity: 1;">3</text>
        </g>
        <g class="xtick">
          <text text-anchor="start" x="0" y="1036.4" transform="translate(126.7,0) rotate(90,0,1030.4)" style="font-family: 'Open Sans', verdana, arial, sans-serif; font-size: 12px; fill: rgb(68, 68, 68); fill-opacity: 1; white-space: pre; opacity: 1;">4</text>
        </g>
        <g class="xtick">
          <text text-anchor="start" x="0" y="1036.4" transform="translate(143.38,0) rotate(90,0,1030.4)" style="font-family: 'Open Sans', verdana, arial, sans-serif; font-size: 12px; fill: rgb(68, 68, 68); fill-opacity: 1; white-space: pre; opacity: 1;">5 (Mitte)</text>
        </g>
        <g class="xtick">
          <text text-anchor="start" x="0" y="1036.4" transform="translate(160.05,0) rotate(90,0,1030.4)" style="font-family: 'Open Sans', verdana, arial, sans-serif; font-size: 12px; fill: rgb(68, 68, 68); fill-opacity: 1; white-space: pre; opacity: 1;">6</text>
        </g>
        <g class="xtick">
          <text text-anchor="start" x="0" y="1036.4" transform="translate(176.73000000000002,0) rotate(90,0,1030.4)" style="font-family: 'Open Sans', verdana, arial, sans-serif; font-size: 12px; fill: rgb(68, 68, 68); fill-opacity: 1; white-space: pre; opacity: 1;">7</text>
        </g>
        <g class="xtick">
          <text text-anchor="start" x="0" y="1036.4" transform="translate(193.4,0) rotate(90,0,1030.4)" style="font-family: 'Open Sans', verdana, arial, sans-serif; font-size: 12px; fill: rgb(68, 68, 68); fill-opacity: 1; white-space: pre; opacity: 1;">8</text>
        </g>
        <g class="xtick">
          <text text-anchor="start" x="0" y="1036.4" transform="translate(210.08,0) rotate(90,0,1030.4)" style="font-family: 'Open Sans', verdana, arial, sans-serif; font-size: 12px; fill: rgb(68, 68, 68); fill-opacity: 1; white-space: pre; opacity: 1;">9</text>
        </g>
        <g class="xtick">
          <text text-anchor="start" x="0" y="1036.4" transform="translate(226.75,0) rotate(90,0,1030.4)" style="font-family: 'Open Sans', verdana, arial, sans-serif; font-size: 12px; fill: rgb(68, 68, 68); fill-opacity: 1; white-space: pre; opacity: 1;">10 (ganz rechts)</text>
        </g>
      </g>
      <g class="yaxislayer-above">
        <g class="y4tick">
          <text text-anchor="end" x="59" y="4.199999999999999" transform="translate(0,1006)" style="font-family: 'Open Sans', verdana, arial, sans-serif; font-size: 12px; fill: rgb(68, 68, 68); fill-opacity: 1; white-space: pre; opacity: 1;">0</text>
        </g>
        <g class="y4tick">
          <text text-anchor="end" x="59" y="4.199999999999999" style="font-family: 'Open Sans', verdana, arial, sans-serif; font-size: 12px; fill: rgb(68, 68, 68); fill-opacity: 1; white-space: pre; opacity: 1;" transform="translate(0,942.97)">50</text>
        </g>
        <g class="y4tick">
          <text text-anchor="end" x="59" y="4.199999999999999" style="font-family: 'Open Sans', verdana, arial, sans-serif; font-size: 12px; fill: rgb(68, 68, 68); fill-opacity: 1; white-space: pre; opacity: 1;" transform="translate(0,879.95)">100</text>
        </g>
        <g class="y4tick">
          <text text-anchor="end" x="59" y="4.199999999999999" style="font-family: 'Open Sans', verdana, arial, sans-serif; font-size: 12px; fill: rgb(68, 68, 68); fill-opacity: 1; white-space: pre; opacity: 1;" transform="translate(0,816.92)">150</text>
        </g>
      </g>
      <g class="overaxes-above"/>
    </g>
    <g class="subplot x2y">
      <g class="layer-subplot">
        <g class="shapelayer"/>
        <g class="imagelayer"/>
      </g>
      <g class="gridlayer">
        <g class="x2">
          <path class="x2grid crisp" transform="translate(270.97,0)" d="M0,25v225.63" style="stroke: rgb(238, 238, 238); stroke-opacity: 1; stroke-width: 1px;"/>
          <path class="x2grid crisp" transform="translate(286.2,0)" d="M0,25v225.63" style="stroke: rgb(238, 238, 238); stroke-opacity: 1; stroke-width: 1px;"/>
          <path class="x2grid crisp" transform="translate(301.43,0)" d="M0,25v225.63" style="stroke: rgb(238, 238, 238); stroke-opacity: 1; stroke-width: 1px;"/>
          <path class="x2grid crisp" transform="translate(316.65,0)" d="M0,25v225.63" style="stroke: rgb(238, 238, 238); stroke-opacity: 1; stroke-width: 1px;"/>
          <path class="x2grid crisp" transform="translate(331.87,0)" d="M0,25v225.63" style="stroke: rgb(238, 238, 238); stroke-opacity: 1; stroke-width: 1px;"/>
          <path class="x2grid crisp" transform="translate(347.1,0)" d="M0,25v225.63" style="stroke: rgb(238, 238, 238); stroke-opacity: 1; stroke-width: 1px;"/>
          <path class="x2grid crisp" transform="translate(362.32,0)" d="M0,25v225.63" style="stroke: rgb(238, 238, 238); stroke-opacity: 1; stroke-width: 1px;"/>
          <path class="x2grid crisp" transform="translate(377.55,0)" d="M0,25v225.63" style="stroke: rgb(238, 238, 238); stroke-opacity: 1; stroke-width: 1px;"/>
          <path class="x2grid crisp" transform="translate(392.77,0)" d="M0,25v225.63" style="stroke: rgb(238, 238, 238); stroke-opacity: 1; stroke-width: 1px;"/>
        </g>
        <g class="y">
          <path class="ygrid crisp" transform="translate(0,187.6)" d="M255.75,0h152.24999999999997" style="stroke: rgb(238, 238, 238); stroke-opacity: 1; stroke-width: 1px;"/>
          <path class="ygrid crisp" transform="translate(0,124.58)" d="M255.75,0h152.24999999999997" style="stroke: rgb(238, 238, 238); stroke-opacity: 1; stroke-width: 1px;"/>
          <path class="ygrid crisp" transform="translate(0,61.55)" d="M255.75,0h152.24999999999997" style="stroke: rgb(238, 238, 238); stroke-opacity: 1; stroke-width: 1px;"/>
        </g>
      </g>
      <g class="zerolinelayer">
        <path class="yzl zl crisp" transform="translate(0,250.63)" d="M255.75,0h152.24999999999997" style="stroke: rgb(68, 68, 68); stroke-opacity: 1; stroke-width: 1px;"/>
      </g>
      <path class="xlines-below"/>
      <path class="ylines-below"/>
      <g class="overlines-below"/>
      <g class="xaxislayer-below"/>
      <g class="yaxislayer-below"/>
      <g class="overaxes-below"/>
      <g class="plot" transform="translate(255.75,25)" clip-path="url(#clip139c3fx2yplot)">
        <g class="scatterlayer mlayer">
          <g class="trace scatter trace7a1600" style="stroke-miterlimit: 2;">
            <g class="fills">
              <g>
                <path class="js-fill" d="M152.25,225.63L0,225.63L0,223.21L15.22,224.02L30.45,210.13L45.68,203.51L60.9,221.59L76.12,210.62L91.35,224.82L106.57,222.24L121.8,225.63L137.02,225.63L152.25,224.82" style="fill: rgb(132, 180, 20); fill-opacity: 1; stroke-width: 0;"/>
              </g>
            </g>
            <g class="errorbars"/>
            <g class="lines">
              <path class="js-line" d="M0,223.21L15.22,224.02L30.45,210.13L45.68,203.51L60.9,221.59L76.12,210.62L91.35,224.82L106.57,222.24L121.8,225.63L137.02,225.63L152.25,224.82" style="vector-effect: non-scaling-stroke; fill: none; stroke: rgb(132, 180, 20); stroke-opacity: 1; stroke-width: 0px; opacity: 1;"/>
            </g>
            <g class="points"/>
            <g class="text"/>
          </g>
        </g>
      </g>
      <g class="overplot"/>
      <path class="xlines-above crisp" d="M0,0" style="fill: none;"/>
      <path class="ylines-above crisp" d="M0,0" style="fill: none;"/>
      <g class="overlines-above"/>
      <g class="xaxislayer-above"/>
      <g class="yaxislayer-above"/>
      <g class="overaxes-above"/>
    </g>
    <g class="subplot x2y2">
      <g class="layer-subplot">
        <g class="shapelayer"/>
        <g class="imagelayer"/>
      </g>
      <g class="gridlayer">
        <g class="x2">
          <path class="x2grid crisp" transform="translate(270.97,0)" d="M0,289.87v206.00999999999996" style="stroke: rgb(238, 238, 238); stroke-opacity: 1; stroke-width: 1px;"/>
          <path class="x2grid crisp" transform="translate(286.2,0)" d="M0,289.87v206.00999999999996" style="stroke: rgb(238, 238, 238); stroke-opacity: 1; stroke-width: 1px;"/>
          <path class="x2grid crisp" transform="translate(301.43,0)" d="M0,289.87v206.00999999999996" style="stroke: rgb(238, 238, 238); stroke-opacity: 1; stroke-width: 1px;"/>
          <path class="x2grid crisp" transform="translate(316.65,0)" d="M0,289.87v206.00999999999996" style="stroke: rgb(238, 238, 238); stroke-opacity: 1; stroke-width: 1px;"/>
          <path class="x2grid crisp" transform="translate(331.87,0)" d="M0,289.87v206.00999999999996" style="stroke: rgb(238, 238, 238); stroke-opacity: 1; stroke-width: 1px;"/>
          <path class="x2grid crisp" transform="translate(347.1,0)" d="M0,289.87v206.00999999999996" style="stroke: rgb(238, 238, 238); stroke-opacity: 1; stroke-width: 1px;"/>
          <path class="x2grid crisp" transform="translate(362.32,0)" d="M0,289.87v206.00999999999996" style="stroke: rgb(238, 238, 238); stroke-opacity: 1; stroke-width: 1px;"/>
          <path class="x2grid crisp" transform="translate(377.55,0)" d="M0,289.87v206.00999999999996" style="stroke: rgb(238, 238, 238); stroke-opacity: 1; stroke-width: 1px;"/>
          <path class="x2grid crisp" transform="translate(392.77,0)" d="M0,289.87v206.00999999999996" style="stroke: rgb(238, 238, 238); stroke-opacity: 1; stroke-width: 1px;"/>
        </g>
        <g class="y2">
          <path class="y2grid crisp" transform="translate(0,438.34000000000003)" d="M255.75,0h152.24999999999997" style="stroke: rgb(238, 238, 238); stroke-opacity: 1; stroke-width: 1px;"/>
          <path class="y2grid crisp" transform="translate(0,380.79)" d="M255.75,0h152.24999999999997" style="stroke: rgb(238, 238, 238); stroke-opacity: 1; stroke-width: 1px;"/>
          <path class="y2grid crisp" transform="translate(0,323.25)" d="M255.75,0h152.24999999999997" style="stroke: rgb(238, 238, 238); stroke-opacity: 1; stroke-width: 1px;"/>
        </g>
      </g>
      <g class="zerolinelayer">
        <path class="y2zl zl crisp" transform="translate(0,495.88)" d="M255.75,0h152.24999999999997" style="stroke: rgb(68, 68, 68); stroke-opacity: 1; stroke-width: 1px;"/>
      </g>
      <path class="xlines-below"/>
      <path class="ylines-below"/>
      <g class="overlines-below"/>
      <g class="xaxislayer-below"/>
      <g class="yaxislayer-below"/>
      <g class="overaxes-below"/>
      <g class="plot" transform="translate(255.75,289.87)" clip-path="url(#clip139c3fx2y2plot)">
        <g class="scatterlayer mlayer">
          <g class="trace scatter trace84359b" style="stroke-miterlimit: 2;">
            <g class="fills">
              <g>
                <path class="js-fill" d="M152.25,206.01L0,206.01L0,206.01L60.9,206.01L76.12,199.82L91.35,201.44L106.57,202.18L121.8,204.54L137.02,202.91L152.25,206.01" style="fill: rgb(148, 184, 184); fill-opacity: 1; stroke-width: 0;"/>
              </g>
            </g>
            <g class="errorbars"/>
            <g class="lines">
              <path class="js-line" d="M0,206.01L60.9,206.01L76.12,199.82L91.35,201.44L106.57,202.18L121.8,204.54L137.02,202.91L152.25,206.01" style="vector-effect: non-scaling-stroke; fill: none; stroke: rgb(148, 184, 184); stroke-opacity: 1; stroke-width: 0px; opacity: 1;"/>
            </g>
            <g class="points"/>
            <g class="text"/>
          </g>
        </g>
      </g>
      <g class="overplot"/>
      <path class="xlines-above crisp" d="M0,0" style="fill: none;"/>
      <path class="ylines-above crisp" d="M0,0" style="fill: none;"/>
      <g class="overlines-above"/>
      <g class="xaxislayer-above"/>
      <g class="yaxislayer-above"/>
      <g class="overaxes-above"/>
    </g>
    <g class="subplot x2y3">
      <g class="layer-subplot">
        <g class="shapelayer"/>
        <g class="imagelayer"/>
      </g>
      <g class="gridlayer">
        <g class="x2">
          <path class="x2grid crisp" transform="translate(270.97,0)" d="M0,535.12v206.00999999999996" style="stroke: rgb(238, 238, 238); stroke-opacity: 1; stroke-width: 1px;"/>
          <path class="x2grid crisp" transform="translate(286.2,0)" d="M0,535.12v206.00999999999996" style="stroke: rgb(238, 238, 238); stroke-opacity: 1; stroke-width: 1px;"/>
          <path class="x2grid crisp" transform="translate(301.43,0)" d="M0,535.12v206.00999999999996" style="stroke: rgb(238, 238, 238); stroke-opacity: 1; stroke-width: 1px;"/>
          <path class="x2grid crisp" transform="translate(316.65,0)" d="M0,535.12v206.00999999999996" style="stroke: rgb(238, 238, 238); stroke-opacity: 1; stroke-width: 1px;"/>
          <path class="x2grid crisp" transform="translate(331.87,0)" d="M0,535.12v206.00999999999996" style="stroke: rgb(238, 238, 238); stroke-opacity: 1; stroke-width: 1px;"/>
          <path class="x2grid crisp" transform="translate(347.1,0)" d="M0,535.12v206.00999999999996" style="stroke: rgb(238, 238, 238); stroke-opacity: 1; stroke-width: 1px;"/>
          <path class="x2grid crisp" transform="translate(362.32,0)" d="M0,535.12v206.00999999999996" style="stroke: rgb(238, 238, 238); stroke-opacity: 1; stroke-width: 1px;"/>
          <path class="x2grid crisp" transform="translate(377.55,0)" d="M0,535.12v206.00999999999996" style="stroke: rgb(238, 238, 238); stroke-opacity: 1; stroke-width: 1px;"/>
          <path class="x2grid crisp" transform="translate(392.77,0)" d="M0,535.12v206.00999999999996" style="stroke: rgb(238, 238, 238); stroke-opacity: 1; stroke-width: 1px;"/>
        </g>
        <g class="y3">
          <path class="y3grid crisp" transform="translate(0,683.59)" d="M255.75,0h152.24999999999997" style="stroke: rgb(238, 238, 238); stroke-opacity: 1; stroke-width: 1px;"/>
          <path class="y3grid crisp" transform="translate(0,626.04)" d="M255.75,0h152.24999999999997" style="stroke: rgb(238, 238, 238); stroke-opacity: 1; stroke-width: 1px;"/>
          <path class="y3grid crisp" transform="translate(0,568.5)" d="M255.75,0h152.24999999999997" style="stroke: rgb(238, 238, 238); stroke-opacity: 1; stroke-width: 1px;"/>
        </g>
      </g>
      <g class="zerolinelayer">
        <path class="y3zl zl crisp" transform="translate(0,741.13)" d="M255.75,0h152.24999999999997" style="stroke: rgb(68, 68, 68); stroke-opacity: 1; stroke-width: 1px;"/>
      </g>
      <path class="xlines-below"/>
      <path class="ylines-below"/>
      <g class="overlines-below"/>
      <g class="xaxislayer-below"/>
      <g class="yaxislayer-below"/>
      <g class="overaxes-below"/>
      <g class="plot" transform="translate(255.75,535.12)" clip-path="url(#clip139c3fx2y3plot)">
        <g class="scatterlayer mlayer">
          <g class="trace scatter trace937653" style="stroke-miterlimit: 2;">
            <g class="fills">
              <g>
                <path class="js-fill" d="M152.25,206.01L0,206.01L0,206.01L15.22,203.65L30.45,205.27L45.68,201.59L60.9,194.66L76.12,173.29L91.35,197.17L106.57,194.66L121.8,205.27L152.25,203.65" style="fill: rgb(255, 133, 12); fill-opacity: 1; stroke-width: 0;"/>
              </g>
            </g>
            <g class="errorbars"/>
            <g class="lines">
              <path class="js-line" d="M0,206.01L15.22,203.65L30.45,205.27L45.68,201.59L60.9,194.66L76.12,173.29L91.35,197.17L106.57,194.66L121.8,205.27L152.25,203.65" style="vector-effect: non-scaling-stroke; fill: none; stroke: rgb(255, 133, 12); stroke-opacity: 1; stroke-width: 0px; opacity: 1;"/>
            </g>
            <g class="points"/>
            <g class="text"/>
          </g>
        </g>
      </g>
      <g class="overplot"/>
      <path class="xlines-above crisp" d="" style="fill: none; stroke-width: 1px; stroke: rgb(0, 0, 0); stroke-opacity: 0;"/>
      <path class="ylines-above crisp" d="M0,0" style="fill: none;"/>
      <g class="overlines-above"/>
      <g class="xaxislayer-above">
        <path class="x2tick ticks crisp" d="M0,742.13v15" transform="translate(255.75,0)" style="stroke: rgb(238, 238, 238); stroke-opacity: 1; stroke-width: 1px;"/>
        <path class="x2tick ticks crisp" d="M0,742.13v15" transform="translate(270.97,0)" style="stroke: rgb(238, 238, 238); stroke-opacity: 1; stroke-width: 1px;"/>
        <path class="x2tick ticks crisp" d="M0,742.13v15" transform="translate(286.2,0)" style="stroke: rgb(238, 238, 238); stroke-opacity: 1; stroke-width: 1px;"/>
        <path class="x2tick ticks crisp" d="M0,742.13v15" transform="translate(301.43,0)" style="stroke: rgb(238, 238, 238); stroke-opacity: 1; stroke-width: 1px;"/>
        <path class="x2tick ticks crisp" d="M0,742.13v15" transform="translate(316.65,0)" style="stroke: rgb(238, 238, 238); stroke-opacity: 1; stroke-width: 1px;"/>
        <path class="x2tick ticks crisp" d="M0,742.13v15" transform="translate(331.87,0)" style="stroke: rgb(238, 238, 238); stroke-opacity: 1; stroke-width: 1px;"/>
        <path class="x2tick ticks crisp" d="M0,742.13v15" transform="translate(347.1,0)" style="stroke: rgb(238, 238, 238); stroke-opacity: 1; stroke-width: 1px;"/>
        <path class="x2tick ticks crisp" d="M0,742.13v15" transform="translate(362.32,0)" style="stroke: rgb(238, 238, 238); stroke-opacity: 1; stroke-width: 1px;"/>
        <path class="x2tick ticks crisp" d="M0,742.13v15" transform="translate(377.55,0)" style="stroke: rgb(238, 238, 238); stroke-opacity: 1; stroke-width: 1px;"/>
        <path class="x2tick ticks crisp" d="M0,742.13v15" transform="translate(392.77,0)" style="stroke: rgb(238, 238, 238); stroke-opacity: 1; stroke-width: 1px;"/>
        <path class="x2tick ticks crisp" d="M0,742.13v15" transform="translate(408,0)" style="stroke: rgb(238, 238, 238); stroke-opacity: 1; stroke-width: 1px;"/>
        <g class="x2tick">
          <text text-anchor="start" x="0" y="771.53" transform="translate(255.75,0) rotate(90,0,765.53)" style="font-family: 'Open Sans', verdana, arial, sans-serif; font-size: 12px; fill: rgb(68, 68, 68); fill-opacity: 1; white-space: pre; opacity: 1;">0 (ganz links)</text>
        </g>
        <g class="x2tick">
          <text text-anchor="start" x="0" y="771.53" transform="translate(270.97,0) rotate(90,0,765.53)" style="font-family: 'Open Sans', verdana, arial, sans-serif; font-size: 12px; fill: rgb(68, 68, 68); fill-opacity: 1; white-space: pre; opacity: 1;">1</text>
        </g>
        <g class="x2tick">
          <text text-anchor="start" x="0" y="771.53" transform="translate(286.2,0) rotate(90,0,765.53)" style="font-family: 'Open Sans', verdana, arial, sans-serif; font-size: 12px; fill: rgb(68, 68, 68); fill-opacity: 1; white-space: pre; opacity: 1;">2</text>
        </g>
        <g class="x2tick">
          <text text-anchor="start" x="0" y="771.53" transform="translate(301.43,0) rotate(90,0,765.53)" style="font-family: 'Open Sans', verdana, arial, sans-serif; font-size: 12px; fill: rgb(68, 68, 68); fill-opacity: 1; white-space: pre; opacity: 1;">3</text>
        </g>
        <g class="x2tick">
          <text text-anchor="start" x="0" y="771.53" transform="translate(316.65,0) rotate(90,0,765.53)" style="font-family: 'Open Sans', verdana, arial, sans-serif; font-size: 12px; fill: rgb(68, 68, 68); fill-opacity: 1; white-space: pre; opacity: 1;">4</text>
        </g>
        <g class="x2tick">
          <text text-anchor="start" x="0" y="771.53" transform="translate(331.87,0) rotate(90,0,765.53)" style="font-family: 'Open Sans', verdana, arial, sans-serif; font-size: 12px; fill: rgb(68, 68, 68); fill-opacity: 1; white-space: pre; opacity: 1;">5 (Mitte)</text>
        </g>
        <g class="x2tick">
          <text text-anchor="start" x="0" y="771.53" transform="translate(347.1,0) rotate(90,0,765.53)" style="font-family: 'Open Sans', verdana, arial, sans-serif; font-size: 12px; fill: rgb(68, 68, 68); fill-opacity: 1; white-space: pre; opacity: 1;">6</text>
        </g>
        <g class="x2tick">
          <text text-anchor="start" x="0" y="771.53" transform="translate(362.32,0) rotate(90,0,765.53)" style="font-family: 'Open Sans', verdana, arial, sans-serif; font-size: 12px; fill: rgb(68, 68, 68); fill-opacity: 1; white-space: pre; opacity: 1;">7</text>
        </g>
        <g class="x2tick">
          <text text-anchor="start" x="0" y="771.53" transform="translate(377.55,0) rotate(90,0,765.53)" style="font-family: 'Open Sans', verdana, arial, sans-serif; font-size: 12px; fill: rgb(68, 68, 68); fill-opacity: 1; white-space: pre; opacity: 1;">8</text>
        </g>
        <g class="x2tick">
          <text text-anchor="start" x="0" y="771.53" transform="translate(392.77,0) rotate(90,0,765.53)" style="font-family: 'Open Sans', verdana, arial, sans-serif; font-size: 12px; fill: rgb(68, 68, 68); fill-opacity: 1; white-space: pre; opacity: 1;">9</text>
        </g>
        <g class="x2tick">
          <text text-anchor="start" x="0" y="771.53" transform="translate(408,0) rotate(90,0,765.53)" style="font-family: 'Open Sans', verdana, arial, sans-serif; font-size: 12px; fill: rgb(68, 68, 68); fill-opacity: 1; white-space: pre; opacity: 1;">10 (ganz rechts)</text>
        </g>
      </g>
      <g class="yaxislayer-above"/>
      <g class="overaxes-above"/>
    </g>
    <g class="subplot x3y">
      <g class="layer-subplot">
        <g class="shapelayer"/>
        <g class="imagelayer"/>
      </g>
      <g class="gridlayer">
        <g class="x3">
          <path class="x3grid crisp" transform="translate(452.22,0)" d="M0,25v225.63" style="stroke: rgb(238, 238, 238); stroke-opacity: 1; stroke-width: 1px;"/>
          <path class="x3grid crisp" transform="translate(467.45,0)" d="M0,25v225.63" style="stroke: rgb(238, 238, 238); stroke-opacity: 1; stroke-width: 1px;"/>
          <path class="x3grid crisp" transform="translate(482.68,0)" d="M0,25v225.63" style="stroke: rgb(238, 238, 238); stroke-opacity: 1; stroke-width: 1px;"/>
          <path class="x3grid crisp" transform="translate(497.9,0)" d="M0,25v225.63" style="stroke: rgb(238, 238, 238); stroke-opacity: 1; stroke-width: 1px;"/>
          <path class="x3grid crisp" transform="translate(513.12,0)" d="M0,25v225.63" style="stroke: rgb(238, 238, 238); stroke-opacity: 1; stroke-width: 1px;"/>
          <path class="x3grid crisp" transform="translate(528.35,0)" d="M0,25v225.63" style="stroke: rgb(238, 238, 238); stroke-opacity: 1; stroke-width: 1px;"/>
          <path class="x3grid crisp" transform="translate(543.5699999999999,0)" d="M0,25v225.63" style="stroke: rgb(238, 238, 238); stroke-opacity: 1; stroke-width: 1px;"/>
          <path class="x3grid crisp" transform="translate(558.8,0)" d="M0,25v225.63" style="stroke: rgb(238, 238, 238); stroke-opacity: 1; stroke-width: 1px;"/>
          <path class="x3grid crisp" transform="translate(574.02,0)" d="M0,25v225.63" style="stroke: rgb(238, 238, 238); stroke-opacity: 1; stroke-width: 1px;"/>
        </g>
        <g class="y">
          <path class="ygrid crisp" transform="translate(0,187.6)" d="M437,0h152.24999999999997" style="stroke: rgb(238, 238, 238); stroke-opacity: 1; stroke-width: 1px;"/>
          <path class="ygrid crisp" transform="translate(0,124.58)" d="M437,0h152.24999999999997" style="stroke: rgb(238, 238, 238); stroke-opacity: 1; stroke-width: 1px;"/>
          <path class="ygrid crisp" transform="translate(0,61.55)" d="M437,0h152.24999999999997" style="stroke: rgb(238, 238, 238); stroke-opacity: 1; stroke-width: 1px;"/>
        </g>
      </g>
      <g class="zerolinelayer">
        <path class="yzl zl crisp" transform="translate(0,250.63)" d="M437,0h152.24999999999997" style="stroke: rgb(68, 68, 68); stroke-opacity: 1; stroke-width: 1px;"/>
      </g>
      <path class="xlines-below"/>
      <path class="ylines-below"/>
      <g class="overlines-below"/>
      <g class="xaxislayer-below"/>
      <g class="yaxislayer-below"/>
      <g class="overaxes-below"/>
      <g class="plot" transform="translate(437,25)" clip-path="url(#clip139c3fx3yplot)">
        <g class="scatterlayer mlayer">
          <g class="trace scatter traceb5cc3c" style="stroke-miterlimit: 2;">
            <g class="fills">
              <g>
                <path class="js-fill" d="M152.25,225.63L0,225.63L0,225.63L15.22,225.63L30.45,222.24L45.68,223.21L60.9,221.43L76.12,217.24L91.35,222.4L106.57,222.24L121.8,224.82L137.02,225.63L152.25,225.63" style="fill: rgb(204, 153, 255); fill-opacity: 1; stroke-width: 0;"/>
              </g>
            </g>
            <g class="errorbars"/>
            <g class="lines">
              <path class="js-line" d="M0,225.63L15.22,225.63L30.45,222.24L45.68,223.21L60.9,221.43L76.12,217.24L91.35,222.4L106.57,222.24L121.8,224.82L137.02,225.63L152.25,225.63" style="vector-effect: non-scaling-stroke; fill: none; stroke: rgb(204, 153, 255); stroke-opacity: 1; stroke-width: 0px; opacity: 1;"/>
            </g>
            <g class="points"/>
            <g class="text"/>
          </g>
        </g>
      </g>
      <g class="overplot"/>
      <path class="xlines-above crisp" d="M0,0" style="fill: none;"/>
      <path class="ylines-above crisp" d="M0,0" style="fill: none;"/>
      <g class="overlines-above"/>
      <g class="xaxislayer-above"/>
      <g class="yaxislayer-above"/>
      <g class="overaxes-above"/>
    </g>
    <g class="subplot x3y2">
      <g class="layer-subplot">
        <g class="shapelayer"/>
        <g class="imagelayer"/>
      </g>
      <g class="gridlayer">
        <g class="x3">
          <path class="x3grid crisp" transform="translate(452.22,0)" d="M0,289.87v206.00999999999996" style="stroke: rgb(238, 238, 238); stroke-opacity: 1; stroke-width: 1px;"/>
          <path class="x3grid crisp" transform="translate(467.45,0)" d="M0,289.87v206.00999999999996" style="stroke: rgb(238, 238, 238); stroke-opacity: 1; stroke-width: 1px;"/>
          <path class="x3grid crisp" transform="translate(482.68,0)" d="M0,289.87v206.00999999999996" style="stroke: rgb(238, 238, 238); stroke-opacity: 1; stroke-width: 1px;"/>
          <path class="x3grid crisp" transform="translate(497.9,0)" d="M0,289.87v206.00999999999996" style="stroke: rgb(238, 238, 238); stroke-opacity: 1; stroke-width: 1px;"/>
          <path class="x3grid crisp" transform="translate(513.12,0)" d="M0,289.87v206.00999999999996" style="stroke: rgb(238, 238, 238); stroke-opacity: 1; stroke-width: 1px;"/>
          <path class="x3grid crisp" transform="translate(528.35,0)" d="M0,289.87v206.00999999999996" style="stroke: rgb(238, 238, 238); stroke-opacity: 1; stroke-width: 1px;"/>
          <path class="x3grid crisp" transform="translate(543.5699999999999,0)" d="M0,289.87v206.00999999999996" style="stroke: rgb(238, 238, 238); stroke-opacity: 1; stroke-width: 1px;"/>
          <path class="x3grid crisp" transform="translate(558.8,0)" d="M0,289.87v206.00999999999996" style="stroke: rgb(238, 238, 238); stroke-opacity: 1; stroke-width: 1px;"/>
          <path class="x3grid crisp" transform="translate(574.02,0)" d="M0,289.87v206.00999999999996" style="stroke: rgb(238, 238, 238); stroke-opacity: 1; stroke-width: 1px;"/>
        </g>
        <g class="y2">
          <path class="y2grid crisp" transform="translate(0,438.34000000000003)" d="M437,0h152.24999999999997" style="stroke: rgb(238, 238, 238); stroke-opacity: 1; stroke-width: 1px;"/>
          <path class="y2grid crisp" transform="translate(0,380.79)" d="M437,0h152.24999999999997" style="stroke: rgb(238, 238, 238); stroke-opacity: 1; stroke-width: 1px;"/>
          <path class="y2grid crisp" transform="translate(0,323.25)" d="M437,0h152.24999999999997" style="stroke: rgb(238, 238, 238); stroke-opacity: 1; stroke-width: 1px;"/>
        </g>
      </g>
      <g class="zerolinelayer">
        <path class="y2zl zl crisp" transform="translate(0,495.88)" d="M437,0h152.24999999999997" style="stroke: rgb(68, 68, 68); stroke-opacity: 1; stroke-width: 1px;"/>
      </g>
      <path class="xlines-below"/>
      <path class="ylines-below"/>
      <g class="overlines-below"/>
      <g class="xaxislayer-below"/>
      <g class="yaxislayer-below"/>
      <g class="overaxes-below"/>
      <g class="plot" transform="translate(437,289.87)" clip-path="url(#clip139c3fx3y2plot)">
        <g class="scatterlayer mlayer">
          <g class="trace scatter traceb2311b" style="stroke-miterlimit: 2;">
            <g class="fills">
              <g>
                <path class="js-fill" d="M152.25,206.01L0,206.01L0,206.01L15.22,206.01L30.45,204.54L45.68,201.44L60.9,202.18L76.12,199.97L91.35,205.27L121.8,206.01L137.02,206.01L152.25,206.01" style="fill: rgb(148, 184, 184); fill-opacity: 1; stroke-width: 0;"/>
              </g>
            </g>
            <g class="errorbars"/>
            <g class="lines">
              <path class="js-line" d="M0,206.01L15.22,206.01L30.45,204.54L45.68,201.44L60.9,202.18L76.12,199.97L91.35,205.27L121.8,206.01L137.02,206.01L152.25,206.01" style="vector-effect: non-scaling-stroke; fill: none; stroke: rgb(148, 184, 184); stroke-opacity: 1; stroke-width: 0px; opacity: 1;"/>
            </g>
            <g class="points"/>
            <g class="text"/>
          </g>
        </g>
      </g>
      <g class="overplot"/>
      <path class="xlines-above crisp" d="M0,0" style="fill: none;"/>
      <path class="ylines-above crisp" d="M0,0" style="fill: none;"/>
      <g class="overlines-above"/>
      <g class="xaxislayer-above"/>
      <g class="yaxislayer-above"/>
      <g class="overaxes-above"/>
    </g>
    <g class="subplot x3y3">
      <g class="layer-subplot">
        <g class="shapelayer"/>
        <g class="imagelayer"/>
      </g>
      <g class="gridlayer">
        <g class="x3">
          <path class="x3grid crisp" transform="translate(452.22,0)" d="M0,535.12v206.00999999999996" style="stroke: rgb(238, 238, 238); stroke-opacity: 1; stroke-width: 1px;"/>
          <path class="x3grid crisp" transform="translate(467.45,0)" d="M0,535.12v206.00999999999996" style="stroke: rgb(238, 238, 238); stroke-opacity: 1; stroke-width: 1px;"/>
          <path class="x3grid crisp" transform="translate(482.68,0)" d="M0,535.12v206.00999999999996" style="stroke: rgb(238, 238, 238); stroke-opacity: 1; stroke-width: 1px;"/>
          <path class="x3grid crisp" transform="translate(497.9,0)" d="M0,535.12v206.00999999999996" style="stroke: rgb(238, 238, 238); stroke-opacity: 1; stroke-width: 1px;"/>
          <path class="x3grid crisp" transform="translate(513.12,0)" d="M0,535.12v206.00999999999996" style="stroke: rgb(238, 238, 238); stroke-opacity: 1; stroke-width: 1px;"/>
          <path class="x3grid crisp" transform="translate(528.35,0)" d="M0,535.12v206.00999999999996" style="stroke: rgb(238, 238, 238); stroke-opacity: 1; stroke-width: 1px;"/>
          <path class="x3grid crisp" transform="translate(543.5699999999999,0)" d="M0,535.12v206.00999999999996" style="stroke: rgb(238, 238, 238); stroke-opacity: 1; stroke-width: 1px;"/>
          <path class="x3grid crisp" transform="translate(558.8,0)" d="M0,535.12v206.00999999999996" style="stroke: rgb(238, 238, 238); stroke-opacity: 1; stroke-width: 1px;"/>
          <path class="x3grid crisp" transform="translate(574.02,0)" d="M0,535.12v206.00999999999996" style="stroke: rgb(238, 238, 238); stroke-opacity: 1; stroke-width: 1px;"/>
        </g>
        <g class="y3">
          <path class="y3grid crisp" transform="translate(0,683.59)" d="M437,0h152.24999999999997" style="stroke: rgb(238, 238, 238); stroke-opacity: 1; stroke-width: 1px;"/>
          <path class="y3grid crisp" transform="translate(0,626.04)" d="M437,0h152.24999999999997" style="stroke: rgb(238, 238, 238); stroke-opacity: 1; stroke-width: 1px;"/>
          <path class="y3grid crisp" transform="translate(0,568.5)" d="M437,0h152.24999999999997" style="stroke: rgb(238, 238, 238); stroke-opacity: 1; stroke-width: 1px;"/>
        </g>
      </g>
      <g class="zerolinelayer">
        <path class="y3zl zl crisp" transform="translate(0,741.13)" d="M437,0h152.24999999999997" style="stroke: rgb(68, 68, 68); stroke-opacity: 1; stroke-width: 1px;"/>
      </g>
      <path class="xlines-below"/>
      <path class="ylines-below"/>
      <g class="overlines-below"/>
      <g class="xaxislayer-below"/>
      <g class="yaxislayer-below"/>
      <g class="overaxes-below"/>
      <g class="plot" transform="translate(437,535.12)" clip-path="url(#clip139c3fx3y3plot)">
        <g class="scatterlayer mlayer">
          <g class="trace scatter trace9d498c" style="stroke-miterlimit: 2;">
            <g class="fills">
              <g>
                <path class="js-fill" d="M152.25,206.01L0,206.01L0,206.01L15.22,206.01L30.45,202.91L45.68,203.8L60.9,201.59L76.12,156.92L91.35,170.49L106.57,172.55L121.8,191.86L137.02,204.54L152.25,206.01" style="fill: rgb(16, 79, 160); fill-opacity: 1; stroke-width: 0;"/>
              </g>
            </g>
            <g class="errorbars"/>
            <g class="lines">
              <path class="js-line" d="M0,206.01L15.22,206.01L30.45,202.91L45.68,203.8L60.9,201.59L76.12,156.92L91.35,170.49L106.57,172.55L121.8,191.86L137.02,204.54L152.25,206.01" style="vector-effect: non-scaling-stroke; fill: none; stroke: rgb(16, 79, 160); stroke-opacity: 1; stroke-width: 0px; opacity: 1;"/>
            </g>
            <g class="points"/>
            <g class="text"/>
          </g>
        </g>
      </g>
      <g class="overplot"/>
      <path class="xlines-above crisp" d="" style="fill: none; stroke-width: 1px; stroke: rgb(0, 0, 0); stroke-opacity: 0;"/>
      <path class="ylines-above crisp" d="M0,0" style="fill: none;"/>
      <g class="overlines-above"/>
      <g class="xaxislayer-above">
        <path class="x3tick ticks crisp" d="M0,742.13v15" transform="translate(437,0)" style="stroke: rgb(238, 238, 238); stroke-opacity: 1; stroke-width: 1px;"/>
        <path class="x3tick ticks crisp" d="M0,742.13v15" transform="translate(452.22,0)" style="stroke: rgb(238, 238, 238); stroke-opacity: 1; stroke-width: 1px;"/>
        <path class="x3tick ticks crisp" d="M0,742.13v15" transform="translate(467.45,0)" style="stroke: rgb(238, 238, 238); stroke-opacity: 1; stroke-width: 1px;"/>
        <path class="x3tick ticks crisp" d="M0,742.13v15" transform="translate(482.68,0)" style="stroke: rgb(238, 238, 238); stroke-opacity: 1; stroke-width: 1px;"/>
        <path class="x3tick ticks crisp" d="M0,742.13v15" transform="translate(497.9,0)" style="stroke: rgb(238, 238, 238); stroke-opacity: 1; stroke-width: 1px;"/>
        <path class="x3tick ticks crisp" d="M0,742.13v15" transform="translate(513.12,0)" style="stroke: rgb(238, 238, 238); stroke-opacity: 1; stroke-width: 1px;"/>
        <path class="x3tick ticks crisp" d="M0,742.13v15" transform="translate(528.35,0)" style="stroke: rgb(238, 238, 238); stroke-opacity: 1; stroke-width: 1px;"/>
        <path class="x3tick ticks crisp" d="M0,742.13v15" transform="translate(543.5699999999999,0)" style="stroke: rgb(238, 238, 238); stroke-opacity: 1; stroke-width: 1px;"/>
        <path class="x3tick ticks crisp" d="M0,742.13v15" transform="translate(558.8,0)" style="stroke: rgb(238, 238, 238); stroke-opacity: 1; stroke-width: 1px;"/>
        <path class="x3tick ticks crisp" d="M0,742.13v15" transform="translate(574.02,0)" style="stroke: rgb(238, 238, 238); stroke-opacity: 1; stroke-width: 1px;"/>
        <path class="x3tick ticks crisp" d="M0,742.13v15" transform="translate(589.25,0)" style="stroke: rgb(238, 238, 238); stroke-opacity: 1; stroke-width: 1px;"/>
        <g class="x3tick">
          <text text-anchor="start" x="0" y="771.53" transform="translate(437,0) rotate(90,0,765.53)" style="font-family: 'Open Sans', verdana, arial, sans-serif; font-size: 12px; fill: rgb(68, 68, 68); fill-opacity: 1; white-space: pre; opacity: 1;">0 (ganz links)</text>
        </g>
        <g class="x3tick">
          <text text-anchor="start" x="0" y="771.53" transform="translate(452.22,0) rotate(90,0,765.53)" style="font-family: 'Open Sans', verdana, arial, sans-serif; font-size: 12px; fill: rgb(68, 68, 68); fill-opacity: 1; white-space: pre; opacity: 1;">1</text>
        </g>
        <g class="x3tick">
          <text text-anchor="start" x="0" y="771.53" transform="translate(467.45,0) rotate(90,0,765.53)" style="font-family: 'Open Sans', verdana, arial, sans-serif; font-size: 12px; fill: rgb(68, 68, 68); fill-opacity: 1; white-space: pre; opacity: 1;">2</text>
        </g>
        <g class="x3tick">
          <text text-anchor="start" x="0" y="771.53" transform="translate(482.68,0) rotate(90,0,765.53)" style="font-family: 'Open Sans', verdana, arial, sans-serif; font-size: 12px; fill: rgb(68, 68, 68); fill-opacity: 1; white-space: pre; opacity: 1;">3</text>
        </g>
        <g class="x3tick">
          <text text-anchor="start" x="0" y="771.53" transform="translate(497.9,0) rotate(90,0,765.53)" style="font-family: 'Open Sans', verdana, arial, sans-serif; font-size: 12px; fill: rgb(68, 68, 68); fill-opacity: 1; white-space: pre; opacity: 1;">4</text>
        </g>
        <g class="x3tick">
          <text text-anchor="start" x="0" y="771.53" transform="translate(513.12,0) rotate(90,0,765.53)" style="font-family: 'Open Sans', verdana, arial, sans-serif; font-size: 12px; fill: rgb(68, 68, 68); fill-opacity: 1; white-space: pre; opacity: 1;">5 (Mitte)</text>
        </g>
        <g class="x3tick">
          <text text-anchor="start" x="0" y="771.53" transform="translate(528.35,0) rotate(90,0,765.53)" style="font-family: 'Open Sans', verdana, arial, sans-serif; font-size: 12px; fill: rgb(68, 68, 68); fill-opacity: 1; white-space: pre; opacity: 1;">6</text>
        </g>
        <g class="x3tick">
          <text text-anchor="start" x="0" y="771.53" transform="translate(543.5699999999999,0) rotate(90,0,765.53)" style="font-family: 'Open Sans', verdana, arial, sans-serif; font-size: 12px; fill: rgb(68, 68, 68); fill-opacity: 1; white-space: pre; opacity: 1;">7</text>
        </g>
        <g class="x3tick">
          <text text-anchor="start" x="0" y="771.53" transform="translate(558.8,0) rotate(90,0,765.53)" style="font-family: 'Open Sans', verdana, arial, sans-serif; font-size: 12px; fill: rgb(68, 68, 68); fill-opacity: 1; white-space: pre; opacity: 1;">8</text>
        </g>
        <g class="x3tick">
          <text text-anchor="start" x="0" y="771.53" transform="translate(574.02,0) rotate(90,0,765.53)" style="font-family: 'Open Sans', verdana, arial, sans-serif; font-size: 12px; fill: rgb(68, 68, 68); fill-opacity: 1; white-space: pre; opacity: 1;">9</text>
        </g>
        <g class="x3tick">
          <text text-anchor="start" x="0" y="771.53" transform="translate(589.25,0) rotate(90,0,765.53)" style="font-family: 'Open Sans', verdana, arial, sans-serif; font-size: 12px; fill: rgb(68, 68, 68); fill-opacity: 1; white-space: pre; opacity: 1;">10 (ganz rechts)</text>
        </g>
      </g>
      <g class="yaxislayer-above"/>
      <g class="overaxes-above"/>
    </g>
    <g class="subplot x4y">
      <g class="layer-subplot">
        <g class="shapelayer"/>
        <g class="imagelayer"/>
      </g>
      <g class="gridlayer">
        <g class="x4">
          <path class="x4grid crisp" transform="translate(634.93,0)" d="M0,25v225.63" style="stroke: rgb(238, 238, 238); stroke-opacity: 1; stroke-width: 1px;"/>
          <path class="x4grid crisp" transform="translate(651.6,0)" d="M0,25v225.63" style="stroke: rgb(238, 238, 238); stroke-opacity: 1; stroke-width: 1px;"/>
          <path class="x4grid crisp" transform="translate(668.28,0)" d="M0,25v225.63" style="stroke: rgb(238, 238, 238); stroke-opacity: 1; stroke-width: 1px;"/>
          <path class="x4grid crisp" transform="translate(684.95,0)" d="M0,25v225.63" style="stroke: rgb(238, 238, 238); stroke-opacity: 1; stroke-width: 1px;"/>
          <path class="x4grid crisp" transform="translate(701.63,0)" d="M0,25v225.63" style="stroke: rgb(238, 238, 238); stroke-opacity: 1; stroke-width: 1px;"/>
          <path class="x4grid crisp" transform="translate(718.3,0)" d="M0,25v225.63" style="stroke: rgb(238, 238, 238); stroke-opacity: 1; stroke-width: 1px;"/>
          <path class="x4grid crisp" transform="translate(734.98,0)" d="M0,25v225.63" style="stroke: rgb(238, 238, 238); stroke-opacity: 1; stroke-width: 1px;"/>
          <path class="x4grid crisp" transform="translate(751.65,0)" d="M0,25v225.63" style="stroke: rgb(238, 238, 238); stroke-opacity: 1; stroke-width: 1px;"/>
          <path class="x4grid crisp" transform="translate(768.33,0)" d="M0,25v225.63" style="stroke: rgb(238, 238, 238); stroke-opacity: 1; stroke-width: 1px;"/>
        </g>
        <g class="y">
          <path class="ygrid crisp" transform="translate(0,187.6)" d="M618.25,0h166.75" style="stroke: rgb(238, 238, 238); stroke-opacity: 1; stroke-width: 1px;"/>
          <path class="ygrid crisp" transform="translate(0,124.58)" d="M618.25,0h166.75" style="stroke: rgb(238, 238, 238); stroke-opacity: 1; stroke-width: 1px;"/>
          <path class="ygrid crisp" transform="translate(0,61.55)" d="M618.25,0h166.75" style="stroke: rgb(238, 238, 238); stroke-opacity: 1; stroke-width: 1px;"/>
        </g>
      </g>
      <g class="zerolinelayer">
        <path class="yzl zl crisp" transform="translate(0,250.63)" d="M618.25,0h166.75" style="stroke: rgb(68, 68, 68); stroke-opacity: 1; stroke-width: 1px;"/>
      </g>
      <path class="xlines-below"/>
      <path class="ylines-below"/>
      <g class="overlines-below"/>
      <g class="xaxislayer-below"/>
      <g class="yaxislayer-below"/>
      <g class="overaxes-below"/>
      <g class="plot" transform="translate(618.25,25)" clip-path="url(#clip139c3fx4yplot)">
        <g class="scatterlayer mlayer">
          <g class="trace scatter trace5cf939" style="stroke-miterlimit: 2;">
            <g class="fills">
              <g>
                <path class="js-fill" d="M166.75,225.63L0,225.63L0,224.82L16.68,225.63L33.35,223.21L50.03,213.36L66.7,211.58L83.38,214.17L100.05,210.62L116.73,224.02L133.4,225.63L166.75,225.63" style="fill: rgb(195, 217, 63); fill-opacity: 1; stroke-width: 0;"/>
              </g>
            </g>
            <g class="errorbars"/>
            <g class="lines">
              <path class="js-line" d="M0,224.82L16.68,225.63L33.35,223.21L50.03,213.36L66.7,211.58L83.38,214.17L100.05,210.62L116.73,224.02L133.4,225.63L166.75,225.63" style="vector-effect: non-scaling-stroke; fill: none; stroke: rgb(195, 217, 63); stroke-opacity: 1; stroke-width: 0px; opacity: 1;"/>
            </g>
            <g class="points"/>
            <g class="text"/>
          </g>
        </g>
      </g>
      <g class="overplot"/>
      <path class="xlines-above crisp" d="M0,0" style="fill: none;"/>
      <path class="ylines-above crisp" d="M0,0" style="fill: none;"/>
      <g class="overlines-above"/>
      <g class="xaxislayer-above"/>
      <g class="yaxislayer-above"/>
      <g class="overaxes-above"/>
    </g>
    <g class="subplot x4y2">
      <g class="layer-subplot">
        <g class="shapelayer"/>
        <g class="imagelayer"/>
      </g>
      <g class="gridlayer">
        <g class="x4">
          <path class="x4grid crisp" transform="translate(634.93,0)" d="M0,289.87v206.00999999999996" style="stroke: rgb(238, 238, 238); stroke-opacity: 1; stroke-width: 1px;"/>
          <path class="x4grid crisp" transform="translate(651.6,0)" d="M0,289.87v206.00999999999996" style="stroke: rgb(238, 238, 238); stroke-opacity: 1; stroke-width: 1px;"/>
          <path class="x4grid crisp" transform="translate(668.28,0)" d="M0,289.87v206.00999999999996" style="stroke: rgb(238, 238, 238); stroke-opacity: 1; stroke-width: 1px;"/>
          <path class="x4grid crisp" transform="translate(684.95,0)" d="M0,289.87v206.00999999999996" style="stroke: rgb(238, 238, 238); stroke-opacity: 1; stroke-width: 1px;"/>
          <path class="x4grid crisp" transform="translate(701.63,0)" d="M0,289.87v206.00999999999996" style="stroke: rgb(238, 238, 238); stroke-opacity: 1; stroke-width: 1px;"/>
          <path class="x4grid crisp" transform="translate(718.3,0)" d="M0,289.87v206.00999999999996" style="stroke: rgb(238, 238, 238); stroke-opacity: 1; stroke-width: 1px;"/>
          <path class="x4grid crisp" transform="translate(734.98,0)" d="M0,289.87v206.00999999999996" style="stroke: rgb(238, 238, 238); stroke-opacity: 1; stroke-width: 1px;"/>
          <path class="x4grid crisp" transform="translate(751.65,0)" d="M0,289.87v206.00999999999996" style="stroke: rgb(238, 238, 238); stroke-opacity: 1; stroke-width: 1px;"/>
          <path class="x4grid crisp" transform="translate(768.33,0)" d="M0,289.87v206.00999999999996" style="stroke: rgb(238, 238, 238); stroke-opacity: 1; stroke-width: 1px;"/>
        </g>
        <g class="y2">
          <path class="y2grid crisp" transform="translate(0,438.34000000000003)" d="M618.25,0h166.75" style="stroke: rgb(238, 238, 238); stroke-opacity: 1; stroke-width: 1px;"/>
          <path class="y2grid crisp" transform="translate(0,380.79)" d="M618.25,0h166.75" style="stroke: rgb(238, 238, 238); stroke-opacity: 1; stroke-width: 1px;"/>
          <path class="y2grid crisp" transform="translate(0,323.25)" d="M618.25,0h166.75" style="stroke: rgb(238, 238, 238); stroke-opacity: 1; stroke-width: 1px;"/>
        </g>
      </g>
      <g class="zerolinelayer">
        <path class="y2zl zl crisp" transform="translate(0,495.88)" d="M618.25,0h166.75" style="stroke: rgb(68, 68, 68); stroke-opacity: 1; stroke-width: 1px;"/>
      </g>
      <path class="xlines-below"/>
      <path class="ylines-below"/>
      <g class="overlines-below"/>
      <g class="xaxislayer-below"/>
      <g class="yaxislayer-below"/>
      <g class="overaxes-below"/>
      <g class="plot" transform="translate(618.25,289.87)" clip-path="url(#clip139c3fx4y2plot)">
        <g class="scatterlayer mlayer">
          <g class="trace scatter trace083464" style="stroke-miterlimit: 2;">
            <g class="fills">
              <g>
                <path class="js-fill" d="M166.75,206.01L0,206.01L0,206.01L16.68,205.27L33.35,206.01L100.05,205.27L116.73,202.91L133.4,205.27L150.08,206.01L166.75,206.01" style="fill: rgb(148, 184, 184); fill-opacity: 1; stroke-width: 0;"/>
              </g>
            </g>
            <g class="errorbars"/>
            <g class="lines">
              <path class="js-line" d="M0,206.01L16.68,205.27L33.35,206.01L100.05,205.27L116.73,202.91L133.4,205.27L150.08,206.01L166.75,206.01" style="vector-effect: non-scaling-stroke; fill: none; stroke: rgb(148, 184, 184); stroke-opacity: 1; stroke-width: 0px; opacity: 1;"/>
            </g>
            <g class="points"/>
            <g class="text"/>
          </g>
        </g>
      </g>
      <g class="overplot"/>
      <path class="xlines-above crisp" d="M0,0" style="fill: none;"/>
      <path class="ylines-above crisp" d="M0,0" style="fill: none;"/>
      <g class="overlines-above"/>
      <g class="xaxislayer-above"/>
      <g class="yaxislayer-above"/>
      <g class="overaxes-above"/>
    </g>
    <g class="subplot x4y3">
      <g class="layer-subplot">
        <g class="shapelayer"/>
        <g class="imagelayer"/>
      </g>
      <g class="gridlayer">
        <g class="x4">
          <path class="x4grid crisp" transform="translate(634.93,0)" d="M0,535.12v206.00999999999996" style="stroke: rgb(238, 238, 238); stroke-opacity: 1; stroke-width: 1px;"/>
          <path class="x4grid crisp" transform="translate(651.6,0)" d="M0,535.12v206.00999999999996" style="stroke: rgb(238, 238, 238); stroke-opacity: 1; stroke-width: 1px;"/>
          <path class="x4grid crisp" transform="translate(668.28,0)" d="M0,535.12v206.00999999999996" style="stroke: rgb(238, 238, 238); stroke-opacity: 1; stroke-width: 1px;"/>
          <path class="x4grid crisp" transform="translate(684.95,0)" d="M0,535.12v206.00999999999996" style="stroke: rgb(238, 238, 238); stroke-opacity: 1; stroke-width: 1px;"/>
          <path class="x4grid crisp" transform="translate(701.63,0)" d="M0,535.12v206.00999999999996" style="stroke: rgb(238, 238, 238); stroke-opacity: 1; stroke-width: 1px;"/>
          <path class="x4grid crisp" transform="translate(718.3,0)" d="M0,535.12v206.00999999999996" style="stroke: rgb(238, 238, 238); stroke-opacity: 1; stroke-width: 1px;"/>
          <path class="x4grid crisp" transform="translate(734.98,0)" d="M0,535.12v206.00999999999996" style="stroke: rgb(238, 238, 238); stroke-opacity: 1; stroke-width: 1px;"/>
          <path class="x4grid crisp" transform="translate(751.65,0)" d="M0,535.12v206.00999999999996" style="stroke: rgb(238, 238, 238); stroke-opacity: 1; stroke-width: 1px;"/>
          <path class="x4grid crisp" transform="translate(768.33,0)" d="M0,535.12v206.00999999999996" style="stroke: rgb(238, 238, 238); stroke-opacity: 1; stroke-width: 1px;"/>
        </g>
        <g class="y3">
          <path class="y3grid crisp" transform="translate(0,683.59)" d="M618.25,0h166.75" style="stroke: rgb(238, 238, 238); stroke-opacity: 1; stroke-width: 1px;"/>
          <path class="y3grid crisp" transform="translate(0,626.04)" d="M618.25,0h166.75" style="stroke: rgb(238, 238, 238); stroke-opacity: 1; stroke-width: 1px;"/>
          <path class="y3grid crisp" transform="translate(0,568.5)" d="M618.25,0h166.75" style="stroke: rgb(238, 238, 238); stroke-opacity: 1; stroke-width: 1px;"/>
        </g>
      </g>
      <g class="zerolinelayer">
        <path class="y3zl zl crisp" transform="translate(0,741.13)" d="M618.25,0h166.75" style="stroke: rgb(68, 68, 68); stroke-opacity: 1; stroke-width: 1px;"/>
      </g>
      <path class="xlines-below"/>
      <path class="ylines-below"/>
      <g class="overlines-below"/>
      <g class="xaxislayer-below"/>
      <g class="yaxislayer-below"/>
      <g class="overaxes-below"/>
      <g class="plot" transform="translate(618.25,535.12)" clip-path="url(#clip139c3fx4y3plot)">
        <g class="scatterlayer mlayer">
          <g class="trace scatter tracef585ab" style="stroke-miterlimit: 2;">
            <g class="fills">
              <g>
                <path class="js-fill" d="M166.75,206.01L0,206.01L0,205.27L16.68,203.65L33.35,203.65L50.03,202.91L66.7,204.54L83.38,146.9L100.05,174.32L116.73,153.98L133.4,144.25L150.08,192.6L166.75,189.35" style="fill: rgb(63, 123, 23); fill-opacity: 1; stroke-width: 0;"/>
              </g>
            </g>
            <g class="errorbars"/>
            <g class="lines">
              <path class="js-line" d="M0,205.27L16.68,203.65L33.35,203.65L50.03,202.91L66.7,204.54L83.38,146.9L100.05,174.32L116.73,153.98L133.4,144.25L150.08,192.6L166.75,189.35" style="vector-effect: non-scaling-stroke; fill: none; stroke: rgb(63, 123, 23); stroke-opacity: 1; stroke-width: 0px; opacity: 1;"/>
            </g>
            <g class="points"/>
            <g class="text"/>
          </g>
        </g>
      </g>
      <g class="overplot"/>
      <path class="xlines-above crisp" d="" style="fill: none; stroke-width: 1px; stroke: rgb(0, 0, 0); stroke-opacity: 0;"/>
      <path class="ylines-above crisp" d="M0,0" style="fill: none;"/>
      <g class="overlines-above"/>
      <g class="xaxislayer-above">
        <path class="x4tick ticks crisp" d="M0,742.13v15" transform="translate(618.25,0)" style="stroke: rgb(238, 238, 238); stroke-opacity: 1; stroke-width: 1px;"/>
        <path class="x4tick ticks crisp" d="M0,742.13v15" transform="translate(634.93,0)" style="stroke: rgb(238, 238, 238); stroke-opacity: 1; stroke-width: 1px;"/>
        <path class="x4tick ticks crisp" d="M0,742.13v15" transform="translate(651.6,0)" style="stroke: rgb(238, 238, 238); stroke-opacity: 1; stroke-width: 1px;"/>
        <path class="x4tick ticks crisp" d="M0,742.13v15" transform="translate(668.28,0)" style="stroke: rgb(238, 238, 238); stroke-opacity: 1; stroke-width: 1px;"/>
        <path class="x4tick ticks crisp" d="M0,742.13v15" transform="translate(684.95,0)" style="stroke: rgb(238, 238, 238); stroke-opacity: 1; stroke-width: 1px;"/>
        <path class="x4tick ticks crisp" d="M0,742.13v15" transform="translate(701.63,0)" style="stroke: rgb(238, 238, 238); stroke-opacity: 1; stroke-width: 1px;"/>
        <path class="x4tick ticks crisp" d="M0,742.13v15" transform="translate(718.3,0)" style="stroke: rgb(238, 238, 238); stroke-opacity: 1; stroke-width: 1px;"/>
        <path class="x4tick ticks crisp" d="M0,742.13v15" transform="translate(734.98,0)" style="stroke: rgb(238, 238, 238); stroke-opacity: 1; stroke-width: 1px;"/>
        <path class="x4tick ticks crisp" d="M0,742.13v15" transform="translate(751.65,0)" style="stroke: rgb(238, 238, 238); stroke-opacity: 1; stroke-width: 1px;"/>
        <path class="x4tick ticks crisp" d="M0,742.13v15" transform="translate(768.33,0)" style="stroke: rgb(238, 238, 238); stroke-opacity: 1; stroke-width: 1px;"/>
        <path class="x4tick ticks crisp" d="M0,742.13v15" transform="translate(785,0)" style="stroke: rgb(238, 238, 238); stroke-opacity: 1; stroke-width: 1px;"/>
        <g class="x4tick">
          <text text-anchor="start" x="0" y="771.53" transform="translate(618.25,0) rotate(90,0,765.53)" style="font-family: 'Open Sans', verdana, arial, sans-serif; font-size: 12px; fill: rgb(68, 68, 68); fill-opacity: 1; white-space: pre; opacity: 1;">0 (ganz links)</text>
        </g>
        <g class="x4tick">
          <text text-anchor="start" x="0" y="771.53" transform="translate(634.93,0) rotate(90,0,765.53)" style="font-family: 'Open Sans', verdana, arial, sans-serif; font-size: 12px; fill: rgb(68, 68, 68); fill-opacity: 1; white-space: pre; opacity: 1;">1</text>
        </g>
        <g class="x4tick">
          <text text-anchor="start" x="0" y="771.53" transform="translate(651.6,0) rotate(90,0,765.53)" style="font-family: 'Open Sans', verdana, arial, sans-serif; font-size: 12px; fill: rgb(68, 68, 68); fill-opacity: 1; white-space: pre; opacity: 1;">2</text>
        </g>
        <g class="x4tick">
          <text text-anchor="start" x="0" y="771.53" transform="translate(668.28,0) rotate(90,0,765.53)" style="font-family: 'Open Sans', verdana, arial, sans-serif; font-size: 12px; fill: rgb(68, 68, 68); fill-opacity: 1; white-space: pre; opacity: 1;">3</text>
        </g>
        <g class="x4tick">
          <text text-anchor="start" x="0" y="771.53" transform="translate(684.95,0) rotate(90,0,765.53)" style="font-family: 'Open Sans', verdana, arial, sans-serif; font-size: 12px; fill: rgb(68, 68, 68); fill-opacity: 1; white-space: pre; opacity: 1;">4</text>
        </g>
        <g class="x4tick">
          <text text-anchor="start" x="0" y="771.53" transform="translate(701.63,0) rotate(90,0,765.53)" style="font-family: 'Open Sans', verdana, arial, sans-serif; font-size: 12px; fill: rgb(68, 68, 68); fill-opacity: 1; white-space: pre; opacity: 1;">5 (Mitte)</text>
        </g>
        <g class="x4tick">
          <text text-anchor="start" x="0" y="771.53" transform="translate(718.3,0) rotate(90,0,765.53)" style="font-family: 'Open Sans', verdana, arial, sans-serif; font-size: 12px; fill: rgb(68, 68, 68); fill-opacity: 1; white-space: pre; opacity: 1;">6</text>
        </g>
        <g class="x4tick">
          <text text-anchor="start" x="0" y="771.53" transform="translate(734.98,0) rotate(90,0,765.53)" style="font-family: 'Open Sans', verdana, arial, sans-serif; font-size: 12px; fill: rgb(68, 68, 68); fill-opacity: 1; white-space: pre; opacity: 1;">7</text>
        </g>
        <g class="x4tick">
          <text text-anchor="start" x="0" y="771.53" transform="translate(751.65,0) rotate(90,0,765.53)" style="font-family: 'Open Sans', verdana, arial, sans-serif; font-size: 12px; fill: rgb(68, 68, 68); fill-opacity: 1; white-space: pre; opacity: 1;">8</text>
        </g>
        <g class="x4tick">
          <text text-anchor="start" x="0" y="771.53" transform="translate(768.33,0) rotate(90,0,765.53)" style="font-family: 'Open Sans', verdana, arial, sans-serif; font-size: 12px; fill: rgb(68, 68, 68); fill-opacity: 1; white-space: pre; opacity: 1;">9</text>
        </g>
        <g class="x4tick">
          <text text-anchor="start" x="0" y="771.53" transform="translate(785,0) rotate(90,0,765.53)" style="font-family: 'Open Sans', verdana, arial, sans-serif; font-size: 12px; fill: rgb(68, 68, 68); fill-opacity: 1; white-space: pre; opacity: 1;">10 (ganz rechts)</text>
        </g>
      </g>
      <g class="yaxislayer-above"/>
      <g class="overaxes-above"/>
    </g>
  </g>
  <g class="polarlayer"/>
  <g class="smithlayer"/>
  <g class="ternarylayer"/>
  <g class="geolayer"/>
  <g class="funnelarealayer"/>
  <g class="pielayer"/>
  <g class="iciclelayer"/>
  <g class="treemaplayer"/>
  <g class="sunburstlayer"/>
  <g class="glimages"/>
  <defs id="topdefs-139c3f">
    <g class="clips"/>
    <clipPath id="legend139c3f">
      <rect width="574" height="86" x="0" y="0"/>
    </clipPath>
  </defs>
  <g class="layer-above">
    <g class="imagelayer"/>
    <g class="shapelayer"/>
  </g>
  <g class="infolayer">
    <g class="legend" pointer-events="all" transform="translate(60,1104.1000000000001)">
      <rect class="bg" shape-rendering="crispEdges" style="stroke: rgb(68, 68, 68); stroke-opacity: 1; fill: rgb(255, 255, 255); fill-opacity: 1; stroke-width: 0px;" width="574" height="86" x="0" y="0"/>
      <g class="scrollbox" transform="" clip-path="url(#legend139c3f)">
        <g class="groups">
          <g class="traces" transform="translate(0,14.5)" style="opacity: 1;">
            <text class="legendtext" text-anchor="start" x="40" y="4.680000000000001" style="font-family: 'Open Sans', verdana, arial, sans-serif; font-size: 12px; fill: rgb(68, 68, 68); fill-opacity: 1; white-space: pre;">SP</text>
            <g class="layers">
              <g class="legendfill">
                <path class="js-fill" d="M5,-2h30v6h-30z" style="stroke-width: 0; fill: rgb(238, 42, 59); fill-opacity: 1;"/>
              </g>
              <g class="legendlines">
                <path class="js-line" d="M5,-2h30" style="fill: none; stroke: rgb(238, 42, 59); stroke-opacity: 1; stroke-width: 0px;"/>
              </g>
              <g class="legendsymbols">
                <g class="legendpoints"/>
              </g>
            </g>
            <rect class="legendtoggle" x="0" y="-9.5" width="58.515625" height="19" style="fill: rgb(0, 0, 0); fill-opacity: 0;"/>
          </g>
          <g class="traces" transform="translate(163.703125,14.5)" style="opacity: 1;">
            <text class="legendtext" text-anchor="start" x="40" y="4.680000000000001" style="font-family: 'Open Sans', verdana, arial, sans-serif; font-size: 12px; fill: rgb(68, 68, 68); fill-opacity: 1; white-space: pre;">Grüne</text>
            <g class="layers">
              <g class="legendfill">
                <path class="js-fill" d="M5,-2h30v6h-30z" style="stroke-width: 0; fill: rgb(132, 180, 20); fill-opacity: 1;"/>
              </g>
              <g class="legendlines">
                <path class="js-line" d="M5,-2h30" style="fill: none; stroke: rgb(132, 180, 20); stroke-opacity: 1; stroke-width: 0px;"/>
              </g>
              <g class="legendsymbols">
                <g class="legendpoints"/>
              </g>
            </g>
            <rect class="legendtoggle" x="0" y="-9.5" width="76.1875" height="19" style="fill: rgb(0, 0, 0); fill-opacity: 0;"/>
          </g>
          <g class="traces" transform="translate(327.40625,14.5)" style="opacity: 1;">
            <text class="legendtext" text-anchor="start" x="40" y="4.680000000000001" style="font-family: 'Open Sans', verdana, arial, sans-serif; font-size: 12px; fill: rgb(68, 68, 68); fill-opacity: 1; white-space: pre;">EVP</text>
            <g class="layers">
              <g class="legendfill">
                <path class="js-fill" d="M5,-2h30v6h-30z" style="stroke-width: 0; fill: rgb(204, 153, 255); fill-opacity: 1;"/>
              </g>
              <g class="legendlines">
                <path class="js-line" d="M5,-2h30" style="fill: none; stroke: rgb(204, 153, 255); stroke-opacity: 1; stroke-width: 0px;"/>
              </g>
              <g class="legendsymbols">
                <g class="legendpoints"/>
              </g>
            </g>
            <rect class="legendtoggle" x="0" y="-9.5" width="66.515625" height="19" style="fill: rgb(0, 0, 0); fill-opacity: 0;"/>
          </g>
          <g class="traces" transform="translate(491.109375,14.5)" style="opacity: 1;">
            <text class="legendtext" text-anchor="start" x="40" y="4.680000000000001" style="font-family: 'Open Sans', verdana, arial, sans-serif; font-size: 12px; fill: rgb(68, 68, 68); fill-opacity: 1; white-space: pre;">GLP</text>
            <g class="layers">
              <g class="legendfill">
                <path class="js-fill" d="M5,-2h30v6h-30z" style="stroke-width: 0; fill: rgb(195, 217, 63); fill-opacity: 1;"/>
              </g>
              <g class="legendlines">
                <path class="js-line" d="M5,-2h30" style="fill: none; stroke: rgb(195, 217, 63); stroke-opacity: 1; stroke-width: 0px;"/>
              </g>
              <g class="legendsymbols">
                <g class="legendpoints"/>
              </g>
            </g>
            <rect class="legendtoggle" x="0" y="-9.5" width="66.515625" height="19" style="fill: rgb(0, 0, 0); fill-opacity: 0;"/>
          </g>
          <g class="traces" transform="translate(0,33.5)" style="opacity: 1;">
            <text class="legendtext" text-anchor="start" x="40" y="4.680000000000001" style="font-family: 'Open Sans', verdana, arial, sans-serif; font-size: 12px; fill: rgb(68, 68, 68); fill-opacity: 1; white-space: pre;">mehrere (links)</text>
            <g class="layers">
              <g class="legendfill">
                <path class="js-fill" d="M5,-2h30v6h-30z" style="stroke-width: 0; fill: rgb(148, 184, 184); fill-opacity: 1;"/>
              </g>
              <g class="legendlines">
                <path class="js-line" d="M5,-2h30" style="fill: none; stroke: rgb(148, 184, 184); stroke-opacity: 1; stroke-width: 0px;"/>
              </g>
              <g class="legendsymbols">
                <g class="legendpoints"/>
              </g>
            </g>
            <rect class="legendtoggle" x="0" y="-9.5" width="122.53125" height="19" style="fill: rgb(0, 0, 0); fill-opacity: 0;"/>
          </g>
          <g class="traces" transform="translate(163.703125,33.5)" style="opacity: 1;">
            <text class="legendtext" text-anchor="start" x="40" y="4.680000000000001" style="font-family: 'Open Sans', verdana, arial, sans-serif; font-size: 12px; fill: rgb(68, 68, 68); fill-opacity: 1; white-space: pre;">mehrere (mitte-rechts)</text>
            <g class="layers">
              <g class="legendfill">
                <path class="js-fill" d="M5,-2h30v6h-30z" style="stroke-width: 0; fill: rgb(148, 184, 184); fill-opacity: 1;"/>
              </g>
              <g class="legendlines">
                <path class="js-line" d="M5,-2h30" style="fill: none; stroke: rgb(148, 184, 184); stroke-opacity: 1; stroke-width: 0px;"/>
              </g>
              <g class="legendsymbols">
                <g class="legendpoints"/>
              </g>
            </g>
            <rect class="legendtoggle" x="0" y="-9.5" width="161.203125" height="19" style="fill: rgb(0, 0, 0); fill-opacity: 0;"/>
          </g>
          <g class="traces" transform="translate(327.40625,33.5)" style="opacity: 1;">
            <text class="legendtext" text-anchor="start" x="40" y="4.680000000000001" style="font-family: 'Open Sans', verdana, arial, sans-serif; font-size: 12px; fill: rgb(68, 68, 68); fill-opacity: 1; white-space: pre;">mehrere (beliebig)</text>
            <g class="layers">
              <g class="legendfill">
                <path class="js-fill" d="M5,-2h30v6h-30z" style="stroke-width: 0; fill: rgb(148, 184, 184); fill-opacity: 1;"/>
              </g>
              <g class="legendlines">
                <path class="js-line" d="M5,-2h30" style="fill: none; stroke: rgb(148, 184, 184); stroke-opacity: 1; stroke-width: 0px;"/>
              </g>
              <g class="legendsymbols">
                <g class="legendpoints"/>
              </g>
            </g>
            <rect class="legendtoggle" x="0" y="-9.5" width="139.890625" height="19" style="fill: rgb(0, 0, 0); fill-opacity: 0;"/>
          </g>
          <g class="traces" transform="translate(491.109375,33.5)" style="opacity: 1;">
            <text class="legendtext" text-anchor="start" x="40" y="4.680000000000001" style="font-family: 'Open Sans', verdana, arial, sans-serif; font-size: 12px; fill: rgb(68, 68, 68); fill-opacity: 1; white-space: pre;">andere</text>
            <g class="layers">
              <g class="legendfill">
                <path class="js-fill" d="M5,-2h30v6h-30z" style="stroke-width: 0; fill: rgb(148, 184, 184); fill-opacity: 1;"/>
              </g>
              <g class="legendlines">
                <path class="js-line" d="M5,-2h30" style="fill: none; stroke: rgb(148, 184, 184); stroke-opacity: 1; stroke-width: 0px;"/>
              </g>
              <g class="legendsymbols">
                <g class="legendpoints"/>
              </g>
            </g>
            <rect class="legendtoggle" x="0" y="-9.5" width="80.203125" height="19" style="fill: rgb(0, 0, 0); fill-opacity: 0;"/>
          </g>
          <g class="traces" transform="translate(0,52.5)" style="opacity: 1;">
            <text class="legendtext" text-anchor="start" x="40" y="4.680000000000001" style="font-family: 'Open Sans', verdana, arial, sans-serif; font-size: 12px; fill: rgb(68, 68, 68); fill-opacity: 1; white-space: pre;">BDP</text>
            <g class="layers">
              <g class="legendfill">
                <path class="js-fill" d="M5,-2h30v6h-30z" style="stroke-width: 0; fill: rgb(255, 221, 0); fill-opacity: 1;"/>
              </g>
              <g class="legendlines">
                <path class="js-line" d="M5,-2h30" style="fill: none; stroke: rgb(255, 221, 0); stroke-opacity: 1; stroke-width: 0px;"/>
              </g>
              <g class="legendsymbols">
                <g class="legendpoints"/>
              </g>
            </g>
            <rect class="legendtoggle" x="0" y="-9.5" width="67.1875" height="19" style="fill: rgb(0, 0, 0); fill-opacity: 0;"/>
          </g>
          <g class="traces" transform="translate(163.703125,52.5)" style="opacity: 1;">
            <text class="legendtext" text-anchor="start" x="40" y="4.680000000000001" style="font-family: 'Open Sans', verdana, arial, sans-serif; font-size: 12px; fill: rgb(68, 68, 68); fill-opacity: 1; white-space: pre;">CVP</text>
            <g class="layers">
              <g class="legendfill">
                <path class="js-fill" d="M5,-2h30v6h-30z" style="stroke-width: 0; fill: rgb(255, 133, 12); fill-opacity: 1;"/>
              </g>
              <g class="legendlines">
                <path class="js-line" d="M5,-2h30" style="fill: none; stroke: rgb(255, 133, 12); stroke-opacity: 1; stroke-width: 0px;"/>
              </g>
              <g class="legendsymbols">
                <g class="legendpoints"/>
              </g>
            </g>
            <rect class="legendtoggle" x="0" y="-9.5" width="67.1875" height="19" style="fill: rgb(0, 0, 0); fill-opacity: 0;"/>
          </g>
          <g class="traces" transform="translate(327.40625,52.5)" style="opacity: 1;">
            <text class="legendtext" text-anchor="start" x="40" y="4.680000000000001" style="font-family: 'Open Sans', verdana, arial, sans-serif; font-size: 12px; fill: rgb(68, 68, 68); fill-opacity: 1; white-space: pre;">FDP</text>
            <g class="layers">
              <g class="legendfill">
                <path class="js-fill" d="M5,-2h30v6h-30z" style="stroke-width: 0; fill: rgb(16, 79, 160); fill-opacity: 1;"/>
              </g>
              <g class="legendlines">
                <path class="js-line" d="M5,-2h30" style="fill: none; stroke: rgb(16, 79, 160); stroke-opacity: 1; stroke-width: 0px;"/>
              </g>
              <g class="legendsymbols">
                <g class="legendpoints"/>
              </g>
            </g>
            <rect class="legendtoggle" x="0" y="-9.5" width="66.5" height="19" style="fill: rgb(0, 0, 0); fill-opacity: 0;"/>
          </g>
          <g class="traces" transform="translate(491.109375,52.5)" style="opacity: 1;">
            <text class="legendtext" text-anchor="start" x="40" y="4.680000000000001" style="font-family: 'Open Sans', verdana, arial, sans-serif; font-size: 12px; fill: rgb(68, 68, 68); fill-opacity: 1; white-space: pre;">SVP</text>
            <g class="layers">
              <g class="legendfill">
                <path class="js-fill" d="M5,-2h30v6h-30z" style="stroke-width: 0; fill: rgb(63, 123, 23); fill-opacity: 1;"/>
              </g>
              <g class="legendlines">
                <path class="js-line" d="M5,-2h30" style="fill: none; stroke: rgb(63, 123, 23); stroke-opacity: 1; stroke-width: 0px;"/>
              </g>
              <g class="legendsymbols">
                <g class="legendpoints"/>
              </g>
            </g>
            <rect class="legendtoggle" x="0" y="-9.5" width="66.515625" height="19" style="fill: rgb(0, 0, 0); fill-opacity: 0;"/>
          </g>
          <g class="traces" transform="translate(0,71.5)" style="opacity: 1;">
            <text class="legendtext" text-anchor="start" x="40" y="4.680000000000001" style="font-family: 'Open Sans', verdana, arial, sans-serif; font-size: 12px; fill: rgb(68, 68, 68); fill-opacity: 1; white-space: pre;">keine</text>
            <g class="layers">
              <g class="legendfill">
                <path class="js-fill" d="M5,-2h30v6h-30z" style="stroke-width: 0; fill: rgb(166, 166, 166); fill-opacity: 1;"/>
              </g>
              <g class="legendlines">
                <path class="js-line" d="M5,-2h30" style="fill: none; stroke: rgb(166, 166, 166); stroke-opacity: 1; stroke-width: 0px;"/>
              </g>
              <g class="legendsymbols">
                <g class="legendpoints"/>
              </g>
            </g>
            <rect class="legendtoggle" x="0" y="-9.5" width="71.515625" height="19" style="fill: rgb(0, 0, 0); fill-opacity: 0;"/>
          </g>
        </g>
      </g>
      <rect class="scrollbar" rx="20" ry="3" width="0" height="0" style="fill: rgb(128, 139, 164); fill-opacity: 1;" x="0" y="0"/>
    </g>
    <g class="g-gtitle"/>
    <g class="g-xtitle"/>
    <g class="g-x2title"/>
    <g class="g-x3title"/>
    <g class="g-x4title"/>
    <g class="g-ytitle"/>
    <g class="g-y2title">
      <text class="y2title" transform="rotate(-90,22,392.875)" x="22" y="392.875" text-anchor="middle" style="font-family: 'Open Sans', verdana, arial, sans-serif; font-size: 14px; fill: rgb(68, 68, 68); opacity: 1; font-weight: normal; white-space: pre;">Anzahl Respondent:innen</text>
    </g>
    <g class="g-y3title"/>
    <g class="g-y4title"/>
  </g>
</svg>
