<svg xmlns="http://www.w3.org/2000/svg" xmlns:xlink="http://www.w3.org/1999/xlink" class="main-svg" width="100%" height="100%" style="" viewBox="1 1 799 559">
  <rect x="0" y="0" width="800" height="560" style="fill: rgb(255, 255, 255); fill-opacity: 1;"/>
  <defs id="defs-a840d7">
    <g class="clips">
      <clipPath id="clipa840d7xyplot" class="plotclip">
        <rect width="741" height="483"/>
      </clipPath>
      <clipPath class="axesclip" id="clipa840d7x">
        <rect x="59" y="0" width="741" height="560"/>
      </clipPath>
      <clipPath class="axesclip" id="clipa840d7y">
        <rect x="0" y="0" width="800" height="483"/>
      </clipPath>
      <clipPath class="axesclip" id="clipa840d7xy">
        <rect x="59" y="0" width="741" height="483"/>
      </clipPath>
    </g>
    <g class="gradients"/>
    <g class="patterns"/>
  </defs>
  <g class="bglayer"/>
  <g class="layer-below">
    <g class="imagelayer"/>
    <g class="shapelayer"/>
  </g>
  <g class="cartesianlayer">
    <g class="subplot xy">
      <g class="layer-subplot">
        <g class="shapelayer"/>
        <g class="imagelayer"/>
      </g>
      <g class="gridlayer">
        <g class="x">
          <path class="xgrid crisp" transform="translate(199.79,0)" d="M0,0v483" style="stroke: rgb(238, 238, 238); stroke-opacity: 1; stroke-width: 1px;"/>
          <path class="xgrid crisp" transform="translate(340.58,0)" d="M0,0v483" style="stroke: rgb(238, 238, 238); stroke-opacity: 1; stroke-width: 1px;"/>
          <path class="xgrid crisp" transform="translate(481.37,0)" d="M0,0v483" style="stroke: rgb(238, 238, 238); stroke-opacity: 1; stroke-width: 1px;"/>
          <path class="xgrid crisp" transform="translate(622.16,0)" d="M0,0v483" style="stroke: rgb(238, 238, 238); stroke-opacity: 1; stroke-width: 1px;"/>
          <path class="xgrid crisp" transform="translate(762.95,0)" d="M0,0v483" style="stroke: rgb(238, 238, 238); stroke-opacity: 1; stroke-width: 1px;"/>
        </g>
        <g class="y"/>
      </g>
      <g class="zerolinelayer">
        <path class="xzl zl crisp" transform="translate(59,0)" d="M0,0v483" style="stroke: rgb(68, 68, 68); stroke-opacity: 1; stroke-width: 1px;"/>
      </g>
      <path class="xlines-below"/>
      <path class="ylines-below"/>
      <g class="overlines-below"/>
      <g class="xaxislayer-below"/>
      <g class="yaxislayer-below"/>
      <g class="overaxes-below"/>
      <g class="plot" transform="translate(59,0)" clip-path="url(#clipa840d7xyplot)">
        <g class="barlayer mlayer">
          <g class="trace bars" shape-rendering="crispEdges" style="opacity: 1;">
            <g class="points">
              <g class="point">
                <path d="M0,477.63V434.7H283.84V477.63Z" style="vector-effect: non-scaling-stroke; opacity: 1; stroke-width: 0px; fill: rgb(63, 123, 23); fill-opacity: 1;"/>
                <text class="bartext bartext-inside" text-anchor="middle" data-notex="1" x="0" y="0" style="font-family: 'Alegreya Sans', sans-serif; font-size: 12px; fill: rgb(255, 255, 255); fill-opacity: 1; white-space: pre;" transform="translate(269.105625,452.36031249999996)">
                  <tspan class="line" dy="0em" x="0" y="0">
                    <tspan style="font-weight:bold">40 %</tspan>
                  </tspan>
                  <tspan class="line" dy="1.3em" x="0" y="0">(94)</tspan>
                </text>
              </g>
            </g>
          </g>
          <g class="trace bars" shape-rendering="crispEdges" style="opacity: 1;">
            <g class="points">
              <g class="point">
                <path d="M283.84,477.63V434.7H703.95V477.63Z" style="vector-effect: non-scaling-stroke; opacity: 1; stroke-width: 0px; fill: rgb(63, 123, 23); fill-opacity: 0.301961;"/>
                <text class="bartext bartext-inside" text-anchor="middle" data-notex="1" x="0" y="0" style="font-family: 'Alegreya Sans', sans-serif; font-size: 12px; fill: rgb(255, 255, 255); fill-opacity: 1; white-space: pre;" transform="translate(689.340625,452.36031249999996)">
                  <tspan class="line" dy="0em" x="0" y="0">
                    <tspan style="font-weight:bold">60 %</tspan>
                  </tspan>
                  <tspan class="line" dy="1.3em" x="0" y="0">(139)</tspan>
                </text>
              </g>
            </g>
          </g>
          <g class="trace bars" shape-rendering="crispEdges" style="opacity: 1;">
            <g class="points">
              <g class="point">
                <path d="M0,423.97V381.03H496.3V423.97Z" style="vector-effect: non-scaling-stroke; opacity: 1; stroke-width: 0px; fill: rgb(238, 42, 59); fill-opacity: 1;"/>
                <text class="bartext bartext-inside" text-anchor="middle" data-notex="1" x="0" y="0" style="font-family: 'Alegreya Sans', sans-serif; font-size: 12px; fill: rgb(255, 255, 255); fill-opacity: 1; white-space: pre;" transform="translate(482.95625,398.6953125)">
                  <tspan class="line" dy="0em" x="0" y="0">
                    <tspan style="font-weight:bold">71 %</tspan>
                  </tspan>
                  <tspan class="line" dy="1.3em" x="0" y="0">(83)</tspan>
                </text>
              </g>
            </g>
          </g>
          <g class="trace bars" shape-rendering="crispEdges" style="opacity: 1;">
            <g class="points">
              <g class="point">
                <path d="M496.3,423.97V381.03H703.95V423.97Z" style="vector-effect: non-scaling-stroke; opacity: 1; stroke-width: 0px; fill: rgb(238, 42, 59); fill-opacity: 0.301961;"/>
                <text class="bartext bartext-inside" text-anchor="middle" data-notex="1" x="0" y="0" style="font-family: 'Alegreya Sans', sans-serif; font-size: 12px; fill: rgb(255, 255, 255); fill-opacity: 1; white-space: pre;" transform="translate(689.6375,398.6953125)">
                  <tspan class="line" dy="0em" x="0" y="0">
                    <tspan style="font-weight:bold">29 %</tspan>
                  </tspan>
                  <tspan class="line" dy="1.3em" x="0" y="0">(35)</tspan>
                </text>
              </g>
            </g>
          </g>
          <g class="trace bars" shape-rendering="crispEdges" style="opacity: 1;">
            <g class="points">
              <g class="point">
                <path d="M0,370.3V327.37H215.47V370.3Z" style="vector-effect: non-scaling-stroke; opacity: 1; stroke-width: 0px; fill: rgb(166, 166, 166); fill-opacity: 1;"/>
                <text class="bartext bartext-inside" text-anchor="middle" data-notex="1" x="0" y="0" style="font-family: 'Alegreya Sans', sans-serif; font-size: 12px; fill: rgb(255, 255, 255); fill-opacity: 1; white-space: pre;" transform="translate(201.595,345.03031250000004)">
                  <tspan class="line" dy="0em" x="0" y="0">
                    <tspan style="font-weight:bold">31 %</tspan>
                  </tspan>
                  <tspan class="line" dy="1.3em" x="0" y="0">(127)</tspan>
                </text>
              </g>
            </g>
          </g>
          <g class="trace bars" shape-rendering="crispEdges" style="opacity: 1;">
            <g class="points">
              <g class="point">
                <path d="M215.47,370.3V327.37H703.95V370.3Z" style="vector-effect: non-scaling-stroke; opacity: 1; stroke-width: 0px; fill: rgb(166, 166, 166); fill-opacity: 0.301961;"/>
                <text class="bartext bartext-inside" text-anchor="middle" data-notex="1" x="0" y="0" style="font-family: 'Alegreya Sans', sans-serif; font-size: 12px; fill: rgb(255, 255, 255); fill-opacity: 1; white-space: pre;" transform="translate(688.98125,345.03031250000004)">
                  <tspan class="line" dy="0em" x="0" y="0">
                    <tspan style="font-weight:bold">69 %</tspan>
                  </tspan>
                  <tspan class="line" dy="1.3em" x="0" y="0">(289)</tspan>
                </text>
              </g>
            </g>
          </g>
          <g class="trace bars" shape-rendering="crispEdges" style="opacity: 1;">
            <g class="points">
              <g class="point">
                <path d="M0,316.63V273.7H510.25V316.63Z" style="vector-effect: non-scaling-stroke; opacity: 1; stroke-width: 0px; fill: rgb(132, 180, 20); fill-opacity: 1;"/>
                <text class="bartext bartext-inside" text-anchor="middle" data-notex="1" x="0" y="0" style="font-family: 'Alegreya Sans', sans-serif; font-size: 12px; fill: rgb(255, 255, 255); fill-opacity: 1; white-space: pre;" transform="translate(496.25,291.36031249999996)">
                  <tspan class="line" dy="0em" x="0" y="0">
                    <tspan style="font-weight:bold">72 %</tspan>
                  </tspan>
                  <tspan class="line" dy="1.3em" x="0" y="0">(38)</tspan>
                </text>
              </g>
            </g>
          </g>
          <g class="trace bars" shape-rendering="crispEdges" style="opacity: 1;">
            <g class="points">
              <g class="point">
                <path d="M510.25,316.63V273.7H703.95V316.63Z" style="vector-effect: non-scaling-stroke; opacity: 1; stroke-width: 0px; fill: rgb(132, 180, 20); fill-opacity: 0.301961;"/>
                <text class="bartext bartext-inside" text-anchor="middle" data-notex="1" x="0" y="0" style="font-family: 'Alegreya Sans', sans-serif; font-size: 12px; fill: rgb(255, 255, 255); fill-opacity: 1; white-space: pre;" transform="translate(689.575,291.36031249999996)">
                  <tspan class="line" dy="0em" x="0" y="0">
                    <tspan style="font-weight:bold">28 %</tspan>
                  </tspan>
                  <tspan class="line" dy="1.3em" x="0" y="0">(14)</tspan>
                </text>
              </g>
            </g>
          </g>
          <g class="trace bars" shape-rendering="crispEdges" style="opacity: 1;">
            <g class="points">
              <g class="point">
                <path d="M0,262.97V220.03H483.12V262.97Z" style="vector-effect: non-scaling-stroke; opacity: 1; stroke-width: 0px; fill: rgb(195, 217, 63); fill-opacity: 1;"/>
                <text class="bartext bartext-inside" text-anchor="middle" data-notex="1" x="0" y="0" style="font-family: 'Alegreya Sans', sans-serif; font-size: 12px; fill: rgb(255, 255, 255); fill-opacity: 1; white-space: pre;" transform="translate(468.745,237.6953125)">
                  <tspan class="line" dy="0em" x="0" y="0">
                    <tspan style="font-weight:bold">69 %</tspan>
                  </tspan>
                  <tspan class="line" dy="1.3em" x="0" y="0">(31)</tspan>
                </text>
              </g>
            </g>
          </g>
          <g class="trace bars" shape-rendering="crispEdges" style="opacity: 1;">
            <g class="points">
              <g class="point">
                <path d="M483.12,262.97V220.03H703.95V262.97Z" style="vector-effect: non-scaling-stroke; opacity: 1; stroke-width: 0px; fill: rgb(195, 217, 63); fill-opacity: 0.301961;"/>
                <text class="bartext bartext-inside" text-anchor="middle" data-notex="1" x="0" y="0" style="font-family: 'Alegreya Sans', sans-serif; font-size: 12px; fill: rgb(255, 255, 255); fill-opacity: 1; white-space: pre;" transform="translate(690.621875,237.6953125)">
                  <tspan class="line" dy="0em" x="0" y="0">
                    <tspan style="font-weight:bold">31 %</tspan>
                  </tspan>
                  <tspan class="line" dy="1.3em" x="0" y="0">(14)</tspan>
                </text>
              </g>
            </g>
          </g>
          <g class="trace bars" shape-rendering="crispEdges" style="opacity: 1;">
            <g class="points">
              <g class="point">
                <path d="M0,209.3V166.37H491.88V209.3Z" style="vector-effect: non-scaling-stroke; opacity: 1; stroke-width: 0px; fill: rgb(16, 79, 160); fill-opacity: 1;"/>
                <text class="bartext bartext-inside" text-anchor="middle" data-notex="1" x="0" y="0" style="font-family: 'Alegreya Sans', sans-serif; font-size: 12px; fill: rgb(255, 255, 255); fill-opacity: 1; white-space: pre;" transform="translate(477.583125,184.0303125)">
                  <tspan class="line" dy="0em" x="0" y="0">
                    <tspan style="font-weight:bold">70 %</tspan>
                  </tspan>
                  <tspan class="line" dy="1.3em" x="0" y="0">(90)</tspan>
                </text>
              </g>
            </g>
          </g>
          <g class="trace bars" shape-rendering="crispEdges" style="opacity: 1;">
            <g class="points">
              <g class="point">
                <path d="M491.88,209.3V166.37H703.95V209.3Z" style="vector-effect: non-scaling-stroke; opacity: 1; stroke-width: 0px; fill: rgb(16, 79, 160); fill-opacity: 0.301961;"/>
                <text class="bartext bartext-inside" text-anchor="middle" data-notex="1" x="0" y="0" style="font-family: 'Alegreya Sans', sans-serif; font-size: 12px; fill: rgb(255, 255, 255); fill-opacity: 1; white-space: pre;" transform="translate(689.653125,184.0303125)">
                  <tspan class="line" dy="0em" x="0" y="0">
                    <tspan style="font-weight:bold">30 %</tspan>
                  </tspan>
                  <tspan class="line" dy="1.3em" x="0" y="0">(39)</tspan>
                </text>
              </g>
            </g>
          </g>
          <g class="trace bars" shape-rendering="crispEdges" style="opacity: 1;">
            <g class="points">
              <g class="point">
                <path d="M0,155.63V112.7H352V155.63Z" style="vector-effect: non-scaling-stroke; opacity: 1; stroke-width: 0px; fill: rgb(204, 153, 255); fill-opacity: 1;"/>
                <text class="bartext bartext-inside" text-anchor="middle" data-notex="1" x="0" y="0" style="font-family: 'Alegreya Sans', sans-serif; font-size: 12px; fill: rgb(255, 255, 255); fill-opacity: 1; white-space: pre;" transform="translate(337.703125,130.3603125)">
                  <tspan class="line" dy="0em" x="0" y="0">
                    <tspan style="font-weight:bold">50 %</tspan>
                  </tspan>
                  <tspan class="line" dy="1.3em" x="0" y="0">(10)</tspan>
                </text>
              </g>
            </g>
          </g>
          <g class="trace bars" shape-rendering="crispEdges" style="opacity: 1;">
            <g class="points">
              <g class="point">
                <path d="M352,155.63V112.7H703.95V155.63Z" style="vector-effect: non-scaling-stroke; opacity: 1; stroke-width: 0px; fill: rgb(204, 153, 255); fill-opacity: 0.301961;"/>
                <text class="bartext bartext-inside" text-anchor="middle" data-notex="1" x="0" y="0" style="font-family: 'Alegreya Sans', sans-serif; font-size: 12px; fill: rgb(255, 255, 255); fill-opacity: 1; white-space: pre;" transform="translate(689.653125,130.3603125)">
                  <tspan class="line" dy="0em" x="0" y="0">
                    <tspan style="font-weight:bold">50 %</tspan>
                  </tspan>
                  <tspan class="line" dy="1.3em" x="0" y="0">(10)</tspan>
                </text>
              </g>
            </g>
          </g>
          <g class="trace bars" shape-rendering="crispEdges" style="opacity: 1;">
            <g class="points">
              <g class="point">
                <path d="M0,101.97V59.03H424.01V101.97Z" style="vector-effect: non-scaling-stroke; opacity: 1; stroke-width: 0px; fill: rgb(255, 133, 12); fill-opacity: 1;"/>
                <text class="bartext bartext-inside" text-anchor="middle" data-notex="1" x="0" y="0" style="font-family: 'Alegreya Sans', sans-serif; font-size: 12px; fill: rgb(255, 255, 255); fill-opacity: 1; white-space: pre;" transform="translate(409.400625,76.6953125)">
                  <tspan class="line" dy="0em" x="0" y="0">
                    <tspan style="font-weight:bold">60 %</tspan>
                  </tspan>
                  <tspan class="line" dy="1.3em" x="0" y="0">(40)</tspan>
                </text>
              </g>
            </g>
          </g>
          <g class="trace bars" shape-rendering="crispEdges" style="opacity: 1;">
            <g class="points">
              <g class="point">
                <path d="M424.01,101.97V59.03H703.95V101.97Z" style="vector-effect: non-scaling-stroke; opacity: 1; stroke-width: 0px; fill: rgb(255, 133, 12); fill-opacity: 0.301961;"/>
                <text class="bartext bartext-inside" text-anchor="middle" data-notex="1" x="0" y="0" style="font-family: 'Alegreya Sans', sans-serif; font-size: 12px; fill: rgb(255, 255, 255); fill-opacity: 1; white-space: pre;" transform="translate(689.215625,76.6953125)">
                  <tspan class="line" dy="0em" x="0" y="0">
                    <tspan style="font-weight:bold">40 %</tspan>
                  </tspan>
                  <tspan class="line" dy="1.3em" x="0" y="0">(27)</tspan>
                </text>
              </g>
            </g>
          </g>
          <g class="trace bars" shape-rendering="crispEdges" style="opacity: 1;">
            <g class="points">
              <g class="point">
                <path d="M0,48.3V5.37H375.92V48.3Z" style="vector-effect: non-scaling-stroke; opacity: 1; stroke-width: 0px; fill: rgb(255, 221, 0); fill-opacity: 1;"/>
                <text class="bartext bartext-inside" text-anchor="middle" data-notex="1" x="0" y="0" style="font-family: 'Alegreya Sans', sans-serif; font-size: 12px; fill: rgb(255, 255, 255); fill-opacity: 1; white-space: pre;" transform="translate(362.154375,23.030312499999997)">
                  <tspan class="line" dy="0em" x="0" y="0">
                    <tspan style="font-weight:bold">53 %</tspan>
                  </tspan>
                  <tspan class="line" dy="1.3em" x="0" y="0">(7)</tspan>
                </text>
              </g>
            </g>
          </g>
          <g class="trace bars" shape-rendering="crispEdges" style="opacity: 1;">
            <g class="points">
              <g class="point">
                <path d="M375.92,48.3V5.37H703.95V48.3Z" style="vector-effect: non-scaling-stroke; opacity: 1; stroke-width: 0px; fill: rgb(255, 221, 0); fill-opacity: 0.301961;"/>
                <text class="bartext bartext-inside" text-anchor="middle" data-notex="1" x="0" y="0" style="font-family: 'Alegreya Sans', sans-serif; font-size: 12px; fill: rgb(255, 255, 255); fill-opacity: 1; white-space: pre;" transform="translate(689.7625,23.030312499999997)">
                  <tspan class="line" dy="0em" x="0" y="0">
                    <tspan style="font-weight:bold">47 %</tspan>
                  </tspan>
                  <tspan class="line" dy="1.3em" x="0" y="0">(6)</tspan>
                </text>
              </g>
            </g>
          </g>
        </g>
      </g>
      <g class="overplot"/>
      <path class="xlines-above crisp" d="M0,0" style="fill: none;"/>
      <path class="ylines-above crisp" d="" style="fill: none; stroke-width: 1px; stroke: rgb(0, 0, 0); stroke-opacity: 0;"/>
      <g class="overlines-above"/>
      <g class="xaxislayer-above">
        <g class="xtick">
          <text text-anchor="middle" x="0" y="496" transform="translate(59,0)" style="font-family: 'Alegreya Sans', sans-serif; font-size: 12px; fill: rgb(0, 0, 0); fill-opacity: 1; white-space: pre; opacity: 1;">0 %</text>
        </g>
        <g class="xtick">
          <text text-anchor="middle" x="0" y="496" style="font-family: 'Alegreya Sans', sans-serif; font-size: 12px; fill: rgb(0, 0, 0); fill-opacity: 1; white-space: pre; opacity: 1;" transform="translate(199.79,0)">20 %</text>
        </g>
        <g class="xtick">
          <text text-anchor="middle" x="0" y="496" style="font-family: 'Alegreya Sans', sans-serif; font-size: 12px; fill: rgb(0, 0, 0); fill-opacity: 1; white-space: pre; opacity: 1;" transform="translate(340.58,0)">40 %</text>
        </g>
        <g class="xtick">
          <text text-anchor="middle" x="0" y="496" style="font-family: 'Alegreya Sans', sans-serif; font-size: 12px; fill: rgb(0, 0, 0); fill-opacity: 1; white-space: pre; opacity: 1;" transform="translate(481.37,0)">60 %</text>
        </g>
        <g class="xtick">
          <text text-anchor="middle" x="0" y="496" style="font-family: 'Alegreya Sans', sans-serif; font-size: 12px; fill: rgb(0, 0, 0); fill-opacity: 1; white-space: pre; opacity: 1;" transform="translate(622.16,0)">80 %</text>
        </g>
        <g class="xtick">
          <text text-anchor="middle" x="0" y="496" style="font-family: 'Alegreya Sans', sans-serif; font-size: 12px; fill: rgb(0, 0, 0); fill-opacity: 1; white-space: pre; opacity: 1;" transform="translate(762.95,0)">100 %</text>
        </g>
      </g>
      <g class="yaxislayer-above">
        <path class="ytick ticks crisp" d="M58,0h-5" transform="translate(0,456.17)" style="stroke: rgb(68, 68, 68); stroke-opacity: 1; stroke-width: 1px;"/>
        <path class="ytick ticks crisp" d="M58,0h-5" transform="translate(0,402.5)" style="stroke: rgb(68, 68, 68); stroke-opacity: 1; stroke-width: 1px;"/>
        <path class="ytick ticks crisp" d="M58,0h-5" transform="translate(0,348.83)" style="stroke: rgb(68, 68, 68); stroke-opacity: 1; stroke-width: 1px;"/>
        <path class="ytick ticks crisp" d="M58,0h-5" transform="translate(0,295.17)" style="stroke: rgb(68, 68, 68); stroke-opacity: 1; stroke-width: 1px;"/>
        <path class="ytick ticks crisp" d="M58,0h-5" transform="translate(0,241.5)" style="stroke: rgb(68, 68, 68); stroke-opacity: 1; stroke-width: 1px;"/>
        <path class="ytick ticks crisp" d="M58,0h-5" transform="translate(0,187.83)" style="stroke: rgb(68, 68, 68); stroke-opacity: 1; stroke-width: 1px;"/>
        <path class="ytick ticks crisp" d="M58,0h-5" transform="translate(0,134.17)" style="stroke: rgb(68, 68, 68); stroke-opacity: 1; stroke-width: 1px;"/>
        <path class="ytick ticks crisp" d="M58,0h-5" transform="translate(0,80.5)" style="stroke: rgb(68, 68, 68); stroke-opacity: 1; stroke-width: 1px;"/>
        <path class="ytick ticks crisp" d="M58,0h-5" transform="translate(0,26.83)" style="stroke: rgb(68, 68, 68); stroke-opacity: 1; stroke-width: 1px;"/>
        <g class="ytick">
          <text text-anchor="end" x="50.6" y="4.199999999999999" transform="translate(0,456.17)" style="font-family: 'Alegreya Sans', sans-serif; font-size: 12px; fill: rgb(0, 0, 0); fill-opacity: 1; white-space: pre; opacity: 1;">SVP</text>
        </g>
        <g class="ytick">
          <text text-anchor="end" x="50.6" y="4.199999999999999" transform="translate(0,402.5)" style="font-family: 'Alegreya Sans', sans-serif; font-size: 12px; fill: rgb(0, 0, 0); fill-opacity: 1; white-space: pre; opacity: 1;">SP</text>
        </g>
        <g class="ytick">
          <text text-anchor="end" x="50.6" y="4.199999999999999" transform="translate(0,348.83)" style="font-family: 'Alegreya Sans', sans-serif; font-size: 12px; fill: rgb(0, 0, 0); fill-opacity: 1; white-space: pre; opacity: 1;">keine</text>
        </g>
        <g class="ytick">
          <text text-anchor="end" x="50.6" y="4.199999999999999" transform="translate(0,295.17)" style="font-family: 'Alegreya Sans', sans-serif; font-size: 12px; fill: rgb(0, 0, 0); fill-opacity: 1; white-space: pre; opacity: 1;">Grüne</text>
        </g>
        <g class="ytick">
          <text text-anchor="end" x="50.6" y="4.199999999999999" transform="translate(0,241.5)" style="font-family: 'Alegreya Sans', sans-serif; font-size: 12px; fill: rgb(0, 0, 0); fill-opacity: 1; white-space: pre; opacity: 1;">GLP</text>
        </g>
        <g class="ytick">
          <text text-anchor="end" x="50.6" y="4.199999999999999" transform="translate(0,187.83)" style="font-family: 'Alegreya Sans', sans-serif; font-size: 12px; fill: rgb(0, 0, 0); fill-opacity: 1; white-space: pre; opacity: 1;">FDP</text>
        </g>
        <g class="ytick">
          <text text-anchor="end" x="50.6" y="4.199999999999999" transform="translate(0,134.17)" style="font-family: 'Alegreya Sans', sans-serif; font-size: 12px; fill: rgb(0, 0, 0); fill-opacity: 1; white-space: pre; opacity: 1;">EVP</text>
        </g>
        <g class="ytick">
          <text text-anchor="end" x="50.6" y="4.199999999999999" transform="translate(0,80.5)" style="font-family: 'Alegreya Sans', sans-serif; font-size: 12px; fill: rgb(0, 0, 0); fill-opacity: 1; white-space: pre; opacity: 1;">CVP</text>
        </g>
        <g class="ytick">
          <text text-anchor="end" x="50.6" y="4.199999999999999" transform="translate(0,26.83)" style="font-family: 'Alegreya Sans', sans-serif; font-size: 12px; fill: rgb(0, 0, 0); fill-opacity: 1; white-space: pre; opacity: 1;">BDP</text>
        </g>
      </g>
      <g class="overaxes-above"/>
    </g>
  </g>
  <g class="polarlayer"/>
  <g class="smithlayer"/>
  <g class="ternarylayer"/>
  <g class="geolayer"/>
  <g class="funnelarealayer"/>
  <g class="pielayer"/>
  <g class="iciclelayer"/>
  <g class="treemaplayer"/>
  <g class="sunburstlayer"/>
  <g class="glimages"/>
  <defs id="topdefs-a840d7">
    <g class="clips"/>
    <clipPath id="legenda840d7">
      <rect width="255" height="29" x="0" y="0"/>
    </clipPath>
  </defs>
  <g class="layer-above">
    <g class="imagelayer"/>
    <g class="shapelayer"/>
  </g>
  <g class="infolayer">
    <g class="legend" pointer-events="all" transform="translate(59,531)">
      <rect class="bg" shape-rendering="crispEdges" width="255" height="29" x="0" y="0" style="stroke: rgb(68, 68, 68); stroke-opacity: 1; fill: rgb(255, 255, 255); fill-opacity: 1; stroke-width: 0px;"/>
      <g class="scrollbox" transform="" clip-path="url(#legenda840d7)">
        <g class="groups">
          <g class="traces" transform="translate(0,14.5)" style="opacity: 1;">
            <text class="legendtext" text-anchor="start" x="40" y="4.680000000000001" style="font-family: 'Alegreya Sans', sans-serif; font-size: 12px; fill: rgb(0, 0, 0); fill-opacity: 1; white-space: pre;">teilgenommen</text>
            <g class="layers" style="opacity: 1;">
              <g class="legendfill"/>
              <g class="legendlines"/>
              <g class="legendsymbols">
                <g class="legendpoints">
                  <path class="legendundefined" d="M6,6H-6V-6H6Z" transform="translate(20,0)" style="stroke-width: 0px; fill: rgb(166, 166, 166); fill-opacity: 1;"/>
                </g>
              </g>
            </g>
            <rect class="legendtoggle" x="0" y="-9.5" width="111.71875" height="19" style="fill: rgb(0, 0, 0); fill-opacity: 0;"/>
          </g>
          <g class="traces" transform="translate(114.21875,14.5)" style="opacity: 1;">
            <text class="legendtext" text-anchor="start" x="40" y="4.680000000000001" style="font-family: 'Alegreya Sans', sans-serif; font-size: 12px; fill: rgb(0, 0, 0); fill-opacity: 1; white-space: pre;">nicht teilgenommen</text>
            <g class="layers" style="opacity: 1;">
              <g class="legendfill"/>
              <g class="legendlines"/>
              <g class="legendsymbols">
                <g class="legendpoints">
                  <path class="legendundefined" d="M6,6H-6V-6H6Z" transform="translate(20,0)" style="stroke-width: 0px; fill: rgb(166, 166, 166); fill-opacity: 0.301961;"/>
                </g>
              </g>
            </g>
            <rect class="legendtoggle" x="0" y="-9.5" width="137.46875" height="19" style="fill: rgb(0, 0, 0); fill-opacity: 0;"/>
          </g>
        </g>
      </g>
      <rect class="scrollbar" rx="20" ry="3" width="0" height="0" x="0" y="0" style="fill: rgb(128, 139, 164); fill-opacity: 1;"/>
    </g>
    <g class="g-gtitle"/>
    <g class="g-xtitle"/>
    <g class="g-ytitle"/>
  </g>
</svg>
