<svg xmlns="http://www.w3.org/2000/svg" xmlns:xlink="http://www.w3.org/1999/xlink" class="main-svg" width="100%" height="100%" style="" viewBox="1 1 799 499">
  <rect x="0" y="0" width="800" height="500" style="fill: rgb(255, 255, 255); fill-opacity: 1;"/>
  <defs id="defs-c8c4c5">
    <g class="clips">
      <clipPath id="clipc8c4c5xyplot" class="plotclip">
        <rect width="680" height="327"/>
      </clipPath>
      <clipPath class="axesclip" id="clipc8c4c5x">
        <rect x="67" y="0" width="680" height="500"/>
      </clipPath>
      <clipPath class="axesclip" id="clipc8c4c5y">
        <rect x="0" y="25" width="800" height="327"/>
      </clipPath>
      <clipPath class="axesclip" id="clipc8c4c5xy">
        <rect x="67" y="25" width="680" height="327"/>
      </clipPath>
    </g>
    <g class="gradients"/>
    <g class="patterns"/>
  </defs>
  <g class="bglayer"/>
  <g class="layer-below">
    <g class="imagelayer"/>
    <g class="shapelayer"/>
  </g>
  <g class="cartesianlayer">
    <g class="subplot xy">
      <g class="layer-subplot">
        <g class="shapelayer"/>
        <g class="imagelayer"/>
      </g>
      <g class="gridlayer">
        <g class="x">
          <path class="xgrid crisp" transform="translate(135,0)" d="M0,25v327" style="stroke: rgb(238, 238, 238); stroke-opacity: 1; stroke-width: 1px;"/>
          <path class="xgrid crisp" transform="translate(203,0)" d="M0,25v327" style="stroke: rgb(238, 238, 238); stroke-opacity: 1; stroke-width: 1px;"/>
          <path class="xgrid crisp" transform="translate(271,0)" d="M0,25v327" style="stroke: rgb(238, 238, 238); stroke-opacity: 1; stroke-width: 1px;"/>
          <path class="xgrid crisp" transform="translate(339,0)" d="M0,25v327" style="stroke: rgb(238, 238, 238); stroke-opacity: 1; stroke-width: 1px;"/>
          <path class="xgrid crisp" transform="translate(407,0)" d="M0,25v327" style="stroke: rgb(238, 238, 238); stroke-opacity: 1; stroke-width: 1px;"/>
          <path class="xgrid crisp" transform="translate(475,0)" d="M0,25v327" style="stroke: rgb(238, 238, 238); stroke-opacity: 1; stroke-width: 1px;"/>
          <path class="xgrid crisp" transform="translate(543,0)" d="M0,25v327" style="stroke: rgb(238, 238, 238); stroke-opacity: 1; stroke-width: 1px;"/>
          <path class="xgrid crisp" transform="translate(611,0)" d="M0,25v327" style="stroke: rgb(238, 238, 238); stroke-opacity: 1; stroke-width: 1px;"/>
          <path class="xgrid crisp" transform="translate(679,0)" d="M0,25v327" style="stroke: rgb(238, 238, 238); stroke-opacity: 1; stroke-width: 1px;"/>
        </g>
        <g class="y">
          <path class="ygrid crisp" transform="translate(0,307.64)" d="M67,0h680" style="stroke: rgb(238, 238, 238); stroke-opacity: 1; stroke-width: 1px;"/>
          <path class="ygrid crisp" transform="translate(0,263.28)" d="M67,0h680" style="stroke: rgb(238, 238, 238); stroke-opacity: 1; stroke-width: 1px;"/>
          <path class="ygrid crisp" transform="translate(0,218.92)" d="M67,0h680" style="stroke: rgb(238, 238, 238); stroke-opacity: 1; stroke-width: 1px;"/>
          <path class="ygrid crisp" transform="translate(0,174.56)" d="M67,0h680" style="stroke: rgb(238, 238, 238); stroke-opacity: 1; stroke-width: 1px;"/>
          <path class="ygrid crisp" transform="translate(0,130.20999999999998)" d="M67,0h680" style="stroke: rgb(238, 238, 238); stroke-opacity: 1; stroke-width: 1px;"/>
          <path class="ygrid crisp" transform="translate(0,85.85)" d="M67,0h680" style="stroke: rgb(238, 238, 238); stroke-opacity: 1; stroke-width: 1px;"/>
          <path class="ygrid crisp" transform="translate(0,41.489999999999995)" d="M67,0h680" style="stroke: rgb(238, 238, 238); stroke-opacity: 1; stroke-width: 1px;"/>
        </g>
      </g>
      <g class="zerolinelayer">
        <path class="yzl zl crisp" transform="translate(0,352)" d="M67,0h680" style="stroke: rgb(68, 68, 68); stroke-opacity: 1; stroke-width: 1px;"/>
      </g>
      <path class="xlines-below"/>
      <path class="ylines-below"/>
      <g class="overlines-below"/>
      <g class="xaxislayer-below"/>
      <g class="yaxislayer-below"/>
      <g class="overaxes-below"/>
      <g class="plot" transform="translate(67,25)" clip-path="url(#clipc8c4c5xyplot)">
        <g class="scatterlayer mlayer">
          <g class="trace scatter tracef397e7" style="stroke-miterlimit: 2;">
            <g class="fills">
              <g>
                <path class="js-fill" d="M680,327L0,327L0,324.16L68,320.18L136,305.75L204,293.37L272,310.3L340,312.34L408,321.09L476,326.43L544,326.43L680,327" style="fill: rgb(238, 42, 59); fill-opacity: 1; stroke-width: 0;"/>
              </g>
              <g>
                <path class="js-fill" d="M0,322.45L68,319.05L136,294.84L204,277.8L272,307.46L340,301.78L408,320.52L476,324.05L544,326.43L612,327L680,326.43L680,327L544,326.43L476,326.43L408,321.09L340,312.34L272,310.3L204,293.37L136,305.75L68,320.18L0,324.16Z" style="fill: rgb(132, 180, 20); fill-opacity: 1; stroke-width: 0;"/>
              </g>
            </g>
            <g class="errorbars"/>
            <g class="lines">
              <path class="js-line" d="M0,324.16L68,320.18L136,305.75L204,293.37L272,310.3L340,312.34L408,321.09L476,326.43L544,326.43L680,327" style="vector-effect: non-scaling-stroke; fill: none; stroke: rgb(255, 255, 255); stroke-opacity: 1; stroke-width: 1px; opacity: 1;"/>
            </g>
            <g class="points"/>
            <g class="text"/>
          </g>
          <g class="trace scatter trace38b5ad" style="stroke-miterlimit: 2;">
            <g class="fills">
              <g>
                <path class="js-fill" d="M0,322.45L68,319.05L136,292.46L204,276.09L272,304.5L340,295.87L408,318.25L476,321.66L544,325.86L612,327L680,326.43L680,326.43L612,327L544,326.43L476,324.05L408,320.52L340,301.78L272,307.46L204,277.8L136,294.84L68,319.05L0,322.45Z" style="fill: rgb(204, 153, 255); fill-opacity: 1; stroke-width: 0;"/>
              </g>
            </g>
            <g class="errorbars"/>
            <g class="lines">
              <path class="js-line" d="M0,322.45L68,319.05L136,294.84L204,277.8L272,307.46L340,301.78L408,320.52L476,324.05L544,326.43L612,327L680,326.43" style="vector-effect: non-scaling-stroke; fill: none; stroke: rgb(255, 255, 255); stroke-opacity: 1; stroke-width: 1px; opacity: 1;"/>
            </g>
            <g class="points"/>
            <g class="text"/>
          </g>
          <g class="trace scatter trace929ce1" style="stroke-miterlimit: 2;">
            <g class="fills">
              <g>
                <path class="js-fill" d="M0,321.89L68,319.05L136,290.75L204,267.46L272,294.62L340,287.8L408,307.68L476,320.52L544,325.86L612,327L680,326.43L680,326.43L612,327L544,325.86L476,321.66L408,318.25L340,295.87L272,304.5L204,276.09L136,292.46L68,319.05L0,322.45Z" style="fill: rgb(195, 217, 63); fill-opacity: 1; stroke-width: 0;"/>
              </g>
            </g>
            <g class="errorbars"/>
            <g class="lines">
              <path class="js-line" d="M0,322.45L68,319.05L136,292.46L204,276.09L272,304.5L340,295.87L408,318.25L476,321.66L544,325.86L612,327L680,326.43" style="vector-effect: non-scaling-stroke; fill: none; stroke: rgb(255, 255, 255); stroke-opacity: 1; stroke-width: 1px; opacity: 1;"/>
            </g>
            <g class="points"/>
            <g class="text"/>
          </g>
          <g class="trace scatter trace97f440" style="stroke-miterlimit: 2;">
            <g class="fills">
              <g>
                <path class="js-fill" d="M0,321.32L68,317.34L136,288.48L204,259.85L272,290.53L340,276.55L408,303.02L476,314.61L544,324.16L612,324.61L680,326.43L680,326.43L612,327L544,325.86L476,320.52L408,307.68L340,287.8L272,294.62L204,267.46L136,290.75L68,319.05L0,321.89Z" style="fill: rgb(148, 184, 184); fill-opacity: 1; stroke-width: 0;"/>
              </g>
            </g>
            <g class="errorbars"/>
            <g class="lines">
              <path class="js-line" d="M0,321.89L68,319.05L136,290.75L204,267.46L272,294.62L340,287.8L408,307.68L476,320.52L544,325.86L612,327L680,326.43" style="vector-effect: non-scaling-stroke; fill: none; stroke: rgb(255, 255, 255); stroke-opacity: 1; stroke-width: 1px; opacity: 1;"/>
            </g>
            <g class="points"/>
            <g class="text"/>
          </g>
          <g class="trace scatter trace499011" style="stroke-miterlimit: 2;">
            <g class="fills">
              <g>
                <path class="js-fill" d="M0,321.32L68,317.34L136,288.48L204,259.85L272,288.82L340,274.85L408,302.46L476,307.46L544,323.59L612,324.61L680,326.43L680,326.43L612,324.61L544,324.16L476,314.61L408,303.02L340,276.55L272,290.53L204,259.85L136,288.48L68,317.34L0,321.32Z" style="fill: rgb(255, 221, 0); fill-opacity: 1; stroke-width: 0;"/>
              </g>
            </g>
            <g class="errorbars"/>
            <g class="lines">
              <path class="js-line" d="M0,321.32L68,317.34L136,288.48L204,259.85L272,290.53L340,276.55L408,303.02L476,314.61L544,324.16L612,324.61L680,326.43" style="vector-effect: non-scaling-stroke; fill: none; stroke: rgb(255, 255, 255); stroke-opacity: 1; stroke-width: 1px; opacity: 1;"/>
            </g>
            <g class="points"/>
            <g class="text"/>
          </g>
          <g class="trace scatter trace0d36d6" style="stroke-miterlimit: 2;">
            <g class="fills">
              <g>
                <path class="js-fill" d="M0,321.32L68,315.52L136,287.91L204,256.44L272,280.07L340,249.62L408,295.64L476,298.71L544,323.02L680,324.61L680,326.43L612,324.61L544,323.59L476,307.46L408,302.46L340,274.85L272,288.82L204,259.85L136,288.48L68,317.34L0,321.32Z" style="fill: rgb(255, 133, 12); fill-opacity: 1; stroke-width: 0;"/>
              </g>
            </g>
            <g class="errorbars"/>
            <g class="lines">
              <path class="js-line" d="M0,321.32L68,317.34L136,288.48L204,259.85L272,288.82L340,274.85L408,302.46L476,307.46L544,323.59L612,324.61L680,326.43" style="vector-effect: non-scaling-stroke; fill: none; stroke: rgb(255, 255, 255); stroke-opacity: 1; stroke-width: 1px; opacity: 1;"/>
            </g>
            <g class="points"/>
            <g class="text"/>
          </g>
          <g class="trace scatter traceb94b47" style="stroke-miterlimit: 2;">
            <g class="fills">
              <g>
                <path class="js-fill" d="M0,321.32L68,315.52L136,285.53L204,254.73L272,276.66L340,211.78L408,268.25L476,272.91L544,312.11L612,322.34L680,324.61L680,324.61L544,323.02L476,298.71L408,295.64L340,249.62L272,280.07L204,256.44L136,287.91L68,315.52L0,321.32Z" style="fill: rgb(16, 79, 160); fill-opacity: 1; stroke-width: 0;"/>
              </g>
            </g>
            <g class="errorbars"/>
            <g class="lines">
              <path class="js-line" d="M0,321.32L68,315.52L136,287.91L204,256.44L272,280.07L340,249.62L408,295.64L476,298.71L544,323.02L680,324.61" style="vector-effect: non-scaling-stroke; fill: none; stroke: rgb(255, 255, 255); stroke-opacity: 1; stroke-width: 1px; opacity: 1;"/>
            </g>
            <g class="points"/>
            <g class="text"/>
          </g>
          <g class="trace scatter traceb1b1e6" style="stroke-miterlimit: 2;">
            <g class="fills">
              <g>
                <path class="js-fill" d="M0,320.75L68,313.71L136,283.71L204,252.35L272,275.53L340,166.22L408,243.83L476,232.8L544,264.51L612,312L680,311.77L680,324.61L612,322.34L544,312.11L476,272.91L408,268.25L340,211.78L272,276.66L204,254.73L136,285.53L68,315.52L0,321.32Z" style="fill: rgb(63, 123, 23); fill-opacity: 1; stroke-width: 0;"/>
              </g>
            </g>
            <g class="errorbars"/>
            <g class="lines">
              <path class="js-line" d="M0,321.32L68,315.52L136,285.53L204,254.73L272,276.66L340,211.78L408,268.25L476,272.91L544,312.11L612,322.34L680,324.61" style="vector-effect: non-scaling-stroke; fill: none; stroke: rgb(255, 255, 255); stroke-opacity: 1; stroke-width: 1px; opacity: 1;"/>
            </g>
            <g class="points"/>
            <g class="text"/>
          </g>
          <g class="trace scatter trace51ef32" style="stroke-miterlimit: 2;">
            <g class="fills">
              <g>
                <path class="js-fill" d="M0,318.36L68,306.55L136,283.14L204,225.08L272,246.1L340,16.35L408,215.99L476,211.78L544,255.53L612,312L680,311.21L680,311.77L612,312L544,264.51L476,232.8L408,243.83L340,166.22L272,275.53L204,252.35L136,283.71L68,313.71L0,320.75Z" style="fill: rgb(166, 166, 166); fill-opacity: 1; stroke-width: 0;"/>
              </g>
            </g>
            <g class="errorbars"/>
            <g class="lines">
              <path class="js-line" d="M0,320.75L68,313.71L136,283.71L204,252.35L272,275.53L340,166.22L408,243.83L476,232.8L544,264.51L612,312L680,311.77" style="vector-effect: non-scaling-stroke; fill: none; stroke: rgb(255, 255, 255); stroke-opacity: 1; stroke-width: 1px; opacity: 1;"/>
            </g>
            <g class="points"/>
            <g class="text"/>
          </g>
          <g class="trace scatter trace3349b0" style="stroke-miterlimit: 2;">
            <g class="fills"/>
            <g class="errorbars"/>
            <g class="lines">
              <path class="js-line" d="M0,318.36L68,306.55L136,283.14L204,225.08L272,246.1L340,16.35L408,215.99L476,211.78L544,255.53L612,312L680,311.21" style="vector-effect: non-scaling-stroke; fill: none; stroke: rgb(255, 255, 255); stroke-opacity: 1; stroke-width: 1px; opacity: 1;"/>
            </g>
            <g class="points"/>
            <g class="text"/>
          </g>
        </g>
      </g>
      <g class="overplot"/>
      <path class="xlines-above crisp" d="" style="fill: none; stroke-width: 1px; stroke: rgb(0, 0, 0); stroke-opacity: 0;"/>
      <path class="ylines-above crisp" d="M0,0" style="fill: none;"/>
      <g class="overlines-above"/>
      <g class="xaxislayer-above">
        <path class="xtick ticks crisp" d="M0,353v15" transform="translate(67,0)" style="stroke: rgb(238, 238, 238); stroke-opacity: 1; stroke-width: 1px;"/>
        <path class="xtick ticks crisp" d="M0,353v15" transform="translate(135,0)" style="stroke: rgb(238, 238, 238); stroke-opacity: 1; stroke-width: 1px;"/>
        <path class="xtick ticks crisp" d="M0,353v15" transform="translate(203,0)" style="stroke: rgb(238, 238, 238); stroke-opacity: 1; stroke-width: 1px;"/>
        <path class="xtick ticks crisp" d="M0,353v15" transform="translate(271,0)" style="stroke: rgb(238, 238, 238); stroke-opacity: 1; stroke-width: 1px;"/>
        <path class="xtick ticks crisp" d="M0,353v15" transform="translate(339,0)" style="stroke: rgb(238, 238, 238); stroke-opacity: 1; stroke-width: 1px;"/>
        <path class="xtick ticks crisp" d="M0,353v15" transform="translate(407,0)" style="stroke: rgb(238, 238, 238); stroke-opacity: 1; stroke-width: 1px;"/>
        <path class="xtick ticks crisp" d="M0,353v15" transform="translate(475,0)" style="stroke: rgb(238, 238, 238); stroke-opacity: 1; stroke-width: 1px;"/>
        <path class="xtick ticks crisp" d="M0,353v15" transform="translate(543,0)" style="stroke: rgb(238, 238, 238); stroke-opacity: 1; stroke-width: 1px;"/>
        <path class="xtick ticks crisp" d="M0,353v15" transform="translate(611,0)" style="stroke: rgb(238, 238, 238); stroke-opacity: 1; stroke-width: 1px;"/>
        <path class="xtick ticks crisp" d="M0,353v15" transform="translate(679,0)" style="stroke: rgb(238, 238, 238); stroke-opacity: 1; stroke-width: 1px;"/>
        <path class="xtick ticks crisp" d="M0,353v15" transform="translate(747,0)" style="stroke: rgb(238, 238, 238); stroke-opacity: 1; stroke-width: 1px;"/>
        <g class="xtick">
          <text text-anchor="middle" x="0" y="382.4" transform="translate(67,0)" style="font-family: 'Open Sans', verdana, arial, sans-serif; font-size: 12px; fill: rgb(68, 68, 68); fill-opacity: 1; white-space: pre; opacity: 1;">0 (ganz links)</text>
        </g>
        <g class="xtick">
          <text text-anchor="middle" x="0" y="382.4" transform="translate(135,0)" style="font-family: 'Open Sans', verdana, arial, sans-serif; font-size: 12px; fill: rgb(68, 68, 68); fill-opacity: 1; white-space: pre; opacity: 1;">1</text>
        </g>
        <g class="xtick">
          <text text-anchor="middle" x="0" y="382.4" transform="translate(203,0)" style="font-family: 'Open Sans', verdana, arial, sans-serif; font-size: 12px; fill: rgb(68, 68, 68); fill-opacity: 1; white-space: pre; opacity: 1;">2</text>
        </g>
        <g class="xtick">
          <text text-anchor="middle" x="0" y="382.4" transform="translate(271,0)" style="font-family: 'Open Sans', verdana, arial, sans-serif; font-size: 12px; fill: rgb(68, 68, 68); fill-opacity: 1; white-space: pre; opacity: 1;">3</text>
        </g>
        <g class="xtick">
          <text text-anchor="middle" x="0" y="382.4" transform="translate(339,0)" style="font-family: 'Open Sans', verdana, arial, sans-serif; font-size: 12px; fill: rgb(68, 68, 68); fill-opacity: 1; white-space: pre; opacity: 1;">4</text>
        </g>
        <g class="xtick">
          <text text-anchor="middle" x="0" y="382.4" transform="translate(407,0)" style="font-family: 'Open Sans', verdana, arial, sans-serif; font-size: 12px; fill: rgb(68, 68, 68); fill-opacity: 1; white-space: pre; opacity: 1;">5 (Mitte)</text>
        </g>
        <g class="xtick">
          <text text-anchor="middle" x="0" y="382.4" transform="translate(475,0)" style="font-family: 'Open Sans', verdana, arial, sans-serif; font-size: 12px; fill: rgb(68, 68, 68); fill-opacity: 1; white-space: pre; opacity: 1;">6</text>
        </g>
        <g class="xtick">
          <text text-anchor="middle" x="0" y="382.4" transform="translate(543,0)" style="font-family: 'Open Sans', verdana, arial, sans-serif; font-size: 12px; fill: rgb(68, 68, 68); fill-opacity: 1; white-space: pre; opacity: 1;">7</text>
        </g>
        <g class="xtick">
          <text text-anchor="middle" x="0" y="382.4" transform="translate(611,0)" style="font-family: 'Open Sans', verdana, arial, sans-serif; font-size: 12px; fill: rgb(68, 68, 68); fill-opacity: 1; white-space: pre; opacity: 1;">8</text>
        </g>
        <g class="xtick">
          <text text-anchor="middle" x="0" y="382.4" transform="translate(679,0)" style="font-family: 'Open Sans', verdana, arial, sans-serif; font-size: 12px; fill: rgb(68, 68, 68); fill-opacity: 1; white-space: pre; opacity: 1;">9</text>
        </g>
        <g class="xtick">
          <text text-anchor="middle" x="0" y="382.4" transform="translate(747,0)" style="font-family: 'Open Sans', verdana, arial, sans-serif; font-size: 12px; fill: rgb(68, 68, 68); fill-opacity: 1; white-space: pre; opacity: 1;">10 (ganz rechts)</text>
        </g>
      </g>
      <g class="yaxislayer-above">
        <g class="ytick">
          <text text-anchor="end" x="66" y="4.199999999999999" transform="translate(0,352)" style="font-family: 'Open Sans', verdana, arial, sans-serif; font-size: 12px; fill: rgb(68, 68, 68); fill-opacity: 1; white-space: pre; opacity: 1;">0</text>
        </g>
        <g class="ytick">
          <text text-anchor="end" x="66" y="4.199999999999999" style="font-family: 'Open Sans', verdana, arial, sans-serif; font-size: 12px; fill: rgb(68, 68, 68); fill-opacity: 1; white-space: pre; opacity: 1;" transform="translate(0,307.64)">50</text>
        </g>
        <g class="ytick">
          <text text-anchor="end" x="66" y="4.199999999999999" style="font-family: 'Open Sans', verdana, arial, sans-serif; font-size: 12px; fill: rgb(68, 68, 68); fill-opacity: 1; white-space: pre; opacity: 1;" transform="translate(0,263.28)">100</text>
        </g>
        <g class="ytick">
          <text text-anchor="end" x="66" y="4.199999999999999" style="font-family: 'Open Sans', verdana, arial, sans-serif; font-size: 12px; fill: rgb(68, 68, 68); fill-opacity: 1; white-space: pre; opacity: 1;" transform="translate(0,218.92)">150</text>
        </g>
        <g class="ytick">
          <text text-anchor="end" x="66" y="4.199999999999999" style="font-family: 'Open Sans', verdana, arial, sans-serif; font-size: 12px; fill: rgb(68, 68, 68); fill-opacity: 1; white-space: pre; opacity: 1;" transform="translate(0,174.56)">200</text>
        </g>
        <g class="ytick">
          <text text-anchor="end" x="66" y="4.199999999999999" style="font-family: 'Open Sans', verdana, arial, sans-serif; font-size: 12px; fill: rgb(68, 68, 68); fill-opacity: 1; white-space: pre; opacity: 1;" transform="translate(0,130.20999999999998)">250</text>
        </g>
        <g class="ytick">
          <text text-anchor="end" x="66" y="4.199999999999999" style="font-family: 'Open Sans', verdana, arial, sans-serif; font-size: 12px; fill: rgb(68, 68, 68); fill-opacity: 1; white-space: pre; opacity: 1;" transform="translate(0,85.85)">300</text>
        </g>
        <g class="ytick">
          <text text-anchor="end" x="66" y="4.199999999999999" style="font-family: 'Open Sans', verdana, arial, sans-serif; font-size: 12px; fill: rgb(68, 68, 68); fill-opacity: 1; white-space: pre; opacity: 1;" transform="translate(0,41.489999999999995)">350</text>
        </g>
      </g>
      <g class="overaxes-above"/>
    </g>
  </g>
  <g class="polarlayer"/>
  <g class="smithlayer"/>
  <g class="ternarylayer"/>
  <g class="geolayer"/>
  <g class="funnelarealayer"/>
  <g class="pielayer"/>
  <g class="iciclelayer"/>
  <g class="treemaplayer"/>
  <g class="sunburstlayer"/>
  <g class="glimages"/>
  <defs id="topdefs-c8c4c5">
    <g class="clips"/>
    <clipPath id="legendc8c4c5">
      <rect width="488" height="105" x="0" y="0"/>
    </clipPath>
  </defs>
  <g class="layer-above">
    <g class="imagelayer"/>
    <g class="shapelayer"/>
  </g>
  <g class="infolayer">
    <g class="legend" pointer-events="all" transform="translate(67,384.70000000000005)">
      <rect class="bg" shape-rendering="crispEdges" width="488" height="105" x="0" y="0" style="stroke: rgb(68, 68, 68); stroke-opacity: 1; fill: rgb(255, 255, 255); fill-opacity: 1; stroke-width: 0px;"/>
      <g class="scrollbox" transform="" clip-path="url(#legendc8c4c5)">
        <g class="groups">
          <g class="traces" transform="translate(0,14.5)" style="opacity: 1;">
            <text class="legendtext" text-anchor="start" x="40" y="4.680000000000001" style="font-family: 'Open Sans', verdana, arial, sans-serif; font-size: 12px; fill: rgb(68, 68, 68); fill-opacity: 1; white-space: pre;">keine</text>
            <g class="layers">
              <g class="legendfill">
                <path class="js-fill" d="M5,-2h30v6h-30z" style="stroke-width: 0; fill: rgb(166, 166, 166); fill-opacity: 1;"/>
              </g>
              <g class="legendlines">
                <path class="js-line" d="M5,-2h30" style="fill: none; stroke: rgb(255, 255, 255); stroke-opacity: 1; stroke-width: 1px;"/>
              </g>
              <g class="legendsymbols">
                <g class="legendpoints"/>
              </g>
            </g>
            <rect class="legendtoggle" x="0" y="-9.5" width="71.515625" height="19" style="fill: rgb(0, 0, 0); fill-opacity: 0;"/>
          </g>
          <g class="traces" transform="translate(243.765625,14.5)" style="opacity: 1;">
            <text class="legendtext" text-anchor="start" x="40" y="4.680000000000001" style="font-family: 'Open Sans', verdana, arial, sans-serif; font-size: 12px; fill: rgb(68, 68, 68); fill-opacity: 1; white-space: pre;">SVP</text>
            <g class="layers">
              <g class="legendfill">
                <path class="js-fill" d="M5,-2h30v6h-30z" style="stroke-width: 0; fill: rgb(63, 123, 23); fill-opacity: 1;"/>
              </g>
              <g class="legendlines">
                <path class="js-line" d="M5,-2h30" style="fill: none; stroke: rgb(255, 255, 255); stroke-opacity: 1; stroke-width: 1px;"/>
              </g>
              <g class="legendsymbols">
                <g class="legendpoints"/>
              </g>
            </g>
            <rect class="legendtoggle" x="0" y="-9.5" width="66.515625" height="19" style="fill: rgb(0, 0, 0); fill-opacity: 0;"/>
          </g>
          <g class="traces" transform="translate(0,33.5)" style="opacity: 1;">
            <text class="legendtext" text-anchor="start" x="40" y="4.680000000000001" style="font-family: 'Open Sans', verdana, arial, sans-serif; font-size: 12px; fill: rgb(68, 68, 68); fill-opacity: 1; white-space: pre;">FDP</text>
            <g class="layers">
              <g class="legendfill">
                <path class="js-fill" d="M5,-2h30v6h-30z" style="stroke-width: 0; fill: rgb(16, 79, 160); fill-opacity: 1;"/>
              </g>
              <g class="legendlines">
                <path class="js-line" d="M5,-2h30" style="fill: none; stroke: rgb(255, 255, 255); stroke-opacity: 1; stroke-width: 1px;"/>
              </g>
              <g class="legendsymbols">
                <g class="legendpoints"/>
              </g>
            </g>
            <rect class="legendtoggle" x="0" y="-9.5" width="66.5" height="19" style="fill: rgb(0, 0, 0); fill-opacity: 0;"/>
          </g>
          <g class="traces" transform="translate(243.765625,33.5)" style="opacity: 1;">
            <text class="legendtext" text-anchor="start" x="40" y="4.680000000000001" style="font-family: 'Open Sans', verdana, arial, sans-serif; font-size: 12px; fill: rgb(68, 68, 68); fill-opacity: 1; white-space: pre;">CVP</text>
            <g class="layers">
              <g class="legendfill">
                <path class="js-fill" d="M5,-2h30v6h-30z" style="stroke-width: 0; fill: rgb(255, 133, 12); fill-opacity: 1;"/>
              </g>
              <g class="legendlines">
                <path class="js-line" d="M5,-2h30" style="fill: none; stroke: rgb(255, 255, 255); stroke-opacity: 1; stroke-width: 1px;"/>
              </g>
              <g class="legendsymbols">
                <g class="legendpoints"/>
              </g>
            </g>
            <rect class="legendtoggle" x="0" y="-9.5" width="67.1875" height="19" style="fill: rgb(0, 0, 0); fill-opacity: 0;"/>
          </g>
          <g class="traces" transform="translate(0,52.5)" style="opacity: 1;">
            <text class="legendtext" text-anchor="start" x="40" y="4.680000000000001" style="font-family: 'Open Sans', verdana, arial, sans-serif; font-size: 12px; fill: rgb(68, 68, 68); fill-opacity: 1; white-space: pre;">BDP</text>
            <g class="layers">
              <g class="legendfill">
                <path class="js-fill" d="M5,-2h30v6h-30z" style="stroke-width: 0; fill: rgb(255, 221, 0); fill-opacity: 1;"/>
              </g>
              <g class="legendlines">
                <path class="js-line" d="M5,-2h30" style="fill: none; stroke: rgb(255, 255, 255); stroke-opacity: 1; stroke-width: 1px;"/>
              </g>
              <g class="legendsymbols">
                <g class="legendpoints"/>
              </g>
            </g>
            <rect class="legendtoggle" x="0" y="-9.5" width="67.1875" height="19" style="fill: rgb(0, 0, 0); fill-opacity: 0;"/>
          </g>
          <g class="traces" transform="translate(243.765625,52.5)" style="opacity: 1;">
            <text class="legendtext" text-anchor="start" x="40" y="4.680000000000001" style="font-family: 'Open Sans', verdana, arial, sans-serif; font-size: 12px; fill: rgb(68, 68, 68); fill-opacity: 1; white-space: pre;">eine andere, nämlich: ✍ (Freitextfeld)</text>
            <g class="layers">
              <g class="legendfill">
                <path class="js-fill" d="M5,-2h30v6h-30z" style="stroke-width: 0; fill: rgb(148, 184, 184); fill-opacity: 1;"/>
              </g>
              <g class="legendlines">
                <path class="js-line" d="M5,-2h30" style="fill: none; stroke: rgb(255, 255, 255); stroke-opacity: 1; stroke-width: 1px;"/>
              </g>
              <g class="legendsymbols">
                <g class="legendpoints"/>
              </g>
            </g>
            <rect class="legendtoggle" x="0" y="-9.5" width="241.265625" height="19" style="fill: rgb(0, 0, 0); fill-opacity: 0;"/>
          </g>
          <g class="traces" transform="translate(0,71.5)" style="opacity: 1;">
            <text class="legendtext" text-anchor="start" x="40" y="4.680000000000001" style="font-family: 'Open Sans', verdana, arial, sans-serif; font-size: 12px; fill: rgb(68, 68, 68); fill-opacity: 1; white-space: pre;">GLP</text>
            <g class="layers">
              <g class="legendfill">
                <path class="js-fill" d="M5,-2h30v6h-30z" style="stroke-width: 0; fill: rgb(195, 217, 63); fill-opacity: 1;"/>
              </g>
              <g class="legendlines">
                <path class="js-line" d="M5,-2h30" style="fill: none; stroke: rgb(255, 255, 255); stroke-opacity: 1; stroke-width: 1px;"/>
              </g>
              <g class="legendsymbols">
                <g class="legendpoints"/>
              </g>
            </g>
            <rect class="legendtoggle" x="0" y="-9.5" width="66.515625" height="19" style="fill: rgb(0, 0, 0); fill-opacity: 0;"/>
          </g>
          <g class="traces" transform="translate(243.765625,71.5)" style="opacity: 1;">
            <text class="legendtext" text-anchor="start" x="40" y="4.680000000000001" style="font-family: 'Open Sans', verdana, arial, sans-serif; font-size: 12px; fill: rgb(68, 68, 68); fill-opacity: 1; white-space: pre;">EVP</text>
            <g class="layers">
              <g class="legendfill">
                <path class="js-fill" d="M5,-2h30v6h-30z" style="stroke-width: 0; fill: rgb(204, 153, 255); fill-opacity: 1;"/>
              </g>
              <g class="legendlines">
                <path class="js-line" d="M5,-2h30" style="fill: none; stroke: rgb(255, 255, 255); stroke-opacity: 1; stroke-width: 1px;"/>
              </g>
              <g class="legendsymbols">
                <g class="legendpoints"/>
              </g>
            </g>
            <rect class="legendtoggle" x="0" y="-9.5" width="66.515625" height="19" style="fill: rgb(0, 0, 0); fill-opacity: 0;"/>
          </g>
          <g class="traces" transform="translate(0,90.5)" style="opacity: 1;">
            <text class="legendtext" text-anchor="start" x="40" y="4.680000000000001" style="font-family: 'Open Sans', verdana, arial, sans-serif; font-size: 12px; fill: rgb(68, 68, 68); fill-opacity: 1; white-space: pre;">Grüne</text>
            <g class="layers">
              <g class="legendfill">
                <path class="js-fill" d="M5,-2h30v6h-30z" style="stroke-width: 0; fill: rgb(132, 180, 20); fill-opacity: 1;"/>
              </g>
              <g class="legendlines">
                <path class="js-line" d="M5,-2h30" style="fill: none; stroke: rgb(255, 255, 255); stroke-opacity: 1; stroke-width: 1px;"/>
              </g>
              <g class="legendsymbols">
                <g class="legendpoints"/>
              </g>
            </g>
            <rect class="legendtoggle" x="0" y="-9.5" width="76.1875" height="19" style="fill: rgb(0, 0, 0); fill-opacity: 0;"/>
          </g>
          <g class="traces" transform="translate(243.765625,90.5)" style="opacity: 1;">
            <text class="legendtext" text-anchor="start" x="40" y="4.680000000000001" style="font-family: 'Open Sans', verdana, arial, sans-serif; font-size: 12px; fill: rgb(68, 68, 68); fill-opacity: 1; white-space: pre;">SP</text>
            <g class="layers">
              <g class="legendfill">
                <path class="js-fill" d="M5,-2h30v6h-30z" style="stroke-width: 0; fill: rgb(238, 42, 59); fill-opacity: 1;"/>
              </g>
              <g class="legendlines">
                <path class="js-line" d="M5,-2h30" style="fill: none; stroke: rgb(255, 255, 255); stroke-opacity: 1; stroke-width: 1px;"/>
              </g>
              <g class="legendsymbols">
                <g class="legendpoints"/>
              </g>
            </g>
            <rect class="legendtoggle" x="0" y="-9.5" width="58.515625" height="19" style="fill: rgb(0, 0, 0); fill-opacity: 0;"/>
          </g>
        </g>
      </g>
      <rect class="scrollbar" rx="20" ry="3" width="0" height="0" x="0" y="0" style="fill: rgb(128, 139, 164); fill-opacity: 1;"/>
    </g>
    <g class="g-gtitle"/>
    <g class="g-xtitle"/>
    <g class="g-ytitle" transform="translate(-6.234375,0)">
      <text class="ytitle" transform="rotate(-90,29,188.5)" x="29" y="188.5" text-anchor="middle" style="font-family: 'Open Sans', verdana, arial, sans-serif; font-size: 14px; fill: rgb(68, 68, 68); opacity: 1; font-weight: normal; white-space: pre;">
        <tspan class="line" dy="0em" x="29" y="188.5">Anzahl Respondent:innen</tspan>
        <tspan class="line" dy="1.3em" x="29" y="188.5">(gewichtet nach Teilnahme)</tspan>
      </text>
    </g>
  </g>
</svg>
