<svg xmlns="http://www.w3.org/2000/svg" xmlns:xlink="http://www.w3.org/1999/xlink" class="main-svg" width="100%" height="100%" style="" viewBox="1 1 799 279">
  <rect x="0" y="0" width="800" height="280" style="fill: rgb(255, 255, 255); fill-opacity: 1;"/>
  <defs id="defs-d29589">
    <g class="clips">
      <clipPath id="clipd29589xyplot" class="plotclip">
        <rect width="691" height="152"/>
      </clipPath>
      <clipPath class="axesclip" id="clipd29589x">
        <rect x="99" y="0" width="691" height="280"/>
      </clipPath>
      <clipPath class="axesclip" id="clipd29589y">
        <rect x="0" y="0" width="800" height="152"/>
      </clipPath>
      <clipPath class="axesclip" id="clipd29589xy">
        <rect x="99" y="0" width="691" height="152"/>
      </clipPath>
    </g>
    <g class="gradients"/>
    <g class="patterns"/>
  </defs>
  <g class="bglayer"/>
  <g class="layer-below">
    <g class="imagelayer"/>
    <g class="shapelayer"/>
  </g>
  <g class="cartesianlayer">
    <g class="subplot xy">
      <g class="layer-subplot">
        <g class="shapelayer"/>
        <g class="imagelayer"/>
      </g>
      <g class="gridlayer">
        <g class="x">
          <path class="xgrid crisp" transform="translate(271.85,0)" d="M0,0v152" style="stroke: rgb(238, 238, 238); stroke-opacity: 1; stroke-width: 1px;"/>
          <path class="xgrid crisp" transform="translate(444.69,0)" d="M0,0v152" style="stroke: rgb(238, 238, 238); stroke-opacity: 1; stroke-width: 1px;"/>
          <path class="xgrid crisp" transform="translate(617.54,0)" d="M0,0v152" style="stroke: rgb(238, 238, 238); stroke-opacity: 1; stroke-width: 1px;"/>
        </g>
        <g class="y"/>
      </g>
      <g class="zerolinelayer">
        <path class="xzl zl crisp" transform="translate(99,0)" d="M0,0v152" style="stroke: rgb(68, 68, 68); stroke-opacity: 1; stroke-width: 1px;"/>
      </g>
      <path class="xlines-below"/>
      <path class="ylines-below"/>
      <g class="overlines-below"/>
      <g class="xaxislayer-below"/>
      <g class="yaxislayer-below"/>
      <g class="overaxes-below"/>
      <g class="plot" transform="translate(99,0)" clip-path="url(#clipd29589xyplot)">
        <g class="barlayer mlayer">
          <g class="trace bars" shape-rendering="crispEdges" style="opacity: 1;">
            <g class="points">
              <g class="point">
                <path d="M0,148.2V117.8H99.37V148.2Z" style="vector-effect: non-scaling-stroke; opacity: 1; stroke-width: 1px; fill: rgb(238, 42, 59); fill-opacity: 1; stroke: rgb(255, 255, 255); stroke-opacity: 1;"/>
                <text class="bartext bartext-inside" text-anchor="middle" data-notex="1" x="0" y="0" style="font-family: 'Alegreya Sans', sans-serif; font-size: 12px; fill: rgb(255, 255, 255); fill-opacity: 1; white-space: pre;" transform="translate(82.5653125,129.1953125)rotate(90 0 3.8046875)">
                  <tspan class="line" dy="0em" x="0" y="0">
                    <tspan style="font-weight:bold">29 %</tspan>
                  </tspan>
                  <tspan class="line" dy="1.3em" x="0" y="0">(107)</tspan>
                </text>
              </g>
              <g class="point">
                <path d="M0,110.2V79.8H113.97V110.2Z" style="vector-effect: non-scaling-stroke; opacity: 1; stroke-width: 1px; fill: rgb(238, 42, 59); fill-opacity: 1; stroke: rgb(255, 255, 255); stroke-opacity: 1;"/>
                <text class="bartext bartext-inside" text-anchor="middle" data-notex="1" x="0" y="0" style="font-family: 'Alegreya Sans', sans-serif; font-size: 12px; fill: rgb(255, 255, 255); fill-opacity: 1; white-space: pre;" transform="translate(97.1653125,91.1953125)rotate(90 0 3.8046875)">
                  <tspan class="line" dy="0em" x="0" y="0">
                    <tspan style="font-weight:bold">33 %</tspan>
                  </tspan>
                  <tspan class="line" dy="1.3em" x="0" y="0">(143)</tspan>
                </text>
              </g>
              <g class="point">
                <path d="M0,72.2V41.8H95.7V72.2Z" style="vector-effect: non-scaling-stroke; opacity: 1; stroke-width: 1px; fill: rgb(238, 42, 59); fill-opacity: 1; stroke: rgb(255, 255, 255); stroke-opacity: 1;"/>
                <text class="bartext bartext-inside" text-anchor="middle" data-notex="1" x="0" y="0" style="font-family: 'Alegreya Sans', sans-serif; font-size: 12px; fill: rgb(255, 255, 255); fill-opacity: 1; white-space: pre;" transform="translate(78.8953125,53.1953125)rotate(90 0 3.8046875)">
                  <tspan class="line" dy="0em" x="0" y="0">
                    <tspan style="font-weight:bold">28 %</tspan>
                  </tspan>
                  <tspan class="line" dy="1.3em" x="0" y="0">(87)</tspan>
                </text>
              </g>
              <g class="point">
                <path d="M0,34.2V3.8H96.83V34.2Z" style="vector-effect: non-scaling-stroke; opacity: 1; stroke-width: 1px; fill: rgb(238, 42, 59); fill-opacity: 1; stroke: rgb(255, 255, 255); stroke-opacity: 1;"/>
                <text class="bartext bartext-inside" text-anchor="middle" data-notex="1" x="0" y="0" style="font-family: 'Alegreya Sans', sans-serif; font-size: 12px; fill: rgb(255, 255, 255); fill-opacity: 1; white-space: pre;" transform="translate(80.0253125,15.1953125)rotate(90 0 3.8046875)">
                  <tspan class="line" dy="0em" x="0" y="0">
                    <tspan style="font-weight:bold">28 %</tspan>
                  </tspan>
                  <tspan class="line" dy="1.3em" x="0" y="0">(79)</tspan>
                </text>
              </g>
            </g>
          </g>
          <g class="trace bars" shape-rendering="crispEdges" style="opacity: 1;">
            <g class="points">
              <g class="point">
                <path d="M99.37,148.2V117.8H160.43V148.2Z" style="vector-effect: non-scaling-stroke; opacity: 1; stroke-width: 1px; fill: rgb(132, 180, 20); fill-opacity: 1; stroke: rgb(255, 255, 255); stroke-opacity: 1;"/>
                <text class="bartext bartext-inside" text-anchor="middle" data-notex="1" x="0" y="0" style="font-family: 'Alegreya Sans', sans-serif; font-size: 12px; fill: rgb(255, 255, 255); fill-opacity: 1; white-space: pre;" transform="translate(143.6253125,129.1953125)rotate(90 0 3.8046875)">
                  <tspan class="line" dy="0em" x="0" y="0">
                    <tspan style="font-weight:bold">18 %</tspan>
                  </tspan>
                  <tspan class="line" dy="1.3em" x="0" y="0">(66)</tspan>
                </text>
              </g>
              <g class="point">
                <path d="M113.97,110.2V79.8H188.18V110.2Z" style="vector-effect: non-scaling-stroke; opacity: 1; stroke-width: 1px; fill: rgb(132, 180, 20); fill-opacity: 1; stroke: rgb(255, 255, 255); stroke-opacity: 1;"/>
                <text class="bartext bartext-inside" text-anchor="middle" data-notex="1" x="0" y="0" style="font-family: 'Alegreya Sans', sans-serif; font-size: 12px; fill: rgb(255, 255, 255); fill-opacity: 1; white-space: pre;" transform="translate(171.3753125,91.1953125)rotate(90 0 3.8046875)">
                  <tspan class="line" dy="0em" x="0" y="0">
                    <tspan style="font-weight:bold">21 %</tspan>
                  </tspan>
                  <tspan class="line" dy="1.3em" x="0" y="0">(93)</tspan>
                </text>
              </g>
              <g class="point">
                <path d="M95.7,72.2V41.8H180.92V72.2Z" style="vector-effect: non-scaling-stroke; opacity: 1; stroke-width: 1px; fill: rgb(132, 180, 20); fill-opacity: 1; stroke: rgb(255, 255, 255); stroke-opacity: 1;"/>
                <text class="bartext bartext-inside" text-anchor="middle" data-notex="1" x="0" y="0" style="font-family: 'Alegreya Sans', sans-serif; font-size: 12px; fill: rgb(255, 255, 255); fill-opacity: 1; white-space: pre;" transform="translate(164.1153125,53.1953125)rotate(90 0 3.8046875)">
                  <tspan class="line" dy="0em" x="0" y="0">
                    <tspan style="font-weight:bold">25 %</tspan>
                  </tspan>
                  <tspan class="line" dy="1.3em" x="0" y="0">(77)</tspan>
                </text>
              </g>
              <g class="point">
                <path d="M96.83,34.2V3.8H171.3V34.2Z" style="vector-effect: non-scaling-stroke; opacity: 1; stroke-width: 1px; fill: rgb(132, 180, 20); fill-opacity: 1; stroke: rgb(255, 255, 255); stroke-opacity: 1;"/>
                <text class="bartext bartext-inside" text-anchor="middle" data-notex="1" x="0" y="0" style="font-family: 'Alegreya Sans', sans-serif; font-size: 12px; fill: rgb(255, 255, 255); fill-opacity: 1; white-space: pre;" transform="translate(154.4953125,15.1953125)rotate(90 0 3.8046875)">
                  <tspan class="line" dy="0em" x="0" y="0">
                    <tspan style="font-weight:bold">22 %</tspan>
                  </tspan>
                  <tspan class="line" dy="1.3em" x="0" y="0">(61)</tspan>
                </text>
              </g>
            </g>
          </g>
          <g class="trace bars" shape-rendering="crispEdges" style="opacity: 1;">
            <g class="points">
              <g class="point">
                <path d="M160.43,148.2V117.8H186.76V148.2Z" style="vector-effect: non-scaling-stroke; opacity: 1; stroke-width: 1px; fill: rgb(204, 153, 255); fill-opacity: 1; stroke: rgb(255, 255, 255); stroke-opacity: 1;"/>
                <text class="bartext bartext-inside" text-anchor="middle" data-notex="1" x="0" y="0" style="font-family: 'Alegreya Sans', sans-serif; font-size: 12px; fill: rgb(255, 255, 255); fill-opacity: 1; white-space: pre;" transform="translate(175.68190152801358,129.63757781550652)scale(0.8837577815506505)">
                  <tspan class="line" dy="0em" x="0" y="0">
                    <tspan style="font-weight:bold">8 %</tspan>
                  </tspan>
                  <tspan class="line" dy="1.3em" x="0" y="0">(28)</tspan>
                </text>
              </g>
              <g class="point">
                <path d="M188.18,110.2V79.8H205.24V110.2Z" style="vector-effect: non-scaling-stroke; opacity: 1; stroke-width: 1px; fill: rgb(204, 153, 255); fill-opacity: 1; stroke: rgb(255, 255, 255); stroke-opacity: 1;"/>
                <text class="bartext bartext-inside" text-anchor="middle" data-notex="1" x="0" y="0" style="font-family: 'Alegreya Sans', sans-serif; font-size: 12px; fill: rgb(255, 255, 255); fill-opacity: 1; white-space: pre;" transform="translate(196.71,92.48307476635514)scale(0.661532710280374)">
                  <tspan class="line" dy="0em" x="0" y="0">
                    <tspan style="font-weight:bold">5 %</tspan>
                  </tspan>
                  <tspan class="line" dy="1.3em" x="0" y="0">(21)</tspan>
                </text>
              </g>
              <g class="point">
                <path d="M180.92,72.2V41.8H194.03V72.2Z" style="vector-effect: non-scaling-stroke; opacity: 1; stroke-width: 1px; fill: rgb(204, 153, 255); fill-opacity: 1; stroke: rgb(255, 255, 255); stroke-opacity: 1;"/>
                <text class="bartext bartext-inside" text-anchor="middle" data-notex="1" x="0" y="0" style="font-family: 'Alegreya Sans', sans-serif; font-size: 12px; fill: rgb(255, 255, 255); fill-opacity: 1; white-space: pre;" transform="translate(187.475,55.428960980036294)scale(0.4129219600725961)">
                  <tspan class="line" dy="0em" x="0" y="0">
                    <tspan style="font-weight:bold">4 %</tspan>
                  </tspan>
                  <tspan class="line" dy="1.3em" x="0" y="0">(12)</tspan>
                </text>
              </g>
              <g class="point">
                <path d="M171.3,34.2V3.8H180.02V34.2Z" style="vector-effect: non-scaling-stroke; opacity: 1; stroke-width: 1px; fill: rgb(204, 153, 255); fill-opacity: 1; stroke: rgb(255, 255, 255); stroke-opacity: 1;"/>
                <text class="bartext bartext-inside" text-anchor="middle" data-notex="1" x="0" y="0" style="font-family: 'Alegreya Sans', sans-serif; font-size: 12px; fill: rgb(255, 255, 255); fill-opacity: 1; white-space: pre;" transform="translate(175.66000000000003,18.3668068833652)scale(0.16642447418738043)">
                  <tspan class="line" dy="0em" x="0" y="0">
                    <tspan style="font-weight:bold">3 %</tspan>
                  </tspan>
                  <tspan class="line" dy="1.3em" x="0" y="0">(7)</tspan>
                </text>
              </g>
            </g>
          </g>
          <g class="trace bars" shape-rendering="crispEdges" style="opacity: 1;">
            <g class="points">
              <g class="point">
                <path d="M186.76,148.2V117.8H223.89V148.2Z" style="vector-effect: non-scaling-stroke; opacity: 1; stroke-width: 1px; fill: rgb(195, 217, 63); fill-opacity: 1; stroke: rgb(255, 255, 255); stroke-opacity: 1;"/>
                <text class="bartext bartext-inside" text-anchor="middle" data-notex="1" x="0" y="0" style="font-family: 'Alegreya Sans', sans-serif; font-size: 12px; fill: rgb(255, 255, 255); fill-opacity: 1; white-space: pre;" transform="translate(207.0853125,129.1953125)rotate(90 0 3.8046875)">
                  <tspan class="line" dy="0em" x="0" y="0">
                    <tspan style="font-weight:bold">11 %</tspan>
                  </tspan>
                  <tspan class="line" dy="1.3em" x="0" y="0">(40)</tspan>
                </text>
              </g>
              <g class="point">
                <path d="M205.24,110.2V79.8H237.08V110.2Z" style="vector-effect: non-scaling-stroke; opacity: 1; stroke-width: 1px; fill: rgb(195, 217, 63); fill-opacity: 1; stroke: rgb(255, 255, 255); stroke-opacity: 1;"/>
                <text class="bartext bartext-inside" text-anchor="middle" data-notex="1" x="0" y="0" style="font-family: 'Alegreya Sans', sans-serif; font-size: 12px; fill: rgb(255, 255, 255); fill-opacity: 1; white-space: pre;" transform="translate(221.16000000000003,91.43913978494624)scale(0.9359139784946238)rotate(90 0 3.8046875)">
                  <tspan class="line" dy="0em" x="0" y="0">
                    <tspan style="font-weight:bold">9 %</tspan>
                  </tspan>
                  <tspan class="line" dy="1.3em" x="0" y="0">(40)</tspan>
                </text>
              </g>
              <g class="point">
                <path d="M194.03,72.2V41.8H254.35V72.2Z" style="vector-effect: non-scaling-stroke; opacity: 1; stroke-width: 1px; fill: rgb(195, 217, 63); fill-opacity: 1; stroke: rgb(255, 255, 255); stroke-opacity: 1;"/>
                <text class="bartext bartext-inside" text-anchor="middle" data-notex="1" x="0" y="0" style="font-family: 'Alegreya Sans', sans-serif; font-size: 12px; fill: rgb(255, 255, 255); fill-opacity: 1; white-space: pre;" transform="translate(237.5453125,53.1953125)rotate(90 0 3.8046875)">
                  <tspan class="line" dy="0em" x="0" y="0">
                    <tspan style="font-weight:bold">17 %</tspan>
                  </tspan>
                  <tspan class="line" dy="1.3em" x="0" y="0">(55)</tspan>
                </text>
              </g>
              <g class="point">
                <path d="M180.02,34.2V3.8H233.15V34.2Z" style="vector-effect: non-scaling-stroke; opacity: 1; stroke-width: 1px; fill: rgb(195, 217, 63); fill-opacity: 1; stroke: rgb(255, 255, 255); stroke-opacity: 1;"/>
                <text class="bartext bartext-inside" text-anchor="middle" data-notex="1" x="0" y="0" style="font-family: 'Alegreya Sans', sans-serif; font-size: 12px; fill: rgb(255, 255, 255); fill-opacity: 1; white-space: pre;" transform="translate(216.3453125,15.1953125)rotate(90 0 3.8046875)">
                  <tspan class="line" dy="0em" x="0" y="0">
                    <tspan style="font-weight:bold">15 %</tspan>
                  </tspan>
                  <tspan class="line" dy="1.3em" x="0" y="0">(44)</tspan>
                </text>
              </g>
            </g>
          </g>
          <g class="trace bars" shape-rendering="crispEdges" style="opacity: 1;">
            <g class="points">
              <g class="point">
                <path d="M223.89,148.2V117.8H230.34V148.2Z" style="vector-effect: non-scaling-stroke; opacity: 1; stroke-width: 1px; fill: rgb(184, 148, 166); fill-opacity: 1; stroke: rgb(255, 255, 255); stroke-opacity: 1;"/>
                <text class="bartext bartext-inside" text-anchor="middle" data-notex="1" x="0" y="0" style="font-family: 'Alegreya Sans', sans-serif; font-size: 12px; fill: rgb(255, 255, 255); fill-opacity: 1; white-space: pre;" transform="translate(227.115,132.89816449814126)scale(0.02676579925650659)">
                  <tspan class="line" dy="0em" x="0" y="0">
                    <tspan style="font-weight:bold">2 %</tspan>
                  </tspan>
                  <tspan class="line" dy="1.3em" x="0" y="0">(7)</tspan>
                </text>
              </g>
              <g class="point">
                <path d="M237.08,110.2V79.8H238.48V110.2Z" style="vector-effect: non-scaling-stroke; opacity: 1; stroke-width: 1px; fill: rgb(184, 148, 166); fill-opacity: 1; stroke: rgb(255, 255, 255); stroke-opacity: 1;"/>
                <text class="bartext bartext-inside" text-anchor="middle" data-notex="1" x="0" y="0" style="font-family: 'Alegreya Sans', sans-serif; font-size: 12px; fill: rgb(255, 255, 255); fill-opacity: 1; white-space: pre;" transform="translate(237.78,94.69398563734292)scale(0.08043087971274555)">
                  <tspan class="line" dy="0em" x="0" y="0">
                    <tspan style="font-weight:bold">0 %</tspan>
                  </tspan>
                  <tspan class="line" dy="1.3em" x="0" y="0">(2)</tspan>
                </text>
              </g>
              <g class="point">
                <path d="M254.35,72.2V41.8H254.35V72.2Z" style="vector-effect: non-scaling-stroke; opacity: 1; stroke-width: 1px; fill: rgb(184, 148, 166); fill-opacity: 1; stroke: rgb(255, 255, 255); stroke-opacity: 1;"/>
              </g>
              <g class="point">
                <path d="M233.15,34.2V3.8H235.8V34.2Z" style="vector-effect: non-scaling-stroke; opacity: 1; stroke-width: 1px; fill: rgb(184, 148, 166); fill-opacity: 1; stroke: rgb(255, 255, 255); stroke-opacity: 1;"/>
                <text class="bartext bartext-inside" text-anchor="middle" data-notex="1" x="0" y="0" style="font-family: 'Alegreya Sans', sans-serif; font-size: 12px; fill: rgb(255, 255, 255); fill-opacity: 1; white-space: pre;" transform="translate(234.47500000000002,18.349521169354837)scale(0.17096774193548422)">
                  <tspan class="line" dy="0em" x="0" y="0">
                    <tspan style="font-weight:bold">1 %</tspan>
                  </tspan>
                  <tspan class="line" dy="1.3em" x="0" y="0">(2)</tspan>
                </text>
              </g>
            </g>
          </g>
          <g class="trace bars" shape-rendering="crispEdges" style="opacity: 1;">
            <g class="points">
              <g class="point">
                <path d="M230.34,148.2V117.8H237.76V148.2Z" style="vector-effect: non-scaling-stroke; opacity: 1; stroke-width: 1px; fill: rgb(148, 184, 184); fill-opacity: 1; stroke: rgb(255, 255, 255); stroke-opacity: 1;"/>
                <text class="bartext bartext-inside" text-anchor="middle" data-notex="1" x="0" y="0" style="font-family: 'Alegreya Sans', sans-serif; font-size: 12px; fill: rgb(255, 255, 255); fill-opacity: 1; white-space: pre;" transform="translate(234.05,132.67865241635687)scale(0.08446096654275019)">
                  <tspan class="line" dy="0em" x="0" y="0">
                    <tspan style="font-weight:bold">2 %</tspan>
                  </tspan>
                  <tspan class="line" dy="1.3em" x="0" y="0">(8)</tspan>
                </text>
              </g>
              <g class="point">
                <path d="M238.48,110.2V79.8H249.88V110.2Z" style="vector-effect: non-scaling-stroke; opacity: 1; stroke-width: 1px; fill: rgb(148, 184, 184); fill-opacity: 1; stroke: rgb(255, 255, 255); stroke-opacity: 1;"/>
                <text class="bartext bartext-inside" text-anchor="middle" data-notex="1" x="0" y="0" style="font-family: 'Alegreya Sans', sans-serif; font-size: 12px; fill: rgb(255, 255, 255); fill-opacity: 1; white-space: pre;" transform="translate(244.18,93.79366972477064)scale(0.31706422018348657)">
                  <tspan class="line" dy="0em" x="0" y="0">
                    <tspan style="font-weight:bold">3 %</tspan>
                  </tspan>
                  <tspan class="line" dy="1.3em" x="0" y="0">(14)</tspan>
                </text>
              </g>
              <g class="point">
                <path d="M254.35,72.2V41.8H258.76V72.2Z" style="vector-effect: non-scaling-stroke; opacity: 1; stroke-width: 1px; fill: rgb(148, 184, 184); fill-opacity: 1; stroke: rgb(255, 255, 255); stroke-opacity: 1;"/>
                <text class="bartext bartext-inside" text-anchor="middle" data-notex="1" x="0" y="0" style="font-family: 'Alegreya Sans', sans-serif; font-size: 12px; fill: rgb(255, 255, 255); fill-opacity: 1; white-space: pre;" transform="translate(256.555,55.91750504032258)scale(0.28451612903225787)">
                  <tspan class="line" dy="0em" x="0" y="0">
                    <tspan style="font-weight:bold">1 %</tspan>
                  </tspan>
                  <tspan class="line" dy="1.3em" x="0" y="0">(4)</tspan>
                </text>
              </g>
              <g class="point">
                <path d="M235.8,34.2V3.8H246.51V34.2Z" style="vector-effect: non-scaling-stroke; opacity: 1; stroke-width: 1px; fill: rgb(148, 184, 184); fill-opacity: 1; stroke: rgb(255, 255, 255); stroke-opacity: 1;"/>
                <text class="bartext bartext-inside" text-anchor="middle" data-notex="1" x="0" y="0" style="font-family: 'Alegreya Sans', sans-serif; font-size: 12px; fill: rgb(255, 255, 255); fill-opacity: 1; white-space: pre;" transform="translate(241.155,17.90355162523901)scale(0.2881835564053525)">
                  <tspan class="line" dy="0em" x="0" y="0">
                    <tspan style="font-weight:bold">3 %</tspan>
                  </tspan>
                  <tspan class="line" dy="1.3em" x="0" y="0">(9)</tspan>
                </text>
              </g>
            </g>
          </g>
          <g class="trace bars" shape-rendering="crispEdges" style="opacity: 1;">
            <g class="points">
              <g class="point">
                <path d="M237.76,148.2V117.8H244.57V148.2Z" style="vector-effect: non-scaling-stroke; opacity: 1; stroke-width: 1px; fill: rgb(148, 184, 184); fill-opacity: 1; stroke: rgb(255, 255, 255); stroke-opacity: 1;"/>
                <text class="bartext bartext-inside" text-anchor="middle" data-notex="1" x="0" y="0" style="font-family: 'Alegreya Sans', sans-serif; font-size: 12px; fill: rgb(255, 255, 255); fill-opacity: 1; white-space: pre;" transform="translate(241.165,132.81669609665428)scale(0.04817843866171017)">
                  <tspan class="line" dy="0em" x="0" y="0">
                    <tspan style="font-weight:bold">2 %</tspan>
                  </tspan>
                  <tspan class="line" dy="1.3em" x="0" y="0">(7)</tspan>
                </text>
              </g>
              <g class="point">
                <path d="M249.88,110.2V79.8H259.46V110.2Z" style="vector-effect: non-scaling-stroke; opacity: 1; stroke-width: 1px; fill: rgb(148, 184, 184); fill-opacity: 1; stroke: rgb(255, 255, 255); stroke-opacity: 1;"/>
                <text class="bartext bartext-inside" text-anchor="middle" data-notex="1" x="0" y="0" style="font-family: 'Alegreya Sans', sans-serif; font-size: 12px; fill: rgb(255, 255, 255); fill-opacity: 1; white-space: pre;" transform="translate(254.67,94.18529906542057)scale(0.2141308411214944)">
                  <tspan class="line" dy="0em" x="0" y="0">
                    <tspan style="font-weight:bold">3 %</tspan>
                  </tspan>
                  <tspan class="line" dy="1.3em" x="0" y="0">(12)</tspan>
                </text>
              </g>
              <g class="point">
                <path d="M258.76,72.2V41.8H265.42V72.2Z" style="vector-effect: non-scaling-stroke; opacity: 1; stroke-width: 1px; fill: rgb(148, 184, 184); fill-opacity: 1; stroke: rgb(255, 255, 255); stroke-opacity: 1;"/>
                <text class="bartext bartext-inside" text-anchor="middle" data-notex="1" x="0" y="0" style="font-family: 'Alegreya Sans', sans-serif; font-size: 12px; fill: rgb(255, 255, 255); fill-opacity: 1; white-space: pre;" transform="translate(262.09000000000003,56.85064126394052)scale(0.03925650557620967)">
                  <tspan class="line" dy="0em" x="0" y="0">
                    <tspan style="font-weight:bold">2 %</tspan>
                  </tspan>
                  <tspan class="line" dy="1.3em" x="0" y="0">(6)</tspan>
                </text>
              </g>
              <g class="point">
                <path d="M246.51,34.2V3.8H255.22V34.2Z" style="vector-effect: non-scaling-stroke; opacity: 1; stroke-width: 1px; fill: rgb(148, 184, 184); fill-opacity: 1; stroke: rgb(255, 255, 255); stroke-opacity: 1;"/>
                <text class="bartext bartext-inside" text-anchor="middle" data-notex="1" x="0" y="0" style="font-family: 'Alegreya Sans', sans-serif; font-size: 12px; fill: rgb(255, 255, 255); fill-opacity: 1; white-space: pre;" transform="translate(250.865,18.36913479923518)scale(0.16581261950286855)">
                  <tspan class="line" dy="0em" x="0" y="0">
                    <tspan style="font-weight:bold">3 %</tspan>
                  </tspan>
                  <tspan class="line" dy="1.3em" x="0" y="0">(7)</tspan>
                </text>
              </g>
            </g>
          </g>
          <g class="trace bars" shape-rendering="crispEdges" style="opacity: 1;">
            <g class="points">
              <g class="point">
                <path d="M244.57,148.2V117.8H265.96V148.2Z" style="vector-effect: non-scaling-stroke; opacity: 1; stroke-width: 1px; fill: rgb(255, 221, 0); fill-opacity: 1; stroke: rgb(255, 255, 255); stroke-opacity: 1;"/>
                <text class="bartext bartext-inside" text-anchor="middle" data-notex="1" x="0" y="0" style="font-family: 'Alegreya Sans', sans-serif; font-size: 12px; fill: rgb(255, 255, 255); fill-opacity: 1; white-space: pre;" transform="translate(255.265,129.66595640569395)scale(0.8762989323843409)">
                  <tspan class="line" dy="0em" x="0" y="0">
                    <tspan style="font-weight:bold">6 %</tspan>
                  </tspan>
                  <tspan class="line" dy="1.3em" x="0" y="0">(23)</tspan>
                </text>
              </g>
              <g class="point">
                <path d="M259.46,110.2V79.8H297.77V110.2Z" style="vector-effect: non-scaling-stroke; opacity: 1; stroke-width: 1px; fill: rgb(255, 221, 0); fill-opacity: 1; stroke: rgb(255, 255, 255); stroke-opacity: 1;"/>
                <text class="bartext bartext-inside" text-anchor="middle" data-notex="1" x="0" y="0" style="font-family: 'Alegreya Sans', sans-serif; font-size: 12px; fill: rgb(255, 255, 255); fill-opacity: 1; white-space: pre;" transform="translate(280.9653125,91.1953125)rotate(90 0 3.8046875)">
                  <tspan class="line" dy="0em" x="0" y="0">
                    <tspan style="font-weight:bold">11 %</tspan>
                  </tspan>
                  <tspan class="line" dy="1.3em" x="0" y="0">(48)</tspan>
                </text>
              </g>
              <g class="point">
                <path d="M265.42,72.2V41.8H318.99V72.2Z" style="vector-effect: non-scaling-stroke; opacity: 1; stroke-width: 1px; fill: rgb(255, 221, 0); fill-opacity: 1; stroke: rgb(255, 255, 255); stroke-opacity: 1;"/>
                <text class="bartext bartext-inside" text-anchor="middle" data-notex="1" x="0" y="0" style="font-family: 'Alegreya Sans', sans-serif; font-size: 12px; fill: rgb(255, 255, 255); fill-opacity: 1; white-space: pre;" transform="translate(302.1853125,53.1953125)rotate(90 0 3.8046875)">
                  <tspan class="line" dy="0em" x="0" y="0">
                    <tspan style="font-weight:bold">15 %</tspan>
                  </tspan>
                  <tspan class="line" dy="1.3em" x="0" y="0">(49)</tspan>
                </text>
              </g>
              <g class="point">
                <path d="M255.22,34.2V3.8H302.12V34.2Z" style="vector-effect: non-scaling-stroke; opacity: 1; stroke-width: 1px; fill: rgb(255, 221, 0); fill-opacity: 1; stroke: rgb(255, 255, 255); stroke-opacity: 1;"/>
                <text class="bartext bartext-inside" text-anchor="middle" data-notex="1" x="0" y="0" style="font-family: 'Alegreya Sans', sans-serif; font-size: 12px; fill: rgb(255, 255, 255); fill-opacity: 1; white-space: pre;" transform="translate(285.3153125,15.1953125)rotate(90 0 3.8046875)">
                  <tspan class="line" dy="0em" x="0" y="0">
                    <tspan style="font-weight:bold">14 %</tspan>
                  </tspan>
                  <tspan class="line" dy="1.3em" x="0" y="0">(38)</tspan>
                </text>
              </g>
            </g>
          </g>
          <g class="trace bars" shape-rendering="crispEdges" style="opacity: 1;">
            <g class="points">
              <g class="point">
                <path d="M265.96,148.2V117.8H322.01V148.2Z" style="vector-effect: non-scaling-stroke; opacity: 1; stroke-width: 1px; fill: rgb(255, 133, 12); fill-opacity: 1; stroke: rgb(255, 255, 255); stroke-opacity: 1;"/>
                <text class="bartext bartext-inside" text-anchor="middle" data-notex="1" x="0" y="0" style="font-family: 'Alegreya Sans', sans-serif; font-size: 12px; fill: rgb(255, 255, 255); fill-opacity: 1; white-space: pre;" transform="translate(305.2053125,129.1953125)rotate(90 0 3.8046875)">
                  <tspan class="line" dy="0em" x="0" y="0">
                    <tspan style="font-weight:bold">16 %</tspan>
                  </tspan>
                  <tspan class="line" dy="1.3em" x="0" y="0">(60)</tspan>
                </text>
              </g>
              <g class="point">
                <path d="M297.77,110.2V79.8H368.54V110.2Z" style="vector-effect: non-scaling-stroke; opacity: 1; stroke-width: 1px; fill: rgb(255, 133, 12); fill-opacity: 1; stroke: rgb(255, 255, 255); stroke-opacity: 1;"/>
                <text class="bartext bartext-inside" text-anchor="middle" data-notex="1" x="0" y="0" style="font-family: 'Alegreya Sans', sans-serif; font-size: 12px; fill: rgb(255, 255, 255); fill-opacity: 1; white-space: pre;" transform="translate(351.7353125,91.1953125)rotate(90 0 3.8046875)">
                  <tspan class="line" dy="0em" x="0" y="0">
                    <tspan style="font-weight:bold">20 %</tspan>
                  </tspan>
                  <tspan class="line" dy="1.3em" x="0" y="0">(89)</tspan>
                </text>
              </g>
              <g class="point">
                <path d="M318.99,72.2V41.8H393.76V72.2Z" style="vector-effect: non-scaling-stroke; opacity: 1; stroke-width: 1px; fill: rgb(255, 133, 12); fill-opacity: 1; stroke: rgb(255, 255, 255); stroke-opacity: 1;"/>
                <text class="bartext bartext-inside" text-anchor="middle" data-notex="1" x="0" y="0" style="font-family: 'Alegreya Sans', sans-serif; font-size: 12px; fill: rgb(255, 255, 255); fill-opacity: 1; white-space: pre;" transform="translate(376.9553125,53.1953125)rotate(90 0 3.8046875)">
                  <tspan class="line" dy="0em" x="0" y="0">
                    <tspan style="font-weight:bold">22 %</tspan>
                  </tspan>
                  <tspan class="line" dy="1.3em" x="0" y="0">(68)</tspan>
                </text>
              </g>
              <g class="point">
                <path d="M302.12,34.2V3.8H373.04V34.2Z" style="vector-effect: non-scaling-stroke; opacity: 1; stroke-width: 1px; fill: rgb(255, 133, 12); fill-opacity: 1; stroke: rgb(255, 255, 255); stroke-opacity: 1;"/>
                <text class="bartext bartext-inside" text-anchor="middle" data-notex="1" x="0" y="0" style="font-family: 'Alegreya Sans', sans-serif; font-size: 12px; fill: rgb(255, 255, 255); fill-opacity: 1; white-space: pre;" transform="translate(356.2353125,15.1953125)rotate(90 0 3.8046875)">
                  <tspan class="line" dy="0em" x="0" y="0">
                    <tspan style="font-weight:bold">21 %</tspan>
                  </tspan>
                  <tspan class="line" dy="1.3em" x="0" y="0">(58)</tspan>
                </text>
              </g>
            </g>
          </g>
          <g class="trace bars" shape-rendering="crispEdges" style="opacity: 1;">
            <g class="points">
              <g class="point">
                <path d="M322.01,148.2V117.8H466.58V148.2Z" style="vector-effect: non-scaling-stroke; opacity: 1; stroke-width: 1px; fill: rgb(16, 79, 160); fill-opacity: 1; stroke: rgb(255, 255, 255); stroke-opacity: 1;"/>
                <text class="bartext bartext-inside" text-anchor="middle" data-notex="1" x="0" y="0" style="font-family: 'Alegreya Sans', sans-serif; font-size: 12px; fill: rgb(255, 255, 255); fill-opacity: 1; white-space: pre;" transform="translate(449.7753125,129.1953125)rotate(90 0 3.8046875)">
                  <tspan class="line" dy="0em" x="0" y="0">
                    <tspan style="font-weight:bold">42 %</tspan>
                  </tspan>
                  <tspan class="line" dy="1.3em" x="0" y="0">(156)</tspan>
                </text>
              </g>
              <g class="point">
                <path d="M368.54,110.2V79.8H512.38V110.2Z" style="vector-effect: non-scaling-stroke; opacity: 1; stroke-width: 1px; fill: rgb(16, 79, 160); fill-opacity: 1; stroke: rgb(255, 255, 255); stroke-opacity: 1;"/>
                <text class="bartext bartext-inside" text-anchor="middle" data-notex="1" x="0" y="0" style="font-family: 'Alegreya Sans', sans-serif; font-size: 12px; fill: rgb(255, 255, 255); fill-opacity: 1; white-space: pre;" transform="translate(495.5753125,91.1953125)rotate(90 0 3.8046875)">
                  <tspan class="line" dy="0em" x="0" y="0">
                    <tspan style="font-weight:bold">42 %</tspan>
                  </tspan>
                  <tspan class="line" dy="1.3em" x="0" y="0">(180)</tspan>
                </text>
              </g>
              <g class="point">
                <path d="M393.76,72.2V41.8H550.81V72.2Z" style="vector-effect: non-scaling-stroke; opacity: 1; stroke-width: 1px; fill: rgb(16, 79, 160); fill-opacity: 1; stroke: rgb(255, 255, 255); stroke-opacity: 1;"/>
                <text class="bartext bartext-inside" text-anchor="middle" data-notex="1" x="0" y="0" style="font-family: 'Alegreya Sans', sans-serif; font-size: 12px; fill: rgb(255, 255, 255); fill-opacity: 1; white-space: pre;" transform="translate(534.0053125,53.1953125)rotate(90 0 3.8046875)">
                  <tspan class="line" dy="0em" x="0" y="0">
                    <tspan style="font-weight:bold">45 %</tspan>
                  </tspan>
                  <tspan class="line" dy="1.3em" x="0" y="0">(142)</tspan>
                </text>
              </g>
              <g class="point">
                <path d="M373.04,34.2V3.8H538.69V34.2Z" style="vector-effect: non-scaling-stroke; opacity: 1; stroke-width: 1px; fill: rgb(16, 79, 160); fill-opacity: 1; stroke: rgb(255, 255, 255); stroke-opacity: 1;"/>
                <text class="bartext bartext-inside" text-anchor="middle" data-notex="1" x="0" y="0" style="font-family: 'Alegreya Sans', sans-serif; font-size: 12px; fill: rgb(255, 255, 255); fill-opacity: 1; white-space: pre;" transform="translate(521.8853125,15.1953125)rotate(90 0 3.8046875)">
                  <tspan class="line" dy="0em" x="0" y="0">
                    <tspan style="font-weight:bold">48 %</tspan>
                  </tspan>
                  <tspan class="line" dy="1.3em" x="0" y="0">(136)</tspan>
                </text>
              </g>
            </g>
          </g>
          <g class="trace bars" shape-rendering="crispEdges" style="opacity: 1;">
            <g class="points">
              <g class="point">
                <path d="M466.58,148.2V117.8H625.92V148.2Z" style="vector-effect: non-scaling-stroke; opacity: 1; stroke-width: 1px; fill: rgb(63, 123, 23); fill-opacity: 1; stroke: rgb(255, 255, 255); stroke-opacity: 1;"/>
                <text class="bartext bartext-inside" text-anchor="middle" data-notex="1" x="0" y="0" style="font-family: 'Alegreya Sans', sans-serif; font-size: 12px; fill: rgb(255, 255, 255); fill-opacity: 1; white-space: pre;" transform="translate(609.1153125,129.1953125)rotate(90 0 3.8046875)">
                  <tspan class="line" dy="0em" x="0" y="0">
                    <tspan style="font-weight:bold">46 %</tspan>
                  </tspan>
                  <tspan class="line" dy="1.3em" x="0" y="0">(171)</tspan>
                </text>
              </g>
              <g class="point">
                <path d="M512.38,110.2V79.8H640.01V110.2Z" style="vector-effect: non-scaling-stroke; opacity: 1; stroke-width: 1px; fill: rgb(63, 123, 23); fill-opacity: 1; stroke: rgb(255, 255, 255); stroke-opacity: 1;"/>
                <text class="bartext bartext-inside" text-anchor="middle" data-notex="1" x="0" y="0" style="font-family: 'Alegreya Sans', sans-serif; font-size: 12px; fill: rgb(255, 255, 255); fill-opacity: 1; white-space: pre;" transform="translate(623.2053125,91.1953125)rotate(90 0 3.8046875)">
                  <tspan class="line" dy="0em" x="0" y="0">
                    <tspan style="font-weight:bold">37 %</tspan>
                  </tspan>
                  <tspan class="line" dy="1.3em" x="0" y="0">(160)</tspan>
                </text>
              </g>
              <g class="point">
                <path d="M550.81,72.2V41.8H656.45V72.2Z" style="vector-effect: non-scaling-stroke; opacity: 1; stroke-width: 1px; fill: rgb(63, 123, 23); fill-opacity: 1; stroke: rgb(255, 255, 255); stroke-opacity: 1;"/>
                <text class="bartext bartext-inside" text-anchor="middle" data-notex="1" x="0" y="0" style="font-family: 'Alegreya Sans', sans-serif; font-size: 12px; fill: rgb(255, 255, 255); fill-opacity: 1; white-space: pre;" transform="translate(639.6453125,53.1953125)rotate(90 0 3.8046875)">
                  <tspan class="line" dy="0em" x="0" y="0">
                    <tspan style="font-weight:bold">31 %</tspan>
                  </tspan>
                  <tspan class="line" dy="1.3em" x="0" y="0">(96)</tspan>
                </text>
              </g>
              <g class="point">
                <path d="M538.69,34.2V3.8H646.81V34.2Z" style="vector-effect: non-scaling-stroke; opacity: 1; stroke-width: 1px; fill: rgb(63, 123, 23); fill-opacity: 1; stroke: rgb(255, 255, 255); stroke-opacity: 1;"/>
                <text class="bartext bartext-inside" text-anchor="middle" data-notex="1" x="0" y="0" style="font-family: 'Alegreya Sans', sans-serif; font-size: 12px; fill: rgb(255, 255, 255); fill-opacity: 1; white-space: pre;" transform="translate(630.0053125,15.1953125)rotate(90 0 3.8046875)">
                  <tspan class="line" dy="0em" x="0" y="0">
                    <tspan style="font-weight:bold">31 %</tspan>
                  </tspan>
                  <tspan class="line" dy="1.3em" x="0" y="0">(89)</tspan>
                </text>
              </g>
            </g>
          </g>
        </g>
      </g>
      <g class="overplot"/>
      <path class="xlines-above crisp" d="M0,0" style="fill: none;"/>
      <path class="ylines-above crisp" d="" style="fill: none; stroke-width: 1px; stroke: rgb(0, 0, 0); stroke-opacity: 0;"/>
      <g class="overlines-above"/>
      <g class="xaxislayer-above">
        <g class="xtick">
          <text text-anchor="middle" x="0" y="165" transform="translate(99,0)" style="font-family: 'Alegreya Sans', sans-serif; font-size: 12px; fill: rgb(0, 0, 0); fill-opacity: 1; white-space: pre; opacity: 1;">0 %</text>
        </g>
        <g class="xtick">
          <text text-anchor="middle" x="0" y="165" style="font-family: 'Alegreya Sans', sans-serif; font-size: 12px; fill: rgb(0, 0, 0); fill-opacity: 1; white-space: pre; opacity: 1;" transform="translate(271.85,0)">50 %</text>
        </g>
        <g class="xtick">
          <text text-anchor="middle" x="0" y="165" style="font-family: 'Alegreya Sans', sans-serif; font-size: 12px; fill: rgb(0, 0, 0); fill-opacity: 1; white-space: pre; opacity: 1;" transform="translate(444.69,0)">100 %</text>
        </g>
        <g class="xtick">
          <text text-anchor="middle" x="0" y="165" style="font-family: 'Alegreya Sans', sans-serif; font-size: 12px; fill: rgb(0, 0, 0); fill-opacity: 1; white-space: pre; opacity: 1;" transform="translate(617.54,0)">150 %</text>
        </g>
      </g>
      <g class="yaxislayer-above">
        <path class="ytick ticks crisp" d="M98,0h-5" transform="translate(0,133)" style="stroke: rgb(68, 68, 68); stroke-opacity: 1; stroke-width: 1px;"/>
        <path class="ytick ticks crisp" d="M98,0h-5" transform="translate(0,95)" style="stroke: rgb(68, 68, 68); stroke-opacity: 1; stroke-width: 1px;"/>
        <path class="ytick ticks crisp" d="M98,0h-5" transform="translate(0,57)" style="stroke: rgb(68, 68, 68); stroke-opacity: 1; stroke-width: 1px;"/>
        <path class="ytick ticks crisp" d="M98,0h-5" transform="translate(0,19)" style="stroke: rgb(68, 68, 68); stroke-opacity: 1; stroke-width: 1px;"/>
        <g class="ytick">
          <text text-anchor="end" x="90.6" y="4.199999999999999" transform="translate(0,133)translate(0,-7.800000000000001)" style="font-family: 'Alegreya Sans', sans-serif; font-size: 12px; fill: rgb(0, 0, 0); fill-opacity: 1; white-space: pre; opacity: 1;">
            <tspan class="line" dy="0em" x="90.6" y="4.199999999999999">unterstes</tspan>
            <tspan class="line" dy="1.3em" x="90.6" y="4.199999999999999">Einkommensviertel</tspan>
          </text>
        </g>
        <g class="ytick">
          <text text-anchor="end" x="90.6" y="4.199999999999999" transform="translate(0,95)translate(0,-7.800000000000001)" style="font-family: 'Alegreya Sans', sans-serif; font-size: 12px; fill: rgb(0, 0, 0); fill-opacity: 1; white-space: pre; opacity: 1;">
            <tspan class="line" dy="0em" x="90.6" y="4.199999999999999">zweites</tspan>
            <tspan class="line" dy="1.3em" x="90.6" y="4.199999999999999">Einkommensviertel</tspan>
          </text>
        </g>
        <g class="ytick">
          <text text-anchor="end" x="90.6" y="4.199999999999999" transform="translate(0,57)translate(0,-7.800000000000001)" style="font-family: 'Alegreya Sans', sans-serif; font-size: 12px; fill: rgb(0, 0, 0); fill-opacity: 1; white-space: pre; opacity: 1;">
            <tspan class="line" dy="0em" x="90.6" y="4.199999999999999">drittes</tspan>
            <tspan class="line" dy="1.3em" x="90.6" y="4.199999999999999">Einkommensviertel</tspan>
          </text>
        </g>
        <g class="ytick">
          <text text-anchor="end" x="90.6" y="4.199999999999999" transform="translate(0,19)translate(0,-7.800000000000001)" style="font-family: 'Alegreya Sans', sans-serif; font-size: 12px; fill: rgb(0, 0, 0); fill-opacity: 1; white-space: pre; opacity: 1;">
            <tspan class="line" dy="0em" x="90.6" y="4.199999999999999">oberstes</tspan>
            <tspan class="line" dy="1.3em" x="90.6" y="4.199999999999999">Einkommensviertel</tspan>
          </text>
        </g>
      </g>
      <g class="overaxes-above"/>
    </g>
  </g>
  <g class="polarlayer"/>
  <g class="smithlayer"/>
  <g class="ternarylayer"/>
  <g class="geolayer"/>
  <g class="funnelarealayer"/>
  <g class="pielayer"/>
  <g class="iciclelayer"/>
  <g class="treemaplayer"/>
  <g class="sunburstlayer"/>
  <g class="glimages"/>
  <defs id="topdefs-d29589">
    <g class="clips"/>
    <clipPath id="legendd29589">
      <rect width="553" height="113" x="0" y="0"/>
    </clipPath>
  </defs>
  <g class="layer-above">
    <g class="imagelayer"/>
    <g class="shapelayer"/>
  </g>
  <g class="infolayer">
    <g class="legend" pointer-events="all" transform="translate(99,167)">
      <rect class="bg" shape-rendering="crispEdges" style="stroke: rgb(68, 68, 68); stroke-opacity: 1; fill: rgb(255, 255, 255); fill-opacity: 1; stroke-width: 0px;" width="553" height="113" x="0" y="0"/>
      <g class="scrollbox" transform="" clip-path="url(#legendd29589)">
        <g class="groups">
          <g class="traces" transform="translate(0,14.5)" style="opacity: 1;">
            <text class="legendtext" text-anchor="start" x="40" y="4.680000000000001" style="font-family: 'Alegreya Sans', sans-serif; font-size: 12px; fill: rgb(0, 0, 0); fill-opacity: 1; white-space: pre;">Cédric Wermuth (SP)</text>
            <g class="layers" style="opacity: 1;">
              <g class="legendfill"/>
              <g class="legendlines"/>
              <g class="legendsymbols">
                <g class="legendpoints">
                  <path class="legendundefined" d="M6,6H-6V-6H6Z" transform="translate(20,0)" style="stroke-width: 1px; fill: rgb(238, 42, 59); fill-opacity: 1; stroke: rgb(255, 255, 255); stroke-opacity: 1;"/>
                </g>
              </g>
            </g>
            <rect class="legendtoggle" x="0" y="-9.5" width="140.03125" height="19" style="fill: rgb(0, 0, 0); fill-opacity: 0;"/>
          </g>
          <g class="traces" transform="translate(142.53125,14.5)" style="opacity: 1;">
            <text class="legendtext" text-anchor="start" x="40" y="4.680000000000001" style="font-family: 'Alegreya Sans', sans-serif; font-size: 12px; fill: rgb(0, 0, 0); fill-opacity: 1; white-space: pre;">Ruth Müri (Grüne)</text>
            <g class="layers" style="opacity: 1;">
              <g class="legendfill"/>
              <g class="legendlines"/>
              <g class="legendsymbols">
                <g class="legendpoints">
                  <path class="legendundefined" d="M6,6H-6V-6H6Z" transform="translate(20,0)" style="stroke-width: 1px; fill: rgb(132, 180, 20); fill-opacity: 1; stroke: rgb(255, 255, 255); stroke-opacity: 1;"/>
                </g>
              </g>
            </g>
            <rect class="legendtoggle" x="0" y="-9.5" width="126.765625" height="19" style="fill: rgb(0, 0, 0); fill-opacity: 0;"/>
          </g>
          <g class="traces" transform="translate(285.0625,22.1)" style="opacity: 1;">
            <text class="legendtext" text-anchor="start" x="40" y="-3.1200000000000006" style="font-family: 'Alegreya Sans', sans-serif; font-size: 12px; fill: rgb(0, 0, 0); fill-opacity: 1; white-space: pre;">
              <tspan class="line" dy="0em" x="40" y="-3.1200000000000006">Roland Frauchiger</tspan>
              <tspan class="line" dy="1.3em" x="40" y="-3.1200000000000006">(EVP)</tspan>
            </text>
            <g class="layers" style="opacity: 1;">
              <g class="legendfill"/>
              <g class="legendlines"/>
              <g class="legendsymbols">
                <g class="legendpoints">
                  <path class="legendundefined" d="M6,6H-6V-6H6Z" transform="translate(20,0)" style="stroke-width: 1px; fill: rgb(204, 153, 255); fill-opacity: 1; stroke: rgb(255, 255, 255); stroke-opacity: 1;"/>
                </g>
              </g>
            </g>
            <rect class="legendtoggle" x="0" y="-17.1" width="126.71875" height="34.2" style="fill: rgb(0, 0, 0); fill-opacity: 0;"/>
          </g>
          <g class="traces" transform="translate(427.59375,14.5)" style="opacity: 1;">
            <text class="legendtext" text-anchor="start" x="40" y="4.680000000000001" style="font-family: 'Alegreya Sans', sans-serif; font-size: 12px; fill: rgb(0, 0, 0); fill-opacity: 1; white-space: pre;">Beat Flach (GLP)</text>
            <g class="layers" style="opacity: 1;">
              <g class="legendfill"/>
              <g class="legendlines"/>
              <g class="legendsymbols">
                <g class="legendpoints">
                  <path class="legendundefined" d="M6,6H-6V-6H6Z" transform="translate(20,0)" style="stroke-width: 1px; fill: rgb(195, 217, 63); fill-opacity: 1; stroke: rgb(255, 255, 255); stroke-opacity: 1;"/>
                </g>
              </g>
            </g>
            <rect class="legendtoggle" x="0" y="-9.5" width="117.8125" height="19" style="fill: rgb(0, 0, 0); fill-opacity: 0;"/>
          </g>
          <g class="traces" transform="translate(0,56.300000000000004)" style="opacity: 1;">
            <text class="legendtext" text-anchor="start" x="40" y="-3.1200000000000006" style="font-family: 'Alegreya Sans', sans-serif; font-size: 12px; fill: rgb(0, 0, 0); fill-opacity: 1; white-space: pre;">
              <tspan class="line" dy="0em" x="40" y="-3.1200000000000006">Pius Lischer (Neue</tspan>
              <tspan class="line" dy="1.3em" x="40" y="-3.1200000000000006">Bundesverfassung)</tspan>
            </text>
            <g class="layers" style="opacity: 1;">
              <g class="legendfill"/>
              <g class="legendlines"/>
              <g class="legendsymbols">
                <g class="legendpoints">
                  <path class="legendundefined" d="M6,6H-6V-6H6Z" transform="translate(20,0)" style="stroke-width: 1px; fill: rgb(184, 148, 166); fill-opacity: 1; stroke: rgb(255, 255, 255); stroke-opacity: 1;"/>
                </g>
              </g>
            </g>
            <rect class="legendtoggle" x="0" y="-17.1" width="131.296875" height="34.2" style="fill: rgb(0, 0, 0); fill-opacity: 0;"/>
          </g>
          <g class="traces" transform="translate(142.53125,56.300000000000004)" style="opacity: 1;">
            <text class="legendtext" text-anchor="start" x="40" y="-3.1200000000000006" style="font-family: 'Alegreya Sans', sans-serif; font-size: 12px; fill: rgb(0, 0, 0); fill-opacity: 1; white-space: pre;">
              <tspan class="line" dy="0em" x="40" y="-3.1200000000000006">jemand anderes</tspan>
              <tspan class="line" dy="1.3em" x="40" y="-3.1200000000000006">(nicht nominiert)</tspan>
            </text>
            <g class="layers" style="opacity: 1;">
              <g class="legendfill"/>
              <g class="legendlines"/>
              <g class="legendsymbols">
                <g class="legendpoints">
                  <path class="legendundefined" d="M6,6H-6V-6H6Z" transform="translate(20,0)" style="stroke-width: 1px; fill: rgb(148, 184, 184); fill-opacity: 1; stroke: rgb(255, 255, 255); stroke-opacity: 1;"/>
                </g>
              </g>
            </g>
            <rect class="legendtoggle" x="0" y="-17.1" width="122.203125" height="34.2" style="fill: rgb(0, 0, 0); fill-opacity: 0;"/>
          </g>
          <g class="traces" transform="translate(285.0625,56.300000000000004)" style="opacity: 1;">
            <text class="legendtext" text-anchor="start" x="40" y="-3.1200000000000006" style="font-family: 'Alegreya Sans', sans-serif; font-size: 12px; fill: rgb(0, 0, 0); fill-opacity: 1; white-space: pre;">
              <tspan class="line" dy="0em" x="40" y="-3.1200000000000006">Jean-Pierre</tspan>
              <tspan class="line" dy="1.3em" x="40" y="-3.1200000000000006">Leutwyler (FW AG)</tspan>
            </text>
            <g class="layers" style="opacity: 1;">
              <g class="legendfill"/>
              <g class="legendlines"/>
              <g class="legendsymbols">
                <g class="legendpoints">
                  <path class="legendundefined" d="M6,6H-6V-6H6Z" transform="translate(20,0)" style="stroke-width: 1px; fill: rgb(148, 184, 184); fill-opacity: 1; stroke: rgb(255, 255, 255); stroke-opacity: 1;"/>
                </g>
              </g>
            </g>
            <rect class="legendtoggle" x="0" y="-17.1" width="129.5625" height="34.2" style="fill: rgb(0, 0, 0); fill-opacity: 0;"/>
          </g>
          <g class="traces" transform="translate(427.59375,48.7)" style="opacity: 1;">
            <text class="legendtext" text-anchor="start" x="40" y="4.680000000000001" style="font-family: 'Alegreya Sans', sans-serif; font-size: 12px; fill: rgb(0, 0, 0); fill-opacity: 1; white-space: pre;">Maya Bally (BDP)</text>
            <g class="layers" style="opacity: 1;">
              <g class="legendfill"/>
              <g class="legendlines"/>
              <g class="legendsymbols">
                <g class="legendpoints">
                  <path class="legendundefined" d="M6,6H-6V-6H6Z" transform="translate(20,0)" style="stroke-width: 1px; fill: rgb(255, 221, 0); fill-opacity: 1; stroke: rgb(255, 255, 255); stroke-opacity: 1;"/>
                </g>
              </g>
            </g>
            <rect class="legendtoggle" x="0" y="-9.5" width="122.265625" height="19" style="fill: rgb(0, 0, 0); fill-opacity: 0;"/>
          </g>
          <g class="traces" transform="translate(0,90.5)" style="opacity: 1;">
            <text class="legendtext" text-anchor="start" x="40" y="-3.1200000000000006" style="font-family: 'Alegreya Sans', sans-serif; font-size: 12px; fill: rgb(0, 0, 0); fill-opacity: 1; white-space: pre;">
              <tspan class="line" dy="0em" x="40" y="-3.1200000000000006">Marianne Binder-</tspan>
              <tspan class="line" dy="1.3em" x="40" y="-3.1200000000000006">Keller (CVP)</tspan>
            </text>
            <g class="layers" style="opacity: 1;">
              <g class="legendfill"/>
              <g class="legendlines"/>
              <g class="legendsymbols">
                <g class="legendpoints">
                  <path class="legendundefined" d="M6,6H-6V-6H6Z" transform="translate(20,0)" style="stroke-width: 1px; fill: rgb(255, 133, 12); fill-opacity: 1; stroke: rgb(255, 255, 255); stroke-opacity: 1;"/>
                </g>
              </g>
            </g>
            <rect class="legendtoggle" x="0" y="-17.1" width="124.015625" height="34.2" style="fill: rgb(0, 0, 0); fill-opacity: 0;"/>
          </g>
          <g class="traces" transform="translate(142.53125,90.5)" style="opacity: 1;">
            <text class="legendtext" text-anchor="start" x="40" y="-3.1200000000000006" style="font-family: 'Alegreya Sans', sans-serif; font-size: 12px; fill: rgb(0, 0, 0); fill-opacity: 1; white-space: pre;">
              <tspan class="line" dy="0em" x="40" y="-3.1200000000000006">Thierry Burkart</tspan>
              <tspan class="line" dy="1.3em" x="40" y="-3.1200000000000006">(FDP)</tspan>
            </text>
            <g class="layers" style="opacity: 1;">
              <g class="legendfill"/>
              <g class="legendlines"/>
              <g class="legendsymbols">
                <g class="legendpoints">
                  <path class="legendundefined" d="M6,6H-6V-6H6Z" transform="translate(20,0)" style="stroke-width: 1px; fill: rgb(16, 79, 160); fill-opacity: 1; stroke: rgb(255, 255, 255); stroke-opacity: 1;"/>
                </g>
              </g>
            </g>
            <rect class="legendtoggle" x="0" y="-17.1" width="112.8125" height="34.2" style="fill: rgb(0, 0, 0); fill-opacity: 0;"/>
          </g>
          <g class="traces" transform="translate(285.0625,90.5)" style="opacity: 1;">
            <text class="legendtext" text-anchor="start" x="40" y="-3.1200000000000006" style="font-family: 'Alegreya Sans', sans-serif; font-size: 12px; fill: rgb(0, 0, 0); fill-opacity: 1; white-space: pre;">
              <tspan class="line" dy="0em" x="40" y="-3.1200000000000006">Hansjörg Knecht</tspan>
              <tspan class="line" dy="1.3em" x="40" y="-3.1200000000000006">(SVP)</tspan>
            </text>
            <g class="layers" style="opacity: 1;">
              <g class="legendfill"/>
              <g class="legendlines"/>
              <g class="legendsymbols">
                <g class="legendpoints">
                  <path class="legendundefined" d="M6,6H-6V-6H6Z" transform="translate(20,0)" style="stroke-width: 1px; fill: rgb(63, 123, 23); fill-opacity: 1; stroke: rgb(255, 255, 255); stroke-opacity: 1;"/>
                </g>
              </g>
            </g>
            <rect class="legendtoggle" x="0" y="-17.1" width="120.21875" height="34.2" style="fill: rgb(0, 0, 0); fill-opacity: 0;"/>
          </g>
        </g>
      </g>
      <rect class="scrollbar" rx="20" ry="3" width="0" height="0" style="fill: rgb(128, 139, 164); fill-opacity: 1;" x="0" y="0"/>
    </g>
    <g class="g-gtitle"/>
    <g class="g-xtitle"/>
    <g class="g-ytitle"/>
  </g>
</svg>
