<svg xmlns="http://www.w3.org/2000/svg" xmlns:xlink="http://www.w3.org/1999/xlink" class="main-svg" width="100%" height="100%" style="" viewBox="1 1 799 199">
  <rect x="0" y="0" width="800" height="200" style="fill: rgb(255, 255, 255); fill-opacity: 1;"/>
  <defs id="defs-6634a6">
    <g class="clips">
      <clipPath id="clip6634a6xyplot" class="plotclip">
        <rect width="689" height="200"/>
      </clipPath>
      <clipPath class="axesclip" id="clip6634a6x">
        <rect x="101" y="0" width="689" height="200"/>
      </clipPath>
      <clipPath class="axesclip" id="clip6634a6y">
        <rect x="0" y="0" width="800" height="200"/>
      </clipPath>
      <clipPath class="axesclip" id="clip6634a6xy">
        <rect x="101" y="0" width="689" height="200"/>
      </clipPath>
    </g>
    <g class="gradients"/>
    <g class="patterns"/>
  </defs>
  <g class="bglayer"/>
  <g class="layer-below">
    <g class="imagelayer"/>
    <g class="shapelayer"/>
  </g>
  <g class="cartesianlayer">
    <g class="subplot xy">
      <g class="layer-subplot">
        <g class="shapelayer"/>
        <g class="imagelayer"/>
      </g>
      <g class="gridlayer">
        <g class="x">
          <path class="xgrid crisp" transform="translate(231.91,0)" d="M0,0v200" style="stroke: rgb(238, 238, 238); stroke-opacity: 1; stroke-width: 1px;"/>
          <path class="xgrid crisp" transform="translate(362.82,0)" d="M0,0v200" style="stroke: rgb(238, 238, 238); stroke-opacity: 1; stroke-width: 1px;"/>
          <path class="xgrid crisp" transform="translate(493.73,0)" d="M0,0v200" style="stroke: rgb(238, 238, 238); stroke-opacity: 1; stroke-width: 1px;"/>
          <path class="xgrid crisp" transform="translate(624.64,0)" d="M0,0v200" style="stroke: rgb(238, 238, 238); stroke-opacity: 1; stroke-width: 1px;"/>
          <path class="xgrid crisp" transform="translate(755.55,0)" d="M0,0v200" style="stroke: rgb(238, 238, 238); stroke-opacity: 1; stroke-width: 1px;"/>
        </g>
        <g class="y"/>
      </g>
      <g class="zerolinelayer">
        <path class="xzl zl crisp" transform="translate(101,0)" d="M0,0v200" style="stroke: rgb(68, 68, 68); stroke-opacity: 1; stroke-width: 1px;"/>
      </g>
      <path class="xlines-below"/>
      <path class="ylines-below"/>
      <g class="overlines-below"/>
      <g class="xaxislayer-below"/>
      <g class="yaxislayer-below"/>
      <g class="overaxes-below"/>
      <g class="plot" transform="translate(101,0)" clip-path="url(#clip6634a6xyplot)">
        <g class="barlayer mlayer">
          <g class="trace bars" shape-rendering="crispEdges" style="opacity: 1;">
            <g class="points">
              <g class="point">
                <path d="M0,195V155H167.4V195Z" style="vector-effect: non-scaling-stroke; opacity: 1; stroke-width: 1px; fill: rgb(238, 42, 59); fill-opacity: 1; stroke: rgb(255, 255, 255); stroke-opacity: 1;"/>
                <text class="bartext bartext-inside" text-anchor="middle" data-notex="1" x="0" y="0" style="font-family: 'Alegreya Sans', sans-serif; font-size: 12px; fill: rgb(255, 255, 255); fill-opacity: 1; white-space: pre;" transform="translate(153.0875,171.1953125)">
                  <tspan class="line" dy="0em" x="0" y="0">
                    <tspan style="font-weight:bold">26 %</tspan>
                  </tspan>
                  <tspan class="line" dy="1.3em" x="0" y="0">(15)</tspan>
                </text>
              </g>
              <g class="point">
                <path d="M0,145V105H141.83V145Z" style="vector-effect: non-scaling-stroke; opacity: 1; stroke-width: 1px; fill: rgb(238, 42, 59); fill-opacity: 1; stroke: rgb(255, 255, 255); stroke-opacity: 1;"/>
                <text class="bartext bartext-inside" text-anchor="middle" data-notex="1" x="0" y="0" style="font-family: 'Alegreya Sans', sans-serif; font-size: 12px; fill: rgb(255, 255, 255); fill-opacity: 1; white-space: pre;" transform="translate(127.59562500000001,121.1953125)">
                  <tspan class="line" dy="0em" x="0" y="0">
                    <tspan style="font-weight:bold">22 %</tspan>
                  </tspan>
                  <tspan class="line" dy="1.3em" x="0" y="0">(122)</tspan>
                </text>
              </g>
              <g class="point">
                <path d="M0,95V55H145.19V95Z" style="vector-effect: non-scaling-stroke; opacity: 1; stroke-width: 1px; fill: rgb(238, 42, 59); fill-opacity: 1; stroke: rgb(255, 255, 255); stroke-opacity: 1;"/>
                <text class="bartext bartext-inside" text-anchor="middle" data-notex="1" x="0" y="0" style="font-family: 'Alegreya Sans', sans-serif; font-size: 12px; fill: rgb(255, 255, 255); fill-opacity: 1; white-space: pre;" transform="translate(130.955625,71.1953125)">
                  <tspan class="line" dy="0em" x="0" y="0">
                    <tspan style="font-weight:bold">22 %</tspan>
                  </tspan>
                  <tspan class="line" dy="1.3em" x="0" y="0">(97)</tspan>
                </text>
              </g>
              <g class="point">
                <path d="M0,45V5H208.34V45Z" style="vector-effect: non-scaling-stroke; opacity: 1; stroke-width: 1px; fill: rgb(238, 42, 59); fill-opacity: 1; stroke: rgb(255, 255, 255); stroke-opacity: 1;"/>
                <text class="bartext bartext-inside" text-anchor="middle" data-notex="1" x="0" y="0" style="font-family: 'Alegreya Sans', sans-serif; font-size: 12px; fill: rgb(255, 255, 255); fill-opacity: 1; white-space: pre;" transform="translate(193.99625,21.1953125)">
                  <tspan class="line" dy="0em" x="0" y="0">
                    <tspan style="font-weight:bold">32 %</tspan>
                  </tspan>
                  <tspan class="line" dy="1.3em" x="0" y="0">(146)</tspan>
                </text>
              </g>
            </g>
          </g>
          <g class="trace bars" shape-rendering="crispEdges" style="opacity: 1;">
            <g class="points">
              <g class="point">
                <path d="M167.4,195V155H262.52V195Z" style="vector-effect: non-scaling-stroke; opacity: 1; stroke-width: 1px; fill: rgb(132, 180, 20); fill-opacity: 1; stroke: rgb(255, 255, 255); stroke-opacity: 1;"/>
                <text class="bartext bartext-inside" text-anchor="middle" data-notex="1" x="0" y="0" style="font-family: 'Alegreya Sans', sans-serif; font-size: 12px; fill: rgb(255, 255, 255); fill-opacity: 1; white-space: pre;" transform="translate(249.17624999999998,171.1953125)">
                  <tspan class="line" dy="0em" x="0" y="0">
                    <tspan style="font-weight:bold">15 %</tspan>
                  </tspan>
                  <tspan class="line" dy="1.3em" x="0" y="0">(9)</tspan>
                </text>
              </g>
              <g class="point">
                <path d="M141.83,145V105H186.13V145Z" style="vector-effect: non-scaling-stroke; opacity: 1; stroke-width: 1px; fill: rgb(132, 180, 20); fill-opacity: 1; stroke: rgb(255, 255, 255); stroke-opacity: 1;"/>
                <text class="bartext bartext-inside" text-anchor="middle" data-notex="1" x="0" y="0" style="font-family: 'Alegreya Sans', sans-serif; font-size: 12px; fill: rgb(255, 255, 255); fill-opacity: 1; white-space: pre;" transform="translate(174.239375,121.1953125)">
                  <tspan class="line" dy="0em" x="0" y="0">
                    <tspan style="font-weight:bold">7 %</tspan>
                  </tspan>
                  <tspan class="line" dy="1.3em" x="0" y="0">(38)</tspan>
                </text>
              </g>
              <g class="point">
                <path d="M145.19,95V55H228.5V95Z" style="vector-effect: non-scaling-stroke; opacity: 1; stroke-width: 1px; fill: rgb(132, 180, 20); fill-opacity: 1; stroke: rgb(255, 255, 255); stroke-opacity: 1;"/>
                <text class="bartext bartext-inside" text-anchor="middle" data-notex="1" x="0" y="0" style="font-family: 'Alegreya Sans', sans-serif; font-size: 12px; fill: rgb(255, 255, 255); fill-opacity: 1; white-space: pre;" transform="translate(215.171875,71.1953125)">
                  <tspan class="line" dy="0em" x="0" y="0">
                    <tspan style="font-weight:bold">13 %</tspan>
                  </tspan>
                  <tspan class="line" dy="1.3em" x="0" y="0">(56)</tspan>
                </text>
              </g>
              <g class="point">
                <path d="M208.34,45V5H293.19V45Z" style="vector-effect: non-scaling-stroke; opacity: 1; stroke-width: 1px; fill: rgb(132, 180, 20); fill-opacity: 1; stroke: rgb(255, 255, 255); stroke-opacity: 1;"/>
                <text class="bartext bartext-inside" text-anchor="middle" data-notex="1" x="0" y="0" style="font-family: 'Alegreya Sans', sans-serif; font-size: 12px; fill: rgb(255, 255, 255); fill-opacity: 1; white-space: pre;" transform="translate(279.861875,21.1953125)">
                  <tspan class="line" dy="0em" x="0" y="0">
                    <tspan style="font-weight:bold">13 %</tspan>
                  </tspan>
                  <tspan class="line" dy="1.3em" x="0" y="0">(60)</tspan>
                </text>
              </g>
            </g>
          </g>
          <g class="trace bars" shape-rendering="crispEdges" style="opacity: 1;">
            <g class="points">
              <g class="point">
                <path d="M262.52,195V155H315.44V195Z" style="vector-effect: non-scaling-stroke; opacity: 1; stroke-width: 1px; fill: rgb(195, 217, 63); fill-opacity: 1; stroke: rgb(255, 255, 255); stroke-opacity: 1;"/>
                <text class="bartext bartext-inside" text-anchor="middle" data-notex="1" x="0" y="0" style="font-family: 'Alegreya Sans', sans-serif; font-size: 12px; fill: rgb(255, 255, 255); fill-opacity: 1; white-space: pre;" transform="translate(303.893125,171.1953125)">
                  <tspan class="line" dy="0em" x="0" y="0">
                    <tspan style="font-weight:bold">8 %</tspan>
                  </tspan>
                  <tspan class="line" dy="1.3em" x="0" y="0">(5)</tspan>
                </text>
              </g>
              <g class="point">
                <path d="M186.13,145V105H237.94V145Z" style="vector-effect: non-scaling-stroke; opacity: 1; stroke-width: 1px; fill: rgb(195, 217, 63); fill-opacity: 1; stroke: rgb(255, 255, 255); stroke-opacity: 1;"/>
                <text class="bartext bartext-inside" text-anchor="middle" data-notex="1" x="0" y="0" style="font-family: 'Alegreya Sans', sans-serif; font-size: 12px; fill: rgb(255, 255, 255); fill-opacity: 1; white-space: pre;" transform="translate(225.97125,121.1953125)">
                  <tspan class="line" dy="0em" x="0" y="0">
                    <tspan style="font-weight:bold">8 %</tspan>
                  </tspan>
                  <tspan class="line" dy="1.3em" x="0" y="0">(45)</tspan>
                </text>
              </g>
              <g class="point">
                <path d="M228.5,95V55H317.36V95Z" style="vector-effect: non-scaling-stroke; opacity: 1; stroke-width: 1px; fill: rgb(195, 217, 63); fill-opacity: 1; stroke: rgb(255, 255, 255); stroke-opacity: 1;"/>
                <text class="bartext bartext-inside" text-anchor="middle" data-notex="1" x="0" y="0" style="font-family: 'Alegreya Sans', sans-serif; font-size: 12px; fill: rgb(255, 255, 255); fill-opacity: 1; white-space: pre;" transform="translate(303.594375,71.1953125)">
                  <tspan class="line" dy="0em" x="0" y="0">
                    <tspan style="font-weight:bold">14 %</tspan>
                  </tspan>
                  <tspan class="line" dy="1.3em" x="0" y="0">(60)</tspan>
                </text>
              </g>
              <g class="point">
                <path d="M293.19,45V5H396.29V45Z" style="vector-effect: non-scaling-stroke; opacity: 1; stroke-width: 1px; fill: rgb(195, 217, 63); fill-opacity: 1; stroke: rgb(255, 255, 255); stroke-opacity: 1;"/>
                <text class="bartext bartext-inside" text-anchor="middle" data-notex="1" x="0" y="0" style="font-family: 'Alegreya Sans', sans-serif; font-size: 12px; fill: rgb(255, 255, 255); fill-opacity: 1; white-space: pre;" transform="translate(382.649375,21.1953125)">
                  <tspan class="line" dy="0em" x="0" y="0">
                    <tspan style="font-weight:bold">16 %</tspan>
                  </tspan>
                  <tspan class="line" dy="1.3em" x="0" y="0">(72)</tspan>
                </text>
              </g>
            </g>
          </g>
          <g class="trace bars" shape-rendering="crispEdges" style="opacity: 1;">
            <g class="points">
              <g class="point">
                <path d="M315.44,195V155H315.44V195Z" style="vector-effect: non-scaling-stroke; opacity: 1; stroke-width: 1px; fill: rgb(184, 148, 166); fill-opacity: 1; stroke: rgb(255, 255, 255); stroke-opacity: 1;"/>
              </g>
              <g class="point">
                <path d="M237.94,145V105H239.5V145Z" style="vector-effect: non-scaling-stroke; opacity: 1; stroke-width: 1px; fill: rgb(184, 148, 166); fill-opacity: 1; stroke: rgb(255, 255, 255); stroke-opacity: 1;"/>
                <text class="bartext bartext-inside" text-anchor="middle" data-notex="1" x="0" y="0" style="font-family: 'Alegreya Sans', sans-serif; font-size: 12px; fill: rgb(255, 255, 255); fill-opacity: 1; white-space: pre;" transform="translate(238.72,124.65901256732495)scale(0.08962298025134663)">
                  <tspan class="line" dy="0em" x="0" y="0">
                    <tspan style="font-weight:bold">0 %</tspan>
                  </tspan>
                  <tspan class="line" dy="1.3em" x="0" y="0">(1)</tspan>
                </text>
              </g>
              <g class="point">
                <path d="M317.36,95V55H322.42V95Z" style="vector-effect: non-scaling-stroke; opacity: 1; stroke-width: 1px; fill: rgb(184, 148, 166); fill-opacity: 1; stroke: rgb(255, 255, 255); stroke-opacity: 1;"/>
                <text class="bartext bartext-inside" text-anchor="middle" data-notex="1" x="0" y="0" style="font-family: 'Alegreya Sans', sans-serif; font-size: 12px; fill: rgb(255, 255, 255); fill-opacity: 1; white-space: pre;" transform="translate(319.89,73.75795362903226)scale(0.32645161290322594)">
                  <tspan class="line" dy="0em" x="0" y="0">
                    <tspan style="font-weight:bold">1 %</tspan>
                  </tspan>
                  <tspan class="line" dy="1.3em" x="0" y="0">(3)</tspan>
                </text>
              </g>
              <g class="point">
                <path d="M396.29,45V5H404.23V45Z" style="vector-effect: non-scaling-stroke; opacity: 1; stroke-width: 1px; fill: rgb(184, 148, 166); fill-opacity: 1; stroke: rgb(255, 255, 255); stroke-opacity: 1;"/>
                <text class="bartext bartext-inside" text-anchor="middle" data-notex="1" x="0" y="0" style="font-family: 'Alegreya Sans', sans-serif; font-size: 12px; fill: rgb(255, 255, 255); fill-opacity: 1; white-space: pre;" transform="translate(400.26,24.523800403225806)scale(0.1251612903225805)">
                  <tspan class="line" dy="0em" x="0" y="0">
                    <tspan style="font-weight:bold">1 %</tspan>
                  </tspan>
                  <tspan class="line" dy="1.3em" x="0" y="0">(6)</tspan>
                </text>
              </g>
            </g>
          </g>
          <g class="trace bars" shape-rendering="crispEdges" style="opacity: 1;">
            <g class="points">
              <g class="point">
                <path d="M315.44,195V155H325.24V195Z" style="vector-effect: non-scaling-stroke; opacity: 1; stroke-width: 1px; fill: rgb(148, 184, 184); fill-opacity: 1; stroke: rgb(255, 255, 255); stroke-opacity: 1;"/>
                <text class="bartext bartext-inside" text-anchor="middle" data-notex="1" x="0" y="0" style="font-family: 'Alegreya Sans', sans-serif; font-size: 12px; fill: rgb(255, 255, 255); fill-opacity: 1; white-space: pre;" transform="translate(320.34000000000003,174.06723790322582)scale(0.24516129032258138)">
                  <tspan class="line" dy="0em" x="0" y="0">
                    <tspan style="font-weight:bold">1 %</tspan>
                  </tspan>
                  <tspan class="line" dy="1.3em" x="0" y="0">(1)</tspan>
                </text>
              </g>
              <g class="point">
                <path d="M239.5,145V105H256.13V145Z" style="vector-effect: non-scaling-stroke; opacity: 1; stroke-width: 1px; fill: rgb(148, 184, 184); fill-opacity: 1; stroke: rgb(255, 255, 255); stroke-opacity: 1;"/>
                <text class="bartext bartext-inside" text-anchor="middle" data-notex="1" x="0" y="0" style="font-family: 'Alegreya Sans', sans-serif; font-size: 12px; fill: rgb(255, 255, 255); fill-opacity: 1; white-space: pre;" transform="translate(247.815,122.62531651376148)scale(0.6241467889908254)">
                  <tspan class="line" dy="0em" x="0" y="0">
                    <tspan style="font-weight:bold">3 %</tspan>
                  </tspan>
                  <tspan class="line" dy="1.3em" x="0" y="0">(14)</tspan>
                </text>
              </g>
              <g class="point">
                <path d="M322.42,95V55H341.49V95Z" style="vector-effect: non-scaling-stroke; opacity: 1; stroke-width: 1px; fill: rgb(148, 184, 184); fill-opacity: 1; stroke: rgb(255, 255, 255); stroke-opacity: 1;"/>
                <text class="bartext bartext-inside" text-anchor="middle" data-notex="1" x="0" y="0" style="font-family: 'Alegreya Sans', sans-serif; font-size: 12px; fill: rgb(255, 255, 255); fill-opacity: 1; white-space: pre;" transform="translate(331.95500000000004,71.95741395793499)scale(0.7996940726577434)">
                  <tspan class="line" dy="0em" x="0" y="0">
                    <tspan style="font-weight:bold">3 %</tspan>
                  </tspan>
                  <tspan class="line" dy="1.3em" x="0" y="0">(13)</tspan>
                </text>
              </g>
              <g class="point">
                <path d="M404.23,45V5H408.39V45Z" style="vector-effect: non-scaling-stroke; opacity: 1; stroke-width: 1px; fill: rgb(148, 184, 184); fill-opacity: 1; stroke: rgb(255, 255, 255); stroke-opacity: 1;"/>
                <text class="bartext bartext-inside" text-anchor="middle" data-notex="1" x="0" y="0" style="font-family: 'Alegreya Sans', sans-serif; font-size: 12px; fill: rgb(255, 255, 255); fill-opacity: 1; white-space: pre;" transform="translate(406.31,23.978870967741944)scale(0.2683870967741915)">
                  <tspan class="line" dy="0em" x="0" y="0">
                    <tspan style="font-weight:bold">1 %</tspan>
                  </tspan>
                  <tspan class="line" dy="1.3em" x="0" y="0">(3)</tspan>
                </text>
              </g>
            </g>
          </g>
          <g class="trace bars" shape-rendering="crispEdges" style="opacity: 1;">
            <g class="points">
              <g class="point">
                <path d="M325.24,195V155H386.92V195Z" style="vector-effect: non-scaling-stroke; opacity: 1; stroke-width: 1px; fill: rgb(16, 79, 160); fill-opacity: 1; stroke: rgb(255, 255, 255); stroke-opacity: 1;"/>
                <text class="bartext bartext-inside" text-anchor="middle" data-notex="1" x="0" y="0" style="font-family: 'Alegreya Sans', sans-serif; font-size: 12px; fill: rgb(255, 255, 255); fill-opacity: 1; white-space: pre;" transform="translate(375.435625,171.1953125)">
                  <tspan class="line" dy="0em" x="0" y="0">
                    <tspan style="font-weight:bold">9 %</tspan>
                  </tspan>
                  <tspan class="line" dy="1.3em" x="0" y="0">(6)</tspan>
                </text>
              </g>
              <g class="point">
                <path d="M256.13,145V105H335.69V145Z" style="vector-effect: non-scaling-stroke; opacity: 1; stroke-width: 1px; fill: rgb(16, 79, 160); fill-opacity: 1; stroke: rgb(255, 255, 255); stroke-opacity: 1;"/>
                <text class="bartext bartext-inside" text-anchor="middle" data-notex="1" x="0" y="0" style="font-family: 'Alegreya Sans', sans-serif; font-size: 12px; fill: rgb(255, 255, 255); fill-opacity: 1; white-space: pre;" transform="translate(322.111875,121.1953125)">
                  <tspan class="line" dy="0em" x="0" y="0">
                    <tspan style="font-weight:bold">12 %</tspan>
                  </tspan>
                  <tspan class="line" dy="1.3em" x="0" y="0">(69)</tspan>
                </text>
              </g>
              <g class="point">
                <path d="M341.49,95V55H441.64V95Z" style="vector-effect: non-scaling-stroke; opacity: 1; stroke-width: 1px; fill: rgb(16, 79, 160); fill-opacity: 1; stroke: rgb(255, 255, 255); stroke-opacity: 1;"/>
                <text class="bartext bartext-inside" text-anchor="middle" data-notex="1" x="0" y="0" style="font-family: 'Alegreya Sans', sans-serif; font-size: 12px; fill: rgb(255, 255, 255); fill-opacity: 1; white-space: pre;" transform="translate(428.29625,71.1953125)">
                  <tspan class="line" dy="0em" x="0" y="0">
                    <tspan style="font-weight:bold">15 %</tspan>
                  </tspan>
                  <tspan class="line" dy="1.3em" x="0" y="0">(67)</tspan>
                </text>
              </g>
              <g class="point">
                <path d="M408.39,45V5H525.2V45Z" style="vector-effect: non-scaling-stroke; opacity: 1; stroke-width: 1px; fill: rgb(16, 79, 160); fill-opacity: 1; stroke: rgb(255, 255, 255); stroke-opacity: 1;"/>
                <text class="bartext bartext-inside" text-anchor="middle" data-notex="1" x="0" y="0" style="font-family: 'Alegreya Sans', sans-serif; font-size: 12px; fill: rgb(255, 255, 255); fill-opacity: 1; white-space: pre;" transform="translate(511.49687500000005,21.1953125)">
                  <tspan class="line" dy="0em" x="0" y="0">
                    <tspan style="font-weight:bold">18 %</tspan>
                  </tspan>
                  <tspan class="line" dy="1.3em" x="0" y="0">(82)</tspan>
                </text>
              </g>
            </g>
          </g>
          <g class="trace bars" shape-rendering="crispEdges" style="opacity: 1;">
            <g class="points">
              <g class="point">
                <path d="M386.92,195V155H654.55V195Z" style="vector-effect: non-scaling-stroke; opacity: 1; stroke-width: 1px; fill: rgb(63, 123, 23); fill-opacity: 1; stroke: rgb(255, 255, 255); stroke-opacity: 1;"/>
                <text class="bartext bartext-inside" text-anchor="middle" data-notex="1" x="0" y="0" style="font-family: 'Alegreya Sans', sans-serif; font-size: 12px; fill: rgb(255, 255, 255); fill-opacity: 1; white-space: pre;" transform="translate(640.784375,171.1953125)">
                  <tspan class="line" dy="0em" x="0" y="0">
                    <tspan style="font-weight:bold">41 %</tspan>
                  </tspan>
                  <tspan class="line" dy="1.3em" x="0" y="0">(25)</tspan>
                </text>
              </g>
              <g class="point">
                <path d="M335.69,145V105H654.55V145Z" style="vector-effect: non-scaling-stroke; opacity: 1; stroke-width: 1px; fill: rgb(63, 123, 23); fill-opacity: 1; stroke: rgb(255, 255, 255); stroke-opacity: 1;"/>
                <text class="bartext bartext-inside" text-anchor="middle" data-notex="1" x="0" y="0" style="font-family: 'Alegreya Sans', sans-serif; font-size: 12px; fill: rgb(255, 255, 255); fill-opacity: 1; white-space: pre;" transform="translate(640.05,121.1953125)">
                  <tspan class="line" dy="0em" x="0" y="0">
                    <tspan style="font-weight:bold">49 %</tspan>
                  </tspan>
                  <tspan class="line" dy="1.3em" x="0" y="0">(275)</tspan>
                </text>
              </g>
              <g class="point">
                <path d="M441.64,95V55H654.55V95Z" style="vector-effect: non-scaling-stroke; opacity: 1; stroke-width: 1px; fill: rgb(63, 123, 23); fill-opacity: 1; stroke: rgb(255, 255, 255); stroke-opacity: 1;"/>
                <text class="bartext bartext-inside" text-anchor="middle" data-notex="1" x="0" y="0" style="font-family: 'Alegreya Sans', sans-serif; font-size: 12px; fill: rgb(255, 255, 255); fill-opacity: 1; white-space: pre;" transform="translate(640.55,71.1953125)">
                  <tspan class="line" dy="0em" x="0" y="0">
                    <tspan style="font-weight:bold">33 %</tspan>
                  </tspan>
                  <tspan class="line" dy="1.3em" x="0" y="0">(143)</tspan>
                </text>
              </g>
              <g class="point">
                <path d="M525.2,45V5H654.55V45Z" style="vector-effect: non-scaling-stroke; opacity: 1; stroke-width: 1px; fill: rgb(63, 123, 23); fill-opacity: 1; stroke: rgb(255, 255, 255); stroke-opacity: 1;"/>
                <text class="bartext bartext-inside" text-anchor="middle" data-notex="1" x="0" y="0" style="font-family: 'Alegreya Sans', sans-serif; font-size: 12px; fill: rgb(255, 255, 255); fill-opacity: 1; white-space: pre;" transform="translate(640.01875,21.1953125)">
                  <tspan class="line" dy="0em" x="0" y="0">
                    <tspan style="font-weight:bold">20 %</tspan>
                  </tspan>
                  <tspan class="line" dy="1.3em" x="0" y="0">(91)</tspan>
                </text>
              </g>
            </g>
          </g>
        </g>
      </g>
      <g class="overplot"/>
      <path class="xlines-above crisp" d="M0,0" style="fill: none;"/>
      <path class="ylines-above crisp" d="" style="fill: none; stroke-width: 1px; stroke: rgb(0, 0, 0); stroke-opacity: 0;"/>
      <g class="overlines-above"/>
      <g class="xaxislayer-above">
        <g class="xtick">
          <text text-anchor="middle" x="0" y="213" transform="translate(101,0)" style="font-family: 'Alegreya Sans', sans-serif; font-size: 12px; fill: rgb(0, 0, 0); fill-opacity: 1; white-space: pre; opacity: 1;"/>
        </g>
        <g class="xtick">
          <text text-anchor="middle" x="0" y="213" style="font-family: 'Alegreya Sans', sans-serif; font-size: 12px; fill: rgb(0, 0, 0); fill-opacity: 1; white-space: pre; opacity: 1;" transform="translate(231.91,0)"/>
        </g>
        <g class="xtick">
          <text text-anchor="middle" x="0" y="213" style="font-family: 'Alegreya Sans', sans-serif; font-size: 12px; fill: rgb(0, 0, 0); fill-opacity: 1; white-space: pre; opacity: 1;" transform="translate(362.82,0)"/>
        </g>
        <g class="xtick">
          <text text-anchor="middle" x="0" y="213" style="font-family: 'Alegreya Sans', sans-serif; font-size: 12px; fill: rgb(0, 0, 0); fill-opacity: 1; white-space: pre; opacity: 1;" transform="translate(493.73,0)"/>
        </g>
        <g class="xtick">
          <text text-anchor="middle" x="0" y="213" style="font-family: 'Alegreya Sans', sans-serif; font-size: 12px; fill: rgb(0, 0, 0); fill-opacity: 1; white-space: pre; opacity: 1;" transform="translate(624.64,0)"/>
        </g>
        <g class="xtick">
          <text text-anchor="middle" x="0" y="213" style="font-family: 'Alegreya Sans', sans-serif; font-size: 12px; fill: rgb(0, 0, 0); fill-opacity: 1; white-space: pre; opacity: 1;" transform="translate(755.55,0)"/>
        </g>
      </g>
      <g class="yaxislayer-above">
        <path class="ytick ticks crisp" d="M100,0h-5" transform="translate(0,175)" style="stroke: rgb(68, 68, 68); stroke-opacity: 1; stroke-width: 1px;"/>
        <path class="ytick ticks crisp" d="M100,0h-5" transform="translate(0,125)" style="stroke: rgb(68, 68, 68); stroke-opacity: 1; stroke-width: 1px;"/>
        <path class="ytick ticks crisp" d="M100,0h-5" transform="translate(0,75)" style="stroke: rgb(68, 68, 68); stroke-opacity: 1; stroke-width: 1px;"/>
        <path class="ytick ticks crisp" d="M100,0h-5" transform="translate(0,25)" style="stroke: rgb(68, 68, 68); stroke-opacity: 1; stroke-width: 1px;"/>
        <g class="ytick">
          <text text-anchor="end" x="93.2" y="3.15" transform="translate(0,175)translate(0,-5.8500000000000005)" style="font-family: 'Alegreya Sans', sans-serif; font-size: 9px; fill: rgb(0, 0, 0); fill-opacity: 1; white-space: pre; opacity: 1;">
            <tspan class="line" dy="0em" x="93.2" y="3.15">kein Abschluss,</tspan>
            <tspan class="line" dy="1.3em" x="93.2" y="3.15">obligatorische Schule</tspan>
          </text>
        </g>
        <g class="ytick">
          <text text-anchor="end" x="93.2" y="3.15" transform="translate(0,125)translate(0,-5.8500000000000005)" style="font-family: 'Alegreya Sans', sans-serif; font-size: 9px; fill: rgb(0, 0, 0); fill-opacity: 1; white-space: pre; opacity: 1;">
            <tspan class="line" dy="0em" x="93.2" y="3.15">Berufslehre,</tspan>
            <tspan class="line" dy="1.3em" x="93.2" y="3.15">Handelsdiplom</tspan>
          </text>
        </g>
        <g class="ytick">
          <text text-anchor="end" x="93.2" y="3.15" transform="translate(0,75)translate(0,-11.700000000000001)" style="font-family: 'Alegreya Sans', sans-serif; font-size: 9px; fill: rgb(0, 0, 0); fill-opacity: 1; white-space: pre; opacity: 1;">
            <tspan class="line" dy="0em" x="93.2" y="3.15">Maturität,</tspan>
            <tspan class="line" dy="1.3em" x="93.2" y="3.15">Diplom-/Fachmittelschule,</tspan>
            <tspan class="line" dy="2.6em" x="93.2" y="3.15">höhere Berufsbildung</tspan>
          </text>
        </g>
        <g class="ytick">
          <text text-anchor="end" x="93.2" y="3.15" transform="translate(0,25)translate(0,-5.8500000000000005)" style="font-family: 'Alegreya Sans', sans-serif; font-size: 9px; fill: rgb(0, 0, 0); fill-opacity: 1; white-space: pre; opacity: 1;">
            <tspan class="line" dy="0em" x="93.2" y="3.15">Fachhochschule,</tspan>
            <tspan class="line" dy="1.3em" x="93.2" y="3.15">Universität, ETH</tspan>
          </text>
        </g>
      </g>
      <g class="overaxes-above"/>
    </g>
  </g>
  <g class="polarlayer"/>
  <g class="smithlayer"/>
  <g class="ternarylayer"/>
  <g class="geolayer"/>
  <g class="funnelarealayer"/>
  <g class="pielayer"/>
  <g class="iciclelayer"/>
  <g class="treemaplayer"/>
  <g class="sunburstlayer"/>
  <g class="glimages"/>
  <defs id="topdefs-6634a6">
    <g class="clips"/>
  </defs>
  <g class="layer-above">
    <g class="imagelayer"/>
    <g class="shapelayer"/>
  </g>
  <g class="infolayer">
    <g class="g-gtitle"/>
    <g class="g-xtitle"/>
    <g class="g-ytitle"/>
  </g>
</svg>
