<svg xmlns="http://www.w3.org/2000/svg" xmlns:xlink="http://www.w3.org/1999/xlink" class="main-svg" width="100%" height="100%" style="" viewBox="1 1 799 279">
  <rect x="0" y="0" width="800" height="280" style="fill: rgb(255, 255, 255); fill-opacity: 1;"/>
  <defs id="defs-b56b26">
    <g class="clips">
      <clipPath id="clipb56b26xyplot" class="plotclip">
        <rect width="708" height="280"/>
      </clipPath>
      <clipPath class="axesclip" id="clipb56b26x">
        <rect x="92" y="0" width="708" height="280"/>
      </clipPath>
      <clipPath class="axesclip" id="clipb56b26y">
        <rect x="0" y="0" width="800" height="280"/>
      </clipPath>
      <clipPath class="axesclip" id="clipb56b26xy">
        <rect x="92" y="0" width="708" height="280"/>
      </clipPath>
    </g>
    <g class="gradients"/>
    <g class="patterns"/>
  </defs>
  <g class="bglayer"/>
  <g class="layer-below">
    <g class="imagelayer"/>
    <g class="shapelayer"/>
  </g>
  <g class="cartesianlayer">
    <g class="subplot xy">
      <g class="layer-subplot">
        <g class="shapelayer"/>
        <g class="imagelayer"/>
      </g>
      <g class="gridlayer">
        <g class="x">
          <path class="xgrid crisp" transform="translate(226.52,0)" d="M0,0v280" style="stroke: rgb(238, 238, 238); stroke-opacity: 1; stroke-width: 1px;"/>
          <path class="xgrid crisp" transform="translate(361.04,0)" d="M0,0v280" style="stroke: rgb(238, 238, 238); stroke-opacity: 1; stroke-width: 1px;"/>
          <path class="xgrid crisp" transform="translate(495.56,0)" d="M0,0v280" style="stroke: rgb(238, 238, 238); stroke-opacity: 1; stroke-width: 1px;"/>
          <path class="xgrid crisp" transform="translate(630.08,0)" d="M0,0v280" style="stroke: rgb(238, 238, 238); stroke-opacity: 1; stroke-width: 1px;"/>
          <path class="xgrid crisp" transform="translate(764.6,0)" d="M0,0v280" style="stroke: rgb(238, 238, 238); stroke-opacity: 1; stroke-width: 1px;"/>
        </g>
        <g class="y"/>
      </g>
      <g class="zerolinelayer">
        <path class="xzl zl crisp" transform="translate(92,0)" d="M0,0v280" style="stroke: rgb(68, 68, 68); stroke-opacity: 1; stroke-width: 1px;"/>
      </g>
      <path class="xlines-below"/>
      <path class="ylines-below"/>
      <g class="overlines-below"/>
      <g class="xaxislayer-below"/>
      <g class="yaxislayer-below"/>
      <g class="overaxes-below"/>
      <g class="plot" transform="translate(92,0)" clip-path="url(#clipb56b26xyplot)">
        <g class="barlayer mlayer">
          <g class="trace bars" shape-rendering="crispEdges" style="opacity: 1;">
            <g class="points">
              <g class="point">
                <path d="M0,275.33V238H0V275.33Z" style="vector-effect: non-scaling-stroke; opacity: 1; stroke-width: 1px; fill: rgb(148, 184, 184); fill-opacity: 1; stroke: rgb(255, 255, 255); stroke-opacity: 1;"/>
              </g>
              <g class="point">
                <path d="M0,228.67V191.33H0V228.67Z" style="vector-effect: non-scaling-stroke; opacity: 1; stroke-width: 1px; fill: rgb(148, 184, 184); fill-opacity: 1; stroke: rgb(255, 255, 255); stroke-opacity: 1;"/>
              </g>
              <g class="point">
                <path d="M0,182V144.67H0V182Z" style="vector-effect: non-scaling-stroke; opacity: 1; stroke-width: 1px; fill: rgb(148, 184, 184); fill-opacity: 1; stroke: rgb(255, 255, 255); stroke-opacity: 1;"/>
              </g>
              <g class="point">
                <path d="M0,135.33V98H0V135.33Z" style="vector-effect: non-scaling-stroke; opacity: 1; stroke-width: 1px; fill: rgb(148, 184, 184); fill-opacity: 1; stroke: rgb(255, 255, 255); stroke-opacity: 1;"/>
              </g>
              <g class="point">
                <path d="M0,88.67V51.33H0V88.67Z" style="vector-effect: non-scaling-stroke; opacity: 1; stroke-width: 1px; fill: rgb(148, 184, 184); fill-opacity: 1; stroke: rgb(255, 255, 255); stroke-opacity: 1;"/>
              </g>
              <g class="point">
                <path d="M0,42V4.67H0V42Z" style="vector-effect: non-scaling-stroke; opacity: 1; stroke-width: 1px; fill: rgb(148, 184, 184); fill-opacity: 1; stroke: rgb(255, 255, 255); stroke-opacity: 1;"/>
              </g>
            </g>
          </g>
          <g class="trace bars" shape-rendering="crispEdges" style="opacity: 1;">
            <g class="points">
              <g class="point">
                <path d="M0,275.33V238H200.34V275.33Z" style="vector-effect: non-scaling-stroke; opacity: 1; stroke-width: 1px; fill: rgb(238, 42, 59); fill-opacity: 1; stroke: rgb(255, 255, 255); stroke-opacity: 1;"/>
                <text class="bartext bartext-inside" text-anchor="middle" data-notex="1" x="0" y="0" style="font-family: 'Alegreya Sans', sans-serif; font-size: 12px; fill: rgb(255, 255, 255); fill-opacity: 1; white-space: pre;" transform="translate(186.043125,252.86031249999996)">
                  <tspan class="line" dy="0em" x="0" y="0">
                    <tspan style="font-weight:bold">30 %</tspan>
                  </tspan>
                  <tspan class="line" dy="1.3em" x="0" y="0">(20)</tspan>
                </text>
              </g>
              <g class="point">
                <path d="M0,228.67V191.33H154.31V228.67Z" style="vector-effect: non-scaling-stroke; opacity: 1; stroke-width: 1px; fill: rgb(238, 42, 59); fill-opacity: 1; stroke: rgb(255, 255, 255); stroke-opacity: 1;"/>
                <text class="bartext bartext-inside" text-anchor="middle" data-notex="1" x="0" y="0" style="font-family: 'Alegreya Sans', sans-serif; font-size: 12px; fill: rgb(255, 255, 255); fill-opacity: 1; white-space: pre;" transform="translate(140.31,206.1953125)">
                  <tspan class="line" dy="0em" x="0" y="0">
                    <tspan style="font-weight:bold">23 %</tspan>
                  </tspan>
                  <tspan class="line" dy="1.3em" x="0" y="0">(20)</tspan>
                </text>
              </g>
              <g class="point">
                <path d="M0,182V144.67H87.13V182Z" style="vector-effect: non-scaling-stroke; opacity: 1; stroke-width: 1px; fill: rgb(238, 42, 59); fill-opacity: 1; stroke: rgb(255, 255, 255); stroke-opacity: 1;"/>
                <text class="bartext bartext-inside" text-anchor="middle" data-notex="1" x="0" y="0" style="font-family: 'Alegreya Sans', sans-serif; font-size: 12px; fill: rgb(255, 255, 255); fill-opacity: 1; white-space: pre;" transform="translate(73.801875,159.53031249999998)">
                  <tspan class="line" dy="0em" x="0" y="0">
                    <tspan style="font-weight:bold">13 %</tspan>
                  </tspan>
                  <tspan class="line" dy="1.3em" x="0" y="0">(24)</tspan>
                </text>
              </g>
              <g class="point">
                <path d="M0,135.33V98H112.02V135.33Z" style="vector-effect: non-scaling-stroke; opacity: 1; stroke-width: 1px; fill: rgb(238, 42, 59); fill-opacity: 1; stroke: rgb(255, 255, 255); stroke-opacity: 1;"/>
                <text class="bartext bartext-inside" text-anchor="middle" data-notex="1" x="0" y="0" style="font-family: 'Alegreya Sans', sans-serif; font-size: 12px; fill: rgb(255, 255, 255); fill-opacity: 1; white-space: pre;" transform="translate(98.67625,112.8603125)">
                  <tspan class="line" dy="0em" x="0" y="0">
                    <tspan style="font-weight:bold">17 %</tspan>
                  </tspan>
                  <tspan class="line" dy="1.3em" x="0" y="0">(43)</tspan>
                </text>
              </g>
              <g class="point">
                <path d="M0,88.67V51.33H158.78V88.67Z" style="vector-effect: non-scaling-stroke; opacity: 1; stroke-width: 1px; fill: rgb(238, 42, 59); fill-opacity: 1; stroke: rgb(255, 255, 255); stroke-opacity: 1;"/>
                <text class="bartext bartext-inside" text-anchor="middle" data-notex="1" x="0" y="0" style="font-family: 'Alegreya Sans', sans-serif; font-size: 12px; fill: rgb(255, 255, 255); fill-opacity: 1; white-space: pre;" transform="translate(144.358125,66.1953125)">
                  <tspan class="line" dy="0em" x="0" y="0">
                    <tspan style="font-weight:bold">24 %</tspan>
                  </tspan>
                  <tspan class="line" dy="1.3em" x="0" y="0">(65)</tspan>
                </text>
              </g>
              <g class="point">
                <path d="M0,42V4.67H112.94V42Z" style="vector-effect: non-scaling-stroke; opacity: 1; stroke-width: 1px; fill: rgb(238, 42, 59); fill-opacity: 1; stroke: rgb(255, 255, 255); stroke-opacity: 1;"/>
                <text class="bartext bartext-inside" text-anchor="middle" data-notex="1" x="0" y="0" style="font-family: 'Alegreya Sans', sans-serif; font-size: 12px; fill: rgb(255, 255, 255); fill-opacity: 1; white-space: pre;" transform="translate(99.59625,19.5303125)">
                  <tspan class="line" dy="0em" x="0" y="0">
                    <tspan style="font-weight:bold">17 %</tspan>
                  </tspan>
                  <tspan class="line" dy="1.3em" x="0" y="0">(53)</tspan>
                </text>
              </g>
            </g>
          </g>
          <g class="trace bars" shape-rendering="crispEdges" style="opacity: 1;">
            <g class="points">
              <g class="point">
                <path d="M200.34,275.33V238H259.81V275.33Z" style="vector-effect: non-scaling-stroke; opacity: 1; stroke-width: 1px; fill: rgb(132, 180, 20); fill-opacity: 1; stroke: rgb(255, 255, 255); stroke-opacity: 1;"/>
                <text class="bartext bartext-inside" text-anchor="middle" data-notex="1" x="0" y="0" style="font-family: 'Alegreya Sans', sans-serif; font-size: 12px; fill: rgb(255, 255, 255); fill-opacity: 1; white-space: pre;" transform="translate(248.325625,252.86031249999996)">
                  <tspan class="line" dy="0em" x="0" y="0">
                    <tspan style="font-weight:bold">9 %</tspan>
                  </tspan>
                  <tspan class="line" dy="1.3em" x="0" y="0">(6)</tspan>
                </text>
              </g>
              <g class="point">
                <path d="M154.31,228.67V191.33H207.39V228.67Z" style="vector-effect: non-scaling-stroke; opacity: 1; stroke-width: 1px; fill: rgb(132, 180, 20); fill-opacity: 1; stroke: rgb(255, 255, 255); stroke-opacity: 1;"/>
                <text class="bartext bartext-inside" text-anchor="middle" data-notex="1" x="0" y="0" style="font-family: 'Alegreya Sans', sans-serif; font-size: 12px; fill: rgb(255, 255, 255); fill-opacity: 1; white-space: pre;" transform="translate(195.843125,206.1953125)">
                  <tspan class="line" dy="0em" x="0" y="0">
                    <tspan style="font-weight:bold">8 %</tspan>
                  </tspan>
                  <tspan class="line" dy="1.3em" x="0" y="0">(7)</tspan>
                </text>
              </g>
              <g class="point">
                <path d="M87.13,182V144.67H129.06V182Z" style="vector-effect: non-scaling-stroke; opacity: 1; stroke-width: 1px; fill: rgb(132, 180, 20); fill-opacity: 1; stroke: rgb(255, 255, 255); stroke-opacity: 1;"/>
                <text class="bartext bartext-inside" text-anchor="middle" data-notex="1" x="0" y="0" style="font-family: 'Alegreya Sans', sans-serif; font-size: 12px; fill: rgb(255, 255, 255); fill-opacity: 1; white-space: pre;" transform="translate(117.575625,159.53031249999998)">
                  <tspan class="line" dy="0em" x="0" y="0">
                    <tspan style="font-weight:bold">6 %</tspan>
                  </tspan>
                  <tspan class="line" dy="1.3em" x="0" y="0">(11)</tspan>
                </text>
              </g>
              <g class="point">
                <path d="M112.02,135.33V98H187.91V135.33Z" style="vector-effect: non-scaling-stroke; opacity: 1; stroke-width: 1px; fill: rgb(132, 180, 20); fill-opacity: 1; stroke: rgb(255, 255, 255); stroke-opacity: 1;"/>
                <text class="bartext bartext-inside" text-anchor="middle" data-notex="1" x="0" y="0" style="font-family: 'Alegreya Sans', sans-serif; font-size: 12px; fill: rgb(255, 255, 255); fill-opacity: 1; white-space: pre;" transform="translate(175.00375,112.8603125)">
                  <tspan class="line" dy="0em" x="0" y="0">
                    <tspan style="font-weight:bold">11 %</tspan>
                  </tspan>
                  <tspan class="line" dy="1.3em" x="0" y="0">(29)</tspan>
                </text>
              </g>
              <g class="point">
                <path d="M158.78,88.67V51.33H202.19V88.67Z" style="vector-effect: non-scaling-stroke; opacity: 1; stroke-width: 1px; fill: rgb(132, 180, 20); fill-opacity: 1; stroke: rgb(255, 255, 255); stroke-opacity: 1;"/>
                <text class="bartext bartext-inside" text-anchor="middle" data-notex="1" x="0" y="0" style="font-family: 'Alegreya Sans', sans-serif; font-size: 12px; fill: rgb(255, 255, 255); fill-opacity: 1; white-space: pre;" transform="translate(190.705625,66.1953125)">
                  <tspan class="line" dy="0em" x="0" y="0">
                    <tspan style="font-weight:bold">6 %</tspan>
                  </tspan>
                  <tspan class="line" dy="1.3em" x="0" y="0">(18)</tspan>
                </text>
              </g>
              <g class="point">
                <path d="M112.94,42V4.67H140.16V42Z" style="vector-effect: non-scaling-stroke; opacity: 1; stroke-width: 1px; fill: rgb(132, 180, 20); fill-opacity: 1; stroke: rgb(255, 255, 255); stroke-opacity: 1;"/>
                <text class="bartext bartext-inside" text-anchor="middle" data-notex="1" x="0" y="0" style="font-family: 'Alegreya Sans', sans-serif; font-size: 12px; fill: rgb(255, 255, 255); fill-opacity: 1; white-space: pre;" transform="translate(128.550625,19.5303125)">
                  <tspan class="line" dy="0em" x="0" y="0">
                    <tspan style="font-weight:bold">4 %</tspan>
                  </tspan>
                  <tspan class="line" dy="1.3em" x="0" y="0">(13)</tspan>
                </text>
              </g>
            </g>
          </g>
          <g class="trace bars" shape-rendering="crispEdges" style="opacity: 1;">
            <g class="points">
              <g class="point">
                <path d="M259.81,275.33V238H290.54V275.33Z" style="vector-effect: non-scaling-stroke; opacity: 1; stroke-width: 1px; fill: rgb(204, 153, 255); fill-opacity: 1; stroke: rgb(255, 255, 255); stroke-opacity: 1;"/>
                <text class="bartext bartext-inside" text-anchor="middle" data-notex="1" x="0" y="0" style="font-family: 'Alegreya Sans', sans-serif; font-size: 12px; fill: rgb(255, 255, 255); fill-opacity: 1; white-space: pre;" transform="translate(279.368125,252.86031249999996)">
                  <tspan class="line" dy="0em" x="0" y="0">
                    <tspan style="font-weight:bold">5 %</tspan>
                  </tspan>
                  <tspan class="line" dy="1.3em" x="0" y="0">(3)</tspan>
                </text>
              </g>
              <g class="point">
                <path d="M207.39,228.67V191.33H272.36V228.67Z" style="vector-effect: non-scaling-stroke; opacity: 1; stroke-width: 1px; fill: rgb(204, 153, 255); fill-opacity: 1; stroke: rgb(255, 255, 255); stroke-opacity: 1;"/>
                <text class="bartext bartext-inside" text-anchor="middle" data-notex="1" x="0" y="0" style="font-family: 'Alegreya Sans', sans-serif; font-size: 12px; fill: rgb(255, 255, 255); fill-opacity: 1; white-space: pre;" transform="translate(258.485,206.1953125)">
                  <tspan class="line" dy="0em" x="0" y="0">
                    <tspan style="font-weight:bold">10 %</tspan>
                  </tspan>
                  <tspan class="line" dy="1.3em" x="0" y="0">(9)</tspan>
                </text>
              </g>
              <g class="point">
                <path d="M129.06,182V144.67H167.21V182Z" style="vector-effect: non-scaling-stroke; opacity: 1; stroke-width: 1px; fill: rgb(204, 153, 255); fill-opacity: 1; stroke: rgb(255, 255, 255); stroke-opacity: 1;"/>
                <text class="bartext bartext-inside" text-anchor="middle" data-notex="1" x="0" y="0" style="font-family: 'Alegreya Sans', sans-serif; font-size: 12px; fill: rgb(255, 255, 255); fill-opacity: 1; white-space: pre;" transform="translate(155.413125,159.53031249999998)">
                  <tspan class="line" dy="0em" x="0" y="0">
                    <tspan style="font-weight:bold">6 %</tspan>
                  </tspan>
                  <tspan class="line" dy="1.3em" x="0" y="0">(10)</tspan>
                </text>
              </g>
              <g class="point">
                <path d="M187.91,135.33V98H198.63V135.33Z" style="vector-effect: non-scaling-stroke; opacity: 1; stroke-width: 1px; fill: rgb(204, 153, 255); fill-opacity: 1; stroke: rgb(255, 255, 255); stroke-opacity: 1;"/>
                <text class="bartext bartext-inside" text-anchor="middle" data-notex="1" x="0" y="0" style="font-family: 'Alegreya Sans', sans-serif; font-size: 12px; fill: rgb(255, 255, 255); fill-opacity: 1; white-space: pre;" transform="translate(193.26999999999998,115.59685873605949)scale(0.28074349442379176)">
                  <tspan class="line" dy="0em" x="0" y="0">
                    <tspan style="font-weight:bold">2 %</tspan>
                  </tspan>
                  <tspan class="line" dy="1.3em" x="0" y="0">(4)</tspan>
                </text>
              </g>
              <g class="point">
                <path d="M202.19,88.67V51.33H223.34V88.67Z" style="vector-effect: non-scaling-stroke; opacity: 1; stroke-width: 1px; fill: rgb(204, 153, 255); fill-opacity: 1; stroke: rgb(255, 255, 255); stroke-opacity: 1;"/>
                <text class="bartext bartext-inside" text-anchor="middle" data-notex="1" x="0" y="0" style="font-family: 'Alegreya Sans', sans-serif; font-size: 12px; fill: rgb(255, 255, 255); fill-opacity: 1; white-space: pre;" transform="translate(212.765,66.47320745697897)scale(0.9269598470363292)">
                  <tspan class="line" dy="0em" x="0" y="0">
                    <tspan style="font-weight:bold">3 %</tspan>
                  </tspan>
                  <tspan class="line" dy="1.3em" x="0" y="0">(9)</tspan>
                </text>
              </g>
              <g class="point">
                <path d="M140.16,42V4.67H168.64V42Z" style="vector-effect: non-scaling-stroke; opacity: 1; stroke-width: 1px; fill: rgb(204, 153, 255); fill-opacity: 1; stroke: rgb(255, 255, 255); stroke-opacity: 1;"/>
                <text class="bartext bartext-inside" text-anchor="middle" data-notex="1" x="0" y="0" style="font-family: 'Alegreya Sans', sans-serif; font-size: 12px; fill: rgb(255, 255, 255); fill-opacity: 1; white-space: pre;" transform="translate(157.030625,19.5303125)">
                  <tspan class="line" dy="0em" x="0" y="0">
                    <tspan style="font-weight:bold">4 %</tspan>
                  </tspan>
                  <tspan class="line" dy="1.3em" x="0" y="0">(13)</tspan>
                </text>
              </g>
            </g>
          </g>
          <g class="trace bars" shape-rendering="crispEdges" style="opacity: 1;">
            <g class="points">
              <g class="point">
                <path d="M290.54,275.33V238H338.21V275.33Z" style="vector-effect: non-scaling-stroke; opacity: 1; stroke-width: 1px; fill: rgb(195, 217, 63); fill-opacity: 1; stroke: rgb(255, 255, 255); stroke-opacity: 1;"/>
                <text class="bartext bartext-inside" text-anchor="middle" data-notex="1" x="0" y="0" style="font-family: 'Alegreya Sans', sans-serif; font-size: 12px; fill: rgb(255, 255, 255); fill-opacity: 1; white-space: pre;" transform="translate(327.038125,252.86031249999996)">
                  <tspan class="line" dy="0em" x="0" y="0">
                    <tspan style="font-weight:bold">7 %</tspan>
                  </tspan>
                  <tspan class="line" dy="1.3em" x="0" y="0">(5)</tspan>
                </text>
              </g>
              <g class="point">
                <path d="M272.36,228.67V191.33H300.81V228.67Z" style="vector-effect: non-scaling-stroke; opacity: 1; stroke-width: 1px; fill: rgb(195, 217, 63); fill-opacity: 1; stroke: rgb(255, 255, 255); stroke-opacity: 1;"/>
                <text class="bartext bartext-inside" text-anchor="middle" data-notex="1" x="0" y="0" style="font-family: 'Alegreya Sans', sans-serif; font-size: 12px; fill: rgb(255, 255, 255); fill-opacity: 1; white-space: pre;" transform="translate(289.200625,206.1953125)">
                  <tspan class="line" dy="0em" x="0" y="0">
                    <tspan style="font-weight:bold">4 %</tspan>
                  </tspan>
                  <tspan class="line" dy="1.3em" x="0" y="0">(4)</tspan>
                </text>
              </g>
              <g class="point">
                <path d="M167.21,182V144.67H221.52V182Z" style="vector-effect: non-scaling-stroke; opacity: 1; stroke-width: 1px; fill: rgb(195, 217, 63); fill-opacity: 1; stroke: rgb(255, 255, 255); stroke-opacity: 1;"/>
                <text class="bartext bartext-inside" text-anchor="middle" data-notex="1" x="0" y="0" style="font-family: 'Alegreya Sans', sans-serif; font-size: 12px; fill: rgb(255, 255, 255); fill-opacity: 1; white-space: pre;" transform="translate(209.973125,159.53031249999998)">
                  <tspan class="line" dy="0em" x="0" y="0">
                    <tspan style="font-weight:bold">8 %</tspan>
                  </tspan>
                  <tspan class="line" dy="1.3em" x="0" y="0">(15)</tspan>
                </text>
              </g>
              <g class="point">
                <path d="M198.63,135.33V98H249.39V135.33Z" style="vector-effect: non-scaling-stroke; opacity: 1; stroke-width: 1px; fill: rgb(195, 217, 63); fill-opacity: 1; stroke: rgb(255, 255, 255); stroke-opacity: 1;"/>
                <text class="bartext bartext-inside" text-anchor="middle" data-notex="1" x="0" y="0" style="font-family: 'Alegreya Sans', sans-serif; font-size: 12px; fill: rgb(255, 255, 255); fill-opacity: 1; white-space: pre;" transform="translate(237.843125,112.8603125)">
                  <tspan class="line" dy="0em" x="0" y="0">
                    <tspan style="font-weight:bold">8 %</tspan>
                  </tspan>
                  <tspan class="line" dy="1.3em" x="0" y="0">(19)</tspan>
                </text>
              </g>
              <g class="point">
                <path d="M223.34,88.67V51.33H252.31V88.67Z" style="vector-effect: non-scaling-stroke; opacity: 1; stroke-width: 1px; fill: rgb(195, 217, 63); fill-opacity: 1; stroke: rgb(255, 255, 255); stroke-opacity: 1;"/>
                <text class="bartext bartext-inside" text-anchor="middle" data-notex="1" x="0" y="0" style="font-family: 'Alegreya Sans', sans-serif; font-size: 12px; fill: rgb(255, 255, 255); fill-opacity: 1; white-space: pre;" transform="translate(240.700625,66.1953125)">
                  <tspan class="line" dy="0em" x="0" y="0">
                    <tspan style="font-weight:bold">4 %</tspan>
                  </tspan>
                  <tspan class="line" dy="1.3em" x="0" y="0">(12)</tspan>
                </text>
              </g>
              <g class="point">
                <path d="M168.64,42V4.67H185.79V42Z" style="vector-effect: non-scaling-stroke; opacity: 1; stroke-width: 1px; fill: rgb(195, 217, 63); fill-opacity: 1; stroke: rgb(255, 255, 255); stroke-opacity: 1;"/>
                <text class="bartext bartext-inside" text-anchor="middle" data-notex="1" x="0" y="0" style="font-family: 'Alegreya Sans', sans-serif; font-size: 12px; fill: rgb(255, 255, 255); fill-opacity: 1; white-space: pre;" transform="translate(177.21499999999997,20.73937380497132)scale(0.6822179732313579)">
                  <tspan class="line" dy="0em" x="0" y="0">
                    <tspan style="font-weight:bold">3 %</tspan>
                  </tspan>
                  <tspan class="line" dy="1.3em" x="0" y="0">(8)</tspan>
                </text>
              </g>
            </g>
          </g>
          <g class="trace bars" shape-rendering="crispEdges" style="opacity: 1;">
            <g class="points">
              <g class="point">
                <path d="M338.21,275.33V238H352.35V275.33Z" style="vector-effect: non-scaling-stroke; opacity: 1; stroke-width: 1px; fill: rgb(148, 184, 184); fill-opacity: 1; stroke: rgb(255, 255, 255); stroke-opacity: 1;"/>
                <text class="bartext bartext-inside" text-anchor="middle" data-notex="1" x="0" y="0" style="font-family: 'Alegreya Sans', sans-serif; font-size: 12px; fill: rgb(255, 255, 255); fill-opacity: 1; white-space: pre;" transform="translate(345.28,254.82290892193305)scale(0.4841635687732368)">
                  <tspan class="line" dy="0em" x="0" y="0">
                    <tspan style="font-weight:bold">2 %</tspan>
                  </tspan>
                  <tspan class="line" dy="1.3em" x="0" y="0">(1)</tspan>
                </text>
              </g>
              <g class="point">
                <path d="M300.81,228.67V191.33H300.81V228.67Z" style="vector-effect: non-scaling-stroke; opacity: 1; stroke-width: 1px; fill: rgb(148, 184, 184); fill-opacity: 1; stroke: rgb(255, 255, 255); stroke-opacity: 1;"/>
              </g>
              <g class="point">
                <path d="M221.52,182V144.67H253.57V182Z" style="vector-effect: non-scaling-stroke; opacity: 1; stroke-width: 1px; fill: rgb(148, 184, 184); fill-opacity: 1; stroke: rgb(255, 255, 255); stroke-opacity: 1;"/>
                <text class="bartext bartext-inside" text-anchor="middle" data-notex="1" x="0" y="0" style="font-family: 'Alegreya Sans', sans-serif; font-size: 12px; fill: rgb(255, 255, 255); fill-opacity: 1; white-space: pre;" transform="translate(242.398125,159.53031249999998)">
                  <tspan class="line" dy="0em" x="0" y="0">
                    <tspan style="font-weight:bold">5 %</tspan>
                  </tspan>
                  <tspan class="line" dy="1.3em" x="0" y="0">(9)</tspan>
                </text>
              </g>
              <g class="point">
                <path d="M249.39,135.33V98H261.69V135.33Z" style="vector-effect: non-scaling-stroke; opacity: 1; stroke-width: 1px; fill: rgb(148, 184, 184); fill-opacity: 1; stroke: rgb(255, 255, 255); stroke-opacity: 1;"/>
                <text class="bartext bartext-inside" text-anchor="middle" data-notex="1" x="0" y="0" style="font-family: 'Alegreya Sans', sans-serif; font-size: 12px; fill: rgb(255, 255, 255); fill-opacity: 1; white-space: pre;" transform="translate(255.54,115.2393029739777)scale(0.37472118959107875)">
                  <tspan class="line" dy="0em" x="0" y="0">
                    <tspan style="font-weight:bold">2 %</tspan>
                  </tspan>
                  <tspan class="line" dy="1.3em" x="0" y="0">(5)</tspan>
                </text>
              </g>
              <g class="point">
                <path d="M252.31,88.67V51.33H267.54V88.67Z" style="vector-effect: non-scaling-stroke; opacity: 1; stroke-width: 1px; fill: rgb(148, 184, 184); fill-opacity: 1; stroke: rgb(255, 255, 255); stroke-opacity: 1;"/>
                <text class="bartext bartext-inside" text-anchor="middle" data-notex="1" x="0" y="0" style="font-family: 'Alegreya Sans', sans-serif; font-size: 12px; fill: rgb(255, 255, 255); fill-opacity: 1; white-space: pre;" transform="translate(259.925,67.9112407063197)scale(0.5489962825278821)">
                  <tspan class="line" dy="0em" x="0" y="0">
                    <tspan style="font-weight:bold">2 %</tspan>
                  </tspan>
                  <tspan class="line" dy="1.3em" x="0" y="0">(6)</tspan>
                </text>
              </g>
              <g class="point">
                <path d="M185.79,42V4.67H186.7V42Z" style="vector-effect: non-scaling-stroke; opacity: 1; stroke-width: 1px; fill: rgb(148, 184, 184); fill-opacity: 1; stroke: rgb(255, 255, 255); stroke-opacity: 1;"/>
                <text class="bartext bartext-inside" text-anchor="middle" data-notex="1" x="0" y="0" style="font-family: 'Alegreya Sans', sans-serif; font-size: 12px; fill: rgb(255, 255, 255); fill-opacity: 1; white-space: pre;" transform="translate(186.245,23.136090664272892)scale(0.05228007181328526)">
                  <tspan class="line" dy="0em" x="0" y="0">
                    <tspan style="font-weight:bold">0 %</tspan>
                  </tspan>
                  <tspan class="line" dy="1.3em" x="0" y="0">(0)</tspan>
                </text>
              </g>
            </g>
          </g>
          <g class="trace bars" shape-rendering="crispEdges" style="opacity: 1;">
            <g class="points">
              <g class="point">
                <path d="M352.35,275.33V238H364.4V275.33Z" style="vector-effect: non-scaling-stroke; opacity: 1; stroke-width: 1px; fill: rgb(255, 221, 0); fill-opacity: 1; stroke: rgb(255, 255, 255); stroke-opacity: 1;"/>
                <text class="bartext bartext-inside" text-anchor="middle" data-notex="1" x="0" y="0" style="font-family: 'Alegreya Sans', sans-serif; font-size: 12px; fill: rgb(255, 255, 255); fill-opacity: 1; white-space: pre;" transform="translate(358.375,255.29587825278807)scale(0.35985130111523894)">
                  <tspan class="line" dy="0em" x="0" y="0">
                    <tspan style="font-weight:bold">2 %</tspan>
                  </tspan>
                  <tspan class="line" dy="1.3em" x="0" y="0">(1)</tspan>
                </text>
              </g>
              <g class="point">
                <path d="M300.81,228.67V191.33H358.02V228.67Z" style="vector-effect: non-scaling-stroke; opacity: 1; stroke-width: 1px; fill: rgb(255, 221, 0); fill-opacity: 1; stroke: rgb(255, 255, 255); stroke-opacity: 1;"/>
                <text class="bartext bartext-inside" text-anchor="middle" data-notex="1" x="0" y="0" style="font-family: 'Alegreya Sans', sans-serif; font-size: 12px; fill: rgb(255, 255, 255); fill-opacity: 1; white-space: pre;" transform="translate(346.535625,206.1953125)">
                  <tspan class="line" dy="0em" x="0" y="0">
                    <tspan style="font-weight:bold">9 %</tspan>
                  </tspan>
                  <tspan class="line" dy="1.3em" x="0" y="0">(8)</tspan>
                </text>
              </g>
              <g class="point">
                <path d="M253.57,182V144.67H262.73V182Z" style="vector-effect: non-scaling-stroke; opacity: 1; stroke-width: 1px; fill: rgb(255, 221, 0); fill-opacity: 1; stroke: rgb(255, 255, 255); stroke-opacity: 1;"/>
                <text class="bartext bartext-inside" text-anchor="middle" data-notex="1" x="0" y="0" style="font-family: 'Alegreya Sans', sans-serif; font-size: 12px; fill: rgb(255, 255, 255); fill-opacity: 1; white-space: pre;" transform="translate(258.15,162.55933467741932)scale(0.2038709677419371)">
                  <tspan class="line" dy="0em" x="0" y="0">
                    <tspan style="font-weight:bold">1 %</tspan>
                  </tspan>
                  <tspan class="line" dy="1.3em" x="0" y="0">(2)</tspan>
                </text>
              </g>
              <g class="point">
                <path d="M261.69,135.33V98H279.01V135.33Z" style="vector-effect: non-scaling-stroke; opacity: 1; stroke-width: 1px; fill: rgb(255, 221, 0); fill-opacity: 1; stroke: rgb(255, 255, 255); stroke-opacity: 1;"/>
                <text class="bartext bartext-inside" text-anchor="middle" data-notex="1" x="0" y="0" style="font-family: 'Alegreya Sans', sans-serif; font-size: 12px; fill: rgb(255, 255, 255); fill-opacity: 1; white-space: pre;" transform="translate(270.35,114.02979923518166)scale(0.6926195028680684)">
                  <tspan class="line" dy="0em" x="0" y="0">
                    <tspan style="font-weight:bold">3 %</tspan>
                  </tspan>
                  <tspan class="line" dy="1.3em" x="0" y="0">(7)</tspan>
                </text>
              </g>
              <g class="point">
                <path d="M267.54,88.67V51.33H286.43V88.67Z" style="vector-effect: non-scaling-stroke; opacity: 1; stroke-width: 1px; fill: rgb(255, 221, 0); fill-opacity: 1; stroke: rgb(255, 255, 255); stroke-opacity: 1;"/>
                <text class="bartext bartext-inside" text-anchor="middle" data-notex="1" x="0" y="0" style="font-family: 'Alegreya Sans', sans-serif; font-size: 12px; fill: rgb(255, 255, 255); fill-opacity: 1; white-space: pre;" transform="translate(276.985,66.99931644359465)scale(0.7886806883365193)">
                  <tspan class="line" dy="0em" x="0" y="0">
                    <tspan style="font-weight:bold">3 %</tspan>
                  </tspan>
                  <tspan class="line" dy="1.3em" x="0" y="0">(8)</tspan>
                </text>
              </g>
              <g class="point">
                <path d="M186.7,42V4.67H200.7V42Z" style="vector-effect: non-scaling-stroke; opacity: 1; stroke-width: 1px; fill: rgb(255, 221, 0); fill-opacity: 1; stroke: rgb(255, 255, 255); stroke-opacity: 1;"/>
                <text class="bartext bartext-inside" text-anchor="middle" data-notex="1" x="0" y="0" style="font-family: 'Alegreya Sans', sans-serif; font-size: 12px; fill: rgb(255, 255, 255); fill-opacity: 1; white-space: pre;" transform="translate(193.7,21.524591078066916)scale(0.4758364312267658)">
                  <tspan class="line" dy="0em" x="0" y="0">
                    <tspan style="font-weight:bold">2 %</tspan>
                  </tspan>
                  <tspan class="line" dy="1.3em" x="0" y="0">(7)</tspan>
                </text>
              </g>
            </g>
          </g>
          <g class="trace bars" shape-rendering="crispEdges" style="opacity: 1;">
            <g class="points">
              <g class="point">
                <path d="M364.4,275.33V238H394.48V275.33Z" style="vector-effect: non-scaling-stroke; opacity: 1; stroke-width: 1px; fill: rgb(255, 133, 12); fill-opacity: 1; stroke: rgb(255, 255, 255); stroke-opacity: 1;"/>
                <text class="bartext bartext-inside" text-anchor="middle" data-notex="1" x="0" y="0" style="font-family: 'Alegreya Sans', sans-serif; font-size: 12px; fill: rgb(255, 255, 255); fill-opacity: 1; white-space: pre;" transform="translate(382.870625,252.86031249999996)">
                  <tspan class="line" dy="0em" x="0" y="0">
                    <tspan style="font-weight:bold">4 %</tspan>
                  </tspan>
                  <tspan class="line" dy="1.3em" x="0" y="0">(3)</tspan>
                </text>
              </g>
              <g class="point">
                <path d="M358.02,228.67V191.33H407.25V228.67Z" style="vector-effect: non-scaling-stroke; opacity: 1; stroke-width: 1px; fill: rgb(255, 133, 12); fill-opacity: 1; stroke: rgb(255, 255, 255); stroke-opacity: 1;"/>
                <text class="bartext bartext-inside" text-anchor="middle" data-notex="1" x="0" y="0" style="font-family: 'Alegreya Sans', sans-serif; font-size: 12px; fill: rgb(255, 255, 255); fill-opacity: 1; white-space: pre;" transform="translate(396.078125,206.1953125)">
                  <tspan class="line" dy="0em" x="0" y="0">
                    <tspan style="font-weight:bold">7 %</tspan>
                  </tspan>
                  <tspan class="line" dy="1.3em" x="0" y="0">(6)</tspan>
                </text>
              </g>
              <g class="point">
                <path d="M262.73,182V144.67H360.39V182Z" style="vector-effect: non-scaling-stroke; opacity: 1; stroke-width: 1px; fill: rgb(255, 133, 12); fill-opacity: 1; stroke: rgb(255, 255, 255); stroke-opacity: 1;"/>
                <text class="bartext bartext-inside" text-anchor="middle" data-notex="1" x="0" y="0" style="font-family: 'Alegreya Sans', sans-serif; font-size: 12px; fill: rgb(255, 255, 255); fill-opacity: 1; white-space: pre;" transform="translate(347.04625,159.53031249999998)">
                  <tspan class="line" dy="0em" x="0" y="0">
                    <tspan style="font-weight:bold">15 %</tspan>
                  </tspan>
                  <tspan class="line" dy="1.3em" x="0" y="0">(26)</tspan>
                </text>
              </g>
              <g class="point">
                <path d="M279.01,135.33V98H336.81V135.33Z" style="vector-effect: non-scaling-stroke; opacity: 1; stroke-width: 1px; fill: rgb(255, 133, 12); fill-opacity: 1; stroke: rgb(255, 255, 255); stroke-opacity: 1;"/>
                <text class="bartext bartext-inside" text-anchor="middle" data-notex="1" x="0" y="0" style="font-family: 'Alegreya Sans', sans-serif; font-size: 12px; fill: rgb(255, 255, 255); fill-opacity: 1; white-space: pre;" transform="translate(324.77875,112.8603125)">
                  <tspan class="line" dy="0em" x="0" y="0">
                    <tspan style="font-weight:bold">9 %</tspan>
                  </tspan>
                  <tspan class="line" dy="1.3em" x="0" y="0">(22)</tspan>
                </text>
              </g>
              <g class="point">
                <path d="M286.43,88.67V51.33H383.94V88.67Z" style="vector-effect: non-scaling-stroke; opacity: 1; stroke-width: 1px; fill: rgb(255, 133, 12); fill-opacity: 1; stroke: rgb(255, 255, 255); stroke-opacity: 1;"/>
                <text class="bartext bartext-inside" text-anchor="middle" data-notex="1" x="0" y="0" style="font-family: 'Alegreya Sans', sans-serif; font-size: 12px; fill: rgb(255, 255, 255); fill-opacity: 1; white-space: pre;" transform="translate(370.174375,66.1953125)">
                  <tspan class="line" dy="0em" x="0" y="0">
                    <tspan style="font-weight:bold">14 %</tspan>
                  </tspan>
                  <tspan class="line" dy="1.3em" x="0" y="0">(40)</tspan>
                </text>
              </g>
              <g class="point">
                <path d="M200.7,42V4.67H298.16V42Z" style="vector-effect: non-scaling-stroke; opacity: 1; stroke-width: 1px; fill: rgb(255, 133, 12); fill-opacity: 1; stroke: rgb(255, 255, 255); stroke-opacity: 1;"/>
                <text class="bartext bartext-inside" text-anchor="middle" data-notex="1" x="0" y="0" style="font-family: 'Alegreya Sans', sans-serif; font-size: 12px; fill: rgb(255, 255, 255); fill-opacity: 1; white-space: pre;" transform="translate(284.394375,19.5303125)">
                  <tspan class="line" dy="0em" x="0" y="0">
                    <tspan style="font-weight:bold">14 %</tspan>
                  </tspan>
                  <tspan class="line" dy="1.3em" x="0" y="0">(46)</tspan>
                </text>
              </g>
            </g>
          </g>
          <g class="trace bars" shape-rendering="crispEdges" style="opacity: 1;">
            <g class="points">
              <g class="point">
                <path d="M394.48,275.33V238H495.86V275.33Z" style="vector-effect: non-scaling-stroke; opacity: 1; stroke-width: 1px; fill: rgb(16, 79, 160); fill-opacity: 1; stroke: rgb(255, 255, 255); stroke-opacity: 1;"/>
                <text class="bartext bartext-inside" text-anchor="middle" data-notex="1" x="0" y="0" style="font-family: 'Alegreya Sans', sans-serif; font-size: 12px; fill: rgb(255, 255, 255); fill-opacity: 1; white-space: pre;" transform="translate(482.51625,252.86031249999996)">
                  <tspan class="line" dy="0em" x="0" y="0">
                    <tspan style="font-weight:bold">15 %</tspan>
                  </tspan>
                  <tspan class="line" dy="1.3em" x="0" y="0">(10)</tspan>
                </text>
              </g>
              <g class="point">
                <path d="M407.25,228.67V191.33H508.18V228.67Z" style="vector-effect: non-scaling-stroke; opacity: 1; stroke-width: 1px; fill: rgb(16, 79, 160); fill-opacity: 1; stroke: rgb(255, 255, 255); stroke-opacity: 1;"/>
                <text class="bartext bartext-inside" text-anchor="middle" data-notex="1" x="0" y="0" style="font-family: 'Alegreya Sans', sans-serif; font-size: 12px; fill: rgb(255, 255, 255); fill-opacity: 1; white-space: pre;" transform="translate(494.83625,206.1953125)">
                  <tspan class="line" dy="0em" x="0" y="0">
                    <tspan style="font-weight:bold">15 %</tspan>
                  </tspan>
                  <tspan class="line" dy="1.3em" x="0" y="0">(13)</tspan>
                </text>
              </g>
              <g class="point">
                <path d="M360.39,182V144.67H467.91V182Z" style="vector-effect: non-scaling-stroke; opacity: 1; stroke-width: 1px; fill: rgb(16, 79, 160); fill-opacity: 1; stroke: rgb(255, 255, 255); stroke-opacity: 1;"/>
                <text class="bartext bartext-inside" text-anchor="middle" data-notex="1" x="0" y="0" style="font-family: 'Alegreya Sans', sans-serif; font-size: 12px; fill: rgb(255, 255, 255); fill-opacity: 1; white-space: pre;" transform="translate(454.269375,159.53031249999998)">
                  <tspan class="line" dy="0em" x="0" y="0">
                    <tspan style="font-weight:bold">16 %</tspan>
                  </tspan>
                  <tspan class="line" dy="1.3em" x="0" y="0">(29)</tspan>
                </text>
              </g>
              <g class="point">
                <path d="M336.81,135.33V98H457.54V135.33Z" style="vector-effect: non-scaling-stroke; opacity: 1; stroke-width: 1px; fill: rgb(16, 79, 160); fill-opacity: 1; stroke: rgb(255, 255, 255); stroke-opacity: 1;"/>
                <text class="bartext bartext-inside" text-anchor="middle" data-notex="1" x="0" y="0" style="font-family: 'Alegreya Sans', sans-serif; font-size: 12px; fill: rgb(255, 255, 255); fill-opacity: 1; white-space: pre;" transform="translate(443.836875,112.8603125)">
                  <tspan class="line" dy="0em" x="0" y="0">
                    <tspan style="font-weight:bold">18 %</tspan>
                  </tspan>
                  <tspan class="line" dy="1.3em" x="0" y="0">(46)</tspan>
                </text>
              </g>
              <g class="point">
                <path d="M383.94,88.67V51.33H464.44V88.67Z" style="vector-effect: non-scaling-stroke; opacity: 1; stroke-width: 1px; fill: rgb(16, 79, 160); fill-opacity: 1; stroke: rgb(255, 255, 255); stroke-opacity: 1;"/>
                <text class="bartext bartext-inside" text-anchor="middle" data-notex="1" x="0" y="0" style="font-family: 'Alegreya Sans', sans-serif; font-size: 12px; fill: rgb(255, 255, 255); fill-opacity: 1; white-space: pre;" transform="translate(450.861875,66.1953125)">
                  <tspan class="line" dy="0em" x="0" y="0">
                    <tspan style="font-weight:bold">12 %</tspan>
                  </tspan>
                  <tspan class="line" dy="1.3em" x="0" y="0">(33)</tspan>
                </text>
              </g>
              <g class="point">
                <path d="M298.16,42V4.67H422.76V42Z" style="vector-effect: non-scaling-stroke; opacity: 1; stroke-width: 1px; fill: rgb(16, 79, 160); fill-opacity: 1; stroke: rgb(255, 255, 255); stroke-opacity: 1;"/>
                <text class="bartext bartext-inside" text-anchor="middle" data-notex="1" x="0" y="0" style="font-family: 'Alegreya Sans', sans-serif; font-size: 12px; fill: rgb(255, 255, 255); fill-opacity: 1; white-space: pre;" transform="translate(409.119375,19.5303125)">
                  <tspan class="line" dy="0em" x="0" y="0">
                    <tspan style="font-weight:bold">19 %</tspan>
                  </tspan>
                  <tspan class="line" dy="1.3em" x="0" y="0">(58)</tspan>
                </text>
              </g>
            </g>
          </g>
          <g class="trace bars" shape-rendering="crispEdges" style="opacity: 1;">
            <g class="points">
              <g class="point">
                <path d="M495.86,275.33V238H672.6V275.33Z" style="vector-effect: non-scaling-stroke; opacity: 1; stroke-width: 1px; fill: rgb(63, 123, 23); fill-opacity: 1; stroke: rgb(255, 255, 255); stroke-opacity: 1;"/>
                <text class="bartext bartext-inside" text-anchor="middle" data-notex="1" x="0" y="0" style="font-family: 'Alegreya Sans', sans-serif; font-size: 12px; fill: rgb(255, 255, 255); fill-opacity: 1; white-space: pre;" transform="translate(658.2875,252.86031249999996)">
                  <tspan class="line" dy="0em" x="0" y="0">
                    <tspan style="font-weight:bold">26 %</tspan>
                  </tspan>
                  <tspan class="line" dy="1.3em" x="0" y="0">(18)</tspan>
                </text>
              </g>
              <g class="point">
                <path d="M508.18,228.67V191.33H672.6V228.67Z" style="vector-effect: non-scaling-stroke; opacity: 1; stroke-width: 1px; fill: rgb(63, 123, 23); fill-opacity: 1; stroke: rgb(255, 255, 255); stroke-opacity: 1;"/>
                <text class="bartext bartext-inside" text-anchor="middle" data-notex="1" x="0" y="0" style="font-family: 'Alegreya Sans', sans-serif; font-size: 12px; fill: rgb(255, 255, 255); fill-opacity: 1; white-space: pre;" transform="translate(658.178125,206.1953125)">
                  <tspan class="line" dy="0em" x="0" y="0">
                    <tspan style="font-weight:bold">24 %</tspan>
                  </tspan>
                  <tspan class="line" dy="1.3em" x="0" y="0">(22)</tspan>
                </text>
              </g>
              <g class="point">
                <path d="M467.91,182V144.67H672.6V182Z" style="vector-effect: non-scaling-stroke; opacity: 1; stroke-width: 1px; fill: rgb(63, 123, 23); fill-opacity: 1; stroke: rgb(255, 255, 255); stroke-opacity: 1;"/>
                <text class="bartext bartext-inside" text-anchor="middle" data-notex="1" x="0" y="0" style="font-family: 'Alegreya Sans', sans-serif; font-size: 12px; fill: rgb(255, 255, 255); fill-opacity: 1; white-space: pre;" transform="translate(658.303125,159.53031249999998)">
                  <tspan class="line" dy="0em" x="0" y="0">
                    <tspan style="font-weight:bold">30 %</tspan>
                  </tspan>
                  <tspan class="line" dy="1.3em" x="0" y="0">(55)</tspan>
                </text>
              </g>
              <g class="point">
                <path d="M457.54,135.33V98H672.6V135.33Z" style="vector-effect: non-scaling-stroke; opacity: 1; stroke-width: 1px; fill: rgb(63, 123, 23); fill-opacity: 1; stroke: rgb(255, 255, 255); stroke-opacity: 1;"/>
                <text class="bartext bartext-inside" text-anchor="middle" data-notex="1" x="0" y="0" style="font-family: 'Alegreya Sans', sans-serif; font-size: 12px; fill: rgb(255, 255, 255); fill-opacity: 1; white-space: pre;" transform="translate(658.6,112.8603125)">
                  <tspan class="line" dy="0em" x="0" y="0">
                    <tspan style="font-weight:bold">32 %</tspan>
                  </tspan>
                  <tspan class="line" dy="1.3em" x="0" y="0">(82)</tspan>
                </text>
              </g>
              <g class="point">
                <path d="M464.44,88.67V51.33H672.6V88.67Z" style="vector-effect: non-scaling-stroke; opacity: 1; stroke-width: 1px; fill: rgb(63, 123, 23); fill-opacity: 1; stroke: rgb(255, 255, 255); stroke-opacity: 1;"/>
                <text class="bartext bartext-inside" text-anchor="middle" data-notex="1" x="0" y="0" style="font-family: 'Alegreya Sans', sans-serif; font-size: 12px; fill: rgb(255, 255, 255); fill-opacity: 1; white-space: pre;" transform="translate(659.271875,66.1953125)">
                  <tspan class="line" dy="0em" x="0" y="0">
                    <tspan style="font-weight:bold">31 %</tspan>
                  </tspan>
                  <tspan class="line" dy="1.3em" x="0" y="0">(85)</tspan>
                </text>
              </g>
              <g class="point">
                <path d="M422.76,42V4.67H672.6V42Z" style="vector-effect: non-scaling-stroke; opacity: 1; stroke-width: 1px; fill: rgb(63, 123, 23); fill-opacity: 1; stroke: rgb(255, 255, 255); stroke-opacity: 1;"/>
                <text class="bartext bartext-inside" text-anchor="middle" data-notex="1" x="0" y="0" style="font-family: 'Alegreya Sans', sans-serif; font-size: 12px; fill: rgb(255, 255, 255); fill-opacity: 1; white-space: pre;" transform="translate(658.834375,19.5303125)">
                  <tspan class="line" dy="0em" x="0" y="0">
                    <tspan style="font-weight:bold">37 %</tspan>
                  </tspan>
                  <tspan class="line" dy="1.3em" x="0" y="0">(117)</tspan>
                </text>
              </g>
            </g>
          </g>
        </g>
      </g>
      <g class="overplot"/>
      <path class="xlines-above crisp" d="M0,0" style="fill: none;"/>
      <path class="ylines-above crisp" d="" style="fill: none; stroke-width: 1px; stroke: rgb(0, 0, 0); stroke-opacity: 0;"/>
      <g class="overlines-above"/>
      <g class="xaxislayer-above">
        <g class="xtick">
          <text text-anchor="middle" x="0" y="293" transform="translate(92,0)" style="font-family: 'Alegreya Sans', sans-serif; font-size: 12px; fill: rgb(0, 0, 0); fill-opacity: 1; white-space: pre; opacity: 1;"/>
        </g>
        <g class="xtick">
          <text text-anchor="middle" x="0" y="293" style="font-family: 'Alegreya Sans', sans-serif; font-size: 12px; fill: rgb(0, 0, 0); fill-opacity: 1; white-space: pre; opacity: 1;" transform="translate(226.52,0)"/>
        </g>
        <g class="xtick">
          <text text-anchor="middle" x="0" y="293" style="font-family: 'Alegreya Sans', sans-serif; font-size: 12px; fill: rgb(0, 0, 0); fill-opacity: 1; white-space: pre; opacity: 1;" transform="translate(361.04,0)"/>
        </g>
        <g class="xtick">
          <text text-anchor="middle" x="0" y="293" style="font-family: 'Alegreya Sans', sans-serif; font-size: 12px; fill: rgb(0, 0, 0); fill-opacity: 1; white-space: pre; opacity: 1;" transform="translate(495.56,0)"/>
        </g>
        <g class="xtick">
          <text text-anchor="middle" x="0" y="293" style="font-family: 'Alegreya Sans', sans-serif; font-size: 12px; fill: rgb(0, 0, 0); fill-opacity: 1; white-space: pre; opacity: 1;" transform="translate(630.08,0)"/>
        </g>
        <g class="xtick">
          <text text-anchor="middle" x="0" y="293" style="font-family: 'Alegreya Sans', sans-serif; font-size: 12px; fill: rgb(0, 0, 0); fill-opacity: 1; white-space: pre; opacity: 1;" transform="translate(764.6,0)"/>
        </g>
      </g>
      <g class="yaxislayer-above">
        <path class="ytick ticks crisp" d="M91,0h-5" transform="translate(0,256.67)" style="stroke: rgb(68, 68, 68); stroke-opacity: 1; stroke-width: 1px;"/>
        <path class="ytick ticks crisp" d="M91,0h-5" transform="translate(0,210)" style="stroke: rgb(68, 68, 68); stroke-opacity: 1; stroke-width: 1px;"/>
        <path class="ytick ticks crisp" d="M91,0h-5" transform="translate(0,163.33)" style="stroke: rgb(68, 68, 68); stroke-opacity: 1; stroke-width: 1px;"/>
        <path class="ytick ticks crisp" d="M91,0h-5" transform="translate(0,116.67)" style="stroke: rgb(68, 68, 68); stroke-opacity: 1; stroke-width: 1px;"/>
        <path class="ytick ticks crisp" d="M91,0h-5" transform="translate(0,70)" style="stroke: rgb(68, 68, 68); stroke-opacity: 1; stroke-width: 1px;"/>
        <path class="ytick ticks crisp" d="M91,0h-5" transform="translate(0,23.33)" style="stroke: rgb(68, 68, 68); stroke-opacity: 1; stroke-width: 1px;"/>
        <g class="ytick">
          <text text-anchor="end" x="83.6" y="4.199999999999999" transform="translate(0,256.67)" style="font-family: 'Alegreya Sans', sans-serif; font-size: 12px; fill: rgb(0, 0, 0); fill-opacity: 1; white-space: pre; opacity: 1;">18–29 Jahre</text>
        </g>
        <g class="ytick">
          <text text-anchor="end" x="83.6" y="4.199999999999999" transform="translate(0,210)" style="font-family: 'Alegreya Sans', sans-serif; font-size: 12px; fill: rgb(0, 0, 0); fill-opacity: 1; white-space: pre; opacity: 1;">30–39 Jahre</text>
        </g>
        <g class="ytick">
          <text text-anchor="end" x="83.6" y="4.199999999999999" transform="translate(0,163.33)" style="font-family: 'Alegreya Sans', sans-serif; font-size: 12px; fill: rgb(0, 0, 0); fill-opacity: 1; white-space: pre; opacity: 1;">40–49 Jahre</text>
        </g>
        <g class="ytick">
          <text text-anchor="end" x="83.6" y="4.199999999999999" transform="translate(0,116.67)" style="font-family: 'Alegreya Sans', sans-serif; font-size: 12px; fill: rgb(0, 0, 0); fill-opacity: 1; white-space: pre; opacity: 1;">50–59 Jahre</text>
        </g>
        <g class="ytick">
          <text text-anchor="end" x="83.6" y="4.199999999999999" transform="translate(0,70)" style="font-family: 'Alegreya Sans', sans-serif; font-size: 12px; fill: rgb(0, 0, 0); fill-opacity: 1; white-space: pre; opacity: 1;">60–69 Jahre</text>
        </g>
        <g class="ytick">
          <text text-anchor="end" x="83.6" y="4.199999999999999" transform="translate(0,23.33)" style="font-family: 'Alegreya Sans', sans-serif; font-size: 12px; fill: rgb(0, 0, 0); fill-opacity: 1; white-space: pre; opacity: 1;">        70+ Jahre</text>
        </g>
      </g>
      <g class="overaxes-above"/>
    </g>
  </g>
  <g class="polarlayer"/>
  <g class="smithlayer"/>
  <g class="ternarylayer"/>
  <g class="geolayer"/>
  <g class="funnelarealayer"/>
  <g class="pielayer"/>
  <g class="iciclelayer"/>
  <g class="treemaplayer"/>
  <g class="sunburstlayer"/>
  <g class="glimages"/>
  <defs id="topdefs-b56b26">
    <g class="clips"/>
  </defs>
  <g class="layer-above">
    <g class="imagelayer"/>
    <g class="shapelayer"/>
  </g>
  <g class="infolayer">
    <g class="g-gtitle"/>
    <g class="g-xtitle"/>
    <g class="g-ytitle"/>
  </g>
</svg>
