<svg xmlns="http://www.w3.org/2000/svg" xmlns:xlink="http://www.w3.org/1999/xlink" class="main-svg" width="100%" height="100%" style="" viewBox="1 1 799 199">
  <rect x="0" y="0" width="800" height="200" style="fill: rgb(255, 255, 255); fill-opacity: 1;"/>
  <defs id="defs-6b27e9">
    <g class="clips">
      <clipPath id="clip6b27e9xyplot" class="plotclip">
        <rect width="709" height="200"/>
      </clipPath>
      <clipPath class="axesclip" id="clip6b27e9x">
        <rect x="91" y="0" width="709" height="200"/>
      </clipPath>
      <clipPath class="axesclip" id="clip6b27e9y">
        <rect x="0" y="0" width="800" height="200"/>
      </clipPath>
      <clipPath class="axesclip" id="clip6b27e9xy">
        <rect x="91" y="0" width="709" height="200"/>
      </clipPath>
    </g>
    <g class="gradients"/>
    <g class="patterns"/>
  </defs>
  <g class="bglayer"/>
  <g class="layer-below">
    <g class="imagelayer"/>
    <g class="shapelayer"/>
  </g>
  <g class="cartesianlayer">
    <g class="subplot xy">
      <g class="layer-subplot">
        <g class="shapelayer"/>
        <g class="imagelayer"/>
      </g>
      <g class="gridlayer">
        <g class="x">
          <path class="xgrid crisp" transform="translate(225.71,0)" d="M0,0v200" style="stroke: rgb(238, 238, 238); stroke-opacity: 1; stroke-width: 1px;"/>
          <path class="xgrid crisp" transform="translate(360.42,0)" d="M0,0v200" style="stroke: rgb(238, 238, 238); stroke-opacity: 1; stroke-width: 1px;"/>
          <path class="xgrid crisp" transform="translate(495.13,0)" d="M0,0v200" style="stroke: rgb(238, 238, 238); stroke-opacity: 1; stroke-width: 1px;"/>
          <path class="xgrid crisp" transform="translate(629.84,0)" d="M0,0v200" style="stroke: rgb(238, 238, 238); stroke-opacity: 1; stroke-width: 1px;"/>
          <path class="xgrid crisp" transform="translate(764.55,0)" d="M0,0v200" style="stroke: rgb(238, 238, 238); stroke-opacity: 1; stroke-width: 1px;"/>
        </g>
        <g class="y"/>
      </g>
      <g class="zerolinelayer">
        <path class="xzl zl crisp" transform="translate(91,0)" d="M0,0v200" style="stroke: rgb(68, 68, 68); stroke-opacity: 1; stroke-width: 1px;"/>
      </g>
      <path class="xlines-below"/>
      <path class="ylines-below"/>
      <g class="overlines-below"/>
      <g class="xaxislayer-below"/>
      <g class="yaxislayer-below"/>
      <g class="overaxes-below"/>
      <g class="plot" transform="translate(91,0)" clip-path="url(#clip6b27e9xyplot)">
        <g class="barlayer mlayer">
          <g class="trace bars" shape-rendering="crispEdges" style="opacity: 1;">
            <g class="points">
              <g class="point">
                <path d="M0,195V155H0V195Z" style="vector-effect: non-scaling-stroke; opacity: 1; stroke-width: 1px; fill: rgb(148, 184, 184); fill-opacity: 1; stroke: rgb(255, 255, 255); stroke-opacity: 1;"/>
              </g>
              <g class="point">
                <path d="M0,145V105H0V145Z" style="vector-effect: non-scaling-stroke; opacity: 1; stroke-width: 1px; fill: rgb(148, 184, 184); fill-opacity: 1; stroke: rgb(255, 255, 255); stroke-opacity: 1;"/>
              </g>
              <g class="point">
                <path d="M0,95V55H0V95Z" style="vector-effect: non-scaling-stroke; opacity: 1; stroke-width: 1px; fill: rgb(148, 184, 184); fill-opacity: 1; stroke: rgb(255, 255, 255); stroke-opacity: 1;"/>
              </g>
              <g class="point">
                <path d="M0,45V5H0V45Z" style="vector-effect: non-scaling-stroke; opacity: 1; stroke-width: 1px; fill: rgb(148, 184, 184); fill-opacity: 1; stroke: rgb(255, 255, 255); stroke-opacity: 1;"/>
              </g>
            </g>
          </g>
          <g class="trace bars" shape-rendering="crispEdges" style="opacity: 1;">
            <g class="points">
              <g class="point">
                <path d="M0,195V155H121.05V195Z" style="vector-effect: non-scaling-stroke; opacity: 1; stroke-width: 1px; fill: rgb(238, 42, 59); fill-opacity: 1; stroke: rgb(255, 255, 255); stroke-opacity: 1;"/>
                <text class="bartext bartext-inside" text-anchor="middle" data-notex="1" x="0" y="0" style="font-family: 'Alegreya Sans', sans-serif; font-size: 12px; fill: rgb(255, 255, 255); fill-opacity: 1; white-space: pre;" transform="translate(107.346875,171.1953125)">
                  <tspan class="line" dy="0em" x="0" y="0">
                    <tspan style="font-weight:bold">18 %</tspan>
                  </tspan>
                  <tspan class="line" dy="1.3em" x="0" y="0">(9)</tspan>
                </text>
              </g>
              <g class="point">
                <path d="M0,145V105H144.41V145Z" style="vector-effect: non-scaling-stroke; opacity: 1; stroke-width: 1px; fill: rgb(238, 42, 59); fill-opacity: 1; stroke: rgb(255, 255, 255); stroke-opacity: 1;"/>
                <text class="bartext bartext-inside" text-anchor="middle" data-notex="1" x="0" y="0" style="font-family: 'Alegreya Sans', sans-serif; font-size: 12px; fill: rgb(255, 255, 255); fill-opacity: 1; white-space: pre;" transform="translate(130.831875,121.1953125)">
                  <tspan class="line" dy="0em" x="0" y="0">
                    <tspan style="font-weight:bold">21 %</tspan>
                  </tspan>
                  <tspan class="line" dy="1.3em" x="0" y="0">(69)</tspan>
                </text>
              </g>
              <g class="point">
                <path d="M0,95V55H125.83V95Z" style="vector-effect: non-scaling-stroke; opacity: 1; stroke-width: 1px; fill: rgb(238, 42, 59); fill-opacity: 1; stroke: rgb(255, 255, 255); stroke-opacity: 1;"/>
                <text class="bartext bartext-inside" text-anchor="middle" data-notex="1" x="0" y="0" style="font-family: 'Alegreya Sans', sans-serif; font-size: 12px; fill: rgb(255, 255, 255); fill-opacity: 1; white-space: pre;" transform="translate(112.189375,71.1953125)">
                  <tspan class="line" dy="0em" x="0" y="0">
                    <tspan style="font-weight:bold">19 %</tspan>
                  </tspan>
                  <tspan class="line" dy="1.3em" x="0" y="0">(84)</tspan>
                </text>
              </g>
              <g class="point">
                <path d="M0,45V5H107.75V45Z" style="vector-effect: non-scaling-stroke; opacity: 1; stroke-width: 1px; fill: rgb(238, 42, 59); fill-opacity: 1; stroke: rgb(255, 255, 255); stroke-opacity: 1;"/>
                <text class="bartext bartext-inside" text-anchor="middle" data-notex="1" x="0" y="0" style="font-family: 'Alegreya Sans', sans-serif; font-size: 12px; fill: rgb(255, 255, 255); fill-opacity: 1; white-space: pre;" transform="translate(94.109375,21.1953125)">
                  <tspan class="line" dy="0em" x="0" y="0">
                    <tspan style="font-weight:bold">16 %</tspan>
                  </tspan>
                  <tspan class="line" dy="1.3em" x="0" y="0">(55)</tspan>
                </text>
              </g>
            </g>
          </g>
          <g class="trace bars" shape-rendering="crispEdges" style="opacity: 1;">
            <g class="points">
              <g class="point">
                <path d="M121.05,195V155H153.13V195Z" style="vector-effect: non-scaling-stroke; opacity: 1; stroke-width: 1px; fill: rgb(132, 180, 20); fill-opacity: 1; stroke: rgb(255, 255, 255); stroke-opacity: 1;"/>
                <text class="bartext bartext-inside" text-anchor="middle" data-notex="1" x="0" y="0" style="font-family: 'Alegreya Sans', sans-serif; font-size: 12px; fill: rgb(255, 255, 255); fill-opacity: 1; white-space: pre;" transform="translate(141.958125,171.1953125)">
                  <tspan class="line" dy="0em" x="0" y="0">
                    <tspan style="font-weight:bold">5 %</tspan>
                  </tspan>
                  <tspan class="line" dy="1.3em" x="0" y="0">(2)</tspan>
                </text>
              </g>
              <g class="point">
                <path d="M144.41,145V105H216.82V145Z" style="vector-effect: non-scaling-stroke; opacity: 1; stroke-width: 1px; fill: rgb(132, 180, 20); fill-opacity: 1; stroke: rgb(255, 255, 255); stroke-opacity: 1;"/>
                <text class="bartext bartext-inside" text-anchor="middle" data-notex="1" x="0" y="0" style="font-family: 'Alegreya Sans', sans-serif; font-size: 12px; fill: rgb(255, 255, 255); fill-opacity: 1; white-space: pre;" transform="translate(203.91375,121.1953125)">
                  <tspan class="line" dy="0em" x="0" y="0">
                    <tspan style="font-weight:bold">11 %</tspan>
                  </tspan>
                  <tspan class="line" dy="1.3em" x="0" y="0">(35)</tspan>
                </text>
              </g>
              <g class="point">
                <path d="M125.83,95V55H166.34V95Z" style="vector-effect: non-scaling-stroke; opacity: 1; stroke-width: 1px; fill: rgb(132, 180, 20); fill-opacity: 1; stroke: rgb(255, 255, 255); stroke-opacity: 1;"/>
                <text class="bartext bartext-inside" text-anchor="middle" data-notex="1" x="0" y="0" style="font-family: 'Alegreya Sans', sans-serif; font-size: 12px; fill: rgb(255, 255, 255); fill-opacity: 1; white-space: pre;" transform="translate(154.543125,71.1953125)">
                  <tspan class="line" dy="0em" x="0" y="0">
                    <tspan style="font-weight:bold">6 %</tspan>
                  </tspan>
                  <tspan class="line" dy="1.3em" x="0" y="0">(27)</tspan>
                </text>
              </g>
              <g class="point">
                <path d="M107.75,45V5H145.55V45Z" style="vector-effect: non-scaling-stroke; opacity: 1; stroke-width: 1px; fill: rgb(132, 180, 20); fill-opacity: 1; stroke: rgb(255, 255, 255); stroke-opacity: 1;"/>
                <text class="bartext bartext-inside" text-anchor="middle" data-notex="1" x="0" y="0" style="font-family: 'Alegreya Sans', sans-serif; font-size: 12px; fill: rgb(255, 255, 255); fill-opacity: 1; white-space: pre;" transform="translate(134.065625,21.1953125)">
                  <tspan class="line" dy="0em" x="0" y="0">
                    <tspan style="font-weight:bold">6 %</tspan>
                  </tspan>
                  <tspan class="line" dy="1.3em" x="0" y="0">(19)</tspan>
                </text>
              </g>
            </g>
          </g>
          <g class="trace bars" shape-rendering="crispEdges" style="opacity: 1;">
            <g class="points">
              <g class="point">
                <path d="M153.13,195V155H273.42V195Z" style="vector-effect: non-scaling-stroke; opacity: 1; stroke-width: 1px; fill: rgb(204, 153, 255); fill-opacity: 1; stroke: rgb(255, 255, 255); stroke-opacity: 1;"/>
                <text class="bartext bartext-inside" text-anchor="middle" data-notex="1" x="0" y="0" style="font-family: 'Alegreya Sans', sans-serif; font-size: 12px; fill: rgb(255, 255, 255); fill-opacity: 1; white-space: pre;" transform="translate(259.716875,171.1953125)">
                  <tspan class="line" dy="0em" x="0" y="0">
                    <tspan style="font-weight:bold">18 %</tspan>
                  </tspan>
                  <tspan class="line" dy="1.3em" x="0" y="0">(9)</tspan>
                </text>
              </g>
              <g class="point">
                <path d="M216.82,145V105H225.29V145Z" style="vector-effect: non-scaling-stroke; opacity: 1; stroke-width: 1px; fill: rgb(204, 153, 255); fill-opacity: 1; stroke: rgb(255, 255, 255); stroke-opacity: 1;"/>
                <text class="bartext bartext-inside" text-anchor="middle" data-notex="1" x="0" y="0" style="font-family: 'Alegreya Sans', sans-serif; font-size: 12px; fill: rgb(255, 255, 255); fill-opacity: 1; white-space: pre;" transform="translate(221.055,124.39370463709677)scale(0.15935483870967734)">
                  <tspan class="line" dy="0em" x="0" y="0">
                    <tspan style="font-weight:bold">1 %</tspan>
                  </tspan>
                  <tspan class="line" dy="1.3em" x="0" y="0">(4)</tspan>
                </text>
              </g>
              <g class="point">
                <path d="M166.34,95V55H214.9V95Z" style="vector-effect: non-scaling-stroke; opacity: 1; stroke-width: 1px; fill: rgb(204, 153, 255); fill-opacity: 1; stroke: rgb(255, 255, 255); stroke-opacity: 1;"/>
                <text class="bartext bartext-inside" text-anchor="middle" data-notex="1" x="0" y="0" style="font-family: 'Alegreya Sans', sans-serif; font-size: 12px; fill: rgb(255, 255, 255); fill-opacity: 1; white-space: pre;" transform="translate(203.11875,71.1953125)">
                  <tspan class="line" dy="0em" x="0" y="0">
                    <tspan style="font-weight:bold">7 %</tspan>
                  </tspan>
                  <tspan class="line" dy="1.3em" x="0" y="0">(32)</tspan>
                </text>
              </g>
              <g class="point">
                <path d="M145.55,45V5H145.55V45Z" style="vector-effect: non-scaling-stroke; opacity: 1; stroke-width: 1px; fill: rgb(204, 153, 255); fill-opacity: 1; stroke: rgb(255, 255, 255); stroke-opacity: 1;"/>
              </g>
            </g>
          </g>
          <g class="trace bars" shape-rendering="crispEdges" style="opacity: 1;">
            <g class="points">
              <g class="point">
                <path d="M273.42,195V155H306.81V195Z" style="vector-effect: non-scaling-stroke; opacity: 1; stroke-width: 1px; fill: rgb(195, 217, 63); fill-opacity: 1; stroke: rgb(255, 255, 255); stroke-opacity: 1;"/>
                <text class="bartext bartext-inside" text-anchor="middle" data-notex="1" x="0" y="0" style="font-family: 'Alegreya Sans', sans-serif; font-size: 12px; fill: rgb(255, 255, 255); fill-opacity: 1; white-space: pre;" transform="translate(295.638125,171.1953125)">
                  <tspan class="line" dy="0em" x="0" y="0">
                    <tspan style="font-weight:bold">5 %</tspan>
                  </tspan>
                  <tspan class="line" dy="1.3em" x="0" y="0">(3)</tspan>
                </text>
              </g>
              <g class="point">
                <path d="M225.29,145V105H264.74V145Z" style="vector-effect: non-scaling-stroke; opacity: 1; stroke-width: 1px; fill: rgb(195, 217, 63); fill-opacity: 1; stroke: rgb(255, 255, 255); stroke-opacity: 1;"/>
                <text class="bartext bartext-inside" text-anchor="middle" data-notex="1" x="0" y="0" style="font-family: 'Alegreya Sans', sans-serif; font-size: 12px; fill: rgb(255, 255, 255); fill-opacity: 1; white-space: pre;" transform="translate(253.255625,121.1953125)">
                  <tspan class="line" dy="0em" x="0" y="0">
                    <tspan style="font-weight:bold">6 %</tspan>
                  </tspan>
                  <tspan class="line" dy="1.3em" x="0" y="0">(19)</tspan>
                </text>
              </g>
              <g class="point">
                <path d="M214.9,95V55H252.35V95Z" style="vector-effect: non-scaling-stroke; opacity: 1; stroke-width: 1px; fill: rgb(195, 217, 63); fill-opacity: 1; stroke: rgb(255, 255, 255); stroke-opacity: 1;"/>
                <text class="bartext bartext-inside" text-anchor="middle" data-notex="1" x="0" y="0" style="font-family: 'Alegreya Sans', sans-serif; font-size: 12px; fill: rgb(255, 255, 255); fill-opacity: 1; white-space: pre;" transform="translate(240.5375,71.1953125)">
                  <tspan class="line" dy="0em" x="0" y="0">
                    <tspan style="font-weight:bold">6 %</tspan>
                  </tspan>
                  <tspan class="line" dy="1.3em" x="0" y="0">(25)</tspan>
                </text>
              </g>
              <g class="point">
                <path d="M145.55,45V5H174.86V45Z" style="vector-effect: non-scaling-stroke; opacity: 1; stroke-width: 1px; fill: rgb(195, 217, 63); fill-opacity: 1; stroke: rgb(255, 255, 255); stroke-opacity: 1;"/>
                <text class="bartext bartext-inside" text-anchor="middle" data-notex="1" x="0" y="0" style="font-family: 'Alegreya Sans', sans-serif; font-size: 12px; fill: rgb(255, 255, 255); fill-opacity: 1; white-space: pre;" transform="translate(163.250625,21.1953125)">
                  <tspan class="line" dy="0em" x="0" y="0">
                    <tspan style="font-weight:bold">4 %</tspan>
                  </tspan>
                  <tspan class="line" dy="1.3em" x="0" y="0">(15)</tspan>
                </text>
              </g>
            </g>
          </g>
          <g class="trace bars" shape-rendering="crispEdges" style="opacity: 1;">
            <g class="points">
              <g class="point">
                <path d="M306.81,195V155H339.45V195Z" style="vector-effect: non-scaling-stroke; opacity: 1; stroke-width: 1px; fill: rgb(148, 184, 184); fill-opacity: 1; stroke: rgb(255, 255, 255); stroke-opacity: 1;"/>
                <text class="bartext bartext-inside" text-anchor="middle" data-notex="1" x="0" y="0" style="font-family: 'Alegreya Sans', sans-serif; font-size: 12px; fill: rgb(255, 255, 255); fill-opacity: 1; white-space: pre;" transform="translate(328.278125,171.1953125)">
                  <tspan class="line" dy="0em" x="0" y="0">
                    <tspan style="font-weight:bold">5 %</tspan>
                  </tspan>
                  <tspan class="line" dy="1.3em" x="0" y="0">(2)</tspan>
                </text>
              </g>
              <g class="point">
                <path d="M264.74,145V105H267.68V145Z" style="vector-effect: non-scaling-stroke; opacity: 1; stroke-width: 1px; fill: rgb(148, 184, 184); fill-opacity: 1; stroke: rgb(255, 255, 255); stroke-opacity: 1;"/>
                <text class="bartext bartext-inside" text-anchor="middle" data-notex="1" x="0" y="0" style="font-family: 'Alegreya Sans', sans-serif; font-size: 12px; fill: rgb(255, 255, 255); fill-opacity: 1; white-space: pre;" transform="translate(266.21000000000004,124.35736983842011)scale(0.16890484739676828)">
                  <tspan class="line" dy="0em" x="0" y="0">
                    <tspan style="font-weight:bold">0 %</tspan>
                  </tspan>
                  <tspan class="line" dy="1.3em" x="0" y="0">(1)</tspan>
                </text>
              </g>
              <g class="point">
                <path d="M252.35,95V55H270.82V95Z" style="vector-effect: non-scaling-stroke; opacity: 1; stroke-width: 1px; fill: rgb(148, 184, 184); fill-opacity: 1; stroke: rgb(255, 255, 255); stroke-opacity: 1;"/>
                <text class="bartext bartext-inside" text-anchor="middle" data-notex="1" x="0" y="0" style="font-family: 'Alegreya Sans', sans-serif; font-size: 12px; fill: rgb(255, 255, 255); fill-opacity: 1; white-space: pre;" transform="translate(261.585,72.16220093457945)scale(0.7458691588785046)">
                  <tspan class="line" dy="0em" x="0" y="0">
                    <tspan style="font-weight:bold">3 %</tspan>
                  </tspan>
                  <tspan class="line" dy="1.3em" x="0" y="0">(12)</tspan>
                </text>
              </g>
              <g class="point">
                <path d="M174.86,45V5H184.39V45Z" style="vector-effect: non-scaling-stroke; opacity: 1; stroke-width: 1px; fill: rgb(148, 184, 184); fill-opacity: 1; stroke: rgb(255, 255, 255); stroke-opacity: 1;"/>
                <text class="bartext bartext-inside" text-anchor="middle" data-notex="1" x="0" y="0" style="font-family: 'Alegreya Sans', sans-serif; font-size: 12px; fill: rgb(255, 255, 255); fill-opacity: 1; white-space: pre;" transform="translate(179.625,24.133513104838716)scale(0.2277419354838692)">
                  <tspan class="line" dy="0em" x="0" y="0">
                    <tspan style="font-weight:bold">1 %</tspan>
                  </tspan>
                  <tspan class="line" dy="1.3em" x="0" y="0">(5)</tspan>
                </text>
              </g>
            </g>
          </g>
          <g class="trace bars" shape-rendering="crispEdges" style="opacity: 1;">
            <g class="points">
              <g class="point">
                <path d="M339.45,195V155H339.45V195Z" style="vector-effect: non-scaling-stroke; opacity: 1; stroke-width: 1px; fill: rgb(255, 221, 0); fill-opacity: 1; stroke: rgb(255, 255, 255); stroke-opacity: 1;"/>
              </g>
              <g class="point">
                <path d="M267.68,145V105H295.36V145Z" style="vector-effect: non-scaling-stroke; opacity: 1; stroke-width: 1px; fill: rgb(255, 221, 0); fill-opacity: 1; stroke: rgb(255, 255, 255); stroke-opacity: 1;"/>
                <text class="bartext bartext-inside" text-anchor="middle" data-notex="1" x="0" y="0" style="font-family: 'Alegreya Sans', sans-serif; font-size: 12px; fill: rgb(255, 255, 255); fill-opacity: 1; white-space: pre;" transform="translate(283.750625,121.1953125)">
                  <tspan class="line" dy="0em" x="0" y="0">
                    <tspan style="font-weight:bold">4 %</tspan>
                  </tspan>
                  <tspan class="line" dy="1.3em" x="0" y="0">(13)</tspan>
                </text>
              </g>
              <g class="point">
                <path d="M270.82,95V55H287.49V95Z" style="vector-effect: non-scaling-stroke; opacity: 1; stroke-width: 1px; fill: rgb(255, 221, 0); fill-opacity: 1; stroke: rgb(255, 255, 255); stroke-opacity: 1;"/>
                <text class="bartext bartext-inside" text-anchor="middle" data-notex="1" x="0" y="0" style="font-family: 'Alegreya Sans', sans-serif; font-size: 12px; fill: rgb(255, 255, 255); fill-opacity: 1; white-space: pre;" transform="translate(279.155,72.58536710037174)scale(0.6346468401486999)">
                  <tspan class="line" dy="0em" x="0" y="0">
                    <tspan style="font-weight:bold">2 %</tspan>
                  </tspan>
                  <tspan class="line" dy="1.3em" x="0" y="0">(11)</tspan>
                </text>
              </g>
              <g class="point">
                <path d="M184.39,45V5H199.74V45Z" style="vector-effect: non-scaling-stroke; opacity: 1; stroke-width: 1px; fill: rgb(255, 221, 0); fill-opacity: 1; stroke: rgb(255, 255, 255); stroke-opacity: 1;"/>
                <text class="bartext bartext-inside" text-anchor="middle" data-notex="1" x="0" y="0" style="font-family: 'Alegreya Sans', sans-serif; font-size: 12px; fill: rgb(255, 255, 255); fill-opacity: 1; white-space: pre;" transform="translate(192.065,22.8840845724907)scale(0.5561338289962838)">
                  <tspan class="line" dy="0em" x="0" y="0">
                    <tspan style="font-weight:bold">2 %</tspan>
                  </tspan>
                  <tspan class="line" dy="1.3em" x="0" y="0">(8)</tspan>
                </text>
              </g>
            </g>
          </g>
          <g class="trace bars" shape-rendering="crispEdges" style="opacity: 1;">
            <g class="points">
              <g class="point">
                <path d="M339.45,195V155H397.26V195Z" style="vector-effect: non-scaling-stroke; opacity: 1; stroke-width: 1px; fill: rgb(255, 133, 12); fill-opacity: 1; stroke: rgb(255, 255, 255); stroke-opacity: 1;"/>
                <text class="bartext bartext-inside" text-anchor="middle" data-notex="1" x="0" y="0" style="font-family: 'Alegreya Sans', sans-serif; font-size: 12px; fill: rgb(255, 255, 255); fill-opacity: 1; white-space: pre;" transform="translate(385.775625,171.1953125)">
                  <tspan class="line" dy="0em" x="0" y="0">
                    <tspan style="font-weight:bold">9 %</tspan>
                  </tspan>
                  <tspan class="line" dy="1.3em" x="0" y="0">(4)</tspan>
                </text>
              </g>
              <g class="point">
                <path d="M295.36,145V105H330.32V145Z" style="vector-effect: non-scaling-stroke; opacity: 1; stroke-width: 1px; fill: rgb(255, 133, 12); fill-opacity: 1; stroke: rgb(255, 255, 255); stroke-opacity: 1;"/>
                <text class="bartext bartext-inside" text-anchor="middle" data-notex="1" x="0" y="0" style="font-family: 'Alegreya Sans', sans-serif; font-size: 12px; fill: rgb(255, 255, 255); fill-opacity: 1; white-space: pre;" transform="translate(319.148125,121.1953125)">
                  <tspan class="line" dy="0em" x="0" y="0">
                    <tspan style="font-weight:bold">5 %</tspan>
                  </tspan>
                  <tspan class="line" dy="1.3em" x="0" y="0">(17)</tspan>
                </text>
              </g>
              <g class="point">
                <path d="M287.49,95V55H331.49V95Z" style="vector-effect: non-scaling-stroke; opacity: 1; stroke-width: 1px; fill: rgb(255, 133, 12); fill-opacity: 1; stroke: rgb(255, 255, 255); stroke-opacity: 1;"/>
                <text class="bartext bartext-inside" text-anchor="middle" data-notex="1" x="0" y="0" style="font-family: 'Alegreya Sans', sans-serif; font-size: 12px; fill: rgb(255, 255, 255); fill-opacity: 1; white-space: pre;" transform="translate(319.365,71.1953125)">
                  <tspan class="line" dy="0em" x="0" y="0">
                    <tspan style="font-weight:bold">7 %</tspan>
                  </tspan>
                  <tspan class="line" dy="1.3em" x="0" y="0">(29)</tspan>
                </text>
              </g>
              <g class="point">
                <path d="M199.74,45V5H380.78V45Z" style="vector-effect: non-scaling-stroke; opacity: 1; stroke-width: 1px; fill: rgb(255, 133, 12); fill-opacity: 1; stroke: rgb(255, 255, 255); stroke-opacity: 1;"/>
                <text class="bartext bartext-inside" text-anchor="middle" data-notex="1" x="0" y="0" style="font-family: 'Alegreya Sans', sans-serif; font-size: 12px; fill: rgb(255, 255, 255); fill-opacity: 1; white-space: pre;" transform="translate(366.78,21.1953125)">
                  <tspan class="line" dy="0em" x="0" y="0">
                    <tspan style="font-weight:bold">27 %</tspan>
                  </tspan>
                  <tspan class="line" dy="1.3em" x="0" y="0">(92)</tspan>
                </text>
              </g>
            </g>
          </g>
          <g class="trace bars" shape-rendering="crispEdges" style="opacity: 1;">
            <g class="points">
              <g class="point">
                <path d="M397.26,195V155H470.23V195Z" style="vector-effect: non-scaling-stroke; opacity: 1; stroke-width: 1px; fill: rgb(16, 79, 160); fill-opacity: 1; stroke: rgb(255, 255, 255); stroke-opacity: 1;"/>
                <text class="bartext bartext-inside" text-anchor="middle" data-notex="1" x="0" y="0" style="font-family: 'Alegreya Sans', sans-serif; font-size: 12px; fill: rgb(255, 255, 255); fill-opacity: 1; white-space: pre;" transform="translate(457.32375,171.1953125)">
                  <tspan class="line" dy="0em" x="0" y="0">
                    <tspan style="font-weight:bold">11 %</tspan>
                  </tspan>
                  <tspan class="line" dy="1.3em" x="0" y="0">(6)</tspan>
                </text>
              </g>
              <g class="point">
                <path d="M330.32,145V105H448.53V145Z" style="vector-effect: non-scaling-stroke; opacity: 1; stroke-width: 1px; fill: rgb(16, 79, 160); fill-opacity: 1; stroke: rgb(255, 255, 255); stroke-opacity: 1;"/>
                <text class="bartext bartext-inside" text-anchor="middle" data-notex="1" x="0" y="0" style="font-family: 'Alegreya Sans', sans-serif; font-size: 12px; fill: rgb(255, 255, 255); fill-opacity: 1; white-space: pre;" transform="translate(434.826875,121.1953125)">
                  <tspan class="line" dy="0em" x="0" y="0">
                    <tspan style="font-weight:bold">18 %</tspan>
                  </tspan>
                  <tspan class="line" dy="1.3em" x="0" y="0">(56)</tspan>
                </text>
              </g>
              <g class="point">
                <path d="M331.49,95V55H467.16V95Z" style="vector-effect: non-scaling-stroke; opacity: 1; stroke-width: 1px; fill: rgb(16, 79, 160); fill-opacity: 1; stroke: rgb(255, 255, 255); stroke-opacity: 1;"/>
                <text class="bartext bartext-inside" text-anchor="middle" data-notex="1" x="0" y="0" style="font-family: 'Alegreya Sans', sans-serif; font-size: 12px; fill: rgb(255, 255, 255); fill-opacity: 1; white-space: pre;" transform="translate(452.62875,71.1953125)">
                  <tspan class="line" dy="0em" x="0" y="0">
                    <tspan style="font-weight:bold">20 %</tspan>
                  </tspan>
                  <tspan class="line" dy="1.3em" x="0" y="0">(90)</tspan>
                </text>
              </g>
              <g class="point">
                <path d="M380.78,45V5H448.03V45Z" style="vector-effect: non-scaling-stroke; opacity: 1; stroke-width: 1px; fill: rgb(16, 79, 160); fill-opacity: 1; stroke: rgb(255, 255, 255); stroke-opacity: 1;"/>
                <text class="bartext bartext-inside" text-anchor="middle" data-notex="1" x="0" y="0" style="font-family: 'Alegreya Sans', sans-serif; font-size: 12px; fill: rgb(255, 255, 255); fill-opacity: 1; white-space: pre;" transform="translate(434.155,21.1953125)">
                  <tspan class="line" dy="0em" x="0" y="0">
                    <tspan style="font-weight:bold">10 %</tspan>
                  </tspan>
                  <tspan class="line" dy="1.3em" x="0" y="0">(34)</tspan>
                </text>
              </g>
            </g>
          </g>
          <g class="trace bars" shape-rendering="crispEdges" style="opacity: 1;">
            <g class="points">
              <g class="point">
                <path d="M470.23,195V155H673.55V195Z" style="vector-effect: non-scaling-stroke; opacity: 1; stroke-width: 1px; fill: rgb(63, 123, 23); fill-opacity: 1; stroke: rgb(255, 255, 255); stroke-opacity: 1;"/>
                <text class="bartext bartext-inside" text-anchor="middle" data-notex="1" x="0" y="0" style="font-family: 'Alegreya Sans', sans-serif; font-size: 12px; fill: rgb(255, 255, 255); fill-opacity: 1; white-space: pre;" transform="translate(659.253125,171.1953125)">
                  <tspan class="line" dy="0em" x="0" y="0">
                    <tspan style="font-weight:bold">30 %</tspan>
                  </tspan>
                  <tspan class="line" dy="1.3em" x="0" y="0">(16)</tspan>
                </text>
              </g>
              <g class="point">
                <path d="M448.53,145V105H673.55V145Z" style="vector-effect: non-scaling-stroke; opacity: 1; stroke-width: 1px; fill: rgb(63, 123, 23); fill-opacity: 1; stroke: rgb(255, 255, 255); stroke-opacity: 1;"/>
                <text class="bartext bartext-inside" text-anchor="middle" data-notex="1" x="0" y="0" style="font-family: 'Alegreya Sans', sans-serif; font-size: 12px; fill: rgb(255, 255, 255); fill-opacity: 1; white-space: pre;" transform="translate(659.2375,121.1953125)">
                  <tspan class="line" dy="0em" x="0" y="0">
                    <tspan style="font-weight:bold">33 %</tspan>
                  </tspan>
                  <tspan class="line" dy="1.3em" x="0" y="0">(107)</tspan>
                </text>
              </g>
              <g class="point">
                <path d="M467.16,95V55H673.55V95Z" style="vector-effect: non-scaling-stroke; opacity: 1; stroke-width: 1px; fill: rgb(63, 123, 23); fill-opacity: 1; stroke: rgb(255, 255, 255); stroke-opacity: 1;"/>
                <text class="bartext bartext-inside" text-anchor="middle" data-notex="1" x="0" y="0" style="font-family: 'Alegreya Sans', sans-serif; font-size: 12px; fill: rgb(255, 255, 255); fill-opacity: 1; white-space: pre;" transform="translate(659.940625,71.1953125)">
                  <tspan class="line" dy="0em" x="0" y="0">
                    <tspan style="font-weight:bold">31 %</tspan>
                  </tspan>
                  <tspan class="line" dy="1.3em" x="0" y="0">(137)</tspan>
                </text>
              </g>
              <g class="point">
                <path d="M448.03,45V5H673.55V45Z" style="vector-effect: non-scaling-stroke; opacity: 1; stroke-width: 1px; fill: rgb(63, 123, 23); fill-opacity: 1; stroke: rgb(255, 255, 255); stroke-opacity: 1;"/>
                <text class="bartext bartext-inside" text-anchor="middle" data-notex="1" x="0" y="0" style="font-family: 'Alegreya Sans', sans-serif; font-size: 12px; fill: rgb(255, 255, 255); fill-opacity: 1; white-space: pre;" transform="translate(659.8,21.1953125)">
                  <tspan class="line" dy="0em" x="0" y="0">
                    <tspan style="font-weight:bold">33 %</tspan>
                  </tspan>
                  <tspan class="line" dy="1.3em" x="0" y="0">(115)</tspan>
                </text>
              </g>
            </g>
          </g>
        </g>
      </g>
      <g class="overplot"/>
      <path class="xlines-above crisp" d="M0,0" style="fill: none;"/>
      <path class="ylines-above crisp" d="" style="fill: none; stroke-width: 1px; stroke: rgb(0, 0, 0); stroke-opacity: 0;"/>
      <g class="overlines-above"/>
      <g class="xaxislayer-above">
        <g class="xtick">
          <text text-anchor="middle" x="0" y="213" transform="translate(91,0)" style="font-family: 'Alegreya Sans', sans-serif; font-size: 12px; fill: rgb(0, 0, 0); fill-opacity: 1; white-space: pre; opacity: 1;"/>
        </g>
        <g class="xtick">
          <text text-anchor="middle" x="0" y="213" style="font-family: 'Alegreya Sans', sans-serif; font-size: 12px; fill: rgb(0, 0, 0); fill-opacity: 1; white-space: pre; opacity: 1;" transform="translate(225.71,0)"/>
        </g>
        <g class="xtick">
          <text text-anchor="middle" x="0" y="213" style="font-family: 'Alegreya Sans', sans-serif; font-size: 12px; fill: rgb(0, 0, 0); fill-opacity: 1; white-space: pre; opacity: 1;" transform="translate(360.42,0)"/>
        </g>
        <g class="xtick">
          <text text-anchor="middle" x="0" y="213" style="font-family: 'Alegreya Sans', sans-serif; font-size: 12px; fill: rgb(0, 0, 0); fill-opacity: 1; white-space: pre; opacity: 1;" transform="translate(495.13,0)"/>
        </g>
        <g class="xtick">
          <text text-anchor="middle" x="0" y="213" style="font-family: 'Alegreya Sans', sans-serif; font-size: 12px; fill: rgb(0, 0, 0); fill-opacity: 1; white-space: pre; opacity: 1;" transform="translate(629.84,0)"/>
        </g>
        <g class="xtick">
          <text text-anchor="middle" x="0" y="213" style="font-family: 'Alegreya Sans', sans-serif; font-size: 12px; fill: rgb(0, 0, 0); fill-opacity: 1; white-space: pre; opacity: 1;" transform="translate(764.55,0)"/>
        </g>
      </g>
      <g class="yaxislayer-above">
        <path class="ytick ticks crisp" d="M90,0h-5" transform="translate(0,175)" style="stroke: rgb(68, 68, 68); stroke-opacity: 1; stroke-width: 1px;"/>
        <path class="ytick ticks crisp" d="M90,0h-5" transform="translate(0,125)" style="stroke: rgb(68, 68, 68); stroke-opacity: 1; stroke-width: 1px;"/>
        <path class="ytick ticks crisp" d="M90,0h-5" transform="translate(0,75)" style="stroke: rgb(68, 68, 68); stroke-opacity: 1; stroke-width: 1px;"/>
        <path class="ytick ticks crisp" d="M90,0h-5" transform="translate(0,25)" style="stroke: rgb(68, 68, 68); stroke-opacity: 1; stroke-width: 1px;"/>
        <g class="ytick">
          <text text-anchor="end" x="82.6" y="4.199999999999999" transform="translate(0,175)" style="font-family: 'Alegreya Sans', sans-serif; font-size: 12px; fill: rgb(0, 0, 0); fill-opacity: 1; white-space: pre; opacity: 1;">      andere</text>
        </g>
        <g class="ytick">
          <text text-anchor="end" x="82.6" y="4.199999999999999" transform="translate(0,125)translate(0,-7.800000000000001)" style="font-family: 'Alegreya Sans', sans-serif; font-size: 12px; fill: rgb(0, 0, 0); fill-opacity: 1; white-space: pre; opacity: 1;">
            <tspan class="line" dy="0em" x="82.6" y="4.199999999999999">      keine/</tspan>
            <tspan class="line" dy="1.3em" x="82.6" y="4.199999999999999">konfessionslos</tspan>
          </text>
        </g>
        <g class="ytick">
          <text text-anchor="end" x="82.6" y="4.199999999999999" transform="translate(0,75)translate(0,-15.600000000000001)" style="font-family: 'Alegreya Sans', sans-serif; font-size: 12px; fill: rgb(0, 0, 0); fill-opacity: 1; white-space: pre; opacity: 1;">
            <tspan class="line" dy="0em" x="82.6" y="4.199999999999999">      protestantisch/</tspan>
            <tspan class="line" dy="1.3em" x="82.6" y="4.199999999999999">reformiert/</tspan>
            <tspan class="line" dy="2.6em" x="82.6" y="4.199999999999999">evangelisch</tspan>
          </text>
        </g>
        <g class="ytick">
          <text text-anchor="end" x="82.6" y="4.199999999999999" transform="translate(0,25)translate(0,-15.600000000000001)" style="font-family: 'Alegreya Sans', sans-serif; font-size: 12px; fill: rgb(0, 0, 0); fill-opacity: 1; white-space: pre; opacity: 1;">
            <tspan class="line" dy="0em" x="82.6" y="4.199999999999999">      katholisch/</tspan>
            <tspan class="line" dy="1.3em" x="82.6" y="4.199999999999999">christkatholisch/</tspan>
            <tspan class="line" dy="2.6em" x="82.6" y="4.199999999999999">altkatholisch</tspan>
          </text>
        </g>
      </g>
      <g class="overaxes-above"/>
    </g>
  </g>
  <g class="polarlayer"/>
  <g class="smithlayer"/>
  <g class="ternarylayer"/>
  <g class="geolayer"/>
  <g class="funnelarealayer"/>
  <g class="pielayer"/>
  <g class="iciclelayer"/>
  <g class="treemaplayer"/>
  <g class="sunburstlayer"/>
  <g class="glimages"/>
  <defs id="topdefs-6b27e9">
    <g class="clips"/>
  </defs>
  <g class="layer-above">
    <g class="imagelayer"/>
    <g class="shapelayer"/>
  </g>
  <g class="infolayer">
    <g class="g-gtitle"/>
    <g class="g-xtitle"/>
    <g class="g-ytitle"/>
  </g>
</svg>
