<svg xmlns="http://www.w3.org/2000/svg" xmlns:xlink="http://www.w3.org/1999/xlink" class="main-svg" width="100%" height="100%" style="" viewBox="1 1 799 579">
  <rect x="0" y="0" width="800" height="580" style="fill: rgb(255, 255, 255); fill-opacity: 1;"/>
  <defs id="defs-c4ee72">
    <g class="clips">
      <clipPath id="clipc4ee72xyplot" class="plotclip">
        <rect width="511" height="540"/>
      </clipPath>
      <clipPath class="axesclip" id="clipc4ee72x">
        <rect x="289" y="0" width="511" height="580"/>
      </clipPath>
      <clipPath class="axesclip" id="clipc4ee72y">
        <rect x="0" y="0" width="800" height="540"/>
      </clipPath>
      <clipPath class="axesclip" id="clipc4ee72xy">
        <rect x="289" y="0" width="511" height="540"/>
      </clipPath>
    </g>
    <g class="gradients"/>
    <g class="patterns"/>
  </defs>
  <g class="bglayer"/>
  <g class="layer-below">
    <g class="imagelayer"/>
    <g class="shapelayer"/>
  </g>
  <g class="cartesianlayer">
    <g class="subplot xy">
      <g class="layer-subplot">
        <g class="shapelayer"/>
        <g class="imagelayer"/>
      </g>
      <g class="gridlayer">
        <g class="x">
          <path class="xgrid crisp" transform="translate(394.2,0)" d="M0,0v540" style="stroke: rgb(238, 238, 238); stroke-opacity: 1; stroke-width: 1px;"/>
          <path class="xgrid crisp" transform="translate(499.4,0)" d="M0,0v540" style="stroke: rgb(238, 238, 238); stroke-opacity: 1; stroke-width: 1px;"/>
          <path class="xgrid crisp" transform="translate(604.6,0)" d="M0,0v540" style="stroke: rgb(238, 238, 238); stroke-opacity: 1; stroke-width: 1px;"/>
          <path class="xgrid crisp" transform="translate(709.8,0)" d="M0,0v540" style="stroke: rgb(238, 238, 238); stroke-opacity: 1; stroke-width: 1px;"/>
        </g>
        <g class="y"/>
      </g>
      <g class="zerolinelayer">
        <path class="xzl zl crisp" transform="translate(289,0)" d="M0,0v540" style="stroke: rgb(68, 68, 68); stroke-opacity: 1; stroke-width: 1px;"/>
      </g>
      <path class="xlines-below"/>
      <path class="ylines-below"/>
      <g class="overlines-below"/>
      <g class="xaxislayer-below"/>
      <g class="yaxislayer-below"/>
      <g class="overaxes-below"/>
      <g class="plot" transform="translate(289,0)" clip-path="url(#clipc4ee72xyplot)">
        <g class="barlayer mlayer">
          <g class="trace bars" style="opacity: 1;">
            <g class="points">
              <g class="point">
                <path d="M0,414V366H28.44V414Z" style="vector-effect: non-scaling-stroke; opacity: 1; stroke-width: 0px; fill: rgb(36, 139, 204); fill-opacity: 1;"/>
              </g>
              <g class="point">
                <path d="M0,534V486H27.69V534Z" style="vector-effect: non-scaling-stroke; opacity: 1; stroke-width: 0px; fill: rgb(36, 139, 204); fill-opacity: 1;"/>
              </g>
              <g class="point">
                <path d="M0,54V6H485.45V54Z" style="vector-effect: non-scaling-stroke; opacity: 1; stroke-width: 0px; fill: rgb(36, 139, 204); fill-opacity: 1;"/>
              </g>
              <g class="point">
                <path d="M0,114V66H485.03V114Z" style="vector-effect: non-scaling-stroke; opacity: 1; stroke-width: 0px; fill: rgb(36, 139, 204); fill-opacity: 1;"/>
              </g>
              <g class="point">
                <path d="M0,174V126H225.01V174Z" style="vector-effect: non-scaling-stroke; opacity: 1; stroke-width: 0px; fill: rgb(36, 139, 204); fill-opacity: 1;"/>
              </g>
              <g class="point">
                <path d="M0,234V186H133.81V234Z" style="vector-effect: non-scaling-stroke; opacity: 1; stroke-width: 0px; fill: rgb(36, 139, 204); fill-opacity: 1;"/>
              </g>
              <g class="point">
                <path d="M0,294V246H44.32V294Z" style="vector-effect: non-scaling-stroke; opacity: 1; stroke-width: 0px; fill: rgb(36, 139, 204); fill-opacity: 1;"/>
              </g>
              <g class="point">
                <path d="M0,474V426H28.11V474Z" style="vector-effect: non-scaling-stroke; opacity: 1; stroke-width: 0px; fill: rgb(36, 139, 204); fill-opacity: 1;"/>
              </g>
              <g class="point">
                <path d="M0,354V306H35.47V354Z" style="vector-effect: non-scaling-stroke; opacity: 1; stroke-width: 0px; fill: rgb(36, 139, 204); fill-opacity: 1;"/>
              </g>
            </g>
          </g>
        </g>
      </g>
      <g class="overplot"/>
      <path class="xlines-above crisp" d="M0,0" style="fill: none;"/>
      <path class="ylines-above crisp" d="" style="fill: none; stroke-width: 1px; stroke: rgb(0, 0, 0); stroke-opacity: 0;"/>
      <g class="overlines-above"/>
      <g class="xaxislayer-above">
        <g class="xtick">
          <text text-anchor="middle" x="0" y="553" transform="translate(289,0)" style="font-family: 'Alegreya Sans', sans-serif; font-size: 12px; fill: rgb(0, 0, 0); fill-opacity: 1; white-space: pre; opacity: 1;">0</text>
        </g>
        <g class="xtick">
          <text text-anchor="middle" x="0" y="553" style="font-family: 'Alegreya Sans', sans-serif; font-size: 12px; fill: rgb(0, 0, 0); fill-opacity: 1; white-space: pre; opacity: 1;" transform="translate(394.2,0)">20</text>
        </g>
        <g class="xtick">
          <text text-anchor="middle" x="0" y="553" style="font-family: 'Alegreya Sans', sans-serif; font-size: 12px; fill: rgb(0, 0, 0); fill-opacity: 1; white-space: pre; opacity: 1;" transform="translate(499.4,0)">40</text>
        </g>
        <g class="xtick">
          <text text-anchor="middle" x="0" y="553" style="font-family: 'Alegreya Sans', sans-serif; font-size: 12px; fill: rgb(0, 0, 0); fill-opacity: 1; white-space: pre; opacity: 1;" transform="translate(604.6,0)">60</text>
        </g>
        <g class="xtick">
          <text text-anchor="middle" x="0" y="553" style="font-family: 'Alegreya Sans', sans-serif; font-size: 12px; fill: rgb(0, 0, 0); fill-opacity: 1; white-space: pre; opacity: 1;" transform="translate(709.8,0)">80</text>
        </g>
      </g>
      <g class="yaxislayer-above">
        <path class="ytick ticks crisp" d="M288,0h-5" transform="translate(0,510)" style="stroke: rgb(68, 68, 68); stroke-opacity: 1; stroke-width: 1px;"/>
        <path class="ytick ticks crisp" d="M288,0h-5" transform="translate(0,450)" style="stroke: rgb(68, 68, 68); stroke-opacity: 1; stroke-width: 1px;"/>
        <path class="ytick ticks crisp" d="M288,0h-5" transform="translate(0,390)" style="stroke: rgb(68, 68, 68); stroke-opacity: 1; stroke-width: 1px;"/>
        <path class="ytick ticks crisp" d="M288,0h-5" transform="translate(0,330)" style="stroke: rgb(68, 68, 68); stroke-opacity: 1; stroke-width: 1px;"/>
        <path class="ytick ticks crisp" d="M288,0h-5" transform="translate(0,270)" style="stroke: rgb(68, 68, 68); stroke-opacity: 1; stroke-width: 1px;"/>
        <path class="ytick ticks crisp" d="M288,0h-5" transform="translate(0,210)" style="stroke: rgb(68, 68, 68); stroke-opacity: 1; stroke-width: 1px;"/>
        <path class="ytick ticks crisp" d="M288,0h-5" transform="translate(0,150)" style="stroke: rgb(68, 68, 68); stroke-opacity: 1; stroke-width: 1px;"/>
        <path class="ytick ticks crisp" d="M288,0h-5" transform="translate(0,90)" style="stroke: rgb(68, 68, 68); stroke-opacity: 1; stroke-width: 1px;"/>
        <path class="ytick ticks crisp" d="M288,0h-5" transform="translate(0,30)" style="stroke: rgb(68, 68, 68); stroke-opacity: 1; stroke-width: 1px;"/>
        <g class="ytick">
          <text text-anchor="end" x="280.6" y="4.199999999999999" transform="translate(0,510)translate(0,-7.800000000000001)" style="font-family: 'Alegreya Sans', sans-serif; font-size: 12px; fill: rgb(0, 0, 0); fill-opacity: 1; white-space: pre; opacity: 1;">
            <tspan class="line" dy="0em" x="280.6" y="4.199999999999999">wollte die von den Gegnern befürchtete Kostensteigerung</tspan>
            <tspan class="line" dy="1.3em" x="280.6" y="4.199999999999999">verhindern</tspan>
          </text>
        </g>
        <g class="ytick">
          <text text-anchor="end" x="280.6" y="4.199999999999999" transform="translate(0,450)" style="font-family: 'Alegreya Sans', sans-serif; font-size: 12px; fill: rgb(0, 0, 0); fill-opacity: 1; white-space: pre; opacity: 1;">anderes</text>
        </g>
        <g class="ytick">
          <text text-anchor="end" x="280.6" y="4.199999999999999" transform="translate(0,390)translate(0,-7.800000000000001)" style="font-family: 'Alegreya Sans', sans-serif; font-size: 12px; fill: rgb(0, 0, 0); fill-opacity: 1; white-space: pre; opacity: 1;">
            <tspan class="line" dy="0em" x="280.6" y="4.199999999999999">wollte in erster Linie einer bestimmten</tspan>
            <tspan class="line" dy="1.3em" x="280.6" y="4.199999999999999">Abstimmungsempfehlung folgen.</tspan>
          </text>
        </g>
        <g class="ytick">
          <text text-anchor="end" x="280.6" y="4.199999999999999" transform="translate(0,330)" style="font-family: 'Alegreya Sans', sans-serif; font-size: 12px; fill: rgb(0, 0, 0); fill-opacity: 1; white-space: pre; opacity: 1;">
            <tspan style=" fill: #808080;;font-style:italic">keine Angabe</tspan>
          </text>
        </g>
        <g class="ytick">
          <text text-anchor="end" x="280.6" y="4.199999999999999" transform="translate(0,270)" style="font-family: 'Alegreya Sans', sans-serif; font-size: 12px; fill: rgb(0, 0, 0); fill-opacity: 1; white-space: pre; opacity: 1;">kein spezieller Grund</text>
        </g>
        <g class="ytick">
          <text text-anchor="end" x="280.6" y="4.199999999999999" transform="translate(0,210)" style="font-family: 'Alegreya Sans', sans-serif; font-size: 12px; fill: rgb(0, 0, 0); fill-opacity: 1; white-space: pre; opacity: 1;">wollte dafür sorgen, dass alles so bleibt, wie es ist</text>
        </g>
        <g class="ytick">
          <text text-anchor="end" x="280.6" y="4.199999999999999" transform="translate(0,150)translate(0,-15.600000000000001)" style="font-family: 'Alegreya Sans', sans-serif; font-size: 12px; fill: rgb(0, 0, 0); fill-opacity: 1; white-space: pre; opacity: 1;">
            <tspan class="line" dy="0em" x="280.6" y="4.199999999999999">bin dafür, die heutige Schulpflege so</tspan>
            <tspan class="line" dy="1.3em" x="280.6" y="4.199999999999999">weiterzuentwickeln, wie vom Schulpflegeverband VASP</tspan>
            <tspan class="line" dy="2.6em" x="280.6" y="4.199999999999999">schon seit Jahren gefordert, statt sie abzuschaffen</tspan>
          </text>
        </g>
        <g class="ytick">
          <text text-anchor="end" x="280.6" y="4.199999999999999" transform="translate(0,90)translate(0,-23.400000000000002)" style="font-family: 'Alegreya Sans', sans-serif; font-size: 12px; fill: rgb(0, 0, 0); fill-opacity: 1; white-space: pre; opacity: 1;">
            <tspan class="line" dy="0em" x="280.6" y="4.199999999999999">wollte verhindern, dass in Zukunft weitgehende</tspan>
            <tspan class="line" dy="1.3em" x="280.6" y="4.199999999999999">Entscheidungsbefugnisse an eine einzelne Person</tspan>
            <tspan class="line" dy="2.6em" x="280.6" y="4.199999999999999">innerhalb des Gemeinderates oder der Schulleitung</tspan>
            <tspan class="line" dy="3.9000000000000004em" x="280.6" y="4.199999999999999">delegiert werden können (Machtkonzentration)</tspan>
          </text>
        </g>
        <g class="ytick">
          <text text-anchor="end" x="280.6" y="4.199999999999999" transform="translate(0,30)translate(0,-15.600000000000001)" style="font-family: 'Alegreya Sans', sans-serif; font-size: 12px; fill: rgb(0, 0, 0); fill-opacity: 1; white-space: pre; opacity: 1;">
            <tspan class="line" dy="0em" x="280.6" y="4.199999999999999">bin überzeugt, dass die heutige Schulpflege als</tspan>
            <tspan class="line" dy="1.3em" x="280.6" y="4.199999999999999">demokratisch gewähltes Gremium nicht abgeschafft werden</tspan>
            <tspan class="line" dy="2.6em" x="280.6" y="4.199999999999999">darf</tspan>
          </text>
        </g>
      </g>
      <g class="overaxes-above"/>
    </g>
  </g>
  <g class="polarlayer"/>
  <g class="smithlayer"/>
  <g class="ternarylayer"/>
  <g class="geolayer"/>
  <g class="funnelarealayer"/>
  <g class="pielayer"/>
  <g class="iciclelayer"/>
  <g class="treemaplayer"/>
  <g class="sunburstlayer"/>
  <g class="glimages"/>
  <defs id="topdefs-c4ee72">
    <g class="clips"/>
  </defs>
  <g class="layer-above">
    <g class="imagelayer"/>
    <g class="shapelayer"/>
  </g>
  <g class="infolayer">
    <g class="g-gtitle"/>
    <g class="g-xtitle" transform="translate(0,-8)">
      <text class="xtitle" x="544.5" y="586" text-anchor="middle" style="font-family: 'Alegreya Sans', sans-serif; font-size: 12px; fill: rgb(0, 0, 0); opacity: 1; font-weight: normal; white-space: pre;">Anzahl Personen</text>
    </g>
    <g class="g-ytitle"/>
    <g class="annotation" data-index="0" style="opacity: 1;">
      <g class="annotation-text-g" transform="rotate(0,303.22,390)">
        <g class="cursor-pointer" transform="translate(293,376)">
          <rect class="bg" x="0.5" y="0.5" width="19" height="28" style="stroke-width: 1px; stroke: rgb(0, 0, 0); stroke-opacity: 0; fill: rgb(0, 0, 0); fill-opacity: 0;"/>
          <text class="annotation-text" text-anchor="middle" x="9.703125" y="11" style="font-family: 'Alegreya Sans', sans-serif; font-size: 11px; fill: rgb(255, 255, 255); fill-opacity: 1; white-space: pre;">
            <tspan class="line" dy="0em" x="9.703125" y="11">
              <tspan style="font-weight:bold">2 %</tspan>
            </tspan>
            <tspan class="line" dy="1.3em" x="9.703125" y="11">(5)</tspan>
          </text>
        </g>
      </g>
    </g>
    <g class="annotation" data-index="1" style="opacity: 1;">
      <g class="annotation-text-g" transform="rotate(0,302.85,510)">
        <g class="cursor-pointer" transform="translate(293,496)">
          <rect class="bg" x="0.5" y="0.5" width="19" height="28" style="stroke-width: 1px; stroke: rgb(0, 0, 0); stroke-opacity: 0; fill: rgb(0, 0, 0); fill-opacity: 0;"/>
          <text class="annotation-text" text-anchor="middle" x="9.703125" y="11" style="font-family: 'Alegreya Sans', sans-serif; font-size: 11px; fill: rgb(255, 255, 255); fill-opacity: 1; white-space: pre;">
            <tspan class="line" dy="0em" x="9.703125" y="11">
              <tspan style="font-weight:bold">2 %</tspan>
            </tspan>
            <tspan class="line" dy="1.3em" x="9.703125" y="11">(5)</tspan>
          </text>
        </g>
      </g>
    </g>
    <g class="annotation" data-index="2" style="opacity: 1;">
      <g class="annotation-text-g" transform="rotate(0,531.73,30)">
        <g class="cursor-pointer" transform="translate(520,16)">
          <rect class="bg" x="0.5" y="0.5" width="23" height="28" style="stroke-width: 1px; stroke: rgb(0, 0, 0); stroke-opacity: 0; fill: rgb(0, 0, 0); fill-opacity: 0;"/>
          <text class="annotation-text" text-anchor="middle" x="11.859375" y="11" style="font-family: 'Alegreya Sans', sans-serif; font-size: 11px; fill: rgb(255, 255, 255); fill-opacity: 1; white-space: pre;">
            <tspan class="line" dy="0em" x="11.859375" y="11">
              <tspan style="font-weight:bold">33 %</tspan>
            </tspan>
            <tspan class="line" dy="1.3em" x="11.859375" y="11">(92)</tspan>
          </text>
        </g>
      </g>
    </g>
    <g class="annotation" data-index="3" style="opacity: 1;">
      <g class="annotation-text-g" transform="rotate(0,531.51,90)">
        <g class="cursor-pointer" transform="translate(519,76)">
          <rect class="bg" x="0.5" y="0.5" width="24" height="28" style="stroke-width: 1px; stroke: rgb(0, 0, 0); stroke-opacity: 0; fill: rgb(0, 0, 0); fill-opacity: 0;"/>
          <text class="annotation-text" text-anchor="middle" x="12.078125" y="11" style="font-family: 'Alegreya Sans', sans-serif; font-size: 11px; fill: rgb(255, 255, 255); fill-opacity: 1; white-space: pre;">
            <tspan class="line" dy="0em" x="12.078125" y="11">
              <tspan style="font-weight:bold">32 %</tspan>
            </tspan>
            <tspan class="line" dy="1.3em" x="12.078125" y="11">(92)</tspan>
          </text>
        </g>
      </g>
    </g>
    <g class="annotation" data-index="4" style="opacity: 1;">
      <g class="annotation-text-g" transform="rotate(0,401.51,150)">
        <g class="cursor-pointer" transform="translate(390,136)">
          <rect class="bg" x="0.5" y="0.5" width="23" height="28" style="stroke-width: 1px; stroke: rgb(0, 0, 0); stroke-opacity: 0; fill: rgb(0, 0, 0); fill-opacity: 0;"/>
          <text class="annotation-text" text-anchor="middle" x="11.46875" y="11" style="font-family: 'Alegreya Sans', sans-serif; font-size: 11px; fill: rgb(255, 255, 255); fill-opacity: 1; white-space: pre;">
            <tspan class="line" dy="0em" x="11.46875" y="11">
              <tspan style="font-weight:bold">15 %</tspan>
            </tspan>
            <tspan class="line" dy="1.3em" x="11.46875" y="11">(43)</tspan>
          </text>
        </g>
      </g>
    </g>
    <g class="annotation" data-index="5" style="opacity: 1;">
      <g class="annotation-text-g" transform="rotate(0,355.9,210)">
        <g class="cursor-pointer" transform="translate(346,196)">
          <rect class="bg" x="0.5" y="0.5" width="19" height="28" style="stroke-width: 1px; stroke: rgb(0, 0, 0); stroke-opacity: 0; fill: rgb(0, 0, 0); fill-opacity: 0;"/>
          <text class="annotation-text" text-anchor="middle" x="10.078125" y="11" style="font-family: 'Alegreya Sans', sans-serif; font-size: 11px; fill: rgb(255, 255, 255); fill-opacity: 1; white-space: pre;">
            <tspan class="line" dy="0em" x="10.078125" y="11">
              <tspan style="font-weight:bold">9 %</tspan>
            </tspan>
            <tspan class="line" dy="1.3em" x="10.078125" y="11">(25)</tspan>
          </text>
        </g>
      </g>
    </g>
    <g class="annotation" data-index="6" style="opacity: 1;">
      <g class="annotation-text-g" transform="rotate(0,311.16,270)">
        <g class="cursor-pointer" transform="translate(301,256)">
          <rect class="bg" x="0.5" y="0.5" width="19" height="28" style="stroke-width: 1px; stroke: rgb(0, 0, 0); stroke-opacity: 0; fill: rgb(0, 0, 0); fill-opacity: 0;"/>
          <text class="annotation-text" text-anchor="middle" x="9.484375" y="11" style="font-family: 'Alegreya Sans', sans-serif; font-size: 11px; fill: rgb(255, 255, 255); fill-opacity: 1; white-space: pre;">
            <tspan class="line" dy="0em" x="9.484375" y="11">
              <tspan style="font-weight:bold">3 %</tspan>
            </tspan>
            <tspan class="line" dy="1.3em" x="9.484375" y="11">(8)</tspan>
          </text>
        </g>
      </g>
    </g>
    <g class="annotation" data-index="7" style="opacity: 1;">
      <g class="annotation-text-g" transform="rotate(0,303.05,450)">
        <g class="cursor-pointer" transform="translate(293,436)">
          <rect class="bg" x="0.5" y="0.5" width="19" height="28" style="stroke-width: 1px; stroke: rgb(0, 0, 0); stroke-opacity: 0; fill: rgb(0, 0, 0); fill-opacity: 0;"/>
          <text class="annotation-text" text-anchor="middle" x="9.703125" y="11" style="font-family: 'Alegreya Sans', sans-serif; font-size: 11px; fill: rgb(255, 255, 255); fill-opacity: 1; white-space: pre;">
            <tspan class="line" dy="0em" x="9.703125" y="11">
              <tspan style="font-weight:bold">2 %</tspan>
            </tspan>
            <tspan class="line" dy="1.3em" x="9.703125" y="11">(5)</tspan>
          </text>
        </g>
      </g>
    </g>
    <g class="annotation" data-index="8" style="opacity: 1;">
      <g class="annotation-text-g" transform="rotate(0,306.73,330)">
        <g class="cursor-pointer" transform="translate(297,316)">
          <rect class="bg" x="0.5" y="0.5" width="19" height="28" style="stroke-width: 1px; stroke: rgb(0, 0, 0); stroke-opacity: 0; fill: rgb(0, 0, 0); fill-opacity: 0;"/>
          <text class="annotation-text" text-anchor="middle" x="9.703125" y="11" style="font-family: 'Alegreya Sans', sans-serif; font-size: 11px; fill: rgb(255, 255, 255); fill-opacity: 1; white-space: pre;">
            <tspan class="line" dy="0em" x="9.703125" y="11">
              <tspan style="font-weight:bold">2 %</tspan>
            </tspan>
            <tspan class="line" dy="1.3em" x="9.703125" y="11">(7)</tspan>
          </text>
        </g>
      </g>
    </g>
  </g>
</svg>
