<svg xmlns="http://www.w3.org/2000/svg" xmlns:xlink="http://www.w3.org/1999/xlink" class="main-svg" width="100%" height="100%" style="" viewBox="1 1 1049 499">
  <rect x="0" y="0" width="1050" height="500" style="fill: rgb(255, 255, 255); fill-opacity: 1;"/>
  <defs id="defs-4e0c61">
    <g class="clips">
      <clipPath id="clip4e0c61xyplot" class="plotclip">
        <rect width="985" height="428"/>
      </clipPath>
      <clipPath class="axesclip" id="clip4e0c61x">
        <rect x="19" y="0" width="985" height="500"/>
      </clipPath>
      <clipPath class="axesclip" id="clip4e0c61y">
        <rect x="0" y="0" width="1050" height="428"/>
      </clipPath>
      <clipPath class="axesclip" id="clip4e0c61xy">
        <rect x="19" y="0" width="985" height="428"/>
      </clipPath>
    </g>
    <g class="gradients"/>
    <g class="patterns"/>
  </defs>
  <g class="bglayer"/>
  <g class="layer-below">
    <g class="imagelayer"/>
    <g class="shapelayer"/>
  </g>
  <g class="cartesianlayer">
    <g class="subplot xy">
      <g class="layer-subplot">
        <g class="shapelayer"/>
        <g class="imagelayer"/>
      </g>
      <g class="gridlayer">
        <g class="x">
          <path class="xgrid crisp" transform="translate(92,0)" d="M0,0v428" style="stroke: rgb(238, 238, 238); stroke-opacity: 1; stroke-width: 1px;"/>
          <path class="xgrid crisp" transform="translate(130,0)" d="M0,0v428" style="stroke: rgb(238, 238, 238); stroke-opacity: 1; stroke-width: 1px;"/>
          <path class="xgrid crisp" transform="translate(168,0)" d="M0,0v428" style="stroke: rgb(238, 238, 238); stroke-opacity: 1; stroke-width: 1px;"/>
          <path class="xgrid crisp" transform="translate(206,0)" d="M0,0v428" style="stroke: rgb(238, 238, 238); stroke-opacity: 1; stroke-width: 1px;"/>
          <path class="xgrid crisp" transform="translate(244,0)" d="M0,0v428" style="stroke: rgb(238, 238, 238); stroke-opacity: 1; stroke-width: 1px;"/>
          <path class="xgrid crisp" transform="translate(282,0)" d="M0,0v428" style="stroke: rgb(238, 238, 238); stroke-opacity: 1; stroke-width: 1px;"/>
          <path class="xgrid crisp" transform="translate(320,0)" d="M0,0v428" style="stroke: rgb(238, 238, 238); stroke-opacity: 1; stroke-width: 1px;"/>
          <path class="xgrid crisp" transform="translate(358,0)" d="M0,0v428" style="stroke: rgb(238, 238, 238); stroke-opacity: 1; stroke-width: 1px;"/>
          <path class="xgrid crisp" transform="translate(396,0)" d="M0,0v428" style="stroke: rgb(238, 238, 238); stroke-opacity: 1; stroke-width: 1px;"/>
          <path class="xgrid crisp" transform="translate(434,0)" d="M0,0v428" style="stroke: rgb(238, 238, 238); stroke-opacity: 1; stroke-width: 1px;"/>
          <path class="xgrid crisp" transform="translate(472,0)" d="M0,0v428" style="stroke: rgb(238, 238, 238); stroke-opacity: 1; stroke-width: 1px;"/>
          <path class="xgrid crisp" transform="translate(510,0)" d="M0,0v428" style="stroke: rgb(238, 238, 238); stroke-opacity: 1; stroke-width: 1px;"/>
          <path class="xgrid crisp" transform="translate(548,0)" d="M0,0v428" style="stroke: rgb(238, 238, 238); stroke-opacity: 1; stroke-width: 1px;"/>
          <path class="xgrid crisp" transform="translate(586,0)" d="M0,0v428" style="stroke: rgb(238, 238, 238); stroke-opacity: 1; stroke-width: 1px;"/>
          <path class="xgrid crisp" transform="translate(624,0)" d="M0,0v428" style="stroke: rgb(238, 238, 238); stroke-opacity: 1; stroke-width: 1px;"/>
          <path class="xgrid crisp" transform="translate(662,0)" d="M0,0v428" style="stroke: rgb(238, 238, 238); stroke-opacity: 1; stroke-width: 1px;"/>
          <path class="xgrid crisp" transform="translate(700,0)" d="M0,0v428" style="stroke: rgb(238, 238, 238); stroke-opacity: 1; stroke-width: 1px;"/>
          <path class="xgrid crisp" transform="translate(738,0)" d="M0,0v428" style="stroke: rgb(238, 238, 238); stroke-opacity: 1; stroke-width: 1px;"/>
          <path class="xgrid crisp" transform="translate(776,0)" d="M0,0v428" style="stroke: rgb(238, 238, 238); stroke-opacity: 1; stroke-width: 1px;"/>
          <path class="xgrid crisp" transform="translate(814,0)" d="M0,0v428" style="stroke: rgb(238, 238, 238); stroke-opacity: 1; stroke-width: 1px;"/>
          <path class="xgrid crisp" transform="translate(852,0)" d="M0,0v428" style="stroke: rgb(238, 238, 238); stroke-opacity: 1; stroke-width: 1px;"/>
          <path class="xgrid crisp" transform="translate(890,0)" d="M0,0v428" style="stroke: rgb(238, 238, 238); stroke-opacity: 1; stroke-width: 1px;"/>
          <path class="xgrid crisp" transform="translate(928,0)" d="M0,0v428" style="stroke: rgb(238, 238, 238); stroke-opacity: 1; stroke-width: 1px;"/>
          <path class="xgrid crisp" transform="translate(966,0)" d="M0,0v428" style="stroke: rgb(238, 238, 238); stroke-opacity: 1; stroke-width: 1px;"/>
        </g>
        <g class="y">
          <path class="ygrid crisp" transform="translate(0,318.6)" d="M19,0h985" style="stroke: rgb(238, 238, 238); stroke-opacity: 1; stroke-width: 1px;"/>
          <path class="ygrid crisp" transform="translate(0,218.19)" d="M19,0h985" style="stroke: rgb(238, 238, 238); stroke-opacity: 1; stroke-width: 1px;"/>
          <path class="ygrid crisp" transform="translate(0,117.79)" d="M19,0h985" style="stroke: rgb(238, 238, 238); stroke-opacity: 1; stroke-width: 1px;"/>
          <path class="ygrid crisp" transform="translate(0,17.38)" d="M19,0h985" style="stroke: rgb(238, 238, 238); stroke-opacity: 1; stroke-width: 1px;"/>
        </g>
      </g>
      <g class="zerolinelayer">
        <path class="yzl zl crisp" transform="translate(0,419)" d="M19,0h985" style="stroke: rgb(68, 68, 68); stroke-opacity: 1; stroke-width: 1px;"/>
      </g>
      <path class="xlines-below"/>
      <path class="ylines-below"/>
      <g class="overlines-below"/>
      <g class="xaxislayer-below"/>
      <g class="yaxislayer-below"/>
      <g class="overaxes-below"/>
      <g class="plot" transform="translate(19,0)" clip-path="url(#clip4e0c61xyplot)">
        <g class="scatterlayer mlayer">
          <g class="trace scatter trace73615b" style="stroke-miterlimit: 2;">
            <g class="fills">
              <g>
                <path class="js-fill" d="M985,419L73,419L73,419L149,419L187,392.89L225,248.31L263,304.54L301,330.64L339,208.15L415,336.67L453,410.97L529,414.98L567,408.96L605,318.6L643,288.47L681,326.63L719,392.89L757,392.89L795,390.89L833,346.71L871,386.87L909,390.89L947,416.99L985,419" style="fill: rgb(36, 139, 204); fill-opacity: 0.5; stroke-width: 0;"/>
              </g>
            </g>
            <g class="errorbars"/>
            <g class="lines">
              <path class="js-line" d="M73,419L149,419L187,392.89L225,248.31L263,304.54L301,330.64L339,208.15L415,336.67L453,410.97L529,414.98L567,408.96L605,318.6L643,288.47L681,326.63L719,392.89L757,392.89L795,390.89L833,346.71L871,386.87L909,390.89L947,416.99L985,419" style="vector-effect: non-scaling-stroke; fill: none; stroke: rgb(36, 139, 204); stroke-opacity: 1; stroke-width: 2px; opacity: 1;"/>
            </g>
            <g class="points"/>
            <g class="text"/>
          </g>
          <g class="trace scatter trace2ef786" style="stroke-miterlimit: 2;">
            <g class="fills">
              <g>
                <path class="js-fill" d="M985,419L73,419L73,419L643,419L681,404.94L719,386.87L757,280.44L795,419L833,419L871,412.98L909,21.4L947,356.75L985,388.88" style="fill: rgb(0, 0, 0); fill-opacity: 0.5; stroke-width: 0;"/>
              </g>
            </g>
            <g class="errorbars"/>
            <g class="lines">
              <path class="js-line" d="M73,419L643,419L681,404.94L719,386.87L757,280.44L795,419L833,419L871,412.98L909,21.4L947,356.75L985,388.88" style="vector-effect: non-scaling-stroke; fill: none; stroke: rgb(0, 0, 0); stroke-opacity: 1; stroke-width: 2px; opacity: 1;"/>
            </g>
            <g class="points"/>
            <g class="text"/>
          </g>
        </g>
      </g>
      <g class="overplot"/>
      <path class="xlines-above crisp" d="M0,0" style="fill: none;"/>
      <path class="ylines-above crisp" d="M0,0" style="fill: none;"/>
      <g class="overlines-above"/>
      <g class="xaxislayer-above">
        <g class="xtick">
          <text text-anchor="start" x="0" y="441" transform="translate(92,0) rotate(30,0,435)" style="font-family: 'Alegreya Sans', sans-serif; font-size: 12px; fill: rgb(0, 0, 0); fill-opacity: 1; white-space: pre; opacity: 1;">2020-09-21</text>
        </g>
        <g class="xtick">
          <text text-anchor="start" x="0" y="441" transform="translate(130,0) rotate(30,0,435)" style="font-family: 'Alegreya Sans', sans-serif; font-size: 12px; fill: rgb(0, 0, 0); fill-opacity: 1; white-space: pre; opacity: 1;">2020-09-22</text>
        </g>
        <g class="xtick">
          <text text-anchor="start" x="0" y="441" transform="translate(168,0) rotate(30,0,435)" style="font-family: 'Alegreya Sans', sans-serif; font-size: 12px; fill: rgb(0, 0, 0); fill-opacity: 1; white-space: pre; opacity: 1;">2020-09-23</text>
        </g>
        <g class="xtick">
          <text text-anchor="start" x="0" y="441" transform="translate(206,0) rotate(30,0,435)" style="font-family: 'Alegreya Sans', sans-serif; font-size: 12px; fill: rgb(0, 0, 0); fill-opacity: 1; white-space: pre; opacity: 1;">2020-09-24</text>
        </g>
        <g class="xtick">
          <text text-anchor="start" x="0" y="441" transform="translate(244,0) rotate(30,0,435)" style="font-family: 'Alegreya Sans', sans-serif; font-size: 12px; fill: rgb(0, 0, 0); fill-opacity: 1; white-space: pre; opacity: 1;">2020-09-25</text>
        </g>
        <g class="xtick">
          <text text-anchor="start" x="0" y="441" transform="translate(282,0) rotate(30,0,435)" style="font-family: 'Alegreya Sans', sans-serif; font-size: 12px; fill: rgb(0, 0, 0); fill-opacity: 1; white-space: pre; opacity: 1;">2020-09-26</text>
        </g>
        <g class="xtick">
          <text text-anchor="start" x="0" y="441" transform="translate(320,0) rotate(30,0,435)" style="font-family: 'Alegreya Sans', sans-serif; font-size: 12px; fill: rgb(0, 0, 0); fill-opacity: 1; white-space: pre; opacity: 1;">2020-09-27</text>
        </g>
        <g class="xtick">
          <text text-anchor="start" x="0" y="441" transform="translate(358,0) rotate(30,0,435)" style="font-family: 'Alegreya Sans', sans-serif; font-size: 12px; fill: rgb(0, 0, 0); fill-opacity: 1; white-space: pre; opacity: 1;">2020-09-28</text>
        </g>
        <g class="xtick">
          <text text-anchor="start" x="0" y="441" transform="translate(396,0) rotate(30,0,435)" style="font-family: 'Alegreya Sans', sans-serif; font-size: 12px; fill: rgb(0, 0, 0); fill-opacity: 1; white-space: pre; opacity: 1;">2020-09-29</text>
        </g>
        <g class="xtick">
          <text text-anchor="start" x="0" y="441" transform="translate(434,0) rotate(30,0,435)" style="font-family: 'Alegreya Sans', sans-serif; font-size: 12px; fill: rgb(0, 0, 0); fill-opacity: 1; white-space: pre; opacity: 1;">2020-09-30</text>
        </g>
        <g class="xtick">
          <text text-anchor="start" x="0" y="441" transform="translate(472,0) rotate(30,0,435)" style="font-family: 'Alegreya Sans', sans-serif; font-size: 12px; fill: rgb(0, 0, 0); fill-opacity: 1; white-space: pre; opacity: 1;">2020-10-01</text>
        </g>
        <g class="xtick">
          <text text-anchor="start" x="0" y="441" transform="translate(510,0) rotate(30,0,435)" style="font-family: 'Alegreya Sans', sans-serif; font-size: 12px; fill: rgb(0, 0, 0); fill-opacity: 1; white-space: pre; opacity: 1;">2020-10-02</text>
        </g>
        <g class="xtick">
          <text text-anchor="start" x="0" y="441" transform="translate(548,0) rotate(30,0,435)" style="font-family: 'Alegreya Sans', sans-serif; font-size: 12px; fill: rgb(0, 0, 0); fill-opacity: 1; white-space: pre; opacity: 1;">2020-10-03</text>
        </g>
        <g class="xtick">
          <text text-anchor="start" x="0" y="441" transform="translate(586,0) rotate(30,0,435)" style="font-family: 'Alegreya Sans', sans-serif; font-size: 12px; fill: rgb(0, 0, 0); fill-opacity: 1; white-space: pre; opacity: 1;">2020-10-04</text>
        </g>
        <g class="xtick">
          <text text-anchor="start" x="0" y="441" transform="translate(624,0) rotate(30,0,435)" style="font-family: 'Alegreya Sans', sans-serif; font-size: 12px; fill: rgb(0, 0, 0); fill-opacity: 1; white-space: pre; opacity: 1;">2020-10-05</text>
        </g>
        <g class="xtick">
          <text text-anchor="start" x="0" y="441" transform="translate(662,0) rotate(30,0,435)" style="font-family: 'Alegreya Sans', sans-serif; font-size: 12px; fill: rgb(0, 0, 0); fill-opacity: 1; white-space: pre; opacity: 1;">2020-10-06</text>
        </g>
        <g class="xtick">
          <text text-anchor="start" x="0" y="441" transform="translate(700,0) rotate(30,0,435)" style="font-family: 'Alegreya Sans', sans-serif; font-size: 12px; fill: rgb(0, 0, 0); fill-opacity: 1; white-space: pre; opacity: 1;">2020-10-07</text>
        </g>
        <g class="xtick">
          <text text-anchor="start" x="0" y="441" transform="translate(738,0) rotate(30,0,435)" style="font-family: 'Alegreya Sans', sans-serif; font-size: 12px; fill: rgb(0, 0, 0); fill-opacity: 1; white-space: pre; opacity: 1;">2020-10-08</text>
        </g>
        <g class="xtick">
          <text text-anchor="start" x="0" y="441" transform="translate(776,0) rotate(30,0,435)" style="font-family: 'Alegreya Sans', sans-serif; font-size: 12px; fill: rgb(0, 0, 0); fill-opacity: 1; white-space: pre; opacity: 1;">2020-10-09</text>
        </g>
        <g class="xtick">
          <text text-anchor="start" x="0" y="441" transform="translate(814,0) rotate(30,0,435)" style="font-family: 'Alegreya Sans', sans-serif; font-size: 12px; fill: rgb(0, 0, 0); fill-opacity: 1; white-space: pre; opacity: 1;">2020-10-10</text>
        </g>
        <g class="xtick">
          <text text-anchor="start" x="0" y="441" transform="translate(852,0) rotate(30,0,435)" style="font-family: 'Alegreya Sans', sans-serif; font-size: 12px; fill: rgb(0, 0, 0); fill-opacity: 1; white-space: pre; opacity: 1;">2020-10-11</text>
        </g>
        <g class="xtick">
          <text text-anchor="start" x="0" y="441" transform="translate(890,0) rotate(30,0,435)" style="font-family: 'Alegreya Sans', sans-serif; font-size: 12px; fill: rgb(0, 0, 0); fill-opacity: 1; white-space: pre; opacity: 1;">2020-10-12</text>
        </g>
        <g class="xtick">
          <text text-anchor="start" x="0" y="441" transform="translate(928,0) rotate(30,0,435)" style="font-family: 'Alegreya Sans', sans-serif; font-size: 12px; fill: rgb(0, 0, 0); fill-opacity: 1; white-space: pre; opacity: 1;">2020-10-13</text>
        </g>
        <g class="xtick">
          <text text-anchor="start" x="0" y="441" transform="translate(966,0) rotate(30,0,435)" style="font-family: 'Alegreya Sans', sans-serif; font-size: 12px; fill: rgb(0, 0, 0); fill-opacity: 1; white-space: pre; opacity: 1;">2020-10-14</text>
        </g>
        <g class="xtick">
          <text text-anchor="start" x="0" y="441" transform="translate(1004,0) rotate(30,0,435)" style="font-family: 'Alegreya Sans', sans-serif; font-size: 12px; fill: rgb(0, 0, 0); fill-opacity: 1; white-space: pre; opacity: 1;">2020-10-15</text>
        </g>
      </g>
      <g class="yaxislayer-above">
        <g class="ytick">
          <text text-anchor="end" x="18" y="4.199999999999999" transform="translate(0,419)" style="font-family: 'Alegreya Sans', sans-serif; font-size: 12px; fill: rgb(0, 0, 0); fill-opacity: 1; white-space: pre; opacity: 1;">0</text>
        </g>
        <g class="ytick">
          <text text-anchor="end" x="18" y="4.199999999999999" style="font-family: 'Alegreya Sans', sans-serif; font-size: 12px; fill: rgb(0, 0, 0); fill-opacity: 1; white-space: pre; opacity: 1;" transform="translate(0,318.6)">50</text>
        </g>
        <g class="ytick">
          <text text-anchor="end" x="18" y="4.199999999999999" style="font-family: 'Alegreya Sans', sans-serif; font-size: 12px; fill: rgb(0, 0, 0); fill-opacity: 1; white-space: pre; opacity: 1;" transform="translate(0,218.19)">100</text>
        </g>
        <g class="ytick">
          <text text-anchor="end" x="18" y="4.199999999999999" style="font-family: 'Alegreya Sans', sans-serif; font-size: 12px; fill: rgb(0, 0, 0); fill-opacity: 1; white-space: pre; opacity: 1;" transform="translate(0,117.79)">150</text>
        </g>
        <g class="ytick">
          <text text-anchor="end" x="18" y="4.199999999999999" style="font-family: 'Alegreya Sans', sans-serif; font-size: 12px; fill: rgb(0, 0, 0); fill-opacity: 1; white-space: pre; opacity: 1;" transform="translate(0,17.38)">200</text>
        </g>
      </g>
      <g class="overaxes-above"/>
    </g>
  </g>
  <g class="polarlayer"/>
  <g class="smithlayer"/>
  <g class="ternarylayer"/>
  <g class="geolayer"/>
  <g class="funnelarealayer"/>
  <g class="pielayer"/>
  <g class="iciclelayer"/>
  <g class="treemaplayer"/>
  <g class="sunburstlayer"/>
  <g class="glimages"/>
  <defs id="topdefs-4e0c61">
    <g class="clips"/>
    <clipPath id="legend4e0c61">
      <rect width="347" height="29" x="0" y="0"/>
    </clipPath>
  </defs>
  <g class="layer-above">
    <g class="imagelayer"/>
    <g class="shapelayer"/>
  </g>
  <g class="infolayer">
    <g class="legend" pointer-events="all" transform="translate(19,470.8)">
      <rect class="bg" shape-rendering="crispEdges" style="stroke: rgb(68, 68, 68); stroke-opacity: 1; fill: rgb(255, 255, 255); fill-opacity: 1; stroke-width: 0px;" width="347" height="29" x="0" y="0"/>
      <g class="scrollbox" transform="" clip-path="url(#legend4e0c61)">
        <g class="groups">
          <g class="traces" transform="translate(0,14.5)" style="opacity: 1;">
            <text class="legendtext" text-anchor="start" x="40" y="4.680000000000001" style="font-family: 'Alegreya Sans', sans-serif; font-size: 12px; fill: rgb(0, 0, 0); fill-opacity: 1; white-space: pre;">online</text>
            <g class="layers">
              <g class="legendfill">
                <path class="js-fill" d="M5,-2h30v6h-30z" style="stroke-width: 0; fill: rgb(36, 139, 204); fill-opacity: 0.5;"/>
              </g>
              <g class="legendlines">
                <path class="js-line" d="M5,-2h30" style="fill: none; stroke: rgb(36, 139, 204); stroke-opacity: 1; stroke-width: 2px;"/>
              </g>
              <g class="legendsymbols">
                <g class="legendpoints"/>
              </g>
            </g>
            <rect class="legendtoggle" x="0" y="-9.5" width="72.0625" height="19" style="fill: rgb(0, 0, 0); fill-opacity: 0;"/>
          </g>
          <g class="traces" transform="translate(74.5625,14.5)" style="opacity: 1;">
            <text class="legendtext" text-anchor="start" x="40" y="4.680000000000001" style="font-family: 'Alegreya Sans', sans-serif; font-size: 12px; fill: rgb(0, 0, 0); fill-opacity: 1; white-space: pre;">print (vorfrankiertes Rückantwortcouvert, B-Post)</text>
            <g class="layers">
              <g class="legendfill">
                <path class="js-fill" d="M5,-2h30v6h-30z" style="stroke-width: 0; fill: rgb(0, 0, 0); fill-opacity: 0.5;"/>
              </g>
              <g class="legendlines">
                <path class="js-line" d="M5,-2h30" style="fill: none; stroke: rgb(0, 0, 0); stroke-opacity: 1; stroke-width: 2px;"/>
              </g>
              <g class="legendsymbols">
                <g class="legendpoints"/>
              </g>
            </g>
            <rect class="legendtoggle" x="0" y="-9.5" width="269.0625" height="19" style="fill: rgb(0, 0, 0); fill-opacity: 0;"/>
          </g>
        </g>
      </g>
      <rect class="scrollbar" rx="20" ry="3" width="0" height="0" style="fill: rgb(128, 139, 164); fill-opacity: 1;" x="0" y="0"/>
    </g>
    <g class="g-gtitle"/>
    <g class="g-xtitle"/>
    <g class="g-ytitle"/>
    <g class="annotation" data-index="0" style="opacity: 1;">
      <g class="annotation-text-g" transform="rotate(0,320,178.03)">
        <g class="cursor-pointer" transform="translate(264,170)">
          <rect class="bg" x="0.5" y="0.5" width="111" height="15" style="stroke-width: 1px; stroke: rgb(0, 0, 0); stroke-opacity: 0; fill: rgb(0, 0, 0); fill-opacity: 0;"/>
          <text class="annotation-text" text-anchor="middle" x="55.375" y="12" style="font-family: 'Alegreya Sans', sans-serif; font-size: 12px; fill: rgb(36, 139, 204); fill-opacity: 1; white-space: pre;">
            <tspan style="font-weight:bold">Abstimmungssonntag</tspan>
          </text>
        </g>
      </g>
      <g class="annotation-arrow-g" style="opacity: 1;">
        <path d="M320,185.53L320,419" style="stroke-width: 3px; stroke: rgb(36, 139, 204); stroke-opacity: 1; stroke-dasharray: 0px, 0px, 233.47px, 233.47px;"/>
        <path d="M2,0A2,2 0 1,1 0,-2A2,2 0 0,1 2,0Z" transform="translate(320,419)scale(3)" style="fill: rgb(36, 139, 204); stroke-width: 0;"/>
      </g>
    </g>
    <g class="annotation" data-index="1" style="opacity: 1;">
      <g class="annotation-text-g" transform="rotate(0,92,178.03)">
        <g class="cursor-pointer" transform="translate(19,162)">
          <rect class="bg" x="0.5" y="0.5" width="145" height="31" style="stroke-width: 1px; stroke: rgb(0, 0, 0); stroke-opacity: 0; fill: rgb(0, 0, 0); fill-opacity: 0;"/>
          <text class="annotation-text" text-anchor="middle" x="72.921875" y="12" style="font-family: 'Alegreya Sans', sans-serif; font-size: 12px; fill: rgb(153, 0, 0); fill-opacity: 1; white-space: pre;">
            <tspan class="line" dy="0em" x="72.921875" y="12">
              <tspan style="font-weight:bold">Versand Einladungsschreiben</tspan>
            </tspan>
            <tspan class="line" dy="1.3em" x="72.921875" y="12">(B-Post-Massensendung)</tspan>
          </text>
        </g>
      </g>
      <g class="annotation-arrow-g" style="opacity: 1;">
        <path d="M92,193.53L92,419" style="stroke-width: 3px; stroke: rgb(153, 0, 0); stroke-opacity: 1; stroke-dasharray: 0px, 0px, 225.47px, 225.47px;"/>
        <path d="M2,0A2,2 0 1,1 0,-2A2,2 0 0,1 2,0Z" transform="translate(92,419)scale(3)" style="fill: rgb(153, 0, 0); stroke-width: 0;"/>
      </g>
    </g>
    <g class="annotation" data-index="2" style="opacity: 1;">
      <g class="annotation-text-g" transform="rotate(0,434,178.03)">
        <g class="cursor-pointer" transform="translate(359,162)">
          <rect class="bg" x="0.5" y="0.5" width="150" height="31" style="stroke-width: 1px; stroke: rgb(0, 0, 0); stroke-opacity: 0; fill: rgb(0, 0, 0); fill-opacity: 0;"/>
          <text class="annotation-text" text-anchor="middle" x="75.421875" y="12" style="font-family: 'Alegreya Sans', sans-serif; font-size: 12px; fill: rgb(153, 0, 0); fill-opacity: 1; white-space: pre;">
            <tspan class="line" dy="0em" x="75.421875" y="12">
              <tspan style="font-weight:bold">Versand Erinnerungsschreiben</tspan>
            </tspan>
            <tspan class="line" dy="1.3em" x="75.421875" y="12">(B-Post-Massensendung)</tspan>
          </text>
        </g>
      </g>
      <g class="annotation-arrow-g" style="opacity: 1;">
        <path d="M434,193.53L434,419" style="stroke-width: 3px; stroke: rgb(153, 0, 0); stroke-opacity: 1; stroke-dasharray: 0px, 0px, 225.47px, 225.47px;"/>
        <path d="M2,0A2,2 0 1,1 0,-2A2,2 0 0,1 2,0Z" transform="translate(434,419)scale(3)" style="fill: rgb(153, 0, 0); stroke-width: 0;"/>
      </g>
    </g>
  </g>
</svg>
