<svg xmlns="http://www.w3.org/2000/svg" xmlns:xlink="http://www.w3.org/1999/xlink" class="main-svg" width="100%" height="100%" style="" viewBox="1 1 799 599">
  <rect x="0" y="0" width="800" height="600" style="fill: rgb(255, 255, 255); fill-opacity: 1;"/>
  <defs id="defs-680bd5">
    <g class="clips">
      <clipPath id="clip680bd5xyplot" class="plotclip">
        <rect width="166.75" height="204.48"/>
      </clipPath>
      <clipPath id="clip680bd5xy2plot" class="plotclip">
        <rect width="166.75" height="204.48"/>
      </clipPath>
      <clipPath id="clip680bd5x2yplot" class="plotclip">
        <rect width="152.24999999999997" height="204.48"/>
      </clipPath>
      <clipPath id="clip680bd5x2y2plot" class="plotclip">
        <rect width="152.24999999999997" height="204.48"/>
      </clipPath>
      <clipPath id="clip680bd5x3yplot" class="plotclip">
        <rect width="152.24999999999997" height="204.48"/>
      </clipPath>
      <clipPath id="clip680bd5x3y2plot" class="plotclip">
        <rect width="152.24999999999997" height="204.48"/>
      </clipPath>
      <clipPath id="clip680bd5x4yplot" class="plotclip">
        <rect width="166.75" height="204.48"/>
      </clipPath>
      <clipPath class="axesclip" id="clip680bd5x">
        <rect x="60" y="0" width="166.75" height="600"/>
      </clipPath>
      <clipPath class="axesclip" id="clip680bd5y">
        <rect x="0" y="53" width="800" height="204.48"/>
      </clipPath>
      <clipPath class="axesclip" id="clip680bd5xy">
        <rect x="60" y="53" width="166.75" height="204.48"/>
      </clipPath>
      <clipPath class="axesclip" id="clip680bd5y2">
        <rect x="0" y="274.52" width="800" height="204.48"/>
      </clipPath>
      <clipPath class="axesclip" id="clip680bd5xy2">
        <rect x="60" y="274.52" width="166.75" height="204.48"/>
      </clipPath>
      <clipPath class="axesclip" id="clip680bd5x2">
        <rect x="255.75" y="0" width="152.24999999999997" height="600"/>
      </clipPath>
      <clipPath class="axesclip" id="clip680bd5x2y">
        <rect x="255.75" y="53" width="152.24999999999997" height="204.48"/>
      </clipPath>
      <clipPath class="axesclip" id="clip680bd5x2y2">
        <rect x="255.75" y="274.52" width="152.24999999999997" height="204.48"/>
      </clipPath>
      <clipPath class="axesclip" id="clip680bd5x3">
        <rect x="437" y="0" width="152.24999999999997" height="600"/>
      </clipPath>
      <clipPath class="axesclip" id="clip680bd5x3y">
        <rect x="437" y="53" width="152.24999999999997" height="204.48"/>
      </clipPath>
      <clipPath class="axesclip" id="clip680bd5x3y2">
        <rect x="437" y="274.52" width="152.24999999999997" height="204.48"/>
      </clipPath>
      <clipPath class="axesclip" id="clip680bd5x4">
        <rect x="618.25" y="0" width="166.75" height="600"/>
      </clipPath>
      <clipPath class="axesclip" id="clip680bd5x4y">
        <rect x="618.25" y="53" width="166.75" height="204.48"/>
      </clipPath>
      <clipPath class="axesclip" id="clip680bd5x4y2">
        <rect x="618.25" y="274.52" width="166.75" height="204.48"/>
      </clipPath>
    </g>
    <g class="gradients"/>
    <g class="patterns"/>
  </defs>
  <g class="bglayer"/>
  <g class="layer-below">
    <g class="imagelayer"/>
    <g class="shapelayer"/>
  </g>
  <g class="cartesianlayer">
    <g class="subplot xy">
      <g class="layer-subplot">
        <g class="shapelayer"/>
        <g class="imagelayer"/>
      </g>
      <g class="gridlayer">
        <g class="x">
          <path class="xgrid crisp" transform="translate(76.68,0)" d="M0,53v204.48" style="stroke: rgb(238, 238, 238); stroke-opacity: 1; stroke-width: 1px;"/>
          <path class="xgrid crisp" transform="translate(93.35,0)" d="M0,53v204.48" style="stroke: rgb(238, 238, 238); stroke-opacity: 1; stroke-width: 1px;"/>
          <path class="xgrid crisp" transform="translate(110.03,0)" d="M0,53v204.48" style="stroke: rgb(238, 238, 238); stroke-opacity: 1; stroke-width: 1px;"/>
          <path class="xgrid crisp" transform="translate(126.7,0)" d="M0,53v204.48" style="stroke: rgb(238, 238, 238); stroke-opacity: 1; stroke-width: 1px;"/>
          <path class="xgrid crisp" transform="translate(143.38,0)" d="M0,53v204.48" style="stroke: rgb(238, 238, 238); stroke-opacity: 1; stroke-width: 1px;"/>
          <path class="xgrid crisp" transform="translate(160.05,0)" d="M0,53v204.48" style="stroke: rgb(238, 238, 238); stroke-opacity: 1; stroke-width: 1px;"/>
          <path class="xgrid crisp" transform="translate(176.73000000000002,0)" d="M0,53v204.48" style="stroke: rgb(238, 238, 238); stroke-opacity: 1; stroke-width: 1px;"/>
          <path class="xgrid crisp" transform="translate(193.4,0)" d="M0,53v204.48" style="stroke: rgb(238, 238, 238); stroke-opacity: 1; stroke-width: 1px;"/>
          <path class="xgrid crisp" transform="translate(210.08,0)" d="M0,53v204.48" style="stroke: rgb(238, 238, 238); stroke-opacity: 1; stroke-width: 1px;"/>
        </g>
        <g class="y">
          <path class="ygrid crisp" transform="translate(0,208.79)" d="M60,0h166.75" style="stroke: rgb(238, 238, 238); stroke-opacity: 1; stroke-width: 1px;"/>
          <path class="ygrid crisp" transform="translate(0,160.11)" d="M60,0h166.75" style="stroke: rgb(238, 238, 238); stroke-opacity: 1; stroke-width: 1px;"/>
          <path class="ygrid crisp" transform="translate(0,111.42)" d="M60,0h166.75" style="stroke: rgb(238, 238, 238); stroke-opacity: 1; stroke-width: 1px;"/>
          <path class="ygrid crisp" transform="translate(0,62.74)" d="M60,0h166.75" style="stroke: rgb(238, 238, 238); stroke-opacity: 1; stroke-width: 1px;"/>
        </g>
      </g>
      <g class="zerolinelayer">
        <path class="yzl zl crisp" transform="translate(0,257.48)" d="M60,0h166.75" style="stroke: rgb(68, 68, 68); stroke-opacity: 1; stroke-width: 1px;"/>
      </g>
      <path class="xlines-below"/>
      <path class="ylines-below"/>
      <g class="overlines-below"/>
      <g class="xaxislayer-below"/>
      <g class="yaxislayer-below"/>
      <g class="overaxes-below"/>
      <g class="plot" transform="translate(60,53)" clip-path="url(#clip680bd5xyplot)">
        <g class="scatterlayer mlayer">
          <g class="trace scatter tracee73ace" style="stroke-miterlimit: 2;">
            <g class="fills">
              <g>
                <path class="js-fill" d="M166.75,204.48L0,204.48L0,190.79L16.68,186.88L33.35,127.23L50.03,131.15L66.7,176.12L83.38,179.06L100.05,199.59L116.73,195.68L133.4,201.55L150.08,203.5L166.75,201.55" style="fill: rgb(238, 42, 59); fill-opacity: 1; stroke-width: 0;"/>
              </g>
            </g>
            <g class="errorbars"/>
            <g class="lines">
              <path class="js-line" d="M0,190.79L16.68,186.88L33.35,127.23L50.03,131.15L66.7,176.12L83.38,179.06L100.05,199.59L116.73,195.68L133.4,201.55L150.08,203.5L166.75,201.55" style="vector-effect: non-scaling-stroke; fill: none; stroke: rgb(238, 42, 59); stroke-opacity: 1; stroke-width: 0px; opacity: 1;"/>
            </g>
            <g class="points"/>
            <g class="text"/>
          </g>
        </g>
      </g>
      <g class="overplot"/>
      <path class="xlines-above crisp" d="M0,0" style="fill: none;"/>
      <path class="ylines-above crisp" d="M0,0" style="fill: none;"/>
      <g class="overlines-above"/>
      <g class="xaxislayer-above"/>
      <g class="yaxislayer-above">
        <g class="ytick">
          <text text-anchor="end" x="59" y="4.199999999999999" transform="translate(0,257.48)" style="font-family: 'Open Sans', verdana, arial, sans-serif; font-size: 12px; fill: rgb(68, 68, 68); fill-opacity: 1; white-space: pre; opacity: 1;">0</text>
        </g>
        <g class="ytick">
          <text text-anchor="end" x="59" y="4.199999999999999" style="font-family: 'Open Sans', verdana, arial, sans-serif; font-size: 12px; fill: rgb(68, 68, 68); fill-opacity: 1; white-space: pre; opacity: 1;" transform="translate(0,208.79)">20</text>
        </g>
        <g class="ytick">
          <text text-anchor="end" x="59" y="4.199999999999999" style="font-family: 'Open Sans', verdana, arial, sans-serif; font-size: 12px; fill: rgb(68, 68, 68); fill-opacity: 1; white-space: pre; opacity: 1;" transform="translate(0,160.11)">40</text>
        </g>
        <g class="ytick">
          <text text-anchor="end" x="59" y="4.199999999999999" style="font-family: 'Open Sans', verdana, arial, sans-serif; font-size: 12px; fill: rgb(68, 68, 68); fill-opacity: 1; white-space: pre; opacity: 1;" transform="translate(0,111.42)">60</text>
        </g>
        <g class="ytick">
          <text text-anchor="end" x="59" y="4.199999999999999" style="font-family: 'Open Sans', verdana, arial, sans-serif; font-size: 12px; fill: rgb(68, 68, 68); fill-opacity: 1; white-space: pre; opacity: 1;" transform="translate(0,62.74)">80</text>
        </g>
      </g>
      <g class="overaxes-above"/>
    </g>
    <g class="subplot xy2">
      <g class="layer-subplot">
        <g class="shapelayer"/>
        <g class="imagelayer"/>
      </g>
      <g class="gridlayer">
        <g class="x">
          <path class="xgrid crisp" transform="translate(76.68,0)" d="M0,274.52v204.48" style="stroke: rgb(238, 238, 238); stroke-opacity: 1; stroke-width: 1px;"/>
          <path class="xgrid crisp" transform="translate(93.35,0)" d="M0,274.52v204.48" style="stroke: rgb(238, 238, 238); stroke-opacity: 1; stroke-width: 1px;"/>
          <path class="xgrid crisp" transform="translate(110.03,0)" d="M0,274.52v204.48" style="stroke: rgb(238, 238, 238); stroke-opacity: 1; stroke-width: 1px;"/>
          <path class="xgrid crisp" transform="translate(126.7,0)" d="M0,274.52v204.48" style="stroke: rgb(238, 238, 238); stroke-opacity: 1; stroke-width: 1px;"/>
          <path class="xgrid crisp" transform="translate(143.38,0)" d="M0,274.52v204.48" style="stroke: rgb(238, 238, 238); stroke-opacity: 1; stroke-width: 1px;"/>
          <path class="xgrid crisp" transform="translate(160.05,0)" d="M0,274.52v204.48" style="stroke: rgb(238, 238, 238); stroke-opacity: 1; stroke-width: 1px;"/>
          <path class="xgrid crisp" transform="translate(176.73000000000002,0)" d="M0,274.52v204.48" style="stroke: rgb(238, 238, 238); stroke-opacity: 1; stroke-width: 1px;"/>
          <path class="xgrid crisp" transform="translate(193.4,0)" d="M0,274.52v204.48" style="stroke: rgb(238, 238, 238); stroke-opacity: 1; stroke-width: 1px;"/>
          <path class="xgrid crisp" transform="translate(210.08,0)" d="M0,274.52v204.48" style="stroke: rgb(238, 238, 238); stroke-opacity: 1; stroke-width: 1px;"/>
        </g>
        <g class="y2">
          <path class="y2grid crisp" transform="translate(0,430.30999999999995)" d="M60,0h166.75" style="stroke: rgb(238, 238, 238); stroke-opacity: 1; stroke-width: 1px;"/>
          <path class="y2grid crisp" transform="translate(0,381.63)" d="M60,0h166.75" style="stroke: rgb(238, 238, 238); stroke-opacity: 1; stroke-width: 1px;"/>
          <path class="y2grid crisp" transform="translate(0,332.94)" d="M60,0h166.75" style="stroke: rgb(238, 238, 238); stroke-opacity: 1; stroke-width: 1px;"/>
          <path class="y2grid crisp" transform="translate(0,284.26)" d="M60,0h166.75" style="stroke: rgb(238, 238, 238); stroke-opacity: 1; stroke-width: 1px;"/>
        </g>
      </g>
      <g class="zerolinelayer">
        <path class="y2zl zl crisp" transform="translate(0,479)" d="M60,0h166.75" style="stroke: rgb(68, 68, 68); stroke-opacity: 1; stroke-width: 1px;"/>
      </g>
      <path class="xlines-below"/>
      <path class="ylines-below"/>
      <g class="overlines-below"/>
      <g class="xaxislayer-below"/>
      <g class="yaxislayer-below"/>
      <g class="overaxes-below"/>
      <g class="plot" transform="translate(60,274.52)" clip-path="url(#clip680bd5xy2plot)">
        <g class="scatterlayer mlayer">
          <g class="trace scatter tracece72c1" style="stroke-miterlimit: 2;">
            <g class="fills">
              <g>
                <path class="js-fill" d="M166.75,204.48L0,204.48L0,204.48L16.68,204.48L33.35,201.81L50.03,193.8L66.7,173.76L83.38,98.98L100.05,171.09L116.73,189.79L133.4,199.14L150.08,204.48L166.75,204.48" style="fill: rgb(255, 133, 12); fill-opacity: 1; stroke-width: 0;"/>
              </g>
            </g>
            <g class="errorbars"/>
            <g class="lines">
              <path class="js-line" d="M0,204.48L16.68,204.48L33.35,201.81L50.03,193.8L66.7,173.76L83.38,98.98L100.05,171.09L116.73,189.79L133.4,199.14L150.08,204.48L166.75,204.48" style="vector-effect: non-scaling-stroke; fill: none; stroke: rgb(255, 133, 12); stroke-opacity: 1; stroke-width: 0px; opacity: 1;"/>
            </g>
            <g class="points"/>
            <g class="text"/>
          </g>
        </g>
      </g>
      <g class="overplot"/>
      <path class="xlines-above crisp" d="" style="fill: none; stroke-width: 1px; stroke: rgb(0, 0, 0); stroke-opacity: 0;"/>
      <path class="ylines-above crisp" d="M0,0" style="fill: none;"/>
      <g class="overlines-above"/>
      <g class="xaxislayer-above">
        <path class="xtick ticks crisp" d="M0,480v15" transform="translate(60,0)" style="stroke: rgb(238, 238, 238); stroke-opacity: 1; stroke-width: 1px;"/>
        <path class="xtick ticks crisp" d="M0,480v15" transform="translate(76.68,0)" style="stroke: rgb(238, 238, 238); stroke-opacity: 1; stroke-width: 1px;"/>
        <path class="xtick ticks crisp" d="M0,480v15" transform="translate(93.35,0)" style="stroke: rgb(238, 238, 238); stroke-opacity: 1; stroke-width: 1px;"/>
        <path class="xtick ticks crisp" d="M0,480v15" transform="translate(110.03,0)" style="stroke: rgb(238, 238, 238); stroke-opacity: 1; stroke-width: 1px;"/>
        <path class="xtick ticks crisp" d="M0,480v15" transform="translate(126.7,0)" style="stroke: rgb(238, 238, 238); stroke-opacity: 1; stroke-width: 1px;"/>
        <path class="xtick ticks crisp" d="M0,480v15" transform="translate(143.38,0)" style="stroke: rgb(238, 238, 238); stroke-opacity: 1; stroke-width: 1px;"/>
        <path class="xtick ticks crisp" d="M0,480v15" transform="translate(160.05,0)" style="stroke: rgb(238, 238, 238); stroke-opacity: 1; stroke-width: 1px;"/>
        <path class="xtick ticks crisp" d="M0,480v15" transform="translate(176.73000000000002,0)" style="stroke: rgb(238, 238, 238); stroke-opacity: 1; stroke-width: 1px;"/>
        <path class="xtick ticks crisp" d="M0,480v15" transform="translate(193.4,0)" style="stroke: rgb(238, 238, 238); stroke-opacity: 1; stroke-width: 1px;"/>
        <path class="xtick ticks crisp" d="M0,480v15" transform="translate(210.08,0)" style="stroke: rgb(238, 238, 238); stroke-opacity: 1; stroke-width: 1px;"/>
        <path class="xtick ticks crisp" d="M0,480v15" transform="translate(226.75,0)" style="stroke: rgb(238, 238, 238); stroke-opacity: 1; stroke-width: 1px;"/>
        <g class="xtick">
          <text text-anchor="start" x="0" y="509.4" transform="translate(60,0) rotate(90,0,503.4)" style="font-family: 'Open Sans', verdana, arial, sans-serif; font-size: 12px; fill: rgb(68, 68, 68); fill-opacity: 1; white-space: pre; opacity: 1;">0 (ganz links)</text>
        </g>
        <g class="xtick">
          <text text-anchor="start" x="0" y="509.4" transform="translate(76.68,0) rotate(90,0,503.4)" style="font-family: 'Open Sans', verdana, arial, sans-serif; font-size: 12px; fill: rgb(68, 68, 68); fill-opacity: 1; white-space: pre; opacity: 1;">1</text>
        </g>
        <g class="xtick">
          <text text-anchor="start" x="0" y="509.4" transform="translate(93.35,0) rotate(90,0,503.4)" style="font-family: 'Open Sans', verdana, arial, sans-serif; font-size: 12px; fill: rgb(68, 68, 68); fill-opacity: 1; white-space: pre; opacity: 1;">2</text>
        </g>
        <g class="xtick">
          <text text-anchor="start" x="0" y="509.4" transform="translate(110.03,0) rotate(90,0,503.4)" style="font-family: 'Open Sans', verdana, arial, sans-serif; font-size: 12px; fill: rgb(68, 68, 68); fill-opacity: 1; white-space: pre; opacity: 1;">3</text>
        </g>
        <g class="xtick">
          <text text-anchor="start" x="0" y="509.4" transform="translate(126.7,0) rotate(90,0,503.4)" style="font-family: 'Open Sans', verdana, arial, sans-serif; font-size: 12px; fill: rgb(68, 68, 68); fill-opacity: 1; white-space: pre; opacity: 1;">4</text>
        </g>
        <g class="xtick">
          <text text-anchor="start" x="0" y="509.4" transform="translate(143.38,0) rotate(90,0,503.4)" style="font-family: 'Open Sans', verdana, arial, sans-serif; font-size: 12px; fill: rgb(68, 68, 68); fill-opacity: 1; white-space: pre; opacity: 1;">5 (Mitte)</text>
        </g>
        <g class="xtick">
          <text text-anchor="start" x="0" y="509.4" transform="translate(160.05,0) rotate(90,0,503.4)" style="font-family: 'Open Sans', verdana, arial, sans-serif; font-size: 12px; fill: rgb(68, 68, 68); fill-opacity: 1; white-space: pre; opacity: 1;">6</text>
        </g>
        <g class="xtick">
          <text text-anchor="start" x="0" y="509.4" transform="translate(176.73000000000002,0) rotate(90,0,503.4)" style="font-family: 'Open Sans', verdana, arial, sans-serif; font-size: 12px; fill: rgb(68, 68, 68); fill-opacity: 1; white-space: pre; opacity: 1;">7</text>
        </g>
        <g class="xtick">
          <text text-anchor="start" x="0" y="509.4" transform="translate(193.4,0) rotate(90,0,503.4)" style="font-family: 'Open Sans', verdana, arial, sans-serif; font-size: 12px; fill: rgb(68, 68, 68); fill-opacity: 1; white-space: pre; opacity: 1;">8</text>
        </g>
        <g class="xtick">
          <text text-anchor="start" x="0" y="509.4" transform="translate(210.08,0) rotate(90,0,503.4)" style="font-family: 'Open Sans', verdana, arial, sans-serif; font-size: 12px; fill: rgb(68, 68, 68); fill-opacity: 1; white-space: pre; opacity: 1;">9</text>
        </g>
        <g class="xtick">
          <text text-anchor="start" x="0" y="509.4" transform="translate(226.75,0) rotate(90,0,503.4)" style="font-family: 'Open Sans', verdana, arial, sans-serif; font-size: 12px; fill: rgb(68, 68, 68); fill-opacity: 1; white-space: pre; opacity: 1;">10 (ganz rechts)</text>
        </g>
      </g>
      <g class="yaxislayer-above">
        <g class="y2tick">
          <text text-anchor="end" x="59" y="4.199999999999999" transform="translate(0,479)" style="font-family: 'Open Sans', verdana, arial, sans-serif; font-size: 12px; fill: rgb(68, 68, 68); fill-opacity: 1; white-space: pre; opacity: 1;">0</text>
        </g>
        <g class="y2tick">
          <text text-anchor="end" x="59" y="4.199999999999999" style="font-family: 'Open Sans', verdana, arial, sans-serif; font-size: 12px; fill: rgb(68, 68, 68); fill-opacity: 1; white-space: pre; opacity: 1;" transform="translate(0,430.30999999999995)">20</text>
        </g>
        <g class="y2tick">
          <text text-anchor="end" x="59" y="4.199999999999999" style="font-family: 'Open Sans', verdana, arial, sans-serif; font-size: 12px; fill: rgb(68, 68, 68); fill-opacity: 1; white-space: pre; opacity: 1;" transform="translate(0,381.63)">40</text>
        </g>
        <g class="y2tick">
          <text text-anchor="end" x="59" y="4.199999999999999" style="font-family: 'Open Sans', verdana, arial, sans-serif; font-size: 12px; fill: rgb(68, 68, 68); fill-opacity: 1; white-space: pre; opacity: 1;" transform="translate(0,332.94)">60</text>
        </g>
        <g class="y2tick">
          <text text-anchor="end" x="59" y="4.199999999999999" style="font-family: 'Open Sans', verdana, arial, sans-serif; font-size: 12px; fill: rgb(68, 68, 68); fill-opacity: 1; white-space: pre; opacity: 1;" transform="translate(0,284.26)">80</text>
        </g>
      </g>
      <g class="overaxes-above"/>
    </g>
    <g class="subplot x2y">
      <g class="layer-subplot">
        <g class="shapelayer"/>
        <g class="imagelayer"/>
      </g>
      <g class="gridlayer">
        <g class="x2">
          <path class="x2grid crisp" transform="translate(270.97,0)" d="M0,53v204.48" style="stroke: rgb(238, 238, 238); stroke-opacity: 1; stroke-width: 1px;"/>
          <path class="x2grid crisp" transform="translate(286.2,0)" d="M0,53v204.48" style="stroke: rgb(238, 238, 238); stroke-opacity: 1; stroke-width: 1px;"/>
          <path class="x2grid crisp" transform="translate(301.43,0)" d="M0,53v204.48" style="stroke: rgb(238, 238, 238); stroke-opacity: 1; stroke-width: 1px;"/>
          <path class="x2grid crisp" transform="translate(316.65,0)" d="M0,53v204.48" style="stroke: rgb(238, 238, 238); stroke-opacity: 1; stroke-width: 1px;"/>
          <path class="x2grid crisp" transform="translate(331.87,0)" d="M0,53v204.48" style="stroke: rgb(238, 238, 238); stroke-opacity: 1; stroke-width: 1px;"/>
          <path class="x2grid crisp" transform="translate(347.1,0)" d="M0,53v204.48" style="stroke: rgb(238, 238, 238); stroke-opacity: 1; stroke-width: 1px;"/>
          <path class="x2grid crisp" transform="translate(362.32,0)" d="M0,53v204.48" style="stroke: rgb(238, 238, 238); stroke-opacity: 1; stroke-width: 1px;"/>
          <path class="x2grid crisp" transform="translate(377.55,0)" d="M0,53v204.48" style="stroke: rgb(238, 238, 238); stroke-opacity: 1; stroke-width: 1px;"/>
          <path class="x2grid crisp" transform="translate(392.77,0)" d="M0,53v204.48" style="stroke: rgb(238, 238, 238); stroke-opacity: 1; stroke-width: 1px;"/>
        </g>
        <g class="y">
          <path class="ygrid crisp" transform="translate(0,208.79)" d="M255.75,0h152.24999999999997" style="stroke: rgb(238, 238, 238); stroke-opacity: 1; stroke-width: 1px;"/>
          <path class="ygrid crisp" transform="translate(0,160.11)" d="M255.75,0h152.24999999999997" style="stroke: rgb(238, 238, 238); stroke-opacity: 1; stroke-width: 1px;"/>
          <path class="ygrid crisp" transform="translate(0,111.42)" d="M255.75,0h152.24999999999997" style="stroke: rgb(238, 238, 238); stroke-opacity: 1; stroke-width: 1px;"/>
          <path class="ygrid crisp" transform="translate(0,62.74)" d="M255.75,0h152.24999999999997" style="stroke: rgb(238, 238, 238); stroke-opacity: 1; stroke-width: 1px;"/>
        </g>
      </g>
      <g class="zerolinelayer">
        <path class="yzl zl crisp" transform="translate(0,257.48)" d="M255.75,0h152.24999999999997" style="stroke: rgb(68, 68, 68); stroke-opacity: 1; stroke-width: 1px;"/>
      </g>
      <path class="xlines-below"/>
      <path class="ylines-below"/>
      <g class="overlines-below"/>
      <g class="xaxislayer-below"/>
      <g class="yaxislayer-below"/>
      <g class="overaxes-below"/>
      <g class="plot" transform="translate(255.75,53)" clip-path="url(#clip680bd5x2yplot)">
        <g class="scatterlayer mlayer">
          <g class="trace scatter trace73cdfb" style="stroke-miterlimit: 2;">
            <g class="fills">
              <g>
                <path class="js-fill" d="M152.25,204.48L0,204.48L0,199.52L15.22,191.26L30.45,178.04L45.68,166.47L60.9,187.95L91.35,201.17L106.57,201.17L121.8,204.48L137.02,204.48L152.25,201.17" style="fill: rgb(132, 180, 20); fill-opacity: 1; stroke-width: 0;"/>
              </g>
            </g>
            <g class="errorbars"/>
            <g class="lines">
              <path class="js-line" d="M0,199.52L15.22,191.26L30.45,178.04L45.68,166.47L60.9,187.95L91.35,201.17L106.57,201.17L121.8,204.48L137.02,204.48L152.25,201.17" style="vector-effect: non-scaling-stroke; fill: none; stroke: rgb(132, 180, 20); stroke-opacity: 1; stroke-width: 0px; opacity: 1;"/>
            </g>
            <g class="points"/>
            <g class="text"/>
          </g>
        </g>
      </g>
      <g class="overplot"/>
      <path class="xlines-above crisp" d="M0,0" style="fill: none;"/>
      <path class="ylines-above crisp" d="M0,0" style="fill: none;"/>
      <g class="overlines-above"/>
      <g class="xaxislayer-above"/>
      <g class="yaxislayer-above"/>
      <g class="overaxes-above"/>
    </g>
    <g class="subplot x2y2">
      <g class="layer-subplot">
        <g class="shapelayer"/>
        <g class="imagelayer"/>
      </g>
      <g class="gridlayer">
        <g class="x2">
          <path class="x2grid crisp" transform="translate(270.97,0)" d="M0,274.52v204.48" style="stroke: rgb(238, 238, 238); stroke-opacity: 1; stroke-width: 1px;"/>
          <path class="x2grid crisp" transform="translate(286.2,0)" d="M0,274.52v204.48" style="stroke: rgb(238, 238, 238); stroke-opacity: 1; stroke-width: 1px;"/>
          <path class="x2grid crisp" transform="translate(301.43,0)" d="M0,274.52v204.48" style="stroke: rgb(238, 238, 238); stroke-opacity: 1; stroke-width: 1px;"/>
          <path class="x2grid crisp" transform="translate(316.65,0)" d="M0,274.52v204.48" style="stroke: rgb(238, 238, 238); stroke-opacity: 1; stroke-width: 1px;"/>
          <path class="x2grid crisp" transform="translate(331.87,0)" d="M0,274.52v204.48" style="stroke: rgb(238, 238, 238); stroke-opacity: 1; stroke-width: 1px;"/>
          <path class="x2grid crisp" transform="translate(347.1,0)" d="M0,274.52v204.48" style="stroke: rgb(238, 238, 238); stroke-opacity: 1; stroke-width: 1px;"/>
          <path class="x2grid crisp" transform="translate(362.32,0)" d="M0,274.52v204.48" style="stroke: rgb(238, 238, 238); stroke-opacity: 1; stroke-width: 1px;"/>
          <path class="x2grid crisp" transform="translate(377.55,0)" d="M0,274.52v204.48" style="stroke: rgb(238, 238, 238); stroke-opacity: 1; stroke-width: 1px;"/>
          <path class="x2grid crisp" transform="translate(392.77,0)" d="M0,274.52v204.48" style="stroke: rgb(238, 238, 238); stroke-opacity: 1; stroke-width: 1px;"/>
        </g>
        <g class="y2">
          <path class="y2grid crisp" transform="translate(0,430.30999999999995)" d="M255.75,0h152.24999999999997" style="stroke: rgb(238, 238, 238); stroke-opacity: 1; stroke-width: 1px;"/>
          <path class="y2grid crisp" transform="translate(0,381.63)" d="M255.75,0h152.24999999999997" style="stroke: rgb(238, 238, 238); stroke-opacity: 1; stroke-width: 1px;"/>
          <path class="y2grid crisp" transform="translate(0,332.94)" d="M255.75,0h152.24999999999997" style="stroke: rgb(238, 238, 238); stroke-opacity: 1; stroke-width: 1px;"/>
          <path class="y2grid crisp" transform="translate(0,284.26)" d="M255.75,0h152.24999999999997" style="stroke: rgb(238, 238, 238); stroke-opacity: 1; stroke-width: 1px;"/>
        </g>
      </g>
      <g class="zerolinelayer">
        <path class="y2zl zl crisp" transform="translate(0,479)" d="M255.75,0h152.24999999999997" style="stroke: rgb(68, 68, 68); stroke-opacity: 1; stroke-width: 1px;"/>
      </g>
      <path class="xlines-below"/>
      <path class="ylines-below"/>
      <g class="overlines-below"/>
      <g class="xaxislayer-below"/>
      <g class="yaxislayer-below"/>
      <g class="overaxes-below"/>
      <g class="plot" transform="translate(255.75,274.52)" clip-path="url(#clip680bd5x2y2plot)">
        <g class="scatterlayer mlayer">
          <g class="trace scatter trace0709c5" style="stroke-miterlimit: 2;">
            <g class="fills">
              <g>
                <path class="js-fill" d="M152.25,204.48L0,204.48L0,204.48L15.22,204.48L30.45,202.19L45.68,197.6L60.9,201.04L76.12,163.18L91.35,154L106.57,123.02L121.8,158.59L137.02,196.45L152.25,202.19" style="fill: rgb(16, 79, 160); fill-opacity: 1; stroke-width: 0;"/>
              </g>
            </g>
            <g class="errorbars"/>
            <g class="lines">
              <path class="js-line" d="M0,204.48L15.22,204.48L30.45,202.19L45.68,197.6L60.9,201.04L76.12,163.18L91.35,154L106.57,123.02L121.8,158.59L137.02,196.45L152.25,202.19" style="vector-effect: non-scaling-stroke; fill: none; stroke: rgb(16, 79, 160); stroke-opacity: 1; stroke-width: 0px; opacity: 1;"/>
            </g>
            <g class="points"/>
            <g class="text"/>
          </g>
        </g>
      </g>
      <g class="overplot"/>
      <path class="xlines-above crisp" d="" style="fill: none; stroke-width: 1px; stroke: rgb(0, 0, 0); stroke-opacity: 0;"/>
      <path class="ylines-above crisp" d="M0,0" style="fill: none;"/>
      <g class="overlines-above"/>
      <g class="xaxislayer-above">
        <path class="x2tick ticks crisp" d="M0,480v15" transform="translate(255.75,0)" style="stroke: rgb(238, 238, 238); stroke-opacity: 1; stroke-width: 1px;"/>
        <path class="x2tick ticks crisp" d="M0,480v15" transform="translate(270.97,0)" style="stroke: rgb(238, 238, 238); stroke-opacity: 1; stroke-width: 1px;"/>
        <path class="x2tick ticks crisp" d="M0,480v15" transform="translate(286.2,0)" style="stroke: rgb(238, 238, 238); stroke-opacity: 1; stroke-width: 1px;"/>
        <path class="x2tick ticks crisp" d="M0,480v15" transform="translate(301.43,0)" style="stroke: rgb(238, 238, 238); stroke-opacity: 1; stroke-width: 1px;"/>
        <path class="x2tick ticks crisp" d="M0,480v15" transform="translate(316.65,0)" style="stroke: rgb(238, 238, 238); stroke-opacity: 1; stroke-width: 1px;"/>
        <path class="x2tick ticks crisp" d="M0,480v15" transform="translate(331.87,0)" style="stroke: rgb(238, 238, 238); stroke-opacity: 1; stroke-width: 1px;"/>
        <path class="x2tick ticks crisp" d="M0,480v15" transform="translate(347.1,0)" style="stroke: rgb(238, 238, 238); stroke-opacity: 1; stroke-width: 1px;"/>
        <path class="x2tick ticks crisp" d="M0,480v15" transform="translate(362.32,0)" style="stroke: rgb(238, 238, 238); stroke-opacity: 1; stroke-width: 1px;"/>
        <path class="x2tick ticks crisp" d="M0,480v15" transform="translate(377.55,0)" style="stroke: rgb(238, 238, 238); stroke-opacity: 1; stroke-width: 1px;"/>
        <path class="x2tick ticks crisp" d="M0,480v15" transform="translate(392.77,0)" style="stroke: rgb(238, 238, 238); stroke-opacity: 1; stroke-width: 1px;"/>
        <path class="x2tick ticks crisp" d="M0,480v15" transform="translate(408,0)" style="stroke: rgb(238, 238, 238); stroke-opacity: 1; stroke-width: 1px;"/>
        <g class="x2tick">
          <text text-anchor="start" x="0" y="509.4" transform="translate(255.75,0) rotate(90,0,503.4)" style="font-family: 'Open Sans', verdana, arial, sans-serif; font-size: 12px; fill: rgb(68, 68, 68); fill-opacity: 1; white-space: pre; opacity: 1;">0 (ganz links)</text>
        </g>
        <g class="x2tick">
          <text text-anchor="start" x="0" y="509.4" transform="translate(270.97,0) rotate(90,0,503.4)" style="font-family: 'Open Sans', verdana, arial, sans-serif; font-size: 12px; fill: rgb(68, 68, 68); fill-opacity: 1; white-space: pre; opacity: 1;">1</text>
        </g>
        <g class="x2tick">
          <text text-anchor="start" x="0" y="509.4" transform="translate(286.2,0) rotate(90,0,503.4)" style="font-family: 'Open Sans', verdana, arial, sans-serif; font-size: 12px; fill: rgb(68, 68, 68); fill-opacity: 1; white-space: pre; opacity: 1;">2</text>
        </g>
        <g class="x2tick">
          <text text-anchor="start" x="0" y="509.4" transform="translate(301.43,0) rotate(90,0,503.4)" style="font-family: 'Open Sans', verdana, arial, sans-serif; font-size: 12px; fill: rgb(68, 68, 68); fill-opacity: 1; white-space: pre; opacity: 1;">3</text>
        </g>
        <g class="x2tick">
          <text text-anchor="start" x="0" y="509.4" transform="translate(316.65,0) rotate(90,0,503.4)" style="font-family: 'Open Sans', verdana, arial, sans-serif; font-size: 12px; fill: rgb(68, 68, 68); fill-opacity: 1; white-space: pre; opacity: 1;">4</text>
        </g>
        <g class="x2tick">
          <text text-anchor="start" x="0" y="509.4" transform="translate(331.87,0) rotate(90,0,503.4)" style="font-family: 'Open Sans', verdana, arial, sans-serif; font-size: 12px; fill: rgb(68, 68, 68); fill-opacity: 1; white-space: pre; opacity: 1;">5 (Mitte)</text>
        </g>
        <g class="x2tick">
          <text text-anchor="start" x="0" y="509.4" transform="translate(347.1,0) rotate(90,0,503.4)" style="font-family: 'Open Sans', verdana, arial, sans-serif; font-size: 12px; fill: rgb(68, 68, 68); fill-opacity: 1; white-space: pre; opacity: 1;">6</text>
        </g>
        <g class="x2tick">
          <text text-anchor="start" x="0" y="509.4" transform="translate(362.32,0) rotate(90,0,503.4)" style="font-family: 'Open Sans', verdana, arial, sans-serif; font-size: 12px; fill: rgb(68, 68, 68); fill-opacity: 1; white-space: pre; opacity: 1;">7</text>
        </g>
        <g class="x2tick">
          <text text-anchor="start" x="0" y="509.4" transform="translate(377.55,0) rotate(90,0,503.4)" style="font-family: 'Open Sans', verdana, arial, sans-serif; font-size: 12px; fill: rgb(68, 68, 68); fill-opacity: 1; white-space: pre; opacity: 1;">8</text>
        </g>
        <g class="x2tick">
          <text text-anchor="start" x="0" y="509.4" transform="translate(392.77,0) rotate(90,0,503.4)" style="font-family: 'Open Sans', verdana, arial, sans-serif; font-size: 12px; fill: rgb(68, 68, 68); fill-opacity: 1; white-space: pre; opacity: 1;">9</text>
        </g>
        <g class="x2tick">
          <text text-anchor="start" x="0" y="509.4" transform="translate(408,0) rotate(90,0,503.4)" style="font-family: 'Open Sans', verdana, arial, sans-serif; font-size: 12px; fill: rgb(68, 68, 68); fill-opacity: 1; white-space: pre; opacity: 1;">10 (ganz rechts)</text>
        </g>
      </g>
      <g class="yaxislayer-above"/>
      <g class="overaxes-above"/>
    </g>
    <g class="subplot x3y">
      <g class="layer-subplot">
        <g class="shapelayer"/>
        <g class="imagelayer"/>
      </g>
      <g class="gridlayer">
        <g class="x3">
          <path class="x3grid crisp" transform="translate(452.22,0)" d="M0,53v204.48" style="stroke: rgb(238, 238, 238); stroke-opacity: 1; stroke-width: 1px;"/>
          <path class="x3grid crisp" transform="translate(467.45,0)" d="M0,53v204.48" style="stroke: rgb(238, 238, 238); stroke-opacity: 1; stroke-width: 1px;"/>
          <path class="x3grid crisp" transform="translate(482.68,0)" d="M0,53v204.48" style="stroke: rgb(238, 238, 238); stroke-opacity: 1; stroke-width: 1px;"/>
          <path class="x3grid crisp" transform="translate(497.9,0)" d="M0,53v204.48" style="stroke: rgb(238, 238, 238); stroke-opacity: 1; stroke-width: 1px;"/>
          <path class="x3grid crisp" transform="translate(513.12,0)" d="M0,53v204.48" style="stroke: rgb(238, 238, 238); stroke-opacity: 1; stroke-width: 1px;"/>
          <path class="x3grid crisp" transform="translate(528.35,0)" d="M0,53v204.48" style="stroke: rgb(238, 238, 238); stroke-opacity: 1; stroke-width: 1px;"/>
          <path class="x3grid crisp" transform="translate(543.5699999999999,0)" d="M0,53v204.48" style="stroke: rgb(238, 238, 238); stroke-opacity: 1; stroke-width: 1px;"/>
          <path class="x3grid crisp" transform="translate(558.8,0)" d="M0,53v204.48" style="stroke: rgb(238, 238, 238); stroke-opacity: 1; stroke-width: 1px;"/>
          <path class="x3grid crisp" transform="translate(574.02,0)" d="M0,53v204.48" style="stroke: rgb(238, 238, 238); stroke-opacity: 1; stroke-width: 1px;"/>
        </g>
        <g class="y">
          <path class="ygrid crisp" transform="translate(0,208.79)" d="M437,0h152.24999999999997" style="stroke: rgb(238, 238, 238); stroke-opacity: 1; stroke-width: 1px;"/>
          <path class="ygrid crisp" transform="translate(0,160.11)" d="M437,0h152.24999999999997" style="stroke: rgb(238, 238, 238); stroke-opacity: 1; stroke-width: 1px;"/>
          <path class="ygrid crisp" transform="translate(0,111.42)" d="M437,0h152.24999999999997" style="stroke: rgb(238, 238, 238); stroke-opacity: 1; stroke-width: 1px;"/>
          <path class="ygrid crisp" transform="translate(0,62.74)" d="M437,0h152.24999999999997" style="stroke: rgb(238, 238, 238); stroke-opacity: 1; stroke-width: 1px;"/>
        </g>
      </g>
      <g class="zerolinelayer">
        <path class="yzl zl crisp" transform="translate(0,257.48)" d="M437,0h152.24999999999997" style="stroke: rgb(68, 68, 68); stroke-opacity: 1; stroke-width: 1px;"/>
      </g>
      <path class="xlines-below"/>
      <path class="ylines-below"/>
      <g class="overlines-below"/>
      <g class="xaxislayer-below"/>
      <g class="yaxislayer-below"/>
      <g class="overaxes-below"/>
      <g class="plot" transform="translate(437,53)" clip-path="url(#clip680bd5x3yplot)">
        <g class="scatterlayer mlayer">
          <g class="trace scatter tracee1ea9d" style="stroke-miterlimit: 2;">
            <g class="fills">
              <g>
                <path class="js-fill" d="M152.25,204.48L0,204.48L0,204.48L15.22,203.69L30.45,196.62L45.68,176.18L60.9,162.03L76.12,176.18L91.35,188.76L106.57,198.19L121.8,203.69L137.02,203.69L152.25,204.48" style="fill: rgb(195, 217, 63); fill-opacity: 1; stroke-width: 0;"/>
              </g>
            </g>
            <g class="errorbars"/>
            <g class="lines">
              <path class="js-line" d="M0,204.48L15.22,203.69L30.45,196.62L45.68,176.18L60.9,162.03L76.12,176.18L91.35,188.76L106.57,198.19L121.8,203.69L137.02,203.69L152.25,204.48" style="vector-effect: non-scaling-stroke; fill: none; stroke: rgb(195, 217, 63); stroke-opacity: 1; stroke-width: 0px; opacity: 1;"/>
            </g>
            <g class="points"/>
            <g class="text"/>
          </g>
        </g>
      </g>
      <g class="overplot"/>
      <path class="xlines-above crisp" d="M0,0" style="fill: none;"/>
      <path class="ylines-above crisp" d="M0,0" style="fill: none;"/>
      <g class="overlines-above"/>
      <g class="xaxislayer-above"/>
      <g class="yaxislayer-above"/>
      <g class="overaxes-above"/>
    </g>
    <g class="subplot x3y2">
      <g class="layer-subplot">
        <g class="shapelayer"/>
        <g class="imagelayer"/>
      </g>
      <g class="gridlayer">
        <g class="x3">
          <path class="x3grid crisp" transform="translate(452.22,0)" d="M0,274.52v204.48" style="stroke: rgb(238, 238, 238); stroke-opacity: 1; stroke-width: 1px;"/>
          <path class="x3grid crisp" transform="translate(467.45,0)" d="M0,274.52v204.48" style="stroke: rgb(238, 238, 238); stroke-opacity: 1; stroke-width: 1px;"/>
          <path class="x3grid crisp" transform="translate(482.68,0)" d="M0,274.52v204.48" style="stroke: rgb(238, 238, 238); stroke-opacity: 1; stroke-width: 1px;"/>
          <path class="x3grid crisp" transform="translate(497.9,0)" d="M0,274.52v204.48" style="stroke: rgb(238, 238, 238); stroke-opacity: 1; stroke-width: 1px;"/>
          <path class="x3grid crisp" transform="translate(513.12,0)" d="M0,274.52v204.48" style="stroke: rgb(238, 238, 238); stroke-opacity: 1; stroke-width: 1px;"/>
          <path class="x3grid crisp" transform="translate(528.35,0)" d="M0,274.52v204.48" style="stroke: rgb(238, 238, 238); stroke-opacity: 1; stroke-width: 1px;"/>
          <path class="x3grid crisp" transform="translate(543.5699999999999,0)" d="M0,274.52v204.48" style="stroke: rgb(238, 238, 238); stroke-opacity: 1; stroke-width: 1px;"/>
          <path class="x3grid crisp" transform="translate(558.8,0)" d="M0,274.52v204.48" style="stroke: rgb(238, 238, 238); stroke-opacity: 1; stroke-width: 1px;"/>
          <path class="x3grid crisp" transform="translate(574.02,0)" d="M0,274.52v204.48" style="stroke: rgb(238, 238, 238); stroke-opacity: 1; stroke-width: 1px;"/>
        </g>
        <g class="y2">
          <path class="y2grid crisp" transform="translate(0,430.30999999999995)" d="M437,0h152.24999999999997" style="stroke: rgb(238, 238, 238); stroke-opacity: 1; stroke-width: 1px;"/>
          <path class="y2grid crisp" transform="translate(0,381.63)" d="M437,0h152.24999999999997" style="stroke: rgb(238, 238, 238); stroke-opacity: 1; stroke-width: 1px;"/>
          <path class="y2grid crisp" transform="translate(0,332.94)" d="M437,0h152.24999999999997" style="stroke: rgb(238, 238, 238); stroke-opacity: 1; stroke-width: 1px;"/>
          <path class="y2grid crisp" transform="translate(0,284.26)" d="M437,0h152.24999999999997" style="stroke: rgb(238, 238, 238); stroke-opacity: 1; stroke-width: 1px;"/>
        </g>
      </g>
      <g class="zerolinelayer">
        <path class="y2zl zl crisp" transform="translate(0,479)" d="M437,0h152.24999999999997" style="stroke: rgb(68, 68, 68); stroke-opacity: 1; stroke-width: 1px;"/>
      </g>
      <path class="xlines-below"/>
      <path class="ylines-below"/>
      <g class="overlines-below"/>
      <g class="xaxislayer-below"/>
      <g class="yaxislayer-below"/>
      <g class="overaxes-below"/>
      <g class="plot" transform="translate(437,274.52)" clip-path="url(#clip680bd5x3y2plot)">
        <g class="scatterlayer mlayer">
          <g class="trace scatter trace3fddd3" style="stroke-miterlimit: 2;">
            <g class="fills">
              <g>
                <path class="js-fill" d="M152.25,204.48L0,204.48L0,203.32L30.45,201.01L45.68,201.01L60.9,202.17L76.12,146.66L91.35,167.48L106.57,76.12L121.8,24.08L137.02,136.25L152.25,148.97" style="fill: rgb(63, 123, 23); fill-opacity: 1; stroke-width: 0;"/>
              </g>
            </g>
            <g class="errorbars"/>
            <g class="lines">
              <path class="js-line" d="M0,203.32L30.45,201.01L45.68,201.01L60.9,202.17L76.12,146.66L91.35,167.48L106.57,76.12L121.8,24.08L137.02,136.25L152.25,148.97" style="vector-effect: non-scaling-stroke; fill: none; stroke: rgb(63, 123, 23); stroke-opacity: 1; stroke-width: 0px; opacity: 1;"/>
            </g>
            <g class="points"/>
            <g class="text"/>
          </g>
        </g>
      </g>
      <g class="overplot"/>
      <path class="xlines-above crisp" d="" style="fill: none; stroke-width: 1px; stroke: rgb(0, 0, 0); stroke-opacity: 0;"/>
      <path class="ylines-above crisp" d="M0,0" style="fill: none;"/>
      <g class="overlines-above"/>
      <g class="xaxislayer-above">
        <path class="x3tick ticks crisp" d="M0,480v15" transform="translate(437,0)" style="stroke: rgb(238, 238, 238); stroke-opacity: 1; stroke-width: 1px;"/>
        <path class="x3tick ticks crisp" d="M0,480v15" transform="translate(452.22,0)" style="stroke: rgb(238, 238, 238); stroke-opacity: 1; stroke-width: 1px;"/>
        <path class="x3tick ticks crisp" d="M0,480v15" transform="translate(467.45,0)" style="stroke: rgb(238, 238, 238); stroke-opacity: 1; stroke-width: 1px;"/>
        <path class="x3tick ticks crisp" d="M0,480v15" transform="translate(482.68,0)" style="stroke: rgb(238, 238, 238); stroke-opacity: 1; stroke-width: 1px;"/>
        <path class="x3tick ticks crisp" d="M0,480v15" transform="translate(497.9,0)" style="stroke: rgb(238, 238, 238); stroke-opacity: 1; stroke-width: 1px;"/>
        <path class="x3tick ticks crisp" d="M0,480v15" transform="translate(513.12,0)" style="stroke: rgb(238, 238, 238); stroke-opacity: 1; stroke-width: 1px;"/>
        <path class="x3tick ticks crisp" d="M0,480v15" transform="translate(528.35,0)" style="stroke: rgb(238, 238, 238); stroke-opacity: 1; stroke-width: 1px;"/>
        <path class="x3tick ticks crisp" d="M0,480v15" transform="translate(543.5699999999999,0)" style="stroke: rgb(238, 238, 238); stroke-opacity: 1; stroke-width: 1px;"/>
        <path class="x3tick ticks crisp" d="M0,480v15" transform="translate(558.8,0)" style="stroke: rgb(238, 238, 238); stroke-opacity: 1; stroke-width: 1px;"/>
        <path class="x3tick ticks crisp" d="M0,480v15" transform="translate(574.02,0)" style="stroke: rgb(238, 238, 238); stroke-opacity: 1; stroke-width: 1px;"/>
        <path class="x3tick ticks crisp" d="M0,480v15" transform="translate(589.25,0)" style="stroke: rgb(238, 238, 238); stroke-opacity: 1; stroke-width: 1px;"/>
        <g class="x3tick">
          <text text-anchor="start" x="0" y="509.4" transform="translate(437,0) rotate(90,0,503.4)" style="font-family: 'Open Sans', verdana, arial, sans-serif; font-size: 12px; fill: rgb(68, 68, 68); fill-opacity: 1; white-space: pre; opacity: 1;">0 (ganz links)</text>
        </g>
        <g class="x3tick">
          <text text-anchor="start" x="0" y="509.4" transform="translate(452.22,0) rotate(90,0,503.4)" style="font-family: 'Open Sans', verdana, arial, sans-serif; font-size: 12px; fill: rgb(68, 68, 68); fill-opacity: 1; white-space: pre; opacity: 1;">1</text>
        </g>
        <g class="x3tick">
          <text text-anchor="start" x="0" y="509.4" transform="translate(467.45,0) rotate(90,0,503.4)" style="font-family: 'Open Sans', verdana, arial, sans-serif; font-size: 12px; fill: rgb(68, 68, 68); fill-opacity: 1; white-space: pre; opacity: 1;">2</text>
        </g>
        <g class="x3tick">
          <text text-anchor="start" x="0" y="509.4" transform="translate(482.68,0) rotate(90,0,503.4)" style="font-family: 'Open Sans', verdana, arial, sans-serif; font-size: 12px; fill: rgb(68, 68, 68); fill-opacity: 1; white-space: pre; opacity: 1;">3</text>
        </g>
        <g class="x3tick">
          <text text-anchor="start" x="0" y="509.4" transform="translate(497.9,0) rotate(90,0,503.4)" style="font-family: 'Open Sans', verdana, arial, sans-serif; font-size: 12px; fill: rgb(68, 68, 68); fill-opacity: 1; white-space: pre; opacity: 1;">4</text>
        </g>
        <g class="x3tick">
          <text text-anchor="start" x="0" y="509.4" transform="translate(513.12,0) rotate(90,0,503.4)" style="font-family: 'Open Sans', verdana, arial, sans-serif; font-size: 12px; fill: rgb(68, 68, 68); fill-opacity: 1; white-space: pre; opacity: 1;">5 (Mitte)</text>
        </g>
        <g class="x3tick">
          <text text-anchor="start" x="0" y="509.4" transform="translate(528.35,0) rotate(90,0,503.4)" style="font-family: 'Open Sans', verdana, arial, sans-serif; font-size: 12px; fill: rgb(68, 68, 68); fill-opacity: 1; white-space: pre; opacity: 1;">6</text>
        </g>
        <g class="x3tick">
          <text text-anchor="start" x="0" y="509.4" transform="translate(543.5699999999999,0) rotate(90,0,503.4)" style="font-family: 'Open Sans', verdana, arial, sans-serif; font-size: 12px; fill: rgb(68, 68, 68); fill-opacity: 1; white-space: pre; opacity: 1;">7</text>
        </g>
        <g class="x3tick">
          <text text-anchor="start" x="0" y="509.4" transform="translate(558.8,0) rotate(90,0,503.4)" style="font-family: 'Open Sans', verdana, arial, sans-serif; font-size: 12px; fill: rgb(68, 68, 68); fill-opacity: 1; white-space: pre; opacity: 1;">8</text>
        </g>
        <g class="x3tick">
          <text text-anchor="start" x="0" y="509.4" transform="translate(574.02,0) rotate(90,0,503.4)" style="font-family: 'Open Sans', verdana, arial, sans-serif; font-size: 12px; fill: rgb(68, 68, 68); fill-opacity: 1; white-space: pre; opacity: 1;">9</text>
        </g>
        <g class="x3tick">
          <text text-anchor="start" x="0" y="509.4" transform="translate(589.25,0) rotate(90,0,503.4)" style="font-family: 'Open Sans', verdana, arial, sans-serif; font-size: 12px; fill: rgb(68, 68, 68); fill-opacity: 1; white-space: pre; opacity: 1;">10 (ganz rechts)</text>
        </g>
      </g>
      <g class="yaxislayer-above"/>
      <g class="overaxes-above"/>
    </g>
    <g class="subplot x4y">
      <g class="layer-subplot">
        <g class="shapelayer"/>
        <g class="imagelayer"/>
      </g>
      <g class="gridlayer">
        <g class="x4">
          <path class="x4grid crisp" transform="translate(634.93,0)" d="M0,53v204.48" style="stroke: rgb(238, 238, 238); stroke-opacity: 1; stroke-width: 1px;"/>
          <path class="x4grid crisp" transform="translate(651.6,0)" d="M0,53v204.48" style="stroke: rgb(238, 238, 238); stroke-opacity: 1; stroke-width: 1px;"/>
          <path class="x4grid crisp" transform="translate(668.28,0)" d="M0,53v204.48" style="stroke: rgb(238, 238, 238); stroke-opacity: 1; stroke-width: 1px;"/>
          <path class="x4grid crisp" transform="translate(684.95,0)" d="M0,53v204.48" style="stroke: rgb(238, 238, 238); stroke-opacity: 1; stroke-width: 1px;"/>
          <path class="x4grid crisp" transform="translate(701.63,0)" d="M0,53v204.48" style="stroke: rgb(238, 238, 238); stroke-opacity: 1; stroke-width: 1px;"/>
          <path class="x4grid crisp" transform="translate(718.3,0)" d="M0,53v204.48" style="stroke: rgb(238, 238, 238); stroke-opacity: 1; stroke-width: 1px;"/>
          <path class="x4grid crisp" transform="translate(734.98,0)" d="M0,53v204.48" style="stroke: rgb(238, 238, 238); stroke-opacity: 1; stroke-width: 1px;"/>
          <path class="x4grid crisp" transform="translate(751.65,0)" d="M0,53v204.48" style="stroke: rgb(238, 238, 238); stroke-opacity: 1; stroke-width: 1px;"/>
          <path class="x4grid crisp" transform="translate(768.33,0)" d="M0,53v204.48" style="stroke: rgb(238, 238, 238); stroke-opacity: 1; stroke-width: 1px;"/>
        </g>
        <g class="y">
          <path class="ygrid crisp" transform="translate(0,208.79)" d="M618.25,0h166.75" style="stroke: rgb(238, 238, 238); stroke-opacity: 1; stroke-width: 1px;"/>
          <path class="ygrid crisp" transform="translate(0,160.11)" d="M618.25,0h166.75" style="stroke: rgb(238, 238, 238); stroke-opacity: 1; stroke-width: 1px;"/>
          <path class="ygrid crisp" transform="translate(0,111.42)" d="M618.25,0h166.75" style="stroke: rgb(238, 238, 238); stroke-opacity: 1; stroke-width: 1px;"/>
          <path class="ygrid crisp" transform="translate(0,62.74)" d="M618.25,0h166.75" style="stroke: rgb(238, 238, 238); stroke-opacity: 1; stroke-width: 1px;"/>
        </g>
      </g>
      <g class="zerolinelayer">
        <path class="yzl zl crisp" transform="translate(0,257.48)" d="M618.25,0h166.75" style="stroke: rgb(68, 68, 68); stroke-opacity: 1; stroke-width: 1px;"/>
      </g>
      <path class="xlines-below"/>
      <path class="ylines-below"/>
      <g class="overlines-below"/>
      <g class="xaxislayer-below"/>
      <g class="yaxislayer-below"/>
      <g class="overaxes-below"/>
      <g class="plot" transform="translate(618.25,53)" clip-path="url(#clip680bd5x4yplot)">
        <g class="scatterlayer mlayer">
          <g class="trace scatter trace43d7be" style="stroke-miterlimit: 2;">
            <g class="fills">
              <g>
                <path class="js-fill" d="M166.75,204.48L0,204.48L0,204.48L16.68,202.54L33.35,202.02L50.03,192.82L66.7,190.09L83.38,176.56L100.05,188.08L116.73,198.07L133.4,193.51L150.08,200.09L166.75,204.39" style="fill: rgb(148, 184, 184); fill-opacity: 1; stroke-width: 0;"/>
              </g>
            </g>
            <g class="errorbars"/>
            <g class="lines">
              <path class="js-line" d="M0,204.48L16.68,202.54L33.35,202.02L50.03,192.82L66.7,190.09L83.38,176.56L100.05,188.08L116.73,198.07L133.4,193.51L150.08,200.09L166.75,204.39" style="vector-effect: non-scaling-stroke; fill: none; stroke: rgb(148, 184, 184); stroke-opacity: 1; stroke-width: 0px; opacity: 1;"/>
            </g>
            <g class="points"/>
            <g class="text"/>
          </g>
        </g>
      </g>
      <g class="overplot"/>
      <path class="xlines-above crisp" d="" style="fill: none; stroke-width: 1px; stroke: rgb(0, 0, 0); stroke-opacity: 0;"/>
      <path class="ylines-above crisp" d="M0,0" style="fill: none;"/>
      <g class="overlines-above"/>
      <g class="xaxislayer-above">
        <path class="x4tick ticks crisp" d="M0,258.48v15" transform="translate(618.25,0)" style="stroke: rgb(238, 238, 238); stroke-opacity: 1; stroke-width: 1px;"/>
        <path class="x4tick ticks crisp" d="M0,258.48v15" transform="translate(634.93,0)" style="stroke: rgb(238, 238, 238); stroke-opacity: 1; stroke-width: 1px;"/>
        <path class="x4tick ticks crisp" d="M0,258.48v15" transform="translate(651.6,0)" style="stroke: rgb(238, 238, 238); stroke-opacity: 1; stroke-width: 1px;"/>
        <path class="x4tick ticks crisp" d="M0,258.48v15" transform="translate(668.28,0)" style="stroke: rgb(238, 238, 238); stroke-opacity: 1; stroke-width: 1px;"/>
        <path class="x4tick ticks crisp" d="M0,258.48v15" transform="translate(684.95,0)" style="stroke: rgb(238, 238, 238); stroke-opacity: 1; stroke-width: 1px;"/>
        <path class="x4tick ticks crisp" d="M0,258.48v15" transform="translate(701.63,0)" style="stroke: rgb(238, 238, 238); stroke-opacity: 1; stroke-width: 1px;"/>
        <path class="x4tick ticks crisp" d="M0,258.48v15" transform="translate(718.3,0)" style="stroke: rgb(238, 238, 238); stroke-opacity: 1; stroke-width: 1px;"/>
        <path class="x4tick ticks crisp" d="M0,258.48v15" transform="translate(734.98,0)" style="stroke: rgb(238, 238, 238); stroke-opacity: 1; stroke-width: 1px;"/>
        <path class="x4tick ticks crisp" d="M0,258.48v15" transform="translate(751.65,0)" style="stroke: rgb(238, 238, 238); stroke-opacity: 1; stroke-width: 1px;"/>
        <path class="x4tick ticks crisp" d="M0,258.48v15" transform="translate(768.33,0)" style="stroke: rgb(238, 238, 238); stroke-opacity: 1; stroke-width: 1px;"/>
        <path class="x4tick ticks crisp" d="M0,258.48v15" transform="translate(785,0)" style="stroke: rgb(238, 238, 238); stroke-opacity: 1; stroke-width: 1px;"/>
        <g class="x4tick">
          <text text-anchor="start" x="0" y="287.88" transform="translate(618.25,0) rotate(90,0,281.88)" style="font-family: 'Open Sans', verdana, arial, sans-serif; font-size: 12px; fill: rgb(68, 68, 68); fill-opacity: 1; white-space: pre; opacity: 1;">0 (ganz links)</text>
        </g>
        <g class="x4tick">
          <text text-anchor="start" x="0" y="287.88" transform="translate(634.93,0) rotate(90,0,281.88)" style="font-family: 'Open Sans', verdana, arial, sans-serif; font-size: 12px; fill: rgb(68, 68, 68); fill-opacity: 1; white-space: pre; opacity: 1;">1</text>
        </g>
        <g class="x4tick">
          <text text-anchor="start" x="0" y="287.88" transform="translate(651.6,0) rotate(90,0,281.88)" style="font-family: 'Open Sans', verdana, arial, sans-serif; font-size: 12px; fill: rgb(68, 68, 68); fill-opacity: 1; white-space: pre; opacity: 1;">2</text>
        </g>
        <g class="x4tick">
          <text text-anchor="start" x="0" y="287.88" transform="translate(668.28,0) rotate(90,0,281.88)" style="font-family: 'Open Sans', verdana, arial, sans-serif; font-size: 12px; fill: rgb(68, 68, 68); fill-opacity: 1; white-space: pre; opacity: 1;">3</text>
        </g>
        <g class="x4tick">
          <text text-anchor="start" x="0" y="287.88" transform="translate(684.95,0) rotate(90,0,281.88)" style="font-family: 'Open Sans', verdana, arial, sans-serif; font-size: 12px; fill: rgb(68, 68, 68); fill-opacity: 1; white-space: pre; opacity: 1;">4</text>
        </g>
        <g class="x4tick">
          <text text-anchor="start" x="0" y="287.88" transform="translate(701.63,0) rotate(90,0,281.88)" style="font-family: 'Open Sans', verdana, arial, sans-serif; font-size: 12px; fill: rgb(68, 68, 68); fill-opacity: 1; white-space: pre; opacity: 1;">5 (Mitte)</text>
        </g>
        <g class="x4tick">
          <text text-anchor="start" x="0" y="287.88" transform="translate(718.3,0) rotate(90,0,281.88)" style="font-family: 'Open Sans', verdana, arial, sans-serif; font-size: 12px; fill: rgb(68, 68, 68); fill-opacity: 1; white-space: pre; opacity: 1;">6</text>
        </g>
        <g class="x4tick">
          <text text-anchor="start" x="0" y="287.88" transform="translate(734.98,0) rotate(90,0,281.88)" style="font-family: 'Open Sans', verdana, arial, sans-serif; font-size: 12px; fill: rgb(68, 68, 68); fill-opacity: 1; white-space: pre; opacity: 1;">7</text>
        </g>
        <g class="x4tick">
          <text text-anchor="start" x="0" y="287.88" transform="translate(751.65,0) rotate(90,0,281.88)" style="font-family: 'Open Sans', verdana, arial, sans-serif; font-size: 12px; fill: rgb(68, 68, 68); fill-opacity: 1; white-space: pre; opacity: 1;">8</text>
        </g>
        <g class="x4tick">
          <text text-anchor="start" x="0" y="287.88" transform="translate(768.33,0) rotate(90,0,281.88)" style="font-family: 'Open Sans', verdana, arial, sans-serif; font-size: 12px; fill: rgb(68, 68, 68); fill-opacity: 1; white-space: pre; opacity: 1;">9</text>
        </g>
        <g class="x4tick">
          <text text-anchor="start" x="0" y="287.88" transform="translate(785,0) rotate(90,0,281.88)" style="font-family: 'Open Sans', verdana, arial, sans-serif; font-size: 12px; fill: rgb(68, 68, 68); fill-opacity: 1; white-space: pre; opacity: 1;">10 (ganz rechts)</text>
        </g>
      </g>
      <g class="yaxislayer-above"/>
      <g class="overaxes-above"/>
    </g>
  </g>
  <g class="polarlayer"/>
  <g class="smithlayer"/>
  <g class="ternarylayer"/>
  <g class="geolayer"/>
  <g class="funnelarealayer"/>
  <g class="pielayer"/>
  <g class="iciclelayer"/>
  <g class="treemaplayer"/>
  <g class="sunburstlayer"/>
  <g class="glimages"/>
  <defs id="topdefs-680bd5">
    <g class="clips"/>
    <clipPath id="legend680bd5">
      <rect width="595" height="48" x="0" y="0"/>
    </clipPath>
  </defs>
  <g class="layer-above">
    <g class="imagelayer"/>
    <g class="shapelayer"/>
  </g>
  <g class="infolayer">
    <g class="legend" pointer-events="all" transform="translate(60,10.399999999999963)">
      <rect class="bg" shape-rendering="crispEdges" width="595" height="48" x="0" y="0" style="stroke: rgb(68, 68, 68); stroke-opacity: 1; fill: rgb(255, 255, 255); fill-opacity: 1; stroke-width: 0px;"/>
      <g class="scrollbox" transform="" clip-path="url(#legend680bd5)">
        <g class="groups">
          <g class="traces" transform="translate(0,14.5)" style="opacity: 1;">
            <text class="legendtext" text-anchor="start" x="40" y="4.680000000000001" style="font-family: 'Open Sans', verdana, arial, sans-serif; font-size: 12px; fill: rgb(68, 68, 68); fill-opacity: 1; white-space: pre;">SP / JUSO</text>
            <g class="layers">
              <g class="legendfill">
                <path class="js-fill" d="M5,-2h30v6h-30z" style="stroke-width: 0; fill: rgb(238, 42, 59); fill-opacity: 1;"/>
              </g>
              <g class="legendlines">
                <path class="js-line" d="M5,-2h30" style="fill: none; stroke: rgb(238, 42, 59); stroke-opacity: 1; stroke-width: 0px;"/>
              </g>
              <g class="legendsymbols">
                <g class="legendpoints"/>
              </g>
            </g>
            <rect class="legendtoggle" x="0" y="-9.5" width="100.296875" height="19" style="fill: rgb(0, 0, 0); fill-opacity: 0;"/>
          </g>
          <g class="traces" transform="translate(159.84375,14.5)" style="opacity: 1;">
            <text class="legendtext" text-anchor="start" x="40" y="4.680000000000001" style="font-family: 'Open Sans', verdana, arial, sans-serif; font-size: 12px; fill: rgb(68, 68, 68); fill-opacity: 1; white-space: pre;">Grüne / Junge Grüne</text>
            <g class="layers">
              <g class="legendfill">
                <path class="js-fill" d="M5,-2h30v6h-30z" style="stroke-width: 0; fill: rgb(132, 180, 20); fill-opacity: 1;"/>
              </g>
              <g class="legendlines">
                <path class="js-line" d="M5,-2h30" style="fill: none; stroke: rgb(132, 180, 20); stroke-opacity: 1; stroke-width: 0px;"/>
              </g>
              <g class="legendsymbols">
                <g class="legendpoints"/>
              </g>
            </g>
            <rect class="legendtoggle" x="0" y="-9.5" width="155.5625" height="19" style="fill: rgb(0, 0, 0); fill-opacity: 0;"/>
          </g>
          <g class="traces" transform="translate(319.6875,14.5)" style="opacity: 1;">
            <text class="legendtext" text-anchor="start" x="40" y="4.680000000000001" style="font-family: 'Open Sans', verdana, arial, sans-serif; font-size: 12px; fill: rgb(68, 68, 68); fill-opacity: 1; white-space: pre;">GLP</text>
            <g class="layers">
              <g class="legendfill">
                <path class="js-fill" d="M5,-2h30v6h-30z" style="stroke-width: 0; fill: rgb(195, 217, 63); fill-opacity: 1;"/>
              </g>
              <g class="legendlines">
                <path class="js-line" d="M5,-2h30" style="fill: none; stroke: rgb(195, 217, 63); stroke-opacity: 1; stroke-width: 0px;"/>
              </g>
              <g class="legendsymbols">
                <g class="legendpoints"/>
              </g>
            </g>
            <rect class="legendtoggle" x="0" y="-9.5" width="66.515625" height="19" style="fill: rgb(0, 0, 0); fill-opacity: 0;"/>
          </g>
          <g class="traces" transform="translate(479.53125,14.5)" style="opacity: 1;">
            <text class="legendtext" text-anchor="start" x="40" y="4.680000000000001" style="font-family: 'Open Sans', verdana, arial, sans-serif; font-size: 12px; fill: rgb(68, 68, 68); fill-opacity: 1; white-space: pre;">Kleinparteien</text>
            <g class="layers">
              <g class="legendfill">
                <path class="js-fill" d="M5,-2h30v6h-30z" style="stroke-width: 0; fill: rgb(148, 184, 184); fill-opacity: 1;"/>
              </g>
              <g class="legendlines">
                <path class="js-line" d="M5,-2h30" style="fill: none; stroke: rgb(148, 184, 184); stroke-opacity: 1; stroke-width: 0px;"/>
              </g>
              <g class="legendsymbols">
                <g class="legendpoints"/>
              </g>
            </g>
            <rect class="legendtoggle" x="0" y="-9.5" width="112.5625" height="19" style="fill: rgb(0, 0, 0); fill-opacity: 0;"/>
          </g>
          <g class="traces" transform="translate(0,33.5)" style="opacity: 1;">
            <text class="legendtext" text-anchor="start" x="40" y="4.680000000000001" style="font-family: 'Open Sans', verdana, arial, sans-serif; font-size: 12px; fill: rgb(68, 68, 68); fill-opacity: 1; white-space: pre;">Mitte</text>
            <g class="layers">
              <g class="legendfill">
                <path class="js-fill" d="M5,-2h30v6h-30z" style="stroke-width: 0; fill: rgb(255, 133, 12); fill-opacity: 1;"/>
              </g>
              <g class="legendlines">
                <path class="js-line" d="M5,-2h30" style="fill: none; stroke: rgb(255, 133, 12); stroke-opacity: 1; stroke-width: 0px;"/>
              </g>
              <g class="legendsymbols">
                <g class="legendpoints"/>
              </g>
            </g>
            <rect class="legendtoggle" x="0" y="-9.5" width="68.84375" height="19" style="fill: rgb(0, 0, 0); fill-opacity: 0;"/>
          </g>
          <g class="traces" transform="translate(159.84375,33.5)" style="opacity: 1;">
            <text class="legendtext" text-anchor="start" x="40" y="4.680000000000001" style="font-family: 'Open Sans', verdana, arial, sans-serif; font-size: 12px; fill: rgb(68, 68, 68); fill-opacity: 1; white-space: pre;">FDP / Jungfreisinnige</text>
            <g class="layers">
              <g class="legendfill">
                <path class="js-fill" d="M5,-2h30v6h-30z" style="stroke-width: 0; fill: rgb(16, 79, 160); fill-opacity: 1;"/>
              </g>
              <g class="legendlines">
                <path class="js-line" d="M5,-2h30" style="fill: none; stroke: rgb(16, 79, 160); stroke-opacity: 1; stroke-width: 0px;"/>
              </g>
              <g class="legendsymbols">
                <g class="legendpoints"/>
              </g>
            </g>
            <rect class="legendtoggle" x="0" y="-9.5" width="157.34375" height="19" style="fill: rgb(0, 0, 0); fill-opacity: 0;"/>
          </g>
          <g class="traces" transform="translate(319.6875,33.5)" style="opacity: 1;">
            <text class="legendtext" text-anchor="start" x="40" y="4.680000000000001" style="font-family: 'Open Sans', verdana, arial, sans-serif; font-size: 12px; fill: rgb(68, 68, 68); fill-opacity: 1; white-space: pre;">SVP</text>
            <g class="layers">
              <g class="legendfill">
                <path class="js-fill" d="M5,-2h30v6h-30z" style="stroke-width: 0; fill: rgb(63, 123, 23); fill-opacity: 1;"/>
              </g>
              <g class="legendlines">
                <path class="js-line" d="M5,-2h30" style="fill: none; stroke: rgb(63, 123, 23); stroke-opacity: 1; stroke-width: 0px;"/>
              </g>
              <g class="legendsymbols">
                <g class="legendpoints"/>
              </g>
            </g>
            <rect class="legendtoggle" x="0" y="-9.5" width="66.515625" height="19" style="fill: rgb(0, 0, 0); fill-opacity: 0;"/>
          </g>
        </g>
      </g>
      <rect class="scrollbar" rx="20" ry="3" width="0" height="0" x="0" y="0" style="fill: rgb(128, 139, 164); fill-opacity: 1;"/>
    </g>
    <g class="g-gtitle"/>
    <g class="g-xtitle"/>
    <g class="g-x2title"/>
    <g class="g-x3title"/>
    <g class="g-x4title"/>
    <g class="g-ytitle">
      <text class="ytitle" transform="rotate(-90,22,155.24)" x="22" y="155.24" text-anchor="middle" style="font-family: 'Open Sans', verdana, arial, sans-serif; font-size: 14px; fill: rgb(68, 68, 68); opacity: 1; font-weight: normal; white-space: pre;">Anzahl Wähler:innen</text>
    </g>
    <g class="g-y2title"/>
  </g>
</svg>
