<svg xmlns="http://www.w3.org/2000/svg" xmlns:xlink="http://www.w3.org/1999/xlink" class="main-svg" width="100%" height="100%" style="" viewBox="1 1 799 899">
  <rect x="0" y="0" width="800" height="900" style="fill: rgb(255, 255, 255); fill-opacity: 1;"/>
  <defs id="defs-e913c7">
    <g class="clips">
      <clipPath id="clipe913c7xyplot" class="plotclip">
        <rect width="227.16666666666663" height="219.01999999999992"/>
      </clipPath>
      <clipPath id="clipe913c7xy2plot" class="plotclip">
        <rect width="227.16666666666663" height="205.04"/>
      </clipPath>
      <clipPath id="clipe913c7xy3plot" class="plotclip">
        <rect width="227.16666666666663" height="219.02"/>
      </clipPath>
      <clipPath id="clipe913c7x2yplot" class="plotclip">
        <rect width="212.66666666666663" height="219.01999999999992"/>
      </clipPath>
      <clipPath id="clipe913c7x2y2plot" class="plotclip">
        <rect width="212.66666666666663" height="205.04"/>
      </clipPath>
      <clipPath id="clipe913c7x2y3plot" class="plotclip">
        <rect width="212.66666666666663" height="219.02"/>
      </clipPath>
      <clipPath id="clipe913c7x3yplot" class="plotclip">
        <rect width="227.16666666666669" height="219.01999999999992"/>
      </clipPath>
      <clipPath id="clipe913c7x3y2plot" class="plotclip">
        <rect width="227.16666666666669" height="205.04"/>
      </clipPath>
      <clipPath class="axesclip" id="clipe913c7x">
        <rect x="60" y="0" width="227.16666666666663" height="900"/>
      </clipPath>
      <clipPath class="axesclip" id="clipe913c7y">
        <rect x="0" y="80" width="800" height="219.01999999999992"/>
      </clipPath>
      <clipPath class="axesclip" id="clipe913c7xy">
        <rect x="60" y="80" width="227.16666666666663" height="219.01999999999992"/>
      </clipPath>
      <clipPath class="axesclip" id="clipe913c7y2">
        <rect x="0" y="326.97999999999996" width="800" height="205.04"/>
      </clipPath>
      <clipPath class="axesclip" id="clipe913c7xy2">
        <rect x="60" y="326.97999999999996" width="227.16666666666663" height="205.04"/>
      </clipPath>
      <clipPath class="axesclip" id="clipe913c7y3">
        <rect x="0" y="559.98" width="800" height="219.02"/>
      </clipPath>
      <clipPath class="axesclip" id="clipe913c7xy3">
        <rect x="60" y="559.98" width="227.16666666666663" height="219.02"/>
      </clipPath>
      <clipPath class="axesclip" id="clipe913c7x2">
        <rect x="316.1666666666667" y="0" width="212.66666666666663" height="900"/>
      </clipPath>
      <clipPath class="axesclip" id="clipe913c7x2y">
        <rect x="316.1666666666667" y="80" width="212.66666666666663" height="219.01999999999992"/>
      </clipPath>
      <clipPath class="axesclip" id="clipe913c7x2y2">
        <rect x="316.1666666666667" y="326.97999999999996" width="212.66666666666663" height="205.04"/>
      </clipPath>
      <clipPath class="axesclip" id="clipe913c7x2y3">
        <rect x="316.1666666666667" y="559.98" width="212.66666666666663" height="219.02"/>
      </clipPath>
      <clipPath class="axesclip" id="clipe913c7x3">
        <rect x="557.8333333333333" y="0" width="227.16666666666669" height="900"/>
      </clipPath>
      <clipPath class="axesclip" id="clipe913c7x3y">
        <rect x="557.8333333333333" y="80" width="227.16666666666669" height="219.01999999999992"/>
      </clipPath>
      <clipPath class="axesclip" id="clipe913c7x3y2">
        <rect x="557.8333333333333" y="326.97999999999996" width="227.16666666666669" height="205.04"/>
      </clipPath>
      <clipPath class="axesclip" id="clipe913c7x3y3">
        <rect x="557.8333333333333" y="559.98" width="227.16666666666669" height="219.02"/>
      </clipPath>
    </g>
    <g class="gradients"/>
    <g class="patterns"/>
  </defs>
  <g class="bglayer"/>
  <g class="layer-below">
    <g class="imagelayer"/>
    <g class="shapelayer"/>
  </g>
  <g class="cartesianlayer">
    <g class="subplot xy">
      <g class="layer-subplot">
        <g class="shapelayer"/>
        <g class="imagelayer"/>
      </g>
      <g class="gridlayer">
        <g class="x">
          <path class="xgrid crisp" transform="translate(82.72,0)" d="M0,80v219.01999999999992" style="stroke: rgb(238, 238, 238); stroke-opacity: 1; stroke-width: 1px;"/>
          <path class="xgrid crisp" transform="translate(105.43,0)" d="M0,80v219.01999999999992" style="stroke: rgb(238, 238, 238); stroke-opacity: 1; stroke-width: 1px;"/>
          <path class="xgrid crisp" transform="translate(128.15,0)" d="M0,80v219.01999999999992" style="stroke: rgb(238, 238, 238); stroke-opacity: 1; stroke-width: 1px;"/>
          <path class="xgrid crisp" transform="translate(150.87,0)" d="M0,80v219.01999999999992" style="stroke: rgb(238, 238, 238); stroke-opacity: 1; stroke-width: 1px;"/>
          <path class="xgrid crisp" transform="translate(173.57999999999998,0)" d="M0,80v219.01999999999992" style="stroke: rgb(238, 238, 238); stroke-opacity: 1; stroke-width: 1px;"/>
          <path class="xgrid crisp" transform="translate(196.3,0)" d="M0,80v219.01999999999992" style="stroke: rgb(238, 238, 238); stroke-opacity: 1; stroke-width: 1px;"/>
          <path class="xgrid crisp" transform="translate(219.02,0)" d="M0,80v219.01999999999992" style="stroke: rgb(238, 238, 238); stroke-opacity: 1; stroke-width: 1px;"/>
          <path class="xgrid crisp" transform="translate(241.73,0)" d="M0,80v219.01999999999992" style="stroke: rgb(238, 238, 238); stroke-opacity: 1; stroke-width: 1px;"/>
          <path class="xgrid crisp" transform="translate(264.45,0)" d="M0,80v219.01999999999992" style="stroke: rgb(238, 238, 238); stroke-opacity: 1; stroke-width: 1px;"/>
        </g>
        <g class="y">
          <path class="ygrid crisp" transform="translate(0,216.68)" d="M60,0h227.16666666666663" style="stroke: rgb(238, 238, 238); stroke-opacity: 1; stroke-width: 1px;"/>
          <path class="ygrid crisp" transform="translate(0,134.34)" d="M60,0h227.16666666666663" style="stroke: rgb(238, 238, 238); stroke-opacity: 1; stroke-width: 1px;"/>
        </g>
      </g>
      <g class="zerolinelayer">
        <path class="yzl zl crisp" transform="translate(0,299.02)" d="M60,0h227.16666666666663" style="stroke: rgb(68, 68, 68); stroke-opacity: 1; stroke-width: 1px;"/>
      </g>
      <path class="xlines-below"/>
      <path class="ylines-below"/>
      <g class="overlines-below"/>
      <g class="xaxislayer-below"/>
      <g class="yaxislayer-below"/>
      <g class="overaxes-below"/>
      <g class="plot" transform="translate(60,80)" clip-path="url(#clipe913c7xyplot)">
        <g class="scatterlayer mlayer">
          <g class="trace scatter trace950371" style="stroke-miterlimit: 2;">
            <g class="fills">
              <g>
                <path class="js-fill" d="M227.17,219.02L0,219.02L0,202.33L22.72,196.29L45.43,121.98L68.15,134.82L90.87,182.96L113.58,168.88L136.3,202.67L159.02,216L181.73,208.37L204.45,217.51L227.17,217.51" style="fill: rgb(238, 42, 59); fill-opacity: 1; stroke-width: 0;"/>
              </g>
            </g>
            <g class="errorbars"/>
            <g class="lines">
              <path class="js-line" d="M0,202.33L22.72,196.29L45.43,121.98L68.15,134.82L90.87,182.96L113.58,168.88L136.3,202.67L159.02,216L181.73,208.37L204.45,217.51L227.17,217.51" style="vector-effect: non-scaling-stroke; fill: none; stroke: rgb(238, 42, 59); stroke-opacity: 1; stroke-width: 0px; opacity: 1;"/>
            </g>
            <g class="points"/>
            <g class="text"/>
          </g>
        </g>
      </g>
      <g class="overplot"/>
      <path class="xlines-above crisp" d="M0,0" style="fill: none;"/>
      <path class="ylines-above crisp" d="M0,0" style="fill: none;"/>
      <g class="overlines-above"/>
      <g class="xaxislayer-above"/>
      <g class="yaxislayer-above">
        <g class="ytick">
          <text text-anchor="end" x="59" y="4.199999999999999" transform="translate(0,299.02)" style="font-family: 'Open Sans', verdana, arial, sans-serif; font-size: 12px; fill: rgb(68, 68, 68); fill-opacity: 1; white-space: pre; opacity: 1;">0</text>
        </g>
        <g class="ytick">
          <text text-anchor="end" x="59" y="4.199999999999999" style="font-family: 'Open Sans', verdana, arial, sans-serif; font-size: 12px; fill: rgb(68, 68, 68); fill-opacity: 1; white-space: pre; opacity: 1;" transform="translate(0,216.68)">50</text>
        </g>
        <g class="ytick">
          <text text-anchor="end" x="59" y="4.199999999999999" style="font-family: 'Open Sans', verdana, arial, sans-serif; font-size: 12px; fill: rgb(68, 68, 68); fill-opacity: 1; white-space: pre; opacity: 1;" transform="translate(0,134.34)">100</text>
        </g>
      </g>
      <g class="overaxes-above"/>
    </g>
    <g class="subplot xy2">
      <g class="layer-subplot">
        <g class="shapelayer"/>
        <g class="imagelayer"/>
      </g>
      <g class="gridlayer">
        <g class="x">
          <path class="xgrid crisp" transform="translate(82.72,0)" d="M0,326.97999999999996v205.04" style="stroke: rgb(238, 238, 238); stroke-opacity: 1; stroke-width: 1px;"/>
          <path class="xgrid crisp" transform="translate(105.43,0)" d="M0,326.97999999999996v205.04" style="stroke: rgb(238, 238, 238); stroke-opacity: 1; stroke-width: 1px;"/>
          <path class="xgrid crisp" transform="translate(128.15,0)" d="M0,326.97999999999996v205.04" style="stroke: rgb(238, 238, 238); stroke-opacity: 1; stroke-width: 1px;"/>
          <path class="xgrid crisp" transform="translate(150.87,0)" d="M0,326.97999999999996v205.04" style="stroke: rgb(238, 238, 238); stroke-opacity: 1; stroke-width: 1px;"/>
          <path class="xgrid crisp" transform="translate(173.57999999999998,0)" d="M0,326.97999999999996v205.04" style="stroke: rgb(238, 238, 238); stroke-opacity: 1; stroke-width: 1px;"/>
          <path class="xgrid crisp" transform="translate(196.3,0)" d="M0,326.97999999999996v205.04" style="stroke: rgb(238, 238, 238); stroke-opacity: 1; stroke-width: 1px;"/>
          <path class="xgrid crisp" transform="translate(219.02,0)" d="M0,326.97999999999996v205.04" style="stroke: rgb(238, 238, 238); stroke-opacity: 1; stroke-width: 1px;"/>
          <path class="xgrid crisp" transform="translate(241.73,0)" d="M0,326.97999999999996v205.04" style="stroke: rgb(238, 238, 238); stroke-opacity: 1; stroke-width: 1px;"/>
          <path class="xgrid crisp" transform="translate(264.45,0)" d="M0,326.97999999999996v205.04" style="stroke: rgb(238, 238, 238); stroke-opacity: 1; stroke-width: 1px;"/>
        </g>
        <g class="y2">
          <path class="y2grid crisp" transform="translate(0,454.93999999999994)" d="M60,0h227.16666666666663" style="stroke: rgb(238, 238, 238); stroke-opacity: 1; stroke-width: 1px;"/>
          <path class="y2grid crisp" transform="translate(0,377.84999999999997)" d="M60,0h227.16666666666663" style="stroke: rgb(238, 238, 238); stroke-opacity: 1; stroke-width: 1px;"/>
        </g>
      </g>
      <g class="zerolinelayer">
        <path class="y2zl zl crisp" transform="translate(0,532.02)" d="M60,0h227.16666666666663" style="stroke: rgb(68, 68, 68); stroke-opacity: 1; stroke-width: 1px;"/>
      </g>
      <path class="xlines-below"/>
      <path class="ylines-below"/>
      <g class="overlines-below"/>
      <g class="xaxislayer-below"/>
      <g class="yaxislayer-below"/>
      <g class="overaxes-below"/>
      <g class="plot" transform="translate(60,326.97999999999996)" clip-path="url(#clipe913c7xy2plot)">
        <g class="scatterlayer mlayer">
          <g class="trace scatter tracee856d1" style="stroke-miterlimit: 2;">
            <g class="fills">
              <g>
                <path class="js-fill" d="M227.17,205.04L0,205.04L0,201.12L22.72,201.12L45.43,199.7L68.15,196.49L90.87,197.58L113.58,171.61L136.3,185.11L159.02,186.52L181.73,195.46L204.45,202.92L227.17,200.8" style="fill: rgb(148, 184, 184); fill-opacity: 1; stroke-width: 0;"/>
              </g>
            </g>
            <g class="errorbars"/>
            <g class="lines">
              <path class="js-line" d="M0,201.12L22.72,201.12L45.43,199.7L68.15,196.49L90.87,197.58L113.58,171.61L136.3,185.11L159.02,186.52L181.73,195.46L204.45,202.92L227.17,200.8" style="vector-effect: non-scaling-stroke; fill: none; stroke: rgb(148, 184, 184); stroke-opacity: 1; stroke-width: 0px; opacity: 1;"/>
            </g>
            <g class="points"/>
            <g class="text"/>
          </g>
        </g>
      </g>
      <g class="overplot"/>
      <path class="xlines-above crisp" d="M0,0" style="fill: none;"/>
      <path class="ylines-above crisp" d="M0,0" style="fill: none;"/>
      <g class="overlines-above"/>
      <g class="xaxislayer-above"/>
      <g class="yaxislayer-above">
        <g class="y2tick">
          <text text-anchor="end" x="59" y="4.199999999999999" transform="translate(0,532.02)" style="font-family: 'Open Sans', verdana, arial, sans-serif; font-size: 12px; fill: rgb(68, 68, 68); fill-opacity: 1; white-space: pre; opacity: 1;">0</text>
        </g>
        <g class="y2tick">
          <text text-anchor="end" x="59" y="4.199999999999999" style="font-family: 'Open Sans', verdana, arial, sans-serif; font-size: 12px; fill: rgb(68, 68, 68); fill-opacity: 1; white-space: pre; opacity: 1;" transform="translate(0,454.93999999999994)">50</text>
        </g>
        <g class="y2tick">
          <text text-anchor="end" x="59" y="4.199999999999999" style="font-family: 'Open Sans', verdana, arial, sans-serif; font-size: 12px; fill: rgb(68, 68, 68); fill-opacity: 1; white-space: pre; opacity: 1;" transform="translate(0,377.84999999999997)">100</text>
        </g>
      </g>
      <g class="overaxes-above"/>
    </g>
    <g class="subplot xy3">
      <g class="layer-subplot">
        <g class="shapelayer"/>
        <g class="imagelayer"/>
      </g>
      <g class="gridlayer">
        <g class="x">
          <path class="xgrid crisp" transform="translate(82.72,0)" d="M0,559.98v219.02" style="stroke: rgb(238, 238, 238); stroke-opacity: 1; stroke-width: 1px;"/>
          <path class="xgrid crisp" transform="translate(105.43,0)" d="M0,559.98v219.02" style="stroke: rgb(238, 238, 238); stroke-opacity: 1; stroke-width: 1px;"/>
          <path class="xgrid crisp" transform="translate(128.15,0)" d="M0,559.98v219.02" style="stroke: rgb(238, 238, 238); stroke-opacity: 1; stroke-width: 1px;"/>
          <path class="xgrid crisp" transform="translate(150.87,0)" d="M0,559.98v219.02" style="stroke: rgb(238, 238, 238); stroke-opacity: 1; stroke-width: 1px;"/>
          <path class="xgrid crisp" transform="translate(173.57999999999998,0)" d="M0,559.98v219.02" style="stroke: rgb(238, 238, 238); stroke-opacity: 1; stroke-width: 1px;"/>
          <path class="xgrid crisp" transform="translate(196.3,0)" d="M0,559.98v219.02" style="stroke: rgb(238, 238, 238); stroke-opacity: 1; stroke-width: 1px;"/>
          <path class="xgrid crisp" transform="translate(219.02,0)" d="M0,559.98v219.02" style="stroke: rgb(238, 238, 238); stroke-opacity: 1; stroke-width: 1px;"/>
          <path class="xgrid crisp" transform="translate(241.73,0)" d="M0,559.98v219.02" style="stroke: rgb(238, 238, 238); stroke-opacity: 1; stroke-width: 1px;"/>
          <path class="xgrid crisp" transform="translate(264.45,0)" d="M0,559.98v219.02" style="stroke: rgb(238, 238, 238); stroke-opacity: 1; stroke-width: 1px;"/>
        </g>
        <g class="y3">
          <path class="y3grid crisp" transform="translate(0,696.6600000000001)" d="M60,0h227.16666666666663" style="stroke: rgb(238, 238, 238); stroke-opacity: 1; stroke-width: 1px;"/>
          <path class="y3grid crisp" transform="translate(0,614.32)" d="M60,0h227.16666666666663" style="stroke: rgb(238, 238, 238); stroke-opacity: 1; stroke-width: 1px;"/>
        </g>
      </g>
      <g class="zerolinelayer">
        <path class="y3zl zl crisp" transform="translate(0,779)" d="M60,0h227.16666666666663" style="stroke: rgb(68, 68, 68); stroke-opacity: 1; stroke-width: 1px;"/>
      </g>
      <path class="xlines-below"/>
      <path class="ylines-below"/>
      <g class="overlines-below"/>
      <g class="xaxislayer-below"/>
      <g class="yaxislayer-below"/>
      <g class="overaxes-below"/>
      <g class="plot" transform="translate(60,559.98)" clip-path="url(#clipe913c7xy3plot)">
        <g class="scatterlayer mlayer">
          <g class="trace scatter tracee5c6c5" style="stroke-miterlimit: 2;">
            <g class="fills">
              <g>
                <path class="js-fill" d="M227.17,219.02L0,219.02L0,218.26L22.72,213.32L45.43,217.51L68.15,207.62L90.87,179.8L113.58,105.01L136.3,154.05L159.02,75.36L181.73,17.25L204.45,133.31L227.17,138.94" style="fill: rgb(63, 123, 23); fill-opacity: 1; stroke-width: 0;"/>
              </g>
            </g>
            <g class="errorbars"/>
            <g class="lines">
              <path class="js-line" d="M0,218.26L22.72,213.32L45.43,217.51L68.15,207.62L90.87,179.8L113.58,105.01L136.3,154.05L159.02,75.36L181.73,17.25L204.45,133.31L227.17,138.94" style="vector-effect: non-scaling-stroke; fill: none; stroke: rgb(63, 123, 23); stroke-opacity: 1; stroke-width: 0px; opacity: 1;"/>
            </g>
            <g class="points"/>
            <g class="text"/>
          </g>
        </g>
      </g>
      <g class="overplot"/>
      <path class="xlines-above crisp" d="" style="fill: none; stroke-width: 1px; stroke: rgb(0, 0, 0); stroke-opacity: 0;"/>
      <path class="ylines-above crisp" d="M0,0" style="fill: none;"/>
      <g class="overlines-above"/>
      <g class="xaxislayer-above">
        <path class="xtick ticks crisp" d="M0,780v15" transform="translate(60,0)" style="stroke: rgb(238, 238, 238); stroke-opacity: 1; stroke-width: 1px;"/>
        <path class="xtick ticks crisp" d="M0,780v15" transform="translate(82.72,0)" style="stroke: rgb(238, 238, 238); stroke-opacity: 1; stroke-width: 1px;"/>
        <path class="xtick ticks crisp" d="M0,780v15" transform="translate(105.43,0)" style="stroke: rgb(238, 238, 238); stroke-opacity: 1; stroke-width: 1px;"/>
        <path class="xtick ticks crisp" d="M0,780v15" transform="translate(128.15,0)" style="stroke: rgb(238, 238, 238); stroke-opacity: 1; stroke-width: 1px;"/>
        <path class="xtick ticks crisp" d="M0,780v15" transform="translate(150.87,0)" style="stroke: rgb(238, 238, 238); stroke-opacity: 1; stroke-width: 1px;"/>
        <path class="xtick ticks crisp" d="M0,780v15" transform="translate(173.57999999999998,0)" style="stroke: rgb(238, 238, 238); stroke-opacity: 1; stroke-width: 1px;"/>
        <path class="xtick ticks crisp" d="M0,780v15" transform="translate(196.3,0)" style="stroke: rgb(238, 238, 238); stroke-opacity: 1; stroke-width: 1px;"/>
        <path class="xtick ticks crisp" d="M0,780v15" transform="translate(219.02,0)" style="stroke: rgb(238, 238, 238); stroke-opacity: 1; stroke-width: 1px;"/>
        <path class="xtick ticks crisp" d="M0,780v15" transform="translate(241.73,0)" style="stroke: rgb(238, 238, 238); stroke-opacity: 1; stroke-width: 1px;"/>
        <path class="xtick ticks crisp" d="M0,780v15" transform="translate(264.45,0)" style="stroke: rgb(238, 238, 238); stroke-opacity: 1; stroke-width: 1px;"/>
        <path class="xtick ticks crisp" d="M0,780v15" transform="translate(287.16999999999996,0)" style="stroke: rgb(238, 238, 238); stroke-opacity: 1; stroke-width: 1px;"/>
        <g class="xtick">
          <text text-anchor="start" x="0" y="809.4" transform="translate(60,0) rotate(90,0,803.4)" style="font-family: 'Open Sans', verdana, arial, sans-serif; font-size: 12px; fill: rgb(68, 68, 68); fill-opacity: 1; white-space: pre; opacity: 1;">0 (ganz links)</text>
        </g>
        <g class="xtick">
          <text text-anchor="start" x="0" y="809.4" transform="translate(82.72,0) rotate(90,0,803.4)" style="font-family: 'Open Sans', verdana, arial, sans-serif; font-size: 12px; fill: rgb(68, 68, 68); fill-opacity: 1; white-space: pre; opacity: 1;">1</text>
        </g>
        <g class="xtick">
          <text text-anchor="start" x="0" y="809.4" transform="translate(105.43,0) rotate(90,0,803.4)" style="font-family: 'Open Sans', verdana, arial, sans-serif; font-size: 12px; fill: rgb(68, 68, 68); fill-opacity: 1; white-space: pre; opacity: 1;">2</text>
        </g>
        <g class="xtick">
          <text text-anchor="start" x="0" y="809.4" transform="translate(128.15,0) rotate(90,0,803.4)" style="font-family: 'Open Sans', verdana, arial, sans-serif; font-size: 12px; fill: rgb(68, 68, 68); fill-opacity: 1; white-space: pre; opacity: 1;">3</text>
        </g>
        <g class="xtick">
          <text text-anchor="start" x="0" y="809.4" transform="translate(150.87,0) rotate(90,0,803.4)" style="font-family: 'Open Sans', verdana, arial, sans-serif; font-size: 12px; fill: rgb(68, 68, 68); fill-opacity: 1; white-space: pre; opacity: 1;">4</text>
        </g>
        <g class="xtick">
          <text text-anchor="start" x="0" y="809.4" transform="translate(173.57999999999998,0) rotate(90,0,803.4)" style="font-family: 'Open Sans', verdana, arial, sans-serif; font-size: 12px; fill: rgb(68, 68, 68); fill-opacity: 1; white-space: pre; opacity: 1;">5 (Mitte)</text>
        </g>
        <g class="xtick">
          <text text-anchor="start" x="0" y="809.4" transform="translate(196.3,0) rotate(90,0,803.4)" style="font-family: 'Open Sans', verdana, arial, sans-serif; font-size: 12px; fill: rgb(68, 68, 68); fill-opacity: 1; white-space: pre; opacity: 1;">6</text>
        </g>
        <g class="xtick">
          <text text-anchor="start" x="0" y="809.4" transform="translate(219.02,0) rotate(90,0,803.4)" style="font-family: 'Open Sans', verdana, arial, sans-serif; font-size: 12px; fill: rgb(68, 68, 68); fill-opacity: 1; white-space: pre; opacity: 1;">7</text>
        </g>
        <g class="xtick">
          <text text-anchor="start" x="0" y="809.4" transform="translate(241.73,0) rotate(90,0,803.4)" style="font-family: 'Open Sans', verdana, arial, sans-serif; font-size: 12px; fill: rgb(68, 68, 68); fill-opacity: 1; white-space: pre; opacity: 1;">8</text>
        </g>
        <g class="xtick">
          <text text-anchor="start" x="0" y="809.4" transform="translate(264.45,0) rotate(90,0,803.4)" style="font-family: 'Open Sans', verdana, arial, sans-serif; font-size: 12px; fill: rgb(68, 68, 68); fill-opacity: 1; white-space: pre; opacity: 1;">9</text>
        </g>
        <g class="xtick">
          <text text-anchor="start" x="0" y="809.4" transform="translate(287.16999999999996,0) rotate(90,0,803.4)" style="font-family: 'Open Sans', verdana, arial, sans-serif; font-size: 12px; fill: rgb(68, 68, 68); fill-opacity: 1; white-space: pre; opacity: 1;">10 (ganz rechts)</text>
        </g>
      </g>
      <g class="yaxislayer-above">
        <g class="y3tick">
          <text text-anchor="end" x="59" y="4.199999999999999" transform="translate(0,779)" style="font-family: 'Open Sans', verdana, arial, sans-serif; font-size: 12px; fill: rgb(68, 68, 68); fill-opacity: 1; white-space: pre; opacity: 1;">0</text>
        </g>
        <g class="y3tick">
          <text text-anchor="end" x="59" y="4.199999999999999" style="font-family: 'Open Sans', verdana, arial, sans-serif; font-size: 12px; fill: rgb(68, 68, 68); fill-opacity: 1; white-space: pre; opacity: 1;" transform="translate(0,696.6600000000001)">50</text>
        </g>
        <g class="y3tick">
          <text text-anchor="end" x="59" y="4.199999999999999" style="font-family: 'Open Sans', verdana, arial, sans-serif; font-size: 12px; fill: rgb(68, 68, 68); fill-opacity: 1; white-space: pre; opacity: 1;" transform="translate(0,614.32)">100</text>
        </g>
      </g>
      <g class="overaxes-above"/>
    </g>
    <g class="subplot x2y">
      <g class="layer-subplot">
        <g class="shapelayer"/>
        <g class="imagelayer"/>
      </g>
      <g class="gridlayer">
        <g class="x2">
          <path class="x2grid crisp" transform="translate(337.43666666666667,0)" d="M0,80v219.01999999999992" style="stroke: rgb(238, 238, 238); stroke-opacity: 1; stroke-width: 1px;"/>
          <path class="x2grid crisp" transform="translate(358.6966666666667,0)" d="M0,80v219.01999999999992" style="stroke: rgb(238, 238, 238); stroke-opacity: 1; stroke-width: 1px;"/>
          <path class="x2grid crisp" transform="translate(379.9666666666667,0)" d="M0,80v219.01999999999992" style="stroke: rgb(238, 238, 238); stroke-opacity: 1; stroke-width: 1px;"/>
          <path class="x2grid crisp" transform="translate(401.2366666666667,0)" d="M0,80v219.01999999999992" style="stroke: rgb(238, 238, 238); stroke-opacity: 1; stroke-width: 1px;"/>
          <path class="x2grid crisp" transform="translate(422.49666666666667,0)" d="M0,80v219.01999999999992" style="stroke: rgb(238, 238, 238); stroke-opacity: 1; stroke-width: 1px;"/>
          <path class="x2grid crisp" transform="translate(443.76666666666665,0)" d="M0,80v219.01999999999992" style="stroke: rgb(238, 238, 238); stroke-opacity: 1; stroke-width: 1px;"/>
          <path class="x2grid crisp" transform="translate(465.0366666666667,0)" d="M0,80v219.01999999999992" style="stroke: rgb(238, 238, 238); stroke-opacity: 1; stroke-width: 1px;"/>
          <path class="x2grid crisp" transform="translate(486.2966666666667,0)" d="M0,80v219.01999999999992" style="stroke: rgb(238, 238, 238); stroke-opacity: 1; stroke-width: 1px;"/>
          <path class="x2grid crisp" transform="translate(507.5666666666667,0)" d="M0,80v219.01999999999992" style="stroke: rgb(238, 238, 238); stroke-opacity: 1; stroke-width: 1px;"/>
        </g>
        <g class="y">
          <path class="ygrid crisp" transform="translate(0,216.68)" d="M316.1666666666667,0h212.66666666666663" style="stroke: rgb(238, 238, 238); stroke-opacity: 1; stroke-width: 1px;"/>
          <path class="ygrid crisp" transform="translate(0,134.34)" d="M316.1666666666667,0h212.66666666666663" style="stroke: rgb(238, 238, 238); stroke-opacity: 1; stroke-width: 1px;"/>
        </g>
      </g>
      <g class="zerolinelayer">
        <path class="yzl zl crisp" transform="translate(0,299.02)" d="M316.1666666666667,0h212.66666666666663" style="stroke: rgb(68, 68, 68); stroke-opacity: 1; stroke-width: 1px;"/>
      </g>
      <path class="xlines-below"/>
      <path class="ylines-below"/>
      <g class="overlines-below"/>
      <g class="xaxislayer-below"/>
      <g class="yaxislayer-below"/>
      <g class="overaxes-below"/>
      <g class="plot" transform="translate(316.1666666666667,80)" clip-path="url(#clipe913c7x2yplot)">
        <g class="scatterlayer mlayer">
          <g class="trace scatter tracea6b4b8" style="stroke-miterlimit: 2;">
            <g class="fills">
              <g>
                <path class="js-fill" d="M212.67,219.02L0,219.02L0,216L21.27,209.54L42.53,192.44L63.8,200.07L85.07,208.79L106.33,213.32L127.6,213.32L148.87,219.02L170.13,213.32L191.4,219.02L212.67,218.26" style="fill: rgb(132, 180, 20); fill-opacity: 1; stroke-width: 0;"/>
              </g>
            </g>
            <g class="errorbars"/>
            <g class="lines">
              <path class="js-line" d="M0,216L21.27,209.54L42.53,192.44L63.8,200.07L85.07,208.79L106.33,213.32L127.6,213.32L148.87,219.02L170.13,213.32L191.4,219.02L212.67,218.26" style="vector-effect: non-scaling-stroke; fill: none; stroke: rgb(132, 180, 20); stroke-opacity: 1; stroke-width: 0px; opacity: 1;"/>
            </g>
            <g class="points"/>
            <g class="text"/>
          </g>
        </g>
      </g>
      <g class="overplot"/>
      <path class="xlines-above crisp" d="M0,0" style="fill: none;"/>
      <path class="ylines-above crisp" d="M0,0" style="fill: none;"/>
      <g class="overlines-above"/>
      <g class="xaxislayer-above"/>
      <g class="yaxislayer-above"/>
      <g class="overaxes-above"/>
    </g>
    <g class="subplot x2y2">
      <g class="layer-subplot">
        <g class="shapelayer"/>
        <g class="imagelayer"/>
      </g>
      <g class="gridlayer">
        <g class="x2">
          <path class="x2grid crisp" transform="translate(337.43666666666667,0)" d="M0,326.97999999999996v205.04" style="stroke: rgb(238, 238, 238); stroke-opacity: 1; stroke-width: 1px;"/>
          <path class="x2grid crisp" transform="translate(358.6966666666667,0)" d="M0,326.97999999999996v205.04" style="stroke: rgb(238, 238, 238); stroke-opacity: 1; stroke-width: 1px;"/>
          <path class="x2grid crisp" transform="translate(379.9666666666667,0)" d="M0,326.97999999999996v205.04" style="stroke: rgb(238, 238, 238); stroke-opacity: 1; stroke-width: 1px;"/>
          <path class="x2grid crisp" transform="translate(401.2366666666667,0)" d="M0,326.97999999999996v205.04" style="stroke: rgb(238, 238, 238); stroke-opacity: 1; stroke-width: 1px;"/>
          <path class="x2grid crisp" transform="translate(422.49666666666667,0)" d="M0,326.97999999999996v205.04" style="stroke: rgb(238, 238, 238); stroke-opacity: 1; stroke-width: 1px;"/>
          <path class="x2grid crisp" transform="translate(443.76666666666665,0)" d="M0,326.97999999999996v205.04" style="stroke: rgb(238, 238, 238); stroke-opacity: 1; stroke-width: 1px;"/>
          <path class="x2grid crisp" transform="translate(465.0366666666667,0)" d="M0,326.97999999999996v205.04" style="stroke: rgb(238, 238, 238); stroke-opacity: 1; stroke-width: 1px;"/>
          <path class="x2grid crisp" transform="translate(486.2966666666667,0)" d="M0,326.97999999999996v205.04" style="stroke: rgb(238, 238, 238); stroke-opacity: 1; stroke-width: 1px;"/>
          <path class="x2grid crisp" transform="translate(507.5666666666667,0)" d="M0,326.97999999999996v205.04" style="stroke: rgb(238, 238, 238); stroke-opacity: 1; stroke-width: 1px;"/>
        </g>
        <g class="y2">
          <path class="y2grid crisp" transform="translate(0,454.93999999999994)" d="M316.1666666666667,0h212.66666666666663" style="stroke: rgb(238, 238, 238); stroke-opacity: 1; stroke-width: 1px;"/>
          <path class="y2grid crisp" transform="translate(0,377.84999999999997)" d="M316.1666666666667,0h212.66666666666663" style="stroke: rgb(238, 238, 238); stroke-opacity: 1; stroke-width: 1px;"/>
        </g>
      </g>
      <g class="zerolinelayer">
        <path class="y2zl zl crisp" transform="translate(0,532.02)" d="M316.1666666666667,0h212.66666666666663" style="stroke: rgb(68, 68, 68); stroke-opacity: 1; stroke-width: 1px;"/>
      </g>
      <path class="xlines-below"/>
      <path class="ylines-below"/>
      <g class="overlines-below"/>
      <g class="xaxislayer-below"/>
      <g class="yaxislayer-below"/>
      <g class="overaxes-below"/>
      <g class="plot" transform="translate(316.1666666666667,326.97999999999996)" clip-path="url(#clipe913c7x2y2plot)">
        <g class="scatterlayer mlayer">
          <g class="trace scatter trace145f07" style="stroke-miterlimit: 2;">
            <g class="fills">
              <g>
                <path class="js-fill" d="M212.67,205.04L0,205.04L0,205.04L21.27,205.04L42.53,196.49L63.8,191.93L85.07,178.74L106.33,117.67L127.6,165.24L148.87,179.45L170.13,195.46L191.4,198.29L212.67,205.04" style="fill: rgb(255, 133, 12); fill-opacity: 1; stroke-width: 0;"/>
              </g>
            </g>
            <g class="errorbars"/>
            <g class="lines">
              <path class="js-line" d="M0,205.04L21.27,205.04L42.53,196.49L63.8,191.93L85.07,178.74L106.33,117.67L127.6,165.24L148.87,179.45L170.13,195.46L191.4,198.29L212.67,205.04" style="vector-effect: non-scaling-stroke; fill: none; stroke: rgb(255, 133, 12); stroke-opacity: 1; stroke-width: 0px; opacity: 1;"/>
            </g>
            <g class="points"/>
            <g class="text"/>
          </g>
        </g>
      </g>
      <g class="overplot"/>
      <path class="xlines-above crisp" d="M0,0" style="fill: none;"/>
      <path class="ylines-above crisp" d="M0,0" style="fill: none;"/>
      <g class="overlines-above"/>
      <g class="xaxislayer-above"/>
      <g class="yaxislayer-above"/>
      <g class="overaxes-above"/>
    </g>
    <g class="subplot x2y3">
      <g class="layer-subplot">
        <g class="shapelayer"/>
        <g class="imagelayer"/>
      </g>
      <g class="gridlayer">
        <g class="x2">
          <path class="x2grid crisp" transform="translate(337.43666666666667,0)" d="M0,559.98v219.02" style="stroke: rgb(238, 238, 238); stroke-opacity: 1; stroke-width: 1px;"/>
          <path class="x2grid crisp" transform="translate(358.6966666666667,0)" d="M0,559.98v219.02" style="stroke: rgb(238, 238, 238); stroke-opacity: 1; stroke-width: 1px;"/>
          <path class="x2grid crisp" transform="translate(379.9666666666667,0)" d="M0,559.98v219.02" style="stroke: rgb(238, 238, 238); stroke-opacity: 1; stroke-width: 1px;"/>
          <path class="x2grid crisp" transform="translate(401.2366666666667,0)" d="M0,559.98v219.02" style="stroke: rgb(238, 238, 238); stroke-opacity: 1; stroke-width: 1px;"/>
          <path class="x2grid crisp" transform="translate(422.49666666666667,0)" d="M0,559.98v219.02" style="stroke: rgb(238, 238, 238); stroke-opacity: 1; stroke-width: 1px;"/>
          <path class="x2grid crisp" transform="translate(443.76666666666665,0)" d="M0,559.98v219.02" style="stroke: rgb(238, 238, 238); stroke-opacity: 1; stroke-width: 1px;"/>
          <path class="x2grid crisp" transform="translate(465.0366666666667,0)" d="M0,559.98v219.02" style="stroke: rgb(238, 238, 238); stroke-opacity: 1; stroke-width: 1px;"/>
          <path class="x2grid crisp" transform="translate(486.2966666666667,0)" d="M0,559.98v219.02" style="stroke: rgb(238, 238, 238); stroke-opacity: 1; stroke-width: 1px;"/>
          <path class="x2grid crisp" transform="translate(507.5666666666667,0)" d="M0,559.98v219.02" style="stroke: rgb(238, 238, 238); stroke-opacity: 1; stroke-width: 1px;"/>
        </g>
        <g class="y3">
          <path class="y3grid crisp" transform="translate(0,696.6600000000001)" d="M316.1666666666667,0h212.66666666666663" style="stroke: rgb(238, 238, 238); stroke-opacity: 1; stroke-width: 1px;"/>
          <path class="y3grid crisp" transform="translate(0,614.32)" d="M316.1666666666667,0h212.66666666666663" style="stroke: rgb(238, 238, 238); stroke-opacity: 1; stroke-width: 1px;"/>
        </g>
      </g>
      <g class="zerolinelayer">
        <path class="y3zl zl crisp" transform="translate(0,779)" d="M316.1666666666667,0h212.66666666666663" style="stroke: rgb(68, 68, 68); stroke-opacity: 1; stroke-width: 1px;"/>
      </g>
      <path class="xlines-below"/>
      <path class="ylines-below"/>
      <g class="overlines-below"/>
      <g class="xaxislayer-below"/>
      <g class="yaxislayer-below"/>
      <g class="overaxes-below"/>
      <g class="plot" transform="translate(316.1666666666667,559.98)" clip-path="url(#clipe913c7x2y3plot)">
        <g class="scatterlayer mlayer">
          <g class="trace scatter trace00f8bf" style="stroke-miterlimit: 2;">
            <g class="fills">
              <g>
                <path class="js-fill" d="M212.67,219.02L0,219.02L0,212.56L21.27,219.02L42.53,192.03L63.8,186.81L85.07,149.52L106.33,67.03L127.6,166.2L148.87,147.59L170.13,187.91L191.4,216.75L212.67,213.32" style="fill: rgb(166, 166, 166); fill-opacity: 1; stroke-width: 0;"/>
              </g>
            </g>
            <g class="errorbars"/>
            <g class="lines">
              <path class="js-line" d="M0,212.56L21.27,219.02L42.53,192.03L63.8,186.81L85.07,149.52L106.33,67.03L127.6,166.2L148.87,147.59L170.13,187.91L191.4,216.75L212.67,213.32" style="vector-effect: non-scaling-stroke; fill: none; stroke: rgb(166, 166, 166); stroke-opacity: 1; stroke-width: 0px; opacity: 1;"/>
            </g>
            <g class="points"/>
            <g class="text"/>
          </g>
        </g>
      </g>
      <g class="overplot"/>
      <path class="xlines-above crisp" d="" style="fill: none; stroke-width: 1px; stroke: rgb(0, 0, 0); stroke-opacity: 0;"/>
      <path class="ylines-above crisp" d="M0,0" style="fill: none;"/>
      <g class="overlines-above"/>
      <g class="xaxislayer-above">
        <path class="x2tick ticks crisp" d="M0,780v15" transform="translate(316.1666666666667,0)" style="stroke: rgb(238, 238, 238); stroke-opacity: 1; stroke-width: 1px;"/>
        <path class="x2tick ticks crisp" d="M0,780v15" transform="translate(337.43666666666667,0)" style="stroke: rgb(238, 238, 238); stroke-opacity: 1; stroke-width: 1px;"/>
        <path class="x2tick ticks crisp" d="M0,780v15" transform="translate(358.6966666666667,0)" style="stroke: rgb(238, 238, 238); stroke-opacity: 1; stroke-width: 1px;"/>
        <path class="x2tick ticks crisp" d="M0,780v15" transform="translate(379.9666666666667,0)" style="stroke: rgb(238, 238, 238); stroke-opacity: 1; stroke-width: 1px;"/>
        <path class="x2tick ticks crisp" d="M0,780v15" transform="translate(401.2366666666667,0)" style="stroke: rgb(238, 238, 238); stroke-opacity: 1; stroke-width: 1px;"/>
        <path class="x2tick ticks crisp" d="M0,780v15" transform="translate(422.49666666666667,0)" style="stroke: rgb(238, 238, 238); stroke-opacity: 1; stroke-width: 1px;"/>
        <path class="x2tick ticks crisp" d="M0,780v15" transform="translate(443.76666666666665,0)" style="stroke: rgb(238, 238, 238); stroke-opacity: 1; stroke-width: 1px;"/>
        <path class="x2tick ticks crisp" d="M0,780v15" transform="translate(465.0366666666667,0)" style="stroke: rgb(238, 238, 238); stroke-opacity: 1; stroke-width: 1px;"/>
        <path class="x2tick ticks crisp" d="M0,780v15" transform="translate(486.2966666666667,0)" style="stroke: rgb(238, 238, 238); stroke-opacity: 1; stroke-width: 1px;"/>
        <path class="x2tick ticks crisp" d="M0,780v15" transform="translate(507.5666666666667,0)" style="stroke: rgb(238, 238, 238); stroke-opacity: 1; stroke-width: 1px;"/>
        <path class="x2tick ticks crisp" d="M0,780v15" transform="translate(528.8366666666667,0)" style="stroke: rgb(238, 238, 238); stroke-opacity: 1; stroke-width: 1px;"/>
        <g class="x2tick">
          <text text-anchor="start" x="0" y="809.4" transform="translate(316.1666666666667,0) rotate(90,0,803.4)" style="font-family: 'Open Sans', verdana, arial, sans-serif; font-size: 12px; fill: rgb(68, 68, 68); fill-opacity: 1; white-space: pre; opacity: 1;">0 (ganz links)</text>
        </g>
        <g class="x2tick">
          <text text-anchor="start" x="0" y="809.4" transform="translate(337.43666666666667,0) rotate(90,0,803.4)" style="font-family: 'Open Sans', verdana, arial, sans-serif; font-size: 12px; fill: rgb(68, 68, 68); fill-opacity: 1; white-space: pre; opacity: 1;">1</text>
        </g>
        <g class="x2tick">
          <text text-anchor="start" x="0" y="809.4" transform="translate(358.6966666666667,0) rotate(90,0,803.4)" style="font-family: 'Open Sans', verdana, arial, sans-serif; font-size: 12px; fill: rgb(68, 68, 68); fill-opacity: 1; white-space: pre; opacity: 1;">2</text>
        </g>
        <g class="x2tick">
          <text text-anchor="start" x="0" y="809.4" transform="translate(379.9666666666667,0) rotate(90,0,803.4)" style="font-family: 'Open Sans', verdana, arial, sans-serif; font-size: 12px; fill: rgb(68, 68, 68); fill-opacity: 1; white-space: pre; opacity: 1;">3</text>
        </g>
        <g class="x2tick">
          <text text-anchor="start" x="0" y="809.4" transform="translate(401.2366666666667,0) rotate(90,0,803.4)" style="font-family: 'Open Sans', verdana, arial, sans-serif; font-size: 12px; fill: rgb(68, 68, 68); fill-opacity: 1; white-space: pre; opacity: 1;">4</text>
        </g>
        <g class="x2tick">
          <text text-anchor="start" x="0" y="809.4" transform="translate(422.49666666666667,0) rotate(90,0,803.4)" style="font-family: 'Open Sans', verdana, arial, sans-serif; font-size: 12px; fill: rgb(68, 68, 68); fill-opacity: 1; white-space: pre; opacity: 1;">5 (Mitte)</text>
        </g>
        <g class="x2tick">
          <text text-anchor="start" x="0" y="809.4" transform="translate(443.76666666666665,0) rotate(90,0,803.4)" style="font-family: 'Open Sans', verdana, arial, sans-serif; font-size: 12px; fill: rgb(68, 68, 68); fill-opacity: 1; white-space: pre; opacity: 1;">6</text>
        </g>
        <g class="x2tick">
          <text text-anchor="start" x="0" y="809.4" transform="translate(465.0366666666667,0) rotate(90,0,803.4)" style="font-family: 'Open Sans', verdana, arial, sans-serif; font-size: 12px; fill: rgb(68, 68, 68); fill-opacity: 1; white-space: pre; opacity: 1;">7</text>
        </g>
        <g class="x2tick">
          <text text-anchor="start" x="0" y="809.4" transform="translate(486.2966666666667,0) rotate(90,0,803.4)" style="font-family: 'Open Sans', verdana, arial, sans-serif; font-size: 12px; fill: rgb(68, 68, 68); fill-opacity: 1; white-space: pre; opacity: 1;">8</text>
        </g>
        <g class="x2tick">
          <text text-anchor="start" x="0" y="809.4" transform="translate(507.5666666666667,0) rotate(90,0,803.4)" style="font-family: 'Open Sans', verdana, arial, sans-serif; font-size: 12px; fill: rgb(68, 68, 68); fill-opacity: 1; white-space: pre; opacity: 1;">9</text>
        </g>
        <g class="x2tick">
          <text text-anchor="start" x="0" y="809.4" transform="translate(528.8366666666667,0) rotate(90,0,803.4)" style="font-family: 'Open Sans', verdana, arial, sans-serif; font-size: 12px; fill: rgb(68, 68, 68); fill-opacity: 1; white-space: pre; opacity: 1;">10 (ganz rechts)</text>
        </g>
      </g>
      <g class="yaxislayer-above"/>
      <g class="overaxes-above"/>
    </g>
    <g class="subplot x3y">
      <g class="layer-subplot">
        <g class="shapelayer"/>
        <g class="imagelayer"/>
      </g>
      <g class="gridlayer">
        <g class="x3">
          <path class="x3grid crisp" transform="translate(580.5533333333333,0)" d="M0,80v219.01999999999992" style="stroke: rgb(238, 238, 238); stroke-opacity: 1; stroke-width: 1px;"/>
          <path class="x3grid crisp" transform="translate(603.2633333333332,0)" d="M0,80v219.01999999999992" style="stroke: rgb(238, 238, 238); stroke-opacity: 1; stroke-width: 1px;"/>
          <path class="x3grid crisp" transform="translate(625.9833333333332,0)" d="M0,80v219.01999999999992" style="stroke: rgb(238, 238, 238); stroke-opacity: 1; stroke-width: 1px;"/>
          <path class="x3grid crisp" transform="translate(648.7033333333333,0)" d="M0,80v219.01999999999992" style="stroke: rgb(238, 238, 238); stroke-opacity: 1; stroke-width: 1px;"/>
          <path class="x3grid crisp" transform="translate(671.4133333333333,0)" d="M0,80v219.01999999999992" style="stroke: rgb(238, 238, 238); stroke-opacity: 1; stroke-width: 1px;"/>
          <path class="x3grid crisp" transform="translate(694.1333333333332,0)" d="M0,80v219.01999999999992" style="stroke: rgb(238, 238, 238); stroke-opacity: 1; stroke-width: 1px;"/>
          <path class="x3grid crisp" transform="translate(716.8533333333332,0)" d="M0,80v219.01999999999992" style="stroke: rgb(238, 238, 238); stroke-opacity: 1; stroke-width: 1px;"/>
          <path class="x3grid crisp" transform="translate(739.5633333333333,0)" d="M0,80v219.01999999999992" style="stroke: rgb(238, 238, 238); stroke-opacity: 1; stroke-width: 1px;"/>
          <path class="x3grid crisp" transform="translate(762.2833333333333,0)" d="M0,80v219.01999999999992" style="stroke: rgb(238, 238, 238); stroke-opacity: 1; stroke-width: 1px;"/>
        </g>
        <g class="y">
          <path class="ygrid crisp" transform="translate(0,216.68)" d="M557.8333333333333,0h227.16666666666669" style="stroke: rgb(238, 238, 238); stroke-opacity: 1; stroke-width: 1px;"/>
          <path class="ygrid crisp" transform="translate(0,134.34)" d="M557.8333333333333,0h227.16666666666669" style="stroke: rgb(238, 238, 238); stroke-opacity: 1; stroke-width: 1px;"/>
        </g>
      </g>
      <g class="zerolinelayer">
        <path class="yzl zl crisp" transform="translate(0,299.02)" d="M557.8333333333333,0h227.16666666666669" style="stroke: rgb(68, 68, 68); stroke-opacity: 1; stroke-width: 1px;"/>
      </g>
      <path class="xlines-below"/>
      <path class="ylines-below"/>
      <g class="overlines-below"/>
      <g class="xaxislayer-below"/>
      <g class="yaxislayer-below"/>
      <g class="overaxes-below"/>
      <g class="plot" transform="translate(557.8333333333333,80)" clip-path="url(#clipe913c7x3yplot)">
        <g class="scatterlayer mlayer">
          <g class="trace scatter traceb575f3" style="stroke-miterlimit: 2;">
            <g class="fills">
              <g>
                <path class="js-fill" d="M227.17,219.02L0,219.02L0,219.02L22.72,218.26L45.43,208.79L68.15,166.28L90.87,172.8L113.58,191.42L136.3,199.31L159.02,211.05L181.73,217.51L204.45,219.02L227.17,218.26" style="fill: rgb(195, 217, 63); fill-opacity: 1; stroke-width: 0;"/>
              </g>
            </g>
            <g class="errorbars"/>
            <g class="lines">
              <path class="js-line" d="M0,219.02L22.72,218.26L45.43,208.79L68.15,166.28L90.87,172.8L113.58,191.42L136.3,199.31L159.02,211.05L181.73,217.51L204.45,219.02L227.17,218.26" style="vector-effect: non-scaling-stroke; fill: none; stroke: rgb(195, 217, 63); stroke-opacity: 1; stroke-width: 0px; opacity: 1;"/>
            </g>
            <g class="points"/>
            <g class="text"/>
          </g>
        </g>
      </g>
      <g class="overplot"/>
      <path class="xlines-above crisp" d="M0,0" style="fill: none;"/>
      <path class="ylines-above crisp" d="M0,0" style="fill: none;"/>
      <g class="overlines-above"/>
      <g class="xaxislayer-above"/>
      <g class="yaxislayer-above"/>
      <g class="overaxes-above"/>
    </g>
    <g class="subplot x3y2">
      <g class="layer-subplot">
        <g class="shapelayer"/>
        <g class="imagelayer"/>
      </g>
      <g class="gridlayer">
        <g class="x3">
          <path class="x3grid crisp" transform="translate(580.5533333333333,0)" d="M0,326.97999999999996v205.04" style="stroke: rgb(238, 238, 238); stroke-opacity: 1; stroke-width: 1px;"/>
          <path class="x3grid crisp" transform="translate(603.2633333333332,0)" d="M0,326.97999999999996v205.04" style="stroke: rgb(238, 238, 238); stroke-opacity: 1; stroke-width: 1px;"/>
          <path class="x3grid crisp" transform="translate(625.9833333333332,0)" d="M0,326.97999999999996v205.04" style="stroke: rgb(238, 238, 238); stroke-opacity: 1; stroke-width: 1px;"/>
          <path class="x3grid crisp" transform="translate(648.7033333333333,0)" d="M0,326.97999999999996v205.04" style="stroke: rgb(238, 238, 238); stroke-opacity: 1; stroke-width: 1px;"/>
          <path class="x3grid crisp" transform="translate(671.4133333333333,0)" d="M0,326.97999999999996v205.04" style="stroke: rgb(238, 238, 238); stroke-opacity: 1; stroke-width: 1px;"/>
          <path class="x3grid crisp" transform="translate(694.1333333333332,0)" d="M0,326.97999999999996v205.04" style="stroke: rgb(238, 238, 238); stroke-opacity: 1; stroke-width: 1px;"/>
          <path class="x3grid crisp" transform="translate(716.8533333333332,0)" d="M0,326.97999999999996v205.04" style="stroke: rgb(238, 238, 238); stroke-opacity: 1; stroke-width: 1px;"/>
          <path class="x3grid crisp" transform="translate(739.5633333333333,0)" d="M0,326.97999999999996v205.04" style="stroke: rgb(238, 238, 238); stroke-opacity: 1; stroke-width: 1px;"/>
          <path class="x3grid crisp" transform="translate(762.2833333333333,0)" d="M0,326.97999999999996v205.04" style="stroke: rgb(238, 238, 238); stroke-opacity: 1; stroke-width: 1px;"/>
        </g>
        <g class="y2">
          <path class="y2grid crisp" transform="translate(0,454.93999999999994)" d="M557.8333333333333,0h227.16666666666669" style="stroke: rgb(238, 238, 238); stroke-opacity: 1; stroke-width: 1px;"/>
          <path class="y2grid crisp" transform="translate(0,377.84999999999997)" d="M557.8333333333333,0h227.16666666666669" style="stroke: rgb(238, 238, 238); stroke-opacity: 1; stroke-width: 1px;"/>
        </g>
      </g>
      <g class="zerolinelayer">
        <path class="y2zl zl crisp" transform="translate(0,532.02)" d="M557.8333333333333,0h227.16666666666669" style="stroke: rgb(68, 68, 68); stroke-opacity: 1; stroke-width: 1px;"/>
      </g>
      <path class="xlines-below"/>
      <path class="ylines-below"/>
      <g class="overlines-below"/>
      <g class="xaxislayer-below"/>
      <g class="yaxislayer-below"/>
      <g class="overaxes-below"/>
      <g class="plot" transform="translate(557.8333333333333,326.97999999999996)" clip-path="url(#clipe913c7x3y2plot)">
        <g class="scatterlayer mlayer">
          <g class="trace scatter trace2faa32" style="stroke-miterlimit: 2;">
            <g class="fills">
              <g>
                <path class="js-fill" d="M227.17,205.04L0,205.04L0,205.04L45.43,204.33L68.15,194.37L90.87,200.09L113.58,168.14L159.02,150.46L181.73,173.15L204.45,202.21L227.17,204.33" style="fill: rgb(16, 79, 160); fill-opacity: 1; stroke-width: 0;"/>
              </g>
            </g>
            <g class="errorbars"/>
            <g class="lines">
              <path class="js-line" d="M0,205.04L45.43,204.33L68.15,194.37L90.87,200.09L113.58,168.14L159.02,150.46L181.73,173.15L204.45,202.21L227.17,204.33" style="vector-effect: non-scaling-stroke; fill: none; stroke: rgb(16, 79, 160); stroke-opacity: 1; stroke-width: 0px; opacity: 1;"/>
            </g>
            <g class="points"/>
            <g class="text"/>
          </g>
        </g>
      </g>
      <g class="overplot"/>
      <path class="xlines-above crisp" d="" style="fill: none; stroke-width: 1px; stroke: rgb(0, 0, 0); stroke-opacity: 0;"/>
      <path class="ylines-above crisp" d="M0,0" style="fill: none;"/>
      <g class="overlines-above"/>
      <g class="xaxislayer-above">
        <path class="x3tick ticks crisp" d="M0,533.02v15" transform="translate(557.8333333333333,0)" style="stroke: rgb(238, 238, 238); stroke-opacity: 1; stroke-width: 1px;"/>
        <path class="x3tick ticks crisp" d="M0,533.02v15" transform="translate(580.5533333333333,0)" style="stroke: rgb(238, 238, 238); stroke-opacity: 1; stroke-width: 1px;"/>
        <path class="x3tick ticks crisp" d="M0,533.02v15" transform="translate(603.2633333333332,0)" style="stroke: rgb(238, 238, 238); stroke-opacity: 1; stroke-width: 1px;"/>
        <path class="x3tick ticks crisp" d="M0,533.02v15" transform="translate(625.9833333333332,0)" style="stroke: rgb(238, 238, 238); stroke-opacity: 1; stroke-width: 1px;"/>
        <path class="x3tick ticks crisp" d="M0,533.02v15" transform="translate(648.7033333333333,0)" style="stroke: rgb(238, 238, 238); stroke-opacity: 1; stroke-width: 1px;"/>
        <path class="x3tick ticks crisp" d="M0,533.02v15" transform="translate(671.4133333333333,0)" style="stroke: rgb(238, 238, 238); stroke-opacity: 1; stroke-width: 1px;"/>
        <path class="x3tick ticks crisp" d="M0,533.02v15" transform="translate(694.1333333333332,0)" style="stroke: rgb(238, 238, 238); stroke-opacity: 1; stroke-width: 1px;"/>
        <path class="x3tick ticks crisp" d="M0,533.02v15" transform="translate(716.8533333333332,0)" style="stroke: rgb(238, 238, 238); stroke-opacity: 1; stroke-width: 1px;"/>
        <path class="x3tick ticks crisp" d="M0,533.02v15" transform="translate(739.5633333333333,0)" style="stroke: rgb(238, 238, 238); stroke-opacity: 1; stroke-width: 1px;"/>
        <path class="x3tick ticks crisp" d="M0,533.02v15" transform="translate(762.2833333333333,0)" style="stroke: rgb(238, 238, 238); stroke-opacity: 1; stroke-width: 1px;"/>
        <path class="x3tick ticks crisp" d="M0,533.02v15" transform="translate(785.0033333333332,0)" style="stroke: rgb(238, 238, 238); stroke-opacity: 1; stroke-width: 1px;"/>
        <g class="x3tick">
          <text text-anchor="start" x="0" y="562.42" transform="translate(557.8333333333333,0) rotate(90,0,556.42)" style="font-family: 'Open Sans', verdana, arial, sans-serif; font-size: 12px; fill: rgb(68, 68, 68); fill-opacity: 1; white-space: pre; opacity: 1;">0 (ganz links)</text>
        </g>
        <g class="x3tick">
          <text text-anchor="start" x="0" y="562.42" transform="translate(580.5533333333333,0) rotate(90,0,556.42)" style="font-family: 'Open Sans', verdana, arial, sans-serif; font-size: 12px; fill: rgb(68, 68, 68); fill-opacity: 1; white-space: pre; opacity: 1;">1</text>
        </g>
        <g class="x3tick">
          <text text-anchor="start" x="0" y="562.42" transform="translate(603.2633333333332,0) rotate(90,0,556.42)" style="font-family: 'Open Sans', verdana, arial, sans-serif; font-size: 12px; fill: rgb(68, 68, 68); fill-opacity: 1; white-space: pre; opacity: 1;">2</text>
        </g>
        <g class="x3tick">
          <text text-anchor="start" x="0" y="562.42" transform="translate(625.9833333333332,0) rotate(90,0,556.42)" style="font-family: 'Open Sans', verdana, arial, sans-serif; font-size: 12px; fill: rgb(68, 68, 68); fill-opacity: 1; white-space: pre; opacity: 1;">3</text>
        </g>
        <g class="x3tick">
          <text text-anchor="start" x="0" y="562.42" transform="translate(648.7033333333333,0) rotate(90,0,556.42)" style="font-family: 'Open Sans', verdana, arial, sans-serif; font-size: 12px; fill: rgb(68, 68, 68); fill-opacity: 1; white-space: pre; opacity: 1;">4</text>
        </g>
        <g class="x3tick">
          <text text-anchor="start" x="0" y="562.42" transform="translate(671.4133333333333,0) rotate(90,0,556.42)" style="font-family: 'Open Sans', verdana, arial, sans-serif; font-size: 12px; fill: rgb(68, 68, 68); fill-opacity: 1; white-space: pre; opacity: 1;">5 (Mitte)</text>
        </g>
        <g class="x3tick">
          <text text-anchor="start" x="0" y="562.42" transform="translate(694.1333333333332,0) rotate(90,0,556.42)" style="font-family: 'Open Sans', verdana, arial, sans-serif; font-size: 12px; fill: rgb(68, 68, 68); fill-opacity: 1; white-space: pre; opacity: 1;">6</text>
        </g>
        <g class="x3tick">
          <text text-anchor="start" x="0" y="562.42" transform="translate(716.8533333333332,0) rotate(90,0,556.42)" style="font-family: 'Open Sans', verdana, arial, sans-serif; font-size: 12px; fill: rgb(68, 68, 68); fill-opacity: 1; white-space: pre; opacity: 1;">7</text>
        </g>
        <g class="x3tick">
          <text text-anchor="start" x="0" y="562.42" transform="translate(739.5633333333333,0) rotate(90,0,556.42)" style="font-family: 'Open Sans', verdana, arial, sans-serif; font-size: 12px; fill: rgb(68, 68, 68); fill-opacity: 1; white-space: pre; opacity: 1;">8</text>
        </g>
        <g class="x3tick">
          <text text-anchor="start" x="0" y="562.42" transform="translate(762.2833333333333,0) rotate(90,0,556.42)" style="font-family: 'Open Sans', verdana, arial, sans-serif; font-size: 12px; fill: rgb(68, 68, 68); fill-opacity: 1; white-space: pre; opacity: 1;">9</text>
        </g>
        <g class="x3tick">
          <text text-anchor="start" x="0" y="562.42" transform="translate(785.0033333333332,0) rotate(90,0,556.42)" style="font-family: 'Open Sans', verdana, arial, sans-serif; font-size: 12px; fill: rgb(68, 68, 68); fill-opacity: 1; white-space: pre; opacity: 1;">10 (ganz rechts)</text>
        </g>
      </g>
      <g class="yaxislayer-above"/>
      <g class="overaxes-above"/>
    </g>
  </g>
  <g class="polarlayer"/>
  <g class="smithlayer"/>
  <g class="ternarylayer"/>
  <g class="geolayer"/>
  <g class="funnelarealayer"/>
  <g class="pielayer"/>
  <g class="iciclelayer"/>
  <g class="treemaplayer"/>
  <g class="sunburstlayer"/>
  <g class="glimages"/>
  <defs id="topdefs-e913c7">
    <g class="clips"/>
    <clipPath id="legende913c7">
      <rect width="595" height="48" x="0" y="0"/>
    </clipPath>
  </defs>
  <g class="layer-above">
    <g class="imagelayer"/>
    <g class="shapelayer"/>
  </g>
  <g class="infolayer">
    <g class="legend" pointer-events="all" transform="translate(60,10.099999999999937)">
      <rect class="bg" shape-rendering="crispEdges" style="stroke: rgb(68, 68, 68); stroke-opacity: 1; fill: rgb(255, 255, 255); fill-opacity: 1; stroke-width: 0px;" width="595" height="48" x="0" y="0"/>
      <g class="scrollbox" transform="" clip-path="url(#legende913c7)">
        <g class="groups">
          <g class="traces" transform="translate(0,14.5)" style="opacity: 1;">
            <text class="legendtext" text-anchor="start" x="40" y="4.680000000000001" style="font-family: 'Open Sans', verdana, arial, sans-serif; font-size: 12px; fill: rgb(68, 68, 68); fill-opacity: 1; white-space: pre;">SP / JUSO</text>
            <g class="layers">
              <g class="legendfill">
                <path class="js-fill" d="M5,-2h30v6h-30z" style="stroke-width: 0; fill: rgb(238, 42, 59); fill-opacity: 1;"/>
              </g>
              <g class="legendlines">
                <path class="js-line" d="M5,-2h30" style="fill: none; stroke: rgb(238, 42, 59); stroke-opacity: 1; stroke-width: 0px;"/>
              </g>
              <g class="legendsymbols">
                <g class="legendpoints"/>
              </g>
            </g>
            <rect class="legendtoggle" x="0" y="-9.5" width="100.296875" height="19" style="fill: rgb(0, 0, 0); fill-opacity: 0;"/>
          </g>
          <g class="traces" transform="translate(159.84375,14.5)" style="opacity: 1;">
            <text class="legendtext" text-anchor="start" x="40" y="4.680000000000001" style="font-family: 'Open Sans', verdana, arial, sans-serif; font-size: 12px; fill: rgb(68, 68, 68); fill-opacity: 1; white-space: pre;">Grüne / Junge Grüne</text>
            <g class="layers">
              <g class="legendfill">
                <path class="js-fill" d="M5,-2h30v6h-30z" style="stroke-width: 0; fill: rgb(132, 180, 20); fill-opacity: 1;"/>
              </g>
              <g class="legendlines">
                <path class="js-line" d="M5,-2h30" style="fill: none; stroke: rgb(132, 180, 20); stroke-opacity: 1; stroke-width: 0px;"/>
              </g>
              <g class="legendsymbols">
                <g class="legendpoints"/>
              </g>
            </g>
            <rect class="legendtoggle" x="0" y="-9.5" width="155.5625" height="19" style="fill: rgb(0, 0, 0); fill-opacity: 0;"/>
          </g>
          <g class="traces" transform="translate(319.6875,14.5)" style="opacity: 1;">
            <text class="legendtext" text-anchor="start" x="40" y="4.680000000000001" style="font-family: 'Open Sans', verdana, arial, sans-serif; font-size: 12px; fill: rgb(68, 68, 68); fill-opacity: 1; white-space: pre;">GLP</text>
            <g class="layers">
              <g class="legendfill">
                <path class="js-fill" d="M5,-2h30v6h-30z" style="stroke-width: 0; fill: rgb(195, 217, 63); fill-opacity: 1;"/>
              </g>
              <g class="legendlines">
                <path class="js-line" d="M5,-2h30" style="fill: none; stroke: rgb(195, 217, 63); stroke-opacity: 1; stroke-width: 0px;"/>
              </g>
              <g class="legendsymbols">
                <g class="legendpoints"/>
              </g>
            </g>
            <rect class="legendtoggle" x="0" y="-9.5" width="66.515625" height="19" style="fill: rgb(0, 0, 0); fill-opacity: 0;"/>
          </g>
          <g class="traces" transform="translate(479.53125,14.5)" style="opacity: 1;">
            <text class="legendtext" text-anchor="start" x="40" y="4.680000000000001" style="font-family: 'Open Sans', verdana, arial, sans-serif; font-size: 12px; fill: rgb(68, 68, 68); fill-opacity: 1; white-space: pre;">Kleinparteien</text>
            <g class="layers">
              <g class="legendfill">
                <path class="js-fill" d="M5,-2h30v6h-30z" style="stroke-width: 0; fill: rgb(148, 184, 184); fill-opacity: 1;"/>
              </g>
              <g class="legendlines">
                <path class="js-line" d="M5,-2h30" style="fill: none; stroke: rgb(148, 184, 184); stroke-opacity: 1; stroke-width: 0px;"/>
              </g>
              <g class="legendsymbols">
                <g class="legendpoints"/>
              </g>
            </g>
            <rect class="legendtoggle" x="0" y="-9.5" width="112.5625" height="19" style="fill: rgb(0, 0, 0); fill-opacity: 0;"/>
          </g>
          <g class="traces" transform="translate(0,33.5)" style="opacity: 1;">
            <text class="legendtext" text-anchor="start" x="40" y="4.680000000000001" style="font-family: 'Open Sans', verdana, arial, sans-serif; font-size: 12px; fill: rgb(68, 68, 68); fill-opacity: 1; white-space: pre;">Mitte</text>
            <g class="layers">
              <g class="legendfill">
                <path class="js-fill" d="M5,-2h30v6h-30z" style="stroke-width: 0; fill: rgb(255, 133, 12); fill-opacity: 1;"/>
              </g>
              <g class="legendlines">
                <path class="js-line" d="M5,-2h30" style="fill: none; stroke: rgb(255, 133, 12); stroke-opacity: 1; stroke-width: 0px;"/>
              </g>
              <g class="legendsymbols">
                <g class="legendpoints"/>
              </g>
            </g>
            <rect class="legendtoggle" x="0" y="-9.5" width="68.84375" height="19" style="fill: rgb(0, 0, 0); fill-opacity: 0;"/>
          </g>
          <g class="traces" transform="translate(159.84375,33.5)" style="opacity: 1;">
            <text class="legendtext" text-anchor="start" x="40" y="4.680000000000001" style="font-family: 'Open Sans', verdana, arial, sans-serif; font-size: 12px; fill: rgb(68, 68, 68); fill-opacity: 1; white-space: pre;">FDP / Jungfreisinnige</text>
            <g class="layers">
              <g class="legendfill">
                <path class="js-fill" d="M5,-2h30v6h-30z" style="stroke-width: 0; fill: rgb(16, 79, 160); fill-opacity: 1;"/>
              </g>
              <g class="legendlines">
                <path class="js-line" d="M5,-2h30" style="fill: none; stroke: rgb(16, 79, 160); stroke-opacity: 1; stroke-width: 0px;"/>
              </g>
              <g class="legendsymbols">
                <g class="legendpoints"/>
              </g>
            </g>
            <rect class="legendtoggle" x="0" y="-9.5" width="157.34375" height="19" style="fill: rgb(0, 0, 0); fill-opacity: 0;"/>
          </g>
          <g class="traces" transform="translate(319.6875,33.5)" style="opacity: 1;">
            <text class="legendtext" text-anchor="start" x="40" y="4.680000000000001" style="font-family: 'Open Sans', verdana, arial, sans-serif; font-size: 12px; fill: rgb(68, 68, 68); fill-opacity: 1; white-space: pre;">SVP</text>
            <g class="layers">
              <g class="legendfill">
                <path class="js-fill" d="M5,-2h30v6h-30z" style="stroke-width: 0; fill: rgb(63, 123, 23); fill-opacity: 1;"/>
              </g>
              <g class="legendlines">
                <path class="js-line" d="M5,-2h30" style="fill: none; stroke: rgb(63, 123, 23); stroke-opacity: 1; stroke-width: 0px;"/>
              </g>
              <g class="legendsymbols">
                <g class="legendpoints"/>
              </g>
            </g>
            <rect class="legendtoggle" x="0" y="-9.5" width="66.515625" height="19" style="fill: rgb(0, 0, 0); fill-opacity: 0;"/>
          </g>
          <g class="traces" transform="translate(479.53125,33.5)" style="opacity: 1;">
            <text class="legendtext" text-anchor="start" x="40" y="4.680000000000001" style="font-family: 'Open Sans', verdana, arial, sans-serif; font-size: 12px; fill: rgb(68, 68, 68); fill-opacity: 1; white-space: pre;">keine</text>
            <g class="layers">
              <g class="legendfill">
                <path class="js-fill" d="M5,-2h30v6h-30z" style="stroke-width: 0; fill: rgb(166, 166, 166); fill-opacity: 1;"/>
              </g>
              <g class="legendlines">
                <path class="js-line" d="M5,-2h30" style="fill: none; stroke: rgb(166, 166, 166); stroke-opacity: 1; stroke-width: 0px;"/>
              </g>
              <g class="legendsymbols">
                <g class="legendpoints"/>
              </g>
            </g>
            <rect class="legendtoggle" x="0" y="-9.5" width="71.515625" height="19" style="fill: rgb(0, 0, 0); fill-opacity: 0;"/>
          </g>
        </g>
      </g>
      <rect class="scrollbar" rx="20" ry="3" width="0" height="0" style="fill: rgb(128, 139, 164); fill-opacity: 1;" x="0" y="0"/>
    </g>
    <g class="g-gtitle"/>
    <g class="g-xtitle"/>
    <g class="g-x2title"/>
    <g class="g-x3title"/>
    <g class="g-ytitle"/>
    <g class="g-y2title">
      <text class="y2title" transform="rotate(-90,22,429.49999999999994)" x="22" y="429.49999999999994" text-anchor="middle" style="font-family: 'Open Sans', verdana, arial, sans-serif; font-size: 14px; fill: rgb(68, 68, 68); opacity: 1; font-weight: normal; white-space: pre;">Anzahl Respondent:innen</text>
    </g>
    <g class="g-y3title"/>
  </g>
</svg>
