<svg xmlns="http://www.w3.org/2000/svg" xmlns:xlink="http://www.w3.org/1999/xlink" class="main-svg" width="100%" height="100%" style="" viewBox="1 1 799 579">
  <rect x="0" y="0" width="800" height="580" style="fill: rgb(255, 255, 255); fill-opacity: 1;"/>
  <defs id="defs-4f3500">
    <g class="clips">
      <clipPath id="clip4f3500xyplot" class="plotclip">
        <rect width="598" height="486"/>
      </clipPath>
      <clipPath class="axesclip" id="clip4f3500x">
        <rect x="202" y="0" width="598" height="580"/>
      </clipPath>
      <clipPath class="axesclip" id="clip4f3500y">
        <rect x="0" y="0" width="800" height="486"/>
      </clipPath>
      <clipPath class="axesclip" id="clip4f3500xy">
        <rect x="202" y="0" width="598" height="486"/>
      </clipPath>
    </g>
    <g class="gradients"/>
    <g class="patterns"/>
  </defs>
  <g class="bglayer"/>
  <g class="layer-below">
    <g class="imagelayer"/>
    <g class="shapelayer"/>
  </g>
  <g class="cartesianlayer">
    <g class="subplot xy">
      <g class="layer-subplot">
        <g class="shapelayer"/>
        <g class="imagelayer"/>
      </g>
      <g class="gridlayer">
        <g class="x">
          <path class="xgrid crisp" transform="translate(315.62,0)" d="M0,0v486" style="stroke: rgb(238, 238, 238); stroke-opacity: 1; stroke-width: 1px;"/>
          <path class="xgrid crisp" transform="translate(429.24,0)" d="M0,0v486" style="stroke: rgb(238, 238, 238); stroke-opacity: 1; stroke-width: 1px;"/>
          <path class="xgrid crisp" transform="translate(542.86,0)" d="M0,0v486" style="stroke: rgb(238, 238, 238); stroke-opacity: 1; stroke-width: 1px;"/>
          <path class="xgrid crisp" transform="translate(656.48,0)" d="M0,0v486" style="stroke: rgb(238, 238, 238); stroke-opacity: 1; stroke-width: 1px;"/>
          <path class="xgrid crisp" transform="translate(770.1,0)" d="M0,0v486" style="stroke: rgb(238, 238, 238); stroke-opacity: 1; stroke-width: 1px;"/>
        </g>
        <g class="y"/>
      </g>
      <g class="zerolinelayer">
        <path class="xzl zl crisp" transform="translate(202,0)" d="M0,0v486" style="stroke: rgb(68, 68, 68); stroke-opacity: 1; stroke-width: 1px;"/>
      </g>
      <path class="xlines-below"/>
      <path class="ylines-below"/>
      <g class="overlines-below"/>
      <g class="xaxislayer-below"/>
      <g class="yaxislayer-below"/>
      <g class="overaxes-below"/>
      <g class="plot" transform="translate(202,0)" clip-path="url(#clip4f3500xyplot)">
        <g class="barlayer mlayer">
          <g class="trace bars" shape-rendering="crispEdges" style="opacity: 1;">
            <g class="points">
              <g class="point">
                <path d="M0,480.6V437.4H63.24V480.6Z" style="vector-effect: non-scaling-stroke; opacity: 1; stroke-width: 1px; fill: rgb(36, 139, 204); fill-opacity: 1; stroke: rgb(255, 255, 255); stroke-opacity: 1;"/>
                <text class="bartext bartext-inside" text-anchor="middle" data-notex="1" x="0" y="0" style="font-family: 'Alegreya Sans', sans-serif; font-size: 12px; fill: rgb(255, 255, 255); fill-opacity: 1; white-space: pre;" transform="translate(50.33375,455.1953125)">
                  <tspan class="line" dy="0em" x="0" y="0">
                    <tspan style="font-weight:bold">11 %</tspan>
                  </tspan>
                  <tspan class="line" dy="1.3em" x="0" y="0">(59)</tspan>
                </text>
              </g>
              <g class="point">
                <path d="M0,426.6V383.4H136.13V426.6Z" style="vector-effect: non-scaling-stroke; opacity: 1; stroke-width: 1px; fill: rgb(36, 139, 204); fill-opacity: 1; stroke: rgb(255, 255, 255); stroke-opacity: 1;"/>
                <text class="bartext bartext-inside" text-anchor="middle" data-notex="1" x="0" y="0" style="font-family: 'Alegreya Sans', sans-serif; font-size: 12px; fill: rgb(255, 255, 255); fill-opacity: 1; white-space: pre;" transform="translate(121.708125,401.1953125)">
                  <tspan class="line" dy="0em" x="0" y="0">
                    <tspan style="font-weight:bold">24 %</tspan>
                  </tspan>
                  <tspan class="line" dy="1.3em" x="0" y="0">(127)</tspan>
                </text>
              </g>
              <g class="point">
                <path d="M0,372.6V329.4H172.57V372.6Z" style="vector-effect: non-scaling-stroke; opacity: 1; stroke-width: 1px; fill: rgb(36, 139, 204); fill-opacity: 1; stroke: rgb(255, 255, 255); stroke-opacity: 1;"/>
                <text class="bartext bartext-inside" text-anchor="middle" data-notex="1" x="0" y="0" style="font-family: 'Alegreya Sans', sans-serif; font-size: 12px; fill: rgb(255, 255, 255); fill-opacity: 1; white-space: pre;" transform="translate(158.273125,347.1953125)">
                  <tspan class="line" dy="0em" x="0" y="0">
                    <tspan style="font-weight:bold">30 %</tspan>
                  </tspan>
                  <tspan class="line" dy="1.3em" x="0" y="0">(161)</tspan>
                </text>
              </g>
              <g class="point">
                <path d="M0,318.6V275.4H227.24V318.6Z" style="vector-effect: non-scaling-stroke; opacity: 1; stroke-width: 1px; fill: rgb(36, 139, 204); fill-opacity: 1; stroke: rgb(255, 255, 255); stroke-opacity: 1;"/>
                <text class="bartext bartext-inside" text-anchor="middle" data-notex="1" x="0" y="0" style="font-family: 'Alegreya Sans', sans-serif; font-size: 12px; fill: rgb(255, 255, 255); fill-opacity: 1; white-space: pre;" transform="translate(212.505625,293.1953125)">
                  <tspan class="line" dy="0em" x="0" y="0">
                    <tspan style="font-weight:bold">40 %</tspan>
                  </tspan>
                  <tspan class="line" dy="1.3em" x="0" y="0">(212)</tspan>
                </text>
              </g>
              <g class="point">
                <path d="M0,264.6V221.4H234.74V264.6Z" style="vector-effect: non-scaling-stroke; opacity: 1; stroke-width: 1px; fill: rgb(36, 139, 204); fill-opacity: 1; stroke: rgb(255, 255, 255); stroke-opacity: 1;"/>
                <text class="bartext bartext-inside" text-anchor="middle" data-notex="1" x="0" y="0" style="font-family: 'Alegreya Sans', sans-serif; font-size: 12px; fill: rgb(255, 255, 255); fill-opacity: 1; white-space: pre;" transform="translate(220.5525,239.1953125)">
                  <tspan class="line" dy="0em" x="0" y="0">
                    <tspan style="font-weight:bold">41 %</tspan>
                  </tspan>
                  <tspan class="line" dy="1.3em" x="0" y="0">(219)</tspan>
                </text>
              </g>
              <g class="point">
                <path d="M0,210.6V167.4H239.03V210.6Z" style="vector-effect: non-scaling-stroke; opacity: 1; stroke-width: 1px; fill: rgb(36, 139, 204); fill-opacity: 1; stroke: rgb(255, 255, 255); stroke-opacity: 1;"/>
                <text class="bartext bartext-inside" text-anchor="middle" data-notex="1" x="0" y="0" style="font-family: 'Alegreya Sans', sans-serif; font-size: 12px; fill: rgb(255, 255, 255); fill-opacity: 1; white-space: pre;" transform="translate(224.53,185.1953125)">
                  <tspan class="line" dy="0em" x="0" y="0">
                    <tspan style="font-weight:bold">42 %</tspan>
                  </tspan>
                  <tspan class="line" dy="1.3em" x="0" y="0">(223)</tspan>
                </text>
              </g>
              <g class="point">
                <path d="M0,156.6V113.4H255.11V156.6Z" style="vector-effect: non-scaling-stroke; opacity: 1; stroke-width: 1px; fill: rgb(36, 139, 204); fill-opacity: 1; stroke: rgb(255, 255, 255); stroke-opacity: 1;"/>
                <text class="bartext bartext-inside" text-anchor="middle" data-notex="1" x="0" y="0" style="font-family: 'Alegreya Sans', sans-serif; font-size: 12px; fill: rgb(255, 255, 255); fill-opacity: 1; white-space: pre;" transform="translate(240.485,131.1953125)">
                  <tspan class="line" dy="0em" x="0" y="0">
                    <tspan style="font-weight:bold">45 %</tspan>
                  </tspan>
                  <tspan class="line" dy="1.3em" x="0" y="0">(238)</tspan>
                </text>
              </g>
              <g class="point">
                <path d="M0,102.6V59.4H258.32V102.6Z" style="vector-effect: non-scaling-stroke; opacity: 1; stroke-width: 1px; fill: rgb(36, 139, 204); fill-opacity: 1; stroke: rgb(255, 255, 255); stroke-opacity: 1;"/>
                <text class="bartext bartext-inside" text-anchor="middle" data-notex="1" x="0" y="0" style="font-family: 'Alegreya Sans', sans-serif; font-size: 12px; fill: rgb(255, 255, 255); fill-opacity: 1; white-space: pre;" transform="translate(244.07,77.1953125)">
                  <tspan class="line" dy="0em" x="0" y="0">
                    <tspan style="font-weight:bold">45 %</tspan>
                  </tspan>
                  <tspan class="line" dy="1.3em" x="0" y="0">(241)</tspan>
                </text>
              </g>
              <g class="point">
                <path d="M0,48.6V5.4H281.91V48.6Z" style="vector-effect: non-scaling-stroke; opacity: 1; stroke-width: 1px; fill: rgb(36, 139, 204); fill-opacity: 1; stroke: rgb(255, 255, 255); stroke-opacity: 1;"/>
                <text class="bartext bartext-inside" text-anchor="middle" data-notex="1" x="0" y="0" style="font-family: 'Alegreya Sans', sans-serif; font-size: 12px; fill: rgb(255, 255, 255); fill-opacity: 1; white-space: pre;" transform="translate(267.31625,23.1953125)">
                  <tspan class="line" dy="0em" x="0" y="0">
                    <tspan style="font-weight:bold">50 %</tspan>
                  </tspan>
                  <tspan class="line" dy="1.3em" x="0" y="0">(263)</tspan>
                </text>
              </g>
            </g>
          </g>
          <g class="trace bars" shape-rendering="crispEdges" style="opacity: 1;">
            <g class="points">
              <g class="point">
                <path d="M281.91,48.6V5.4H479.13V48.6Z" style="vector-effect: non-scaling-stroke; opacity: 1; stroke-width: 1px; fill: rgb(36, 139, 204); fill-opacity: 0.502; stroke: rgb(255, 255, 255); stroke-opacity: 1;"/>
                <text class="bartext bartext-inside" text-anchor="middle" data-notex="1" x="0" y="0" style="font-family: 'Alegreya Sans', sans-serif; font-size: 12px; fill: rgb(255, 255, 255); fill-opacity: 1; white-space: pre;" transform="translate(464.770625,23.1953125)">
                  <tspan class="line" dy="0em" x="0" y="0">
                    <tspan style="font-weight:bold">35 %</tspan>
                  </tspan>
                  <tspan class="line" dy="1.3em" x="0" y="0">(184)</tspan>
                </text>
              </g>
              <g class="point">
                <path d="M258.32,102.6V59.4H503.79V102.6Z" style="vector-effect: non-scaling-stroke; opacity: 1; stroke-width: 1px; fill: rgb(36, 139, 204); fill-opacity: 0.502; stroke: rgb(255, 255, 255); stroke-opacity: 1;"/>
                <text class="bartext bartext-inside" text-anchor="middle" data-notex="1" x="0" y="0" style="font-family: 'Alegreya Sans', sans-serif; font-size: 12px; fill: rgb(255, 255, 255); fill-opacity: 1; white-space: pre;" transform="translate(488.930625,77.1953125)">
                  <tspan class="line" dy="0em" x="0" y="0">
                    <tspan style="font-weight:bold">43 %</tspan>
                  </tspan>
                  <tspan class="line" dy="1.3em" x="0" y="0">(229)</tspan>
                </text>
              </g>
              <g class="point">
                <path d="M255.11,156.6V113.4H516.65V156.6Z" style="vector-effect: non-scaling-stroke; opacity: 1; stroke-width: 1px; fill: rgb(36, 139, 204); fill-opacity: 0.502; stroke: rgb(255, 255, 255); stroke-opacity: 1;"/>
                <text class="bartext bartext-inside" text-anchor="middle" data-notex="1" x="0" y="0" style="font-family: 'Alegreya Sans', sans-serif; font-size: 12px; fill: rgb(255, 255, 255); fill-opacity: 1; white-space: pre;" transform="translate(501.571875,131.1953125)">
                  <tspan class="line" dy="0em" x="0" y="0">
                    <tspan style="font-weight:bold">46 %</tspan>
                  </tspan>
                  <tspan class="line" dy="1.3em" x="0" y="0">(244)</tspan>
                </text>
              </g>
              <g class="point">
                <path d="M234.74,264.6V221.4H505.93V264.6Z" style="vector-effect: non-scaling-stroke; opacity: 1; stroke-width: 1px; fill: rgb(36, 139, 204); fill-opacity: 0.502; stroke: rgb(255, 255, 255); stroke-opacity: 1;"/>
                <text class="bartext bartext-inside" text-anchor="middle" data-notex="1" x="0" y="0" style="font-family: 'Alegreya Sans', sans-serif; font-size: 12px; fill: rgb(255, 255, 255); fill-opacity: 1; white-space: pre;" transform="translate(491.3675,239.1953125)">
                  <tspan class="line" dy="0em" x="0" y="0">
                    <tspan style="font-weight:bold">48 %</tspan>
                  </tspan>
                  <tspan class="line" dy="1.3em" x="0" y="0">(253)</tspan>
                </text>
              </g>
              <g class="point">
                <path d="M239.03,210.6V167.4H532.73V210.6Z" style="vector-effect: non-scaling-stroke; opacity: 1; stroke-width: 1px; fill: rgb(36, 139, 204); fill-opacity: 0.502; stroke: rgb(255, 255, 255); stroke-opacity: 1;"/>
                <text class="bartext bartext-inside" text-anchor="middle" data-notex="1" x="0" y="0" style="font-family: 'Alegreya Sans', sans-serif; font-size: 12px; fill: rgb(255, 255, 255); fill-opacity: 1; white-space: pre;" transform="translate(518.0425,185.1953125)">
                  <tspan class="line" dy="0em" x="0" y="0">
                    <tspan style="font-weight:bold">52 %</tspan>
                  </tspan>
                  <tspan class="line" dy="1.3em" x="0" y="0">(274)</tspan>
                </text>
              </g>
              <g class="point">
                <path d="M227.24,318.6V275.4H524.15V318.6Z" style="vector-effect: non-scaling-stroke; opacity: 1; stroke-width: 1px; fill: rgb(36, 139, 204); fill-opacity: 0.502; stroke: rgb(255, 255, 255); stroke-opacity: 1;"/>
                <text class="bartext bartext-inside" text-anchor="middle" data-notex="1" x="0" y="0" style="font-family: 'Alegreya Sans', sans-serif; font-size: 12px; fill: rgb(255, 255, 255); fill-opacity: 1; white-space: pre;" transform="translate(509.8375,293.1953125)">
                  <tspan class="line" dy="0em" x="0" y="0">
                    <tspan style="font-weight:bold">52 %</tspan>
                  </tspan>
                  <tspan class="line" dy="1.3em" x="0" y="0">(277)</tspan>
                </text>
              </g>
              <g class="point">
                <path d="M63.24,480.6V437.4H429.83V480.6Z" style="vector-effect: non-scaling-stroke; opacity: 1; stroke-width: 1px; fill: rgb(36, 139, 204); fill-opacity: 0.502; stroke: rgb(255, 255, 255); stroke-opacity: 1;"/>
                <text class="bartext bartext-inside" text-anchor="middle" data-notex="1" x="0" y="0" style="font-family: 'Alegreya Sans', sans-serif; font-size: 12px; fill: rgb(255, 255, 255); fill-opacity: 1; white-space: pre;" transform="translate(415.17375,455.1953125)">
                  <tspan class="line" dy="0em" x="0" y="0">
                    <tspan style="font-weight:bold">65 %</tspan>
                  </tspan>
                  <tspan class="line" dy="1.3em" x="0" y="0">(342)</tspan>
                </text>
              </g>
              <g class="point">
                <path d="M172.57,372.6V329.4H550.95V372.6Z" style="vector-effect: non-scaling-stroke; opacity: 1; stroke-width: 1px; fill: rgb(36, 139, 204); fill-opacity: 0.502; stroke: rgb(255, 255, 255); stroke-opacity: 1;"/>
                <text class="bartext bartext-inside" text-anchor="middle" data-notex="1" x="0" y="0" style="font-family: 'Alegreya Sans', sans-serif; font-size: 12px; fill: rgb(255, 255, 255); fill-opacity: 1; white-space: pre;" transform="translate(536.871875,347.1953125)">
                  <tspan class="line" dy="0em" x="0" y="0">
                    <tspan style="font-weight:bold">67 %</tspan>
                  </tspan>
                  <tspan class="line" dy="1.3em" x="0" y="0">(353)</tspan>
                </text>
              </g>
              <g class="point">
                <path d="M136.13,426.6V383.4H547.73V426.6Z" style="vector-effect: non-scaling-stroke; opacity: 1; stroke-width: 1px; fill: rgb(36, 139, 204); fill-opacity: 0.502; stroke: rgb(255, 255, 255); stroke-opacity: 1;"/>
                <text class="bartext bartext-inside" text-anchor="middle" data-notex="1" x="0" y="0" style="font-family: 'Alegreya Sans', sans-serif; font-size: 12px; fill: rgb(255, 255, 255); fill-opacity: 1; white-space: pre;" transform="translate(532.94875,401.1953125)">
                  <tspan class="line" dy="0em" x="0" y="0">
                    <tspan style="font-weight:bold">72 %</tspan>
                  </tspan>
                  <tspan class="line" dy="1.3em" x="0" y="0">(384)</tspan>
                </text>
              </g>
            </g>
          </g>
          <g class="trace bars" shape-rendering="crispEdges" style="opacity: 1;">
            <g class="points">
              <g class="point">
                <path d="M550.95,372.6V329.4H568.1V372.6Z" style="vector-effect: non-scaling-stroke; opacity: 1; stroke-width: 1px; fill: rgb(172, 173, 185); fill-opacity: 1; stroke: rgb(255, 255, 255); stroke-opacity: 1;"/>
                <text class="bartext bartext-inside" text-anchor="middle" data-notex="1" x="0" y="0" style="font-family: 'Alegreya Sans', sans-serif; font-size: 12px; fill: rgb(255, 255, 255); fill-opacity: 1; white-space: pre;" transform="translate(559.525,348.49073475046214)scale(0.6595194085027714)">
                  <tspan class="line" dy="0em" x="0" y="0">
                    <tspan style="font-weight:bold">3 %</tspan>
                  </tspan>
                  <tspan class="line" dy="1.3em" x="0" y="0">(16)</tspan>
                </text>
              </g>
              <g class="point">
                <path d="M547.73,426.6V383.4H568.1V426.6Z" style="vector-effect: non-scaling-stroke; opacity: 1; stroke-width: 1px; fill: rgb(172, 173, 185); fill-opacity: 1; stroke: rgb(255, 255, 255); stroke-opacity: 1;"/>
                <text class="bartext bartext-inside" text-anchor="middle" data-notex="1" x="0" y="0" style="font-family: 'Alegreya Sans', sans-serif; font-size: 12px; fill: rgb(255, 255, 255); fill-opacity: 1; white-space: pre;" transform="translate(557.915,401.824777676951)scale(0.8345553539019966)">
                  <tspan class="line" dy="0em" x="0" y="0">
                    <tspan style="font-weight:bold">4 %</tspan>
                  </tspan>
                  <tspan class="line" dy="1.3em" x="0" y="0">(19)</tspan>
                </text>
              </g>
              <g class="point">
                <path d="M532.73,210.6V167.4H568.1V210.6Z" style="vector-effect: non-scaling-stroke; opacity: 1; stroke-width: 1px; fill: rgb(172, 173, 185); fill-opacity: 1; stroke: rgb(255, 255, 255); stroke-opacity: 1;"/>
                <text class="bartext bartext-inside" text-anchor="middle" data-notex="1" x="0" y="0" style="font-family: 'Alegreya Sans', sans-serif; font-size: 12px; fill: rgb(255, 255, 255); fill-opacity: 1; white-space: pre;" transform="translate(556.584375,185.1953125)">
                  <tspan class="line" dy="0em" x="0" y="0">
                    <tspan style="font-weight:bold">6 %</tspan>
                  </tspan>
                  <tspan class="line" dy="1.3em" x="0" y="0">(33)</tspan>
                </text>
              </g>
              <g class="point">
                <path d="M524.15,318.6V275.4H568.1V318.6Z" style="vector-effect: non-scaling-stroke; opacity: 1; stroke-width: 1px; fill: rgb(172, 173, 185); fill-opacity: 1; stroke: rgb(255, 255, 255); stroke-opacity: 1;"/>
                <text class="bartext bartext-inside" text-anchor="middle" data-notex="1" x="0" y="0" style="font-family: 'Alegreya Sans', sans-serif; font-size: 12px; fill: rgb(255, 255, 255); fill-opacity: 1; white-space: pre;" transform="translate(556.553125,293.1953125)">
                  <tspan class="line" dy="0em" x="0" y="0">
                    <tspan style="font-weight:bold">8 %</tspan>
                  </tspan>
                  <tspan class="line" dy="1.3em" x="0" y="0">(41)</tspan>
                </text>
              </g>
              <g class="point">
                <path d="M516.65,156.6V113.4H568.1V156.6Z" style="vector-effect: non-scaling-stroke; opacity: 1; stroke-width: 1px; fill: rgb(172, 173, 185); fill-opacity: 1; stroke: rgb(255, 255, 255); stroke-opacity: 1;"/>
                <text class="bartext bartext-inside" text-anchor="middle" data-notex="1" x="0" y="0" style="font-family: 'Alegreya Sans', sans-serif; font-size: 12px; fill: rgb(255, 255, 255); fill-opacity: 1; white-space: pre;" transform="translate(555.803125,131.1953125)">
                  <tspan class="line" dy="0em" x="0" y="0">
                    <tspan style="font-weight:bold">9 %</tspan>
                  </tspan>
                  <tspan class="line" dy="1.3em" x="0" y="0">(48)</tspan>
                </text>
              </g>
              <g class="point">
                <path d="M505.93,264.6V221.4H568.1V264.6Z" style="vector-effect: non-scaling-stroke; opacity: 1; stroke-width: 1px; fill: rgb(172, 173, 185); fill-opacity: 1; stroke: rgb(255, 255, 255); stroke-opacity: 1;"/>
                <text class="bartext bartext-inside" text-anchor="middle" data-notex="1" x="0" y="0" style="font-family: 'Alegreya Sans', sans-serif; font-size: 12px; fill: rgb(255, 255, 255); fill-opacity: 1; white-space: pre;" transform="translate(555.19375,239.1953125)">
                  <tspan class="line" dy="0em" x="0" y="0">
                    <tspan style="font-weight:bold">11 %</tspan>
                  </tspan>
                  <tspan class="line" dy="1.3em" x="0" y="0">(58)</tspan>
                </text>
              </g>
              <g class="point">
                <path d="M503.79,102.6V59.4H568.1V102.6Z" style="vector-effect: non-scaling-stroke; opacity: 1; stroke-width: 1px; fill: rgb(172, 173, 185); fill-opacity: 1; stroke: rgb(255, 255, 255); stroke-opacity: 1;"/>
                <text class="bartext bartext-inside" text-anchor="middle" data-notex="1" x="0" y="0" style="font-family: 'Alegreya Sans', sans-serif; font-size: 12px; fill: rgb(255, 255, 255); fill-opacity: 1; white-space: pre;" transform="translate(555.19375,77.1953125)">
                  <tspan class="line" dy="0em" x="0" y="0">
                    <tspan style="font-weight:bold">11 %</tspan>
                  </tspan>
                  <tspan class="line" dy="1.3em" x="0" y="0">(60)</tspan>
                </text>
              </g>
              <g class="point">
                <path d="M479.13,48.6V5.4H568.1V48.6Z" style="vector-effect: non-scaling-stroke; opacity: 1; stroke-width: 1px; fill: rgb(172, 173, 185); fill-opacity: 1; stroke: rgb(255, 255, 255); stroke-opacity: 1;"/>
                <text class="bartext bartext-inside" text-anchor="middle" data-notex="1" x="0" y="0" style="font-family: 'Alegreya Sans', sans-serif; font-size: 12px; fill: rgb(255, 255, 255); fill-opacity: 1; white-space: pre;" transform="translate(554.459375,23.1953125)">
                  <tspan class="line" dy="0em" x="0" y="0">
                    <tspan style="font-weight:bold">16 %</tspan>
                  </tspan>
                  <tspan class="line" dy="1.3em" x="0" y="0">(83)</tspan>
                </text>
              </g>
              <g class="point">
                <path d="M429.83,480.6V437.4H568.1V480.6Z" style="vector-effect: non-scaling-stroke; opacity: 1; stroke-width: 1px; fill: rgb(172, 173, 185); fill-opacity: 1; stroke: rgb(255, 255, 255); stroke-opacity: 1;"/>
                <text class="bartext bartext-inside" text-anchor="middle" data-notex="1" x="0" y="0" style="font-family: 'Alegreya Sans', sans-serif; font-size: 12px; fill: rgb(255, 255, 255); fill-opacity: 1; white-space: pre;" transform="translate(553.678125,455.1953125)">
                  <tspan class="line" dy="0em" x="0" y="0">
                    <tspan style="font-weight:bold">24 %</tspan>
                  </tspan>
                  <tspan class="line" dy="1.3em" x="0" y="0">(129)</tspan>
                </text>
              </g>
            </g>
          </g>
        </g>
      </g>
      <g class="overplot"/>
      <path class="xlines-above crisp" d="M0,0" style="fill: none;"/>
      <path class="ylines-above crisp" d="" style="fill: none; stroke-width: 1px; stroke: rgb(0, 0, 0); stroke-opacity: 0;"/>
      <g class="overlines-above"/>
      <g class="xaxislayer-above">
        <g class="xtick">
          <text text-anchor="middle" x="0" y="499" transform="translate(202,0)" style="font-family: 'Alegreya Sans', sans-serif; font-size: 12px; fill: rgb(0, 0, 0); fill-opacity: 1; white-space: pre; opacity: 1;">0 %</text>
        </g>
        <g class="xtick">
          <text text-anchor="middle" x="0" y="499" style="font-family: 'Alegreya Sans', sans-serif; font-size: 12px; fill: rgb(0, 0, 0); fill-opacity: 1; white-space: pre; opacity: 1;" transform="translate(315.62,0)">20 %</text>
        </g>
        <g class="xtick">
          <text text-anchor="middle" x="0" y="499" style="font-family: 'Alegreya Sans', sans-serif; font-size: 12px; fill: rgb(0, 0, 0); fill-opacity: 1; white-space: pre; opacity: 1;" transform="translate(429.24,0)">40 %</text>
        </g>
        <g class="xtick">
          <text text-anchor="middle" x="0" y="499" style="font-family: 'Alegreya Sans', sans-serif; font-size: 12px; fill: rgb(0, 0, 0); fill-opacity: 1; white-space: pre; opacity: 1;" transform="translate(542.86,0)">60 %</text>
        </g>
        <g class="xtick">
          <text text-anchor="middle" x="0" y="499" style="font-family: 'Alegreya Sans', sans-serif; font-size: 12px; fill: rgb(0, 0, 0); fill-opacity: 1; white-space: pre; opacity: 1;" transform="translate(656.48,0)">80 %</text>
        </g>
        <g class="xtick">
          <text text-anchor="middle" x="0" y="499" style="font-family: 'Alegreya Sans', sans-serif; font-size: 12px; fill: rgb(0, 0, 0); fill-opacity: 1; white-space: pre; opacity: 1;" transform="translate(770.1,0)">100 %</text>
        </g>
      </g>
      <g class="yaxislayer-above">
        <path class="ytick ticks crisp" d="M201,0h-5" transform="translate(0,459)" style="stroke: rgb(68, 68, 68); stroke-opacity: 1; stroke-width: 1px;"/>
        <path class="ytick ticks crisp" d="M201,0h-5" transform="translate(0,405)" style="stroke: rgb(68, 68, 68); stroke-opacity: 1; stroke-width: 1px;"/>
        <path class="ytick ticks crisp" d="M201,0h-5" transform="translate(0,351)" style="stroke: rgb(68, 68, 68); stroke-opacity: 1; stroke-width: 1px;"/>
        <path class="ytick ticks crisp" d="M201,0h-5" transform="translate(0,297)" style="stroke: rgb(68, 68, 68); stroke-opacity: 1; stroke-width: 1px;"/>
        <path class="ytick ticks crisp" d="M201,0h-5" transform="translate(0,243)" style="stroke: rgb(68, 68, 68); stroke-opacity: 1; stroke-width: 1px;"/>
        <path class="ytick ticks crisp" d="M201,0h-5" transform="translate(0,189)" style="stroke: rgb(68, 68, 68); stroke-opacity: 1; stroke-width: 1px;"/>
        <path class="ytick ticks crisp" d="M201,0h-5" transform="translate(0,135)" style="stroke: rgb(68, 68, 68); stroke-opacity: 1; stroke-width: 1px;"/>
        <path class="ytick ticks crisp" d="M201,0h-5" transform="translate(0,81)" style="stroke: rgb(68, 68, 68); stroke-opacity: 1; stroke-width: 1px;"/>
        <path class="ytick ticks crisp" d="M201,0h-5" transform="translate(0,27)" style="stroke: rgb(68, 68, 68); stroke-opacity: 1; stroke-width: 1px;"/>
        <g class="ytick">
          <text text-anchor="end" x="193.6" y="4.199999999999999" transform="translate(0,459)" style="font-family: 'Alegreya Sans', sans-serif; font-size: 12px; fill: rgb(0, 0, 0); fill-opacity: 1; white-space: pre; opacity: 1;">Bevorzugte Partei/Kandidat:in chancenlos</text>
        </g>
        <g class="ytick">
          <text text-anchor="end" x="193.6" y="4.199999999999999" transform="translate(0,405)" style="font-family: 'Alegreya Sans', sans-serif; font-size: 12px; fill: rgb(0, 0, 0); fill-opacity: 1; white-space: pre; opacity: 1;">Verhinderung</text>
        </g>
        <g class="ytick">
          <text text-anchor="end" x="193.6" y="4.199999999999999" transform="translate(0,351)translate(0,-7.800000000000001)" style="font-family: 'Alegreya Sans', sans-serif; font-size: 12px; fill: rgb(0, 0, 0); fill-opacity: 1; white-space: pre; opacity: 1;">
            <tspan class="line" dy="0em" x="193.6" y="4.199999999999999">Vergessen</tspan>
            <tspan class="line" dy="1.3em" x="193.6" y="4.199999999999999">teilzunehmen</tspan>
          </text>
        </g>
        <g class="ytick">
          <text text-anchor="end" x="193.6" y="4.199999999999999" transform="translate(0,297)translate(0,-7.800000000000001)" style="font-family: 'Alegreya Sans', sans-serif; font-size: 12px; fill: rgb(0, 0, 0); fill-opacity: 1; white-space: pre; opacity: 1;">
            <tspan class="line" dy="0em" x="193.6" y="4.199999999999999">Bedeutungslosigkeit</tspan>
            <tspan class="line" dy="1.3em" x="193.6" y="4.199999999999999">der eigenen Stimme</tspan>
          </text>
        </g>
        <g class="ytick">
          <text text-anchor="end" x="193.6" y="4.199999999999999" transform="translate(0,243)" style="font-family: 'Alegreya Sans', sans-serif; font-size: 12px; fill: rgb(0, 0, 0); fill-opacity: 1; white-space: pre; opacity: 1;">Wirkungslosigkeit</text>
        </g>
        <g class="ytick">
          <text text-anchor="end" x="193.6" y="4.199999999999999" transform="translate(0,189)" style="font-family: 'Alegreya Sans', sans-serif; font-size: 12px; fill: rgb(0, 0, 0); fill-opacity: 1; white-space: pre; opacity: 1;">Desinteresse</text>
        </g>
        <g class="ytick">
          <text text-anchor="end" x="193.6" y="4.199999999999999" transform="translate(0,135)" style="font-family: 'Alegreya Sans', sans-serif; font-size: 12px; fill: rgb(0, 0, 0); fill-opacity: 1; white-space: pre; opacity: 1;">Überforderung</text>
        </g>
        <g class="ytick">
          <text text-anchor="end" x="193.6" y="4.199999999999999" transform="translate(0,81)" style="font-family: 'Alegreya Sans', sans-serif; font-size: 12px; fill: rgb(0, 0, 0); fill-opacity: 1; white-space: pre; opacity: 1;">Unentschlossenheit</text>
        </g>
        <g class="ytick">
          <text text-anchor="end" x="193.6" y="4.199999999999999" transform="translate(0,27)" style="font-family: 'Alegreya Sans', sans-serif; font-size: 12px; fill: rgb(0, 0, 0); fill-opacity: 1; white-space: pre; opacity: 1;">Keine valablen Kandidat:innen</text>
        </g>
      </g>
      <g class="overaxes-above"/>
    </g>
  </g>
  <g class="polarlayer"/>
  <g class="smithlayer"/>
  <g class="ternarylayer"/>
  <g class="geolayer"/>
  <g class="funnelarealayer"/>
  <g class="pielayer"/>
  <g class="iciclelayer"/>
  <g class="treemaplayer"/>
  <g class="sunburstlayer"/>
  <g class="glimages"/>
  <defs id="topdefs-4f3500">
    <g class="clips"/>
    <clipPath id="legend4f3500">
      <rect width="315" height="45" x="0" y="0"/>
    </clipPath>
  </defs>
  <g class="layer-above">
    <g class="imagelayer"/>
    <g class="shapelayer"/>
  </g>
  <g class="infolayer">
    <g class="legend" pointer-events="all" transform="translate(202,534.6)">
      <rect class="bg" shape-rendering="crispEdges" style="stroke: rgb(68, 68, 68); stroke-opacity: 1; fill: rgb(255, 255, 255); fill-opacity: 1; stroke-width: 0px;" width="315" height="45" x="0" y="0"/>
      <g class="scrollbox" transform="" clip-path="url(#legend4f3500)">
        <g class="groups">
          <g class="traces" transform="translate(0,14.5)" style="opacity: 1;">
            <text class="legendtext" text-anchor="start" x="40" y="4.680000000000001" style="font-family: 'Alegreya Sans', sans-serif; font-size: 12px; fill: rgb(0, 0, 0); fill-opacity: 1; white-space: pre;">trifft zu</text>
            <g class="layers" transform="translate(0,-0.1999999999999993)" style="opacity: 1;">
              <g class="legendfill"/>
              <g class="legendlines"/>
              <g class="legendsymbols">
                <g class="legendpoints">
                  <path class="legendundefined" d="M6,6H-6V-6H6Z" transform="translate(20,0)" style="stroke-width: 1px; fill: rgb(36, 139, 204); fill-opacity: 1; stroke: rgb(255, 255, 255); stroke-opacity: 1;"/>
                </g>
              </g>
            </g>
            <rect class="legendtoggle" x="0" y="-9.5" width="77.34375" height="19" style="fill: rgb(0, 0, 0); fill-opacity: 0;"/>
          </g>
          <g class="traces" transform="translate(79.84375,14.5)" style="opacity: 1;">
            <text class="legendtext" text-anchor="start" x="40" y="4.680000000000001" style="font-family: 'Alegreya Sans', sans-serif; font-size: 12px; fill: rgb(0, 0, 0); fill-opacity: 1; white-space: pre;">trifft nicht zu</text>
            <g class="layers" transform="translate(0,-0.1999999999999993)" style="opacity: 1;">
              <g class="legendfill"/>
              <g class="legendlines"/>
              <g class="legendsymbols">
                <g class="legendpoints">
                  <path class="legendundefined" d="M6,6H-6V-6H6Z" transform="translate(20,0)" style="stroke-width: 1px; fill: rgb(36, 139, 204); fill-opacity: 0.502; stroke: rgb(255, 255, 255); stroke-opacity: 1;"/>
                </g>
              </g>
            </g>
            <rect class="legendtoggle" x="0" y="-9.5" width="103.109375" height="19" style="fill: rgb(0, 0, 0); fill-opacity: 0;"/>
          </g>
          <g class="traces" transform="translate(185.453125,22.1)" style="opacity: 1;">
            <text class="legendtext" text-anchor="start" x="40" y="-3.1200000000000006" style="font-family: 'Alegreya Sans', sans-serif; font-size: 12px; fill: rgb(0, 0, 0); fill-opacity: 1; white-space: pre;">
              <tspan class="line" dy="0em" x="40" y="-3.1200000000000006">weiss nicht / keine</tspan>
              <tspan class="line" dy="1.3em" x="40" y="-3.1200000000000006">Angabe</tspan>
            </text>
            <g class="layers" transform="translate(0,-7.800000000000001)" style="opacity: 1;">
              <g class="legendfill"/>
              <g class="legendlines"/>
              <g class="legendsymbols">
                <g class="legendpoints">
                  <path class="legendundefined" d="M6,6H-6V-6H6Z" transform="translate(20,0)" style="stroke-width: 1px; fill: rgb(172, 173, 185); fill-opacity: 1; stroke: rgb(255, 255, 255); stroke-opacity: 1;"/>
                </g>
              </g>
            </g>
            <rect class="legendtoggle" x="0" y="-17.1" width="126.359375" height="34.2" style="fill: rgb(0, 0, 0); fill-opacity: 0;"/>
          </g>
        </g>
      </g>
      <rect class="scrollbar" rx="20" ry="3" width="0" height="0" style="fill: rgb(128, 139, 164); fill-opacity: 1;" x="0" y="0"/>
    </g>
    <g class="g-gtitle"/>
    <g class="g-xtitle"/>
    <g class="g-ytitle"/>
  </g>
</svg>
