<svg xmlns="http://www.w3.org/2000/svg" xmlns:xlink="http://www.w3.org/1999/xlink" class="main-svg" width="100%" height="100%" style="" viewBox="1 1 799 227">
  <rect x="0" y="0" width="800" height="228" style="fill: rgb(255, 255, 255); fill-opacity: 1;"/>
  <defs id="defs-fbdcaa">
    <g class="clips">
      <clipPath id="clipfbdcaaxyplot" class="plotclip">
        <rect width="713" height="181"/>
      </clipPath>
      <clipPath class="axesclip" id="clipfbdcaax">
        <rect x="87" y="0" width="713" height="228"/>
      </clipPath>
      <clipPath class="axesclip" id="clipfbdcaay">
        <rect x="0" y="0" width="800" height="181"/>
      </clipPath>
      <clipPath class="axesclip" id="clipfbdcaaxy">
        <rect x="87" y="0" width="713" height="181"/>
      </clipPath>
    </g>
    <g class="gradients"/>
    <g class="patterns"/>
  </defs>
  <g class="bglayer"/>
  <g class="layer-below">
    <g class="imagelayer"/>
    <g class="shapelayer"/>
  </g>
  <g class="cartesianlayer">
    <g class="subplot xy">
      <g class="layer-subplot">
        <g class="shapelayer"/>
        <g class="imagelayer"/>
      </g>
      <g class="gridlayer">
        <g class="x">
          <path class="xgrid crisp" transform="translate(222.47,0)" d="M0,0v181" style="stroke: rgb(238, 238, 238); stroke-opacity: 1; stroke-width: 1px;"/>
          <path class="xgrid crisp" transform="translate(357.94,0)" d="M0,0v181" style="stroke: rgb(238, 238, 238); stroke-opacity: 1; stroke-width: 1px;"/>
          <path class="xgrid crisp" transform="translate(493.41,0)" d="M0,0v181" style="stroke: rgb(238, 238, 238); stroke-opacity: 1; stroke-width: 1px;"/>
          <path class="xgrid crisp" transform="translate(628.88,0)" d="M0,0v181" style="stroke: rgb(238, 238, 238); stroke-opacity: 1; stroke-width: 1px;"/>
          <path class="xgrid crisp" transform="translate(764.35,0)" d="M0,0v181" style="stroke: rgb(238, 238, 238); stroke-opacity: 1; stroke-width: 1px;"/>
        </g>
        <g class="y"/>
      </g>
      <g class="zerolinelayer">
        <path class="xzl zl crisp" transform="translate(87,0)" d="M0,0v181" style="stroke: rgb(68, 68, 68); stroke-opacity: 1; stroke-width: 1px;"/>
      </g>
      <path class="xlines-below"/>
      <path class="ylines-below"/>
      <g class="overlines-below"/>
      <g class="xaxislayer-below"/>
      <g class="yaxislayer-below"/>
      <g class="overaxes-below"/>
      <g class="plot" transform="translate(87,0)" clip-path="url(#clipfbdcaaxyplot)">
        <g class="barlayer mlayer">
          <g class="trace bars" shape-rendering="crispEdges" style="opacity: 1;">
            <g class="points">
              <g class="point">
                <path d="M0,174.97V126.7H366.77V174.97Z" style="vector-effect: non-scaling-stroke; opacity: 1; stroke-width: 1px; fill: rgb(36, 139, 204); fill-opacity: 0.502; stroke: rgb(255, 255, 255); stroke-opacity: 1;"/>
                <text class="bartext bartext-inside" text-anchor="middle" data-notex="1" x="0" y="0" style="font-family: 'Alegreya Sans', sans-serif; font-size: 12px; fill: rgb(255, 255, 255); fill-opacity: 1; white-space: pre;" transform="translate(352.05125,147.0303125)">
                  <tspan class="line" dy="0em" x="0" y="0">
                    <tspan style="font-weight:bold">54 %</tspan>
                  </tspan>
                  <tspan class="line" dy="1.3em" x="0" y="0">(370)</tspan>
                </text>
              </g>
              <g class="point">
                <path d="M0,114.63V66.37H520.92V114.63Z" style="vector-effect: non-scaling-stroke; opacity: 1; stroke-width: 1px; fill: rgb(36, 139, 204); fill-opacity: 0.502; stroke: rgb(255, 255, 255); stroke-opacity: 1;"/>
                <text class="bartext bartext-inside" text-anchor="middle" data-notex="1" x="0" y="0" style="font-family: 'Alegreya Sans', sans-serif; font-size: 12px; fill: rgb(255, 255, 255); fill-opacity: 1; white-space: pre;" transform="translate(506.96687499999996,86.6953125)">
                  <tspan class="line" dy="0em" x="0" y="0">
                    <tspan style="font-weight:bold">77 %</tspan>
                  </tspan>
                  <tspan class="line" dy="1.3em" x="0" y="0">(831)</tspan>
                </text>
              </g>
              <g class="point">
                <path d="M0,54.3V6.03H506.75V54.3Z" style="vector-effect: non-scaling-stroke; opacity: 1; stroke-width: 1px; fill: rgb(36, 139, 204); fill-opacity: 0.502; stroke: rgb(255, 255, 255); stroke-opacity: 1;"/>
                <text class="bartext bartext-inside" text-anchor="middle" data-notex="1" x="0" y="0" style="font-family: 'Alegreya Sans', sans-serif; font-size: 12px; fill: rgb(255, 255, 255); fill-opacity: 1; white-space: pre;" transform="translate(492.984375,26.3603125)">
                  <tspan class="line" dy="0em" x="0" y="0">
                    <tspan style="font-weight:bold">75 %</tspan>
                  </tspan>
                  <tspan class="line" dy="1.3em" x="0" y="0">(38)</tspan>
                </text>
              </g>
            </g>
          </g>
          <g class="trace bars" shape-rendering="crispEdges" style="opacity: 1;">
            <g class="points">
              <g class="point">
                <path d="M366.77,174.97V126.7H677.35V174.97Z" style="vector-effect: non-scaling-stroke; opacity: 1; stroke-width: 1px; fill: rgb(36, 139, 204); fill-opacity: 1; stroke: rgb(255, 255, 255); stroke-opacity: 1;"/>
                <text class="bartext bartext-inside" text-anchor="middle" data-notex="1" x="0" y="0" style="font-family: 'Alegreya Sans', sans-serif; font-size: 12px; fill: rgb(255, 255, 255); fill-opacity: 1; white-space: pre;" transform="translate(662.85,147.0303125)">
                  <tspan class="line" dy="0em" x="0" y="0">
                    <tspan style="font-weight:bold">46 %</tspan>
                  </tspan>
                  <tspan class="line" dy="1.3em" x="0" y="0">(314)</tspan>
                </text>
              </g>
              <g class="point">
                <path d="M520.92,114.63V66.37H677.35V114.63Z" style="vector-effect: non-scaling-stroke; opacity: 1; stroke-width: 1px; fill: rgb(36, 139, 204); fill-opacity: 1; stroke: rgb(255, 255, 255); stroke-opacity: 1;"/>
                <text class="bartext bartext-inside" text-anchor="middle" data-notex="1" x="0" y="0" style="font-family: 'Alegreya Sans', sans-serif; font-size: 12px; fill: rgb(255, 255, 255); fill-opacity: 1; white-space: pre;" transform="translate(662.365625,86.6953125)">
                  <tspan class="line" dy="0em" x="0" y="0">
                    <tspan style="font-weight:bold">23 %</tspan>
                  </tspan>
                  <tspan class="line" dy="1.3em" x="0" y="0">(250)</tspan>
                </text>
              </g>
              <g class="point">
                <path d="M506.75,54.3V6.03H677.35V54.3Z" style="vector-effect: non-scaling-stroke; opacity: 1; stroke-width: 1px; fill: rgb(36, 139, 204); fill-opacity: 1; stroke: rgb(255, 255, 255); stroke-opacity: 1;"/>
                <text class="bartext bartext-inside" text-anchor="middle" data-notex="1" x="0" y="0" style="font-family: 'Alegreya Sans', sans-serif; font-size: 12px; fill: rgb(255, 255, 255); fill-opacity: 1; white-space: pre;" transform="translate(663.35,26.3603125)">
                  <tspan class="line" dy="0em" x="0" y="0">
                    <tspan style="font-weight:bold">25 %</tspan>
                  </tspan>
                  <tspan class="line" dy="1.3em" x="0" y="0">(13)</tspan>
                </text>
              </g>
            </g>
          </g>
        </g>
      </g>
      <g class="overplot"/>
      <path class="xlines-above crisp" d="M0,0" style="fill: none;"/>
      <path class="ylines-above crisp" d="" style="fill: none; stroke-width: 1px; stroke: rgb(0, 0, 0); stroke-opacity: 0;"/>
      <g class="overlines-above"/>
      <g class="xaxislayer-above">
        <g class="xtick">
          <text text-anchor="middle" x="0" y="194" transform="translate(87,0)" style="font-family: 'Alegreya Sans', sans-serif; font-size: 12px; fill: rgb(0, 0, 0); fill-opacity: 1; white-space: pre; opacity: 1;">0 %</text>
        </g>
        <g class="xtick">
          <text text-anchor="middle" x="0" y="194" style="font-family: 'Alegreya Sans', sans-serif; font-size: 12px; fill: rgb(0, 0, 0); fill-opacity: 1; white-space: pre; opacity: 1;" transform="translate(222.47,0)">20 %</text>
        </g>
        <g class="xtick">
          <text text-anchor="middle" x="0" y="194" style="font-family: 'Alegreya Sans', sans-serif; font-size: 12px; fill: rgb(0, 0, 0); fill-opacity: 1; white-space: pre; opacity: 1;" transform="translate(357.94,0)">40 %</text>
        </g>
        <g class="xtick">
          <text text-anchor="middle" x="0" y="194" style="font-family: 'Alegreya Sans', sans-serif; font-size: 12px; fill: rgb(0, 0, 0); fill-opacity: 1; white-space: pre; opacity: 1;" transform="translate(493.41,0)">60 %</text>
        </g>
        <g class="xtick">
          <text text-anchor="middle" x="0" y="194" style="font-family: 'Alegreya Sans', sans-serif; font-size: 12px; fill: rgb(0, 0, 0); fill-opacity: 1; white-space: pre; opacity: 1;" transform="translate(628.88,0)">80 %</text>
        </g>
        <g class="xtick">
          <text text-anchor="middle" x="0" y="194" style="font-family: 'Alegreya Sans', sans-serif; font-size: 12px; fill: rgb(0, 0, 0); fill-opacity: 1; white-space: pre; opacity: 1;" transform="translate(764.35,0)">100 %</text>
        </g>
      </g>
      <g class="yaxislayer-above">
        <path class="ytick ticks crisp" d="M86,0h-5" transform="translate(0,150.83)" style="stroke: rgb(68, 68, 68); stroke-opacity: 1; stroke-width: 1px;"/>
        <path class="ytick ticks crisp" d="M86,0h-5" transform="translate(0,90.5)" style="stroke: rgb(68, 68, 68); stroke-opacity: 1; stroke-width: 1px;"/>
        <path class="ytick ticks crisp" d="M86,0h-5" transform="translate(0,30.17)" style="stroke: rgb(68, 68, 68); stroke-opacity: 1; stroke-width: 1px;"/>
        <g class="ytick">
          <text text-anchor="end" x="78.6" y="4.199999999999999" transform="translate(0,150.83)translate(0,-7.800000000000001)" style="font-family: 'Alegreya Sans', sans-serif; font-size: 12px; fill: rgb(0, 0, 0); fill-opacity: 1; white-space: pre; opacity: 1;">
            <tspan class="line" dy="0em" x="78.6" y="4.199999999999999">Mieter:in oder</tspan>
            <tspan class="line" dy="1.3em" x="78.6" y="4.199999999999999">Pächter:in</tspan>
          </text>
        </g>
        <g class="ytick">
          <text text-anchor="end" x="78.6" y="4.199999999999999" transform="translate(0,90.5)" style="font-family: 'Alegreya Sans', sans-serif; font-size: 12px; fill: rgb(0, 0, 0); fill-opacity: 1; white-space: pre; opacity: 1;">Eigentümer:in</text>
        </g>
        <g class="ytick">
          <text text-anchor="end" x="78.6" y="4.199999999999999" transform="translate(0,30.17)translate(0,-15.600000000000001)" style="font-family: 'Alegreya Sans', sans-serif; font-size: 12px; fill: rgb(0, 0, 0); fill-opacity: 1; white-space: pre; opacity: 1;">
            <tspan class="line" dy="0em" x="78.6" y="4.199999999999999">anderes</tspan>
            <tspan class="line" dy="1.3em" x="78.6" y="4.199999999999999">(z. B. Frei-,</tspan>
            <tspan class="line" dy="2.6em" x="78.6" y="4.199999999999999">Dienstwohnung)</tspan>
          </text>
        </g>
      </g>
      <g class="overaxes-above"/>
    </g>
  </g>
  <g class="polarlayer"/>
  <g class="smithlayer"/>
  <g class="ternarylayer"/>
  <g class="geolayer"/>
  <g class="funnelarealayer"/>
  <g class="pielayer"/>
  <g class="iciclelayer"/>
  <g class="treemaplayer"/>
  <g class="sunburstlayer"/>
  <g class="glimages"/>
  <defs id="topdefs-fbdcaa">
    <g class="clips"/>
    <clipPath id="legendfbdcaa">
      <rect width="255" height="29" x="0" y="0"/>
    </clipPath>
  </defs>
  <g class="layer-above">
    <g class="imagelayer"/>
    <g class="shapelayer"/>
  </g>
  <g class="infolayer">
    <g class="legend" pointer-events="all" transform="translate(87,199)">
      <rect class="bg" shape-rendering="crispEdges" width="255" height="29" x="0" y="0" style="stroke: rgb(68, 68, 68); stroke-opacity: 1; fill: rgb(255, 255, 255); fill-opacity: 1; stroke-width: 0px;"/>
      <g class="scrollbox" transform="" clip-path="url(#legendfbdcaa)">
        <g class="groups">
          <g class="traces" transform="translate(0,14.5)" style="opacity: 1;">
            <text class="legendtext" text-anchor="start" x="40" y="4.680000000000001" style="font-family: 'Alegreya Sans', sans-serif; font-size: 12px; fill: rgb(0, 0, 0); fill-opacity: 1; white-space: pre;">teilgenommen</text>
            <g class="layers" style="opacity: 1;">
              <g class="legendfill"/>
              <g class="legendlines"/>
              <g class="legendsymbols">
                <g class="legendpoints">
                  <path class="legendundefined" d="M6,6H-6V-6H6Z" transform="translate(20,0)" style="stroke-width: 1px; fill: rgb(36, 139, 204); fill-opacity: 0.502; stroke: rgb(255, 255, 255); stroke-opacity: 1;"/>
                </g>
              </g>
            </g>
            <rect class="legendtoggle" x="0" y="-9.5" width="111.71875" height="19" style="fill: rgb(0, 0, 0); fill-opacity: 0;"/>
          </g>
          <g class="traces" transform="translate(114.21875,14.5)" style="opacity: 1;">
            <text class="legendtext" text-anchor="start" x="40" y="4.680000000000001" style="font-family: 'Alegreya Sans', sans-serif; font-size: 12px; fill: rgb(0, 0, 0); fill-opacity: 1; white-space: pre;">nicht teilgenommen</text>
            <g class="layers" style="opacity: 1;">
              <g class="legendfill"/>
              <g class="legendlines"/>
              <g class="legendsymbols">
                <g class="legendpoints">
                  <path class="legendundefined" d="M6,6H-6V-6H6Z" transform="translate(20,0)" style="stroke-width: 1px; fill: rgb(36, 139, 204); fill-opacity: 1; stroke: rgb(255, 255, 255); stroke-opacity: 1;"/>
                </g>
              </g>
            </g>
            <rect class="legendtoggle" x="0" y="-9.5" width="137.46875" height="19" style="fill: rgb(0, 0, 0); fill-opacity: 0;"/>
          </g>
        </g>
      </g>
      <rect class="scrollbar" rx="20" ry="3" width="0" height="0" x="0" y="0" style="fill: rgb(128, 139, 164); fill-opacity: 1;"/>
    </g>
    <g class="g-gtitle"/>
    <g class="g-xtitle"/>
    <g class="g-ytitle"/>
  </g>
</svg>
