<svg xmlns="http://www.w3.org/2000/svg" xmlns:xlink="http://www.w3.org/1999/xlink" class="main-svg" width="100%" height="100%" style="" viewBox="1 1 799 539">
  <rect x="0" y="0" width="800" height="540" style="fill: rgb(255, 255, 255); fill-opacity: 1;"/>
  <defs id="defs-66e5af">
    <g class="clips">
      <clipPath id="clip66e5afxyplot" class="plotclip">
        <rect width="529" height="500"/>
      </clipPath>
      <clipPath class="axesclip" id="clip66e5afx">
        <rect x="271" y="0" width="529" height="540"/>
      </clipPath>
      <clipPath class="axesclip" id="clip66e5afy">
        <rect x="0" y="0" width="800" height="500"/>
      </clipPath>
      <clipPath class="axesclip" id="clip66e5afxy">
        <rect x="271" y="0" width="529" height="500"/>
      </clipPath>
    </g>
    <g class="gradients"/>
    <g class="patterns"/>
  </defs>
  <g class="bglayer"/>
  <g class="layer-below">
    <g class="imagelayer"/>
    <g class="shapelayer"/>
  </g>
  <g class="cartesianlayer">
    <g class="subplot xy">
      <g class="layer-subplot">
        <g class="shapelayer"/>
        <g class="imagelayer"/>
      </g>
      <g class="gridlayer">
        <g class="x">
          <path class="xgrid crisp" transform="translate(344.56,0)" d="M0,0v500" style="stroke: rgb(238, 238, 238); stroke-opacity: 1; stroke-width: 1px;"/>
          <path class="xgrid crisp" transform="translate(418.13,0)" d="M0,0v500" style="stroke: rgb(238, 238, 238); stroke-opacity: 1; stroke-width: 1px;"/>
          <path class="xgrid crisp" transform="translate(491.69,0)" d="M0,0v500" style="stroke: rgb(238, 238, 238); stroke-opacity: 1; stroke-width: 1px;"/>
          <path class="xgrid crisp" transform="translate(565.26,0)" d="M0,0v500" style="stroke: rgb(238, 238, 238); stroke-opacity: 1; stroke-width: 1px;"/>
          <path class="xgrid crisp" transform="translate(638.8199999999999,0)" d="M0,0v500" style="stroke: rgb(238, 238, 238); stroke-opacity: 1; stroke-width: 1px;"/>
          <path class="xgrid crisp" transform="translate(712.39,0)" d="M0,0v500" style="stroke: rgb(238, 238, 238); stroke-opacity: 1; stroke-width: 1px;"/>
          <path class="xgrid crisp" transform="translate(785.95,0)" d="M0,0v500" style="stroke: rgb(238, 238, 238); stroke-opacity: 1; stroke-width: 1px;"/>
        </g>
        <g class="y"/>
      </g>
      <g class="zerolinelayer">
        <path class="xzl zl crisp" transform="translate(271,0)" d="M0,0v500" style="stroke: rgb(68, 68, 68); stroke-opacity: 1; stroke-width: 1px;"/>
      </g>
      <path class="xlines-below"/>
      <path class="ylines-below"/>
      <g class="overlines-below"/>
      <g class="xaxislayer-below"/>
      <g class="yaxislayer-below"/>
      <g class="overaxes-below"/>
      <g class="plot" transform="translate(271,0)" clip-path="url(#clip66e5afxyplot)">
        <g class="barlayer mlayer">
          <g class="trace bars" style="opacity: 1;">
            <g class="points">
              <g class="point">
                <path d="M0,295V255H93.37V295Z" style="vector-effect: non-scaling-stroke; opacity: 1; stroke-width: 0px; fill: rgb(36, 139, 204); fill-opacity: 1;"/>
              </g>
              <g class="point">
                <path d="M0,45V5H502.55V45Z" style="vector-effect: non-scaling-stroke; opacity: 1; stroke-width: 0px; fill: rgb(36, 139, 204); fill-opacity: 1;"/>
              </g>
              <g class="point">
                <path d="M0,195V155H118.83V195Z" style="vector-effect: non-scaling-stroke; opacity: 1; stroke-width: 0px; fill: rgb(36, 139, 204); fill-opacity: 1;"/>
              </g>
              <g class="point">
                <path d="M0,345V305H60.9V345Z" style="vector-effect: non-scaling-stroke; opacity: 1; stroke-width: 0px; fill: rgb(36, 139, 204); fill-opacity: 1;"/>
              </g>
              <g class="point">
                <path d="M0,245V205H117.31V245Z" style="vector-effect: non-scaling-stroke; opacity: 1; stroke-width: 0px; fill: rgb(36, 139, 204); fill-opacity: 1;"/>
              </g>
              <g class="point">
                <path d="M0,145V105H221.28V145Z" style="vector-effect: non-scaling-stroke; opacity: 1; stroke-width: 0px; fill: rgb(36, 139, 204); fill-opacity: 1;"/>
              </g>
              <g class="point">
                <path d="M0,95V55H251.3V95Z" style="vector-effect: non-scaling-stroke; opacity: 1; stroke-width: 0px; fill: rgb(36, 139, 204); fill-opacity: 1;"/>
              </g>
              <g class="point">
                <path d="M0,395V355H60.38V395Z" style="vector-effect: non-scaling-stroke; opacity: 1; stroke-width: 0px; fill: rgb(36, 139, 204); fill-opacity: 1;"/>
              </g>
              <g class="point">
                <path d="M0,445V405H27.4V445Z" style="vector-effect: non-scaling-stroke; opacity: 1; stroke-width: 0px; fill: rgb(36, 139, 204); fill-opacity: 1;"/>
              </g>
              <g class="point">
                <path d="M0,495V455H24.19V495Z" style="vector-effect: non-scaling-stroke; opacity: 1; stroke-width: 0px; fill: rgb(36, 139, 204); fill-opacity: 1;"/>
              </g>
            </g>
          </g>
        </g>
      </g>
      <g class="overplot"/>
      <path class="xlines-above crisp" d="M0,0" style="fill: none;"/>
      <path class="ylines-above crisp" d="" style="fill: none; stroke-width: 1px; stroke: rgb(0, 0, 0); stroke-opacity: 0;"/>
      <g class="overlines-above"/>
      <g class="xaxislayer-above">
        <g class="xtick">
          <text text-anchor="middle" x="0" y="513" transform="translate(271,0)" style="font-family: 'Alegreya Sans', sans-serif; font-size: 12px; fill: rgb(0, 0, 0); fill-opacity: 1; white-space: pre; opacity: 1;">0</text>
        </g>
        <g class="xtick">
          <text text-anchor="middle" x="0" y="513" style="font-family: 'Alegreya Sans', sans-serif; font-size: 12px; fill: rgb(0, 0, 0); fill-opacity: 1; white-space: pre; opacity: 1;" transform="translate(344.56,0)">50</text>
        </g>
        <g class="xtick">
          <text text-anchor="middle" x="0" y="513" style="font-family: 'Alegreya Sans', sans-serif; font-size: 12px; fill: rgb(0, 0, 0); fill-opacity: 1; white-space: pre; opacity: 1;" transform="translate(418.13,0)">100</text>
        </g>
        <g class="xtick">
          <text text-anchor="middle" x="0" y="513" style="font-family: 'Alegreya Sans', sans-serif; font-size: 12px; fill: rgb(0, 0, 0); fill-opacity: 1; white-space: pre; opacity: 1;" transform="translate(491.69,0)">150</text>
        </g>
        <g class="xtick">
          <text text-anchor="middle" x="0" y="513" style="font-family: 'Alegreya Sans', sans-serif; font-size: 12px; fill: rgb(0, 0, 0); fill-opacity: 1; white-space: pre; opacity: 1;" transform="translate(565.26,0)">200</text>
        </g>
        <g class="xtick">
          <text text-anchor="middle" x="0" y="513" style="font-family: 'Alegreya Sans', sans-serif; font-size: 12px; fill: rgb(0, 0, 0); fill-opacity: 1; white-space: pre; opacity: 1;" transform="translate(638.8199999999999,0)">250</text>
        </g>
        <g class="xtick">
          <text text-anchor="middle" x="0" y="513" style="font-family: 'Alegreya Sans', sans-serif; font-size: 12px; fill: rgb(0, 0, 0); fill-opacity: 1; white-space: pre; opacity: 1;" transform="translate(712.39,0)">300</text>
        </g>
        <g class="xtick">
          <text text-anchor="middle" x="0" y="513" style="font-family: 'Alegreya Sans', sans-serif; font-size: 12px; fill: rgb(0, 0, 0); fill-opacity: 1; white-space: pre; opacity: 1;" transform="translate(785.95,0)">350</text>
        </g>
      </g>
      <g class="yaxislayer-above">
        <path class="ytick ticks crisp" d="M270,0h-5" transform="translate(0,475)" style="stroke: rgb(68, 68, 68); stroke-opacity: 1; stroke-width: 1px;"/>
        <path class="ytick ticks crisp" d="M270,0h-5" transform="translate(0,425)" style="stroke: rgb(68, 68, 68); stroke-opacity: 1; stroke-width: 1px;"/>
        <path class="ytick ticks crisp" d="M270,0h-5" transform="translate(0,375)" style="stroke: rgb(68, 68, 68); stroke-opacity: 1; stroke-width: 1px;"/>
        <path class="ytick ticks crisp" d="M270,0h-5" transform="translate(0,325)" style="stroke: rgb(68, 68, 68); stroke-opacity: 1; stroke-width: 1px;"/>
        <path class="ytick ticks crisp" d="M270,0h-5" transform="translate(0,275)" style="stroke: rgb(68, 68, 68); stroke-opacity: 1; stroke-width: 1px;"/>
        <path class="ytick ticks crisp" d="M270,0h-5" transform="translate(0,225)" style="stroke: rgb(68, 68, 68); stroke-opacity: 1; stroke-width: 1px;"/>
        <path class="ytick ticks crisp" d="M270,0h-5" transform="translate(0,175)" style="stroke: rgb(68, 68, 68); stroke-opacity: 1; stroke-width: 1px;"/>
        <path class="ytick ticks crisp" d="M270,0h-5" transform="translate(0,125)" style="stroke: rgb(68, 68, 68); stroke-opacity: 1; stroke-width: 1px;"/>
        <path class="ytick ticks crisp" d="M270,0h-5" transform="translate(0,75)" style="stroke: rgb(68, 68, 68); stroke-opacity: 1; stroke-width: 1px;"/>
        <path class="ytick ticks crisp" d="M270,0h-5" transform="translate(0,25)" style="stroke: rgb(68, 68, 68); stroke-opacity: 1; stroke-width: 1px;"/>
        <g class="ytick">
          <text text-anchor="end" x="262.6" y="4.199999999999999" transform="translate(0,475)" style="font-family: 'Alegreya Sans', sans-serif; font-size: 12px; fill: rgb(0, 0, 0); fill-opacity: 1; white-space: pre; opacity: 1;">
            <tspan style=" fill: #808080;;font-style:italic">keine Angabe</tspan>
          </text>
        </g>
        <g class="ytick">
          <text text-anchor="end" x="262.6" y="4.199999999999999" transform="translate(0,425)" style="font-family: 'Alegreya Sans', sans-serif; font-size: 12px; fill: rgb(0, 0, 0); fill-opacity: 1; white-space: pre; opacity: 1;">anderes</text>
        </g>
        <g class="ytick">
          <text text-anchor="end" x="262.6" y="4.199999999999999" transform="translate(0,375)" style="font-family: 'Alegreya Sans', sans-serif; font-size: 12px; fill: rgb(0, 0, 0); fill-opacity: 1; white-space: pre; opacity: 1;">kein spezieller Grund</text>
        </g>
        <g class="ytick">
          <text text-anchor="end" x="262.6" y="4.199999999999999" transform="translate(0,325)translate(0,-15.600000000000001)" style="font-family: 'Alegreya Sans', sans-serif; font-size: 12px; fill: rgb(0, 0, 0); fill-opacity: 1; white-space: pre; opacity: 1;">
            <tspan class="line" dy="0em" x="262.6" y="4.199999999999999">wollte sicherstellen, dass Bundesrichter:innen</tspan>
            <tspan class="line" dy="1.3em" x="262.6" y="4.199999999999999">weiterhin Mitglied einer politschen Partei sind, da</tspan>
            <tspan class="line" dy="2.6em" x="262.6" y="4.199999999999999">dies für Transparenz sorgt.</tspan>
          </text>
        </g>
        <g class="ytick">
          <text text-anchor="end" x="262.6" y="4.199999999999999" transform="translate(0,275)translate(0,-7.800000000000001)" style="font-family: 'Alegreya Sans', sans-serif; font-size: 12px; fill: rgb(0, 0, 0); fill-opacity: 1; white-space: pre; opacity: 1;">
            <tspan class="line" dy="0em" x="262.6" y="4.199999999999999">wollte in erster Linie einer bestimmten</tspan>
            <tspan class="line" dy="1.3em" x="262.6" y="4.199999999999999">Abstimmungsempfehlung folgen.</tspan>
          </text>
        </g>
        <g class="ytick">
          <text text-anchor="end" x="262.6" y="4.199999999999999" transform="translate(0,225)translate(0,-15.600000000000001)" style="font-family: 'Alegreya Sans', sans-serif; font-size: 12px; fill: rgb(0, 0, 0); fill-opacity: 1; white-space: pre; opacity: 1;">
            <tspan class="line" dy="0em" x="262.6" y="4.199999999999999">finde, die Initiative ist zu vage formuliert. Unklar</tspan>
            <tspan class="line" dy="1.3em" x="262.6" y="4.199999999999999">ist vor allem, wie die Fachkommission zustande kommen</tspan>
            <tspan class="line" dy="2.6em" x="262.6" y="4.199999999999999">soll.</tspan>
          </text>
        </g>
        <g class="ytick">
          <text text-anchor="end" x="262.6" y="4.199999999999999" transform="translate(0,175)translate(0,-15.600000000000001)" style="font-family: 'Alegreya Sans', sans-serif; font-size: 12px; fill: rgb(0, 0, 0); fill-opacity: 1; white-space: pre; opacity: 1;">
            <tspan class="line" dy="0em" x="262.6" y="4.199999999999999">wollte verhindern, dass sich die Bundesrichter:innen</tspan>
            <tspan class="line" dy="1.3em" x="262.6" y="4.199999999999999">nach erfolgreicher Erstwahl keinerlei Wiederwahl mehr</tspan>
            <tspan class="line" dy="2.6em" x="262.6" y="4.199999999999999">stellen müssen.</tspan>
          </text>
        </g>
        <g class="ytick">
          <text text-anchor="end" x="262.6" y="4.199999999999999" transform="translate(0,125)translate(0,-7.800000000000001)" style="font-family: 'Alegreya Sans', sans-serif; font-size: 12px; fill: rgb(0, 0, 0); fill-opacity: 1; white-space: pre; opacity: 1;">
            <tspan class="line" dy="0em" x="262.6" y="4.199999999999999">vertraue dem Parlament, die besten und fähigsten</tspan>
            <tspan class="line" dy="1.3em" x="262.6" y="4.199999999999999">Kandidat:innen ans Bundesgericht zu wählen.</tspan>
          </text>
        </g>
        <g class="ytick">
          <text text-anchor="end" x="262.6" y="4.199999999999999" transform="translate(0,75)translate(0,-7.800000000000001)" style="font-family: 'Alegreya Sans', sans-serif; font-size: 12px; fill: rgb(0, 0, 0); fill-opacity: 1; white-space: pre; opacity: 1;">
            <tspan class="line" dy="0em" x="262.6" y="4.199999999999999">finde das heutige System ganz in Ordnung und sehe</tspan>
            <tspan class="line" dy="1.3em" x="262.6" y="4.199999999999999">keinen Bedarf, etwas daran zu ändern.</tspan>
          </text>
        </g>
        <g class="ytick">
          <text text-anchor="end" x="262.6" y="4.199999999999999" transform="translate(0,25)translate(0,-15.600000000000001)" style="font-family: 'Alegreya Sans', sans-serif; font-size: 12px; fill: rgb(0, 0, 0); fill-opacity: 1; white-space: pre; opacity: 1;">
            <tspan class="line" dy="0em" x="262.6" y="4.199999999999999">wollte verhindern, dass in Zukunft weitgehend</tspan>
            <tspan class="line" dy="1.3em" x="262.6" y="4.199999999999999">der Zufall über die Wahl der Bundesrichter:innen</tspan>
            <tspan class="line" dy="2.6em" x="262.6" y="4.199999999999999">entscheidet.</tspan>
          </text>
        </g>
      </g>
      <g class="overaxes-above"/>
    </g>
  </g>
  <g class="polarlayer"/>
  <g class="smithlayer"/>
  <g class="ternarylayer"/>
  <g class="geolayer"/>
  <g class="funnelarealayer"/>
  <g class="pielayer"/>
  <g class="iciclelayer"/>
  <g class="treemaplayer"/>
  <g class="sunburstlayer"/>
  <g class="glimages"/>
  <defs id="topdefs-66e5af">
    <g class="clips"/>
  </defs>
  <g class="layer-above">
    <g class="imagelayer"/>
    <g class="shapelayer"/>
  </g>
  <g class="infolayer">
    <g class="g-gtitle"/>
    <g class="g-xtitle" transform="translate(0,-8)">
      <text class="xtitle" x="535.5" y="546" text-anchor="middle" style="font-family: 'Alegreya Sans', sans-serif; font-size: 12px; fill: rgb(0, 0, 0); opacity: 1; font-weight: normal; white-space: pre;">Anzahl Personen</text>
    </g>
    <g class="g-ytitle"/>
    <g class="annotation" data-index="0" style="opacity: 1;">
      <g class="annotation-text-g" transform="rotate(0,317.69,275)">
        <g class="cursor-pointer" transform="translate(307,261)">
          <rect class="bg" x="0.5" y="0.5" width="20" height="28" style="stroke-width: 1px; stroke: rgb(0, 0, 0); stroke-opacity: 0; fill: rgb(0, 0, 0); fill-opacity: 0;"/>
          <text class="annotation-text" text-anchor="middle" x="10.125" y="11" style="font-family: 'Alegreya Sans', sans-serif; font-size: 11px; fill: rgb(255, 255, 255); fill-opacity: 1; white-space: pre;">
            <tspan class="line" dy="0em" x="10.125" y="11">
              <tspan style="font-weight:bold">6 %</tspan>
            </tspan>
            <tspan class="line" dy="1.3em" x="10.125" y="11">(63)</tspan>
          </text>
        </g>
      </g>
    </g>
    <g class="annotation" data-index="1" style="opacity: 1;">
      <g class="annotation-text-g" transform="rotate(0,522.28,25)">
        <g class="cursor-pointer" transform="translate(509,11)">
          <rect class="bg" x="0.5" y="0.5" width="25" height="28" style="stroke-width: 1px; stroke: rgb(0, 0, 0); stroke-opacity: 0; fill: rgb(0, 0, 0); fill-opacity: 0;"/>
          <text class="annotation-text" text-anchor="middle" x="12.6875" y="11" style="font-family: 'Alegreya Sans', sans-serif; font-size: 11px; fill: rgb(255, 255, 255); fill-opacity: 1; white-space: pre;">
            <tspan class="line" dy="0em" x="12.6875" y="11">
              <tspan style="font-weight:bold">34 %</tspan>
            </tspan>
            <tspan class="line" dy="1.3em" x="12.6875" y="11">(342)</tspan>
          </text>
        </g>
      </g>
    </g>
    <g class="annotation" data-index="2" style="opacity: 1;">
      <g class="annotation-text-g" transform="rotate(0,330.40999999999997,175)">
        <g class="cursor-pointer" transform="translate(320,161)">
          <rect class="bg" x="0.5" y="0.5" width="19" height="28" style="stroke-width: 1px; stroke: rgb(0, 0, 0); stroke-opacity: 0; fill: rgb(0, 0, 0); fill-opacity: 0;"/>
          <text class="annotation-text" text-anchor="middle" x="9.828125" y="11" style="font-family: 'Alegreya Sans', sans-serif; font-size: 11px; fill: rgb(255, 255, 255); fill-opacity: 1; white-space: pre;">
            <tspan class="line" dy="0em" x="9.828125" y="11">
              <tspan style="font-weight:bold">8 %</tspan>
            </tspan>
            <tspan class="line" dy="1.3em" x="9.828125" y="11">(81)</tspan>
          </text>
        </g>
      </g>
    </g>
    <g class="annotation" data-index="3" style="opacity: 1;">
      <g class="annotation-text-g" transform="rotate(0,301.45,325)">
        <g class="cursor-pointer" transform="translate(291,311)">
          <rect class="bg" x="0.5" y="0.5" width="19" height="28" style="stroke-width: 1px; stroke: rgb(0, 0, 0); stroke-opacity: 0; fill: rgb(0, 0, 0); fill-opacity: 0;"/>
          <text class="annotation-text" text-anchor="middle" x="9.890625" y="11" style="font-family: 'Alegreya Sans', sans-serif; font-size: 11px; fill: rgb(255, 255, 255); fill-opacity: 1; white-space: pre;">
            <tspan class="line" dy="0em" x="9.890625" y="11">
              <tspan style="font-weight:bold">4 %</tspan>
            </tspan>
            <tspan class="line" dy="1.3em" x="9.890625" y="11">(41)</tspan>
          </text>
        </g>
      </g>
    </g>
    <g class="annotation" data-index="4" style="opacity: 1;">
      <g class="annotation-text-g" transform="rotate(0,329.65,225)">
        <g class="cursor-pointer" transform="translate(319,211)">
          <rect class="bg" x="0.5" y="0.5" width="21" height="28" style="stroke-width: 1px; stroke: rgb(0, 0, 0); stroke-opacity: 0; fill: rgb(0, 0, 0); fill-opacity: 0;"/>
          <text class="annotation-text" text-anchor="middle" x="10.78125" y="11" style="font-family: 'Alegreya Sans', sans-serif; font-size: 11px; fill: rgb(255, 255, 255); fill-opacity: 1; white-space: pre;">
            <tspan class="line" dy="0em" x="10.78125" y="11">
              <tspan style="font-weight:bold">8 %</tspan>
            </tspan>
            <tspan class="line" dy="1.3em" x="10.78125" y="11">(80)</tspan>
          </text>
        </g>
      </g>
    </g>
    <g class="annotation" data-index="5" style="opacity: 1;">
      <g class="annotation-text-g" transform="rotate(0,381.64,125)">
        <g class="cursor-pointer" transform="translate(369,111)">
          <rect class="bg" x="0.5" y="0.5" width="24" height="28" style="stroke-width: 1px; stroke: rgb(0, 0, 0); stroke-opacity: 0; fill: rgb(0, 0, 0); fill-opacity: 0;"/>
          <text class="annotation-text" text-anchor="middle" x="12.375" y="11" style="font-family: 'Alegreya Sans', sans-serif; font-size: 11px; fill: rgb(255, 255, 255); fill-opacity: 1; white-space: pre;">
            <tspan class="line" dy="0em" x="12.375" y="11">
              <tspan style="font-weight:bold">15 %</tspan>
            </tspan>
            <tspan class="line" dy="1.3em" x="12.375" y="11">(150)</tspan>
          </text>
        </g>
      </g>
    </g>
    <g class="annotation" data-index="6" style="opacity: 1;">
      <g class="annotation-text-g" transform="rotate(0,396.65,75)">
        <g class="cursor-pointer" transform="translate(385,61)">
          <rect class="bg" x="0.5" y="0.5" width="23" height="28" style="stroke-width: 1px; stroke: rgb(0, 0, 0); stroke-opacity: 0; fill: rgb(0, 0, 0); fill-opacity: 0;"/>
          <text class="annotation-text" text-anchor="middle" x="11.46875" y="11" style="font-family: 'Alegreya Sans', sans-serif; font-size: 11px; fill: rgb(255, 255, 255); fill-opacity: 1; white-space: pre;">
            <tspan class="line" dy="0em" x="11.46875" y="11">
              <tspan style="font-weight:bold">17 %</tspan>
            </tspan>
            <tspan class="line" dy="1.3em" x="11.46875" y="11">(171)</tspan>
          </text>
        </g>
      </g>
    </g>
    <g class="annotation" data-index="7" style="opacity: 1;">
      <g class="annotation-text-g" transform="rotate(0,301.19,375)">
        <g class="cursor-pointer" transform="translate(291,361)">
          <rect class="bg" x="0.5" y="0.5" width="19" height="28" style="stroke-width: 1px; stroke: rgb(0, 0, 0); stroke-opacity: 0; fill: rgb(0, 0, 0); fill-opacity: 0;"/>
          <text class="annotation-text" text-anchor="middle" x="9.890625" y="11" style="font-family: 'Alegreya Sans', sans-serif; font-size: 11px; fill: rgb(255, 255, 255); fill-opacity: 1; white-space: pre;">
            <tspan class="line" dy="0em" x="9.890625" y="11">
              <tspan style="font-weight:bold">4 %</tspan>
            </tspan>
            <tspan class="line" dy="1.3em" x="9.890625" y="11">(41)</tspan>
          </text>
        </g>
      </g>
    </g>
    <g class="annotation" data-index="8" style="opacity: 1;">
      <g class="annotation-text-g" transform="rotate(0,284.7,425)">
        <g class="cursor-pointer" transform="translate(275,411)">
          <rect class="bg" x="0.5" y="0.5" width="19" height="28" style="stroke-width: 1px; stroke: rgb(0, 0, 0); stroke-opacity: 0; fill: rgb(0, 0, 0); fill-opacity: 0;"/>
          <text class="annotation-text" text-anchor="middle" x="9.75" y="11" style="font-family: 'Alegreya Sans', sans-serif; font-size: 11px; fill: rgb(255, 255, 255); fill-opacity: 1; white-space: pre;">
            <tspan class="line" dy="0em" x="9.75" y="11">
              <tspan style="font-weight:bold">2 %</tspan>
            </tspan>
            <tspan class="line" dy="1.3em" x="9.75" y="11">(19)</tspan>
          </text>
        </g>
      </g>
    </g>
    <g class="annotation" data-index="9" style="opacity: 1;">
      <g class="annotation-text-g" transform="rotate(0,283.1,475)">
        <g class="cursor-pointer" transform="translate(273,461)">
          <rect class="bg" x="0.5" y="0.5" width="19" height="28" style="stroke-width: 1px; stroke: rgb(0, 0, 0); stroke-opacity: 0; fill: rgb(0, 0, 0); fill-opacity: 0;"/>
          <text class="annotation-text" text-anchor="middle" x="9.75" y="11" style="font-family: 'Alegreya Sans', sans-serif; font-size: 11px; fill: rgb(255, 255, 255); fill-opacity: 1; white-space: pre;">
            <tspan class="line" dy="0em" x="9.75" y="11">
              <tspan style="font-weight:bold">2 %</tspan>
            </tspan>
            <tspan class="line" dy="1.3em" x="9.75" y="11">(16)</tspan>
          </text>
        </g>
      </g>
    </g>
  </g>
</svg>
