<svg xmlns="http://www.w3.org/2000/svg" xmlns:xlink="http://www.w3.org/1999/xlink" class="main-svg" width="100%" height="100%" style="" viewBox="1 1 799 519">
  <rect x="0" y="0" width="800" height="520" style="fill: rgb(255, 255, 255); fill-opacity: 1;"/>
  <defs id="defs-2cdd75">
    <g class="clips">
      <clipPath id="clip2cdd75xyplot" class="plotclip">
        <rect width="696" height="432"/>
      </clipPath>
      <clipPath class="axesclip" id="clip2cdd75x">
        <rect x="104" y="0" width="696" height="520"/>
      </clipPath>
      <clipPath class="axesclip" id="clip2cdd75y">
        <rect x="0" y="0" width="800" height="432"/>
      </clipPath>
      <clipPath class="axesclip" id="clip2cdd75xy">
        <rect x="104" y="0" width="696" height="432"/>
      </clipPath>
    </g>
    <g class="gradients"/>
    <g class="patterns"/>
  </defs>
  <g class="bglayer"/>
  <g class="layer-below">
    <g class="imagelayer"/>
    <g class="shapelayer"/>
  </g>
  <g class="cartesianlayer">
    <g class="subplot xy">
      <g class="layer-subplot">
        <g class="shapelayer"/>
        <g class="imagelayer"/>
      </g>
      <g class="gridlayer">
        <g class="x">
          <path class="xgrid crisp" transform="translate(236.24,0)" d="M0,0v432" style="stroke: rgb(238, 238, 238); stroke-opacity: 1; stroke-width: 1px;"/>
          <path class="xgrid crisp" transform="translate(368.48,0)" d="M0,0v432" style="stroke: rgb(238, 238, 238); stroke-opacity: 1; stroke-width: 1px;"/>
          <path class="xgrid crisp" transform="translate(500.72,0)" d="M0,0v432" style="stroke: rgb(238, 238, 238); stroke-opacity: 1; stroke-width: 1px;"/>
          <path class="xgrid crisp" transform="translate(632.96,0)" d="M0,0v432" style="stroke: rgb(238, 238, 238); stroke-opacity: 1; stroke-width: 1px;"/>
          <path class="xgrid crisp" transform="translate(765.2,0)" d="M0,0v432" style="stroke: rgb(238, 238, 238); stroke-opacity: 1; stroke-width: 1px;"/>
        </g>
        <g class="y"/>
      </g>
      <g class="zerolinelayer">
        <path class="xzl zl crisp" transform="translate(104,0)" d="M0,0v432" style="stroke: rgb(68, 68, 68); stroke-opacity: 1; stroke-width: 1px;"/>
      </g>
      <path class="xlines-below"/>
      <path class="ylines-below"/>
      <g class="overlines-below"/>
      <g class="xaxislayer-below"/>
      <g class="yaxislayer-below"/>
      <g class="overaxes-below"/>
      <g class="plot" transform="translate(104,0)" clip-path="url(#clip2cdd75xyplot)">
        <g class="barlayer mlayer">
          <g class="trace bars" shape-rendering="crispEdges" style="opacity: 1;">
            <g class="points">
              <g class="point">
                <path d="M0,426.6V383.4H146.19V426.6Z" style="vector-effect: non-scaling-stroke; opacity: 1; stroke-width: 1px; fill: rgb(36, 139, 204); fill-opacity: 1; stroke: rgb(255, 255, 255); stroke-opacity: 1;"/>
                <text class="bartext bartext-inside" text-anchor="middle" data-notex="1" x="0" y="0" style="font-family: 'Alegreya Sans', sans-serif; font-size: 12px; fill: rgb(255, 255, 255); fill-opacity: 1; white-space: pre;" transform="translate(131.955625,401.1953125)">
                  <tspan class="line" dy="0em" x="0" y="0">
                    <tspan style="font-weight:bold">22 %</tspan>
                  </tspan>
                  <tspan class="line" dy="1.3em" x="0" y="0">(44)</tspan>
                </text>
              </g>
              <g class="point">
                <path d="M0,372.6V329.4H162.81V372.6Z" style="vector-effect: non-scaling-stroke; opacity: 1; stroke-width: 1px; fill: rgb(36, 139, 204); fill-opacity: 1; stroke: rgb(255, 255, 255); stroke-opacity: 1;"/>
                <text class="bartext bartext-inside" text-anchor="middle" data-notex="1" x="0" y="0" style="font-family: 'Alegreya Sans', sans-serif; font-size: 12px; fill: rgb(255, 255, 255); fill-opacity: 1; white-space: pre;" transform="translate(148.81,347.1953125)">
                  <tspan class="line" dy="0em" x="0" y="0">
                    <tspan style="font-weight:bold">25 %</tspan>
                  </tspan>
                  <tspan class="line" dy="1.3em" x="0" y="0">(49)</tspan>
                </text>
              </g>
              <g class="point">
                <path d="M0,318.6V275.4H166.13V318.6Z" style="vector-effect: non-scaling-stroke; opacity: 1; stroke-width: 1px; fill: rgb(36, 139, 204); fill-opacity: 1; stroke: rgb(255, 255, 255); stroke-opacity: 1;"/>
                <text class="bartext bartext-inside" text-anchor="middle" data-notex="1" x="0" y="0" style="font-family: 'Alegreya Sans', sans-serif; font-size: 12px; fill: rgb(255, 255, 255); fill-opacity: 1; white-space: pre;" transform="translate(152.13,293.1953125)">
                  <tspan class="line" dy="0em" x="0" y="0">
                    <tspan style="font-weight:bold">25 %</tspan>
                  </tspan>
                  <tspan class="line" dy="1.3em" x="0" y="0">(50)</tspan>
                </text>
              </g>
              <g class="point">
                <path d="M0,264.6V221.4H169.45V264.6Z" style="vector-effect: non-scaling-stroke; opacity: 1; stroke-width: 1px; fill: rgb(36, 139, 204); fill-opacity: 1; stroke: rgb(255, 255, 255); stroke-opacity: 1;"/>
                <text class="bartext bartext-inside" text-anchor="middle" data-notex="1" x="0" y="0" style="font-family: 'Alegreya Sans', sans-serif; font-size: 12px; fill: rgb(255, 255, 255); fill-opacity: 1; white-space: pre;" transform="translate(155.1375,239.1953125)">
                  <tspan class="line" dy="0em" x="0" y="0">
                    <tspan style="font-weight:bold">26 %</tspan>
                  </tspan>
                  <tspan class="line" dy="1.3em" x="0" y="0">(51)</tspan>
                </text>
              </g>
              <g class="point">
                <path d="M0,210.6V167.4H169.45V210.6Z" style="vector-effect: non-scaling-stroke; opacity: 1; stroke-width: 1px; fill: rgb(36, 139, 204); fill-opacity: 1; stroke: rgb(255, 255, 255); stroke-opacity: 1;"/>
                <text class="bartext bartext-inside" text-anchor="middle" data-notex="1" x="0" y="0" style="font-family: 'Alegreya Sans', sans-serif; font-size: 12px; fill: rgb(255, 255, 255); fill-opacity: 1; white-space: pre;" transform="translate(155.1375,185.1953125)">
                  <tspan class="line" dy="0em" x="0" y="0">
                    <tspan style="font-weight:bold">26 %</tspan>
                  </tspan>
                  <tspan class="line" dy="1.3em" x="0" y="0">(51)</tspan>
                </text>
              </g>
              <g class="point">
                <path d="M0,156.6V113.4H212.65V156.6Z" style="vector-effect: non-scaling-stroke; opacity: 1; stroke-width: 1px; fill: rgb(36, 139, 204); fill-opacity: 1; stroke: rgb(255, 255, 255); stroke-opacity: 1;"/>
                <text class="bartext bartext-inside" text-anchor="middle" data-notex="1" x="0" y="0" style="font-family: 'Alegreya Sans', sans-serif; font-size: 12px; fill: rgb(255, 255, 255); fill-opacity: 1; white-space: pre;" transform="translate(198.65,131.1953125)">
                  <tspan class="line" dy="0em" x="0" y="0">
                    <tspan style="font-weight:bold">32 %</tspan>
                  </tspan>
                  <tspan class="line" dy="1.3em" x="0" y="0">(64)</tspan>
                </text>
              </g>
              <g class="point">
                <path d="M0,102.6V59.4H212.65V102.6Z" style="vector-effect: non-scaling-stroke; opacity: 1; stroke-width: 1px; fill: rgb(36, 139, 204); fill-opacity: 1; stroke: rgb(255, 255, 255); stroke-opacity: 1;"/>
                <text class="bartext bartext-inside" text-anchor="middle" data-notex="1" x="0" y="0" style="font-family: 'Alegreya Sans', sans-serif; font-size: 12px; fill: rgb(255, 255, 255); fill-opacity: 1; white-space: pre;" transform="translate(198.65,77.1953125)">
                  <tspan class="line" dy="0em" x="0" y="0">
                    <tspan style="font-weight:bold">32 %</tspan>
                  </tspan>
                  <tspan class="line" dy="1.3em" x="0" y="0">(64)</tspan>
                </text>
              </g>
              <g class="point">
                <path d="M0,48.6V5.4H215.97V48.6Z" style="vector-effect: non-scaling-stroke; opacity: 1; stroke-width: 1px; fill: rgb(36, 139, 204); fill-opacity: 1; stroke: rgb(255, 255, 255); stroke-opacity: 1;"/>
                <text class="bartext bartext-inside" text-anchor="middle" data-notex="1" x="0" y="0" style="font-family: 'Alegreya Sans', sans-serif; font-size: 12px; fill: rgb(255, 255, 255); fill-opacity: 1; white-space: pre;" transform="translate(202.22,23.1953125)">
                  <tspan class="line" dy="0em" x="0" y="0">
                    <tspan style="font-weight:bold">33 %</tspan>
                  </tspan>
                  <tspan class="line" dy="1.3em" x="0" y="0">(65)</tspan>
                </text>
              </g>
            </g>
          </g>
          <g class="trace bars" shape-rendering="crispEdges" style="opacity: 1;">
            <g class="points">
              <g class="point">
                <path d="M215.97,48.6V5.4H544.91V48.6Z" style="vector-effect: non-scaling-stroke; opacity: 1; stroke-width: 1px; fill: rgb(36, 139, 204); fill-opacity: 0.502; stroke: rgb(255, 255, 255); stroke-opacity: 1;"/>
                <text class="bartext bartext-inside" text-anchor="middle" data-notex="1" x="0" y="0" style="font-family: 'Alegreya Sans', sans-serif; font-size: 12px; fill: rgb(255, 255, 255); fill-opacity: 1; white-space: pre;" transform="translate(530.613125,23.1953125)">
                  <tspan class="line" dy="0em" x="0" y="0">
                    <tspan style="font-weight:bold">50 %</tspan>
                  </tspan>
                  <tspan class="line" dy="1.3em" x="0" y="0">(99)</tspan>
                </text>
              </g>
              <g class="point">
                <path d="M212.65,102.6V59.4H548.23V102.6Z" style="vector-effect: non-scaling-stroke; opacity: 1; stroke-width: 1px; fill: rgb(36, 139, 204); fill-opacity: 0.502; stroke: rgb(255, 255, 255); stroke-opacity: 1;"/>
                <text class="bartext bartext-inside" text-anchor="middle" data-notex="1" x="0" y="0" style="font-family: 'Alegreya Sans', sans-serif; font-size: 12px; fill: rgb(255, 255, 255); fill-opacity: 1; white-space: pre;" transform="translate(534.355,77.1953125)">
                  <tspan class="line" dy="0em" x="0" y="0">
                    <tspan style="font-weight:bold">51 %</tspan>
                  </tspan>
                  <tspan class="line" dy="1.3em" x="0" y="0">(101)</tspan>
                </text>
              </g>
              <g class="point">
                <path d="M212.65,156.6V113.4H574.81V156.6Z" style="vector-effect: non-scaling-stroke; opacity: 1; stroke-width: 1px; fill: rgb(36, 139, 204); fill-opacity: 0.502; stroke: rgb(255, 255, 255); stroke-opacity: 1;"/>
                <text class="bartext bartext-inside" text-anchor="middle" data-notex="1" x="0" y="0" style="font-family: 'Alegreya Sans', sans-serif; font-size: 12px; fill: rgb(255, 255, 255); fill-opacity: 1; white-space: pre;" transform="translate(560.185,131.1953125)">
                  <tspan class="line" dy="0em" x="0" y="0">
                    <tspan style="font-weight:bold">55 %</tspan>
                  </tspan>
                  <tspan class="line" dy="1.3em" x="0" y="0">(109)</tspan>
                </text>
              </g>
              <g class="point">
                <path d="M169.45,210.6V167.4H538.26V210.6Z" style="vector-effect: non-scaling-stroke; opacity: 1; stroke-width: 1px; fill: rgb(36, 139, 204); fill-opacity: 0.502; stroke: rgb(255, 255, 255); stroke-opacity: 1;"/>
                <text class="bartext bartext-inside" text-anchor="middle" data-notex="1" x="0" y="0" style="font-family: 'Alegreya Sans', sans-serif; font-size: 12px; fill: rgb(255, 255, 255); fill-opacity: 1; white-space: pre;" transform="translate(524.181875,185.1953125)">
                  <tspan class="line" dy="0em" x="0" y="0">
                    <tspan style="font-weight:bold">56 %</tspan>
                  </tspan>
                  <tspan class="line" dy="1.3em" x="0" y="0">(111)</tspan>
                </text>
              </g>
              <g class="point">
                <path d="M166.13,318.6V275.4H544.91V318.6Z" style="vector-effect: non-scaling-stroke; opacity: 1; stroke-width: 1px; fill: rgb(36, 139, 204); fill-opacity: 0.502; stroke: rgb(255, 255, 255); stroke-opacity: 1;"/>
                <text class="bartext bartext-inside" text-anchor="middle" data-notex="1" x="0" y="0" style="font-family: 'Alegreya Sans', sans-serif; font-size: 12px; fill: rgb(255, 255, 255); fill-opacity: 1; white-space: pre;" transform="translate(531.144375,293.1953125)">
                  <tspan class="line" dy="0em" x="0" y="0">
                    <tspan style="font-weight:bold">57 %</tspan>
                  </tspan>
                  <tspan class="line" dy="1.3em" x="0" y="0">(114)</tspan>
                </text>
              </g>
              <g class="point">
                <path d="M169.45,264.6V221.4H551.55V264.6Z" style="vector-effect: non-scaling-stroke; opacity: 1; stroke-width: 1px; fill: rgb(36, 139, 204); fill-opacity: 0.502; stroke: rgb(255, 255, 255); stroke-opacity: 1;"/>
                <text class="bartext bartext-inside" text-anchor="middle" data-notex="1" x="0" y="0" style="font-family: 'Alegreya Sans', sans-serif; font-size: 12px; fill: rgb(255, 255, 255); fill-opacity: 1; white-space: pre;" transform="translate(537.409375,239.1953125)">
                  <tspan class="line" dy="0em" x="0" y="0">
                    <tspan style="font-weight:bold">58 %</tspan>
                  </tspan>
                  <tspan class="line" dy="1.3em" x="0" y="0">(115)</tspan>
                </text>
              </g>
              <g class="point">
                <path d="M146.19,426.6V383.4H531.62V426.6Z" style="vector-effect: non-scaling-stroke; opacity: 1; stroke-width: 1px; fill: rgb(36, 139, 204); fill-opacity: 0.502; stroke: rgb(255, 255, 255); stroke-opacity: 1;"/>
                <text class="bartext bartext-inside" text-anchor="middle" data-notex="1" x="0" y="0" style="font-family: 'Alegreya Sans', sans-serif; font-size: 12px; fill: rgb(255, 255, 255); fill-opacity: 1; white-space: pre;" transform="translate(517.479375,401.1953125)">
                  <tspan class="line" dy="0em" x="0" y="0">
                    <tspan style="font-weight:bold">58 %</tspan>
                  </tspan>
                  <tspan class="line" dy="1.3em" x="0" y="0">(116)</tspan>
                </text>
              </g>
              <g class="point">
                <path d="M162.81,372.6V329.4H581.46V372.6Z" style="vector-effect: non-scaling-stroke; opacity: 1; stroke-width: 1px; fill: rgb(36, 139, 204); fill-opacity: 0.502; stroke: rgb(255, 255, 255); stroke-opacity: 1;"/>
                <text class="bartext bartext-inside" text-anchor="middle" data-notex="1" x="0" y="0" style="font-family: 'Alegreya Sans', sans-serif; font-size: 12px; fill: rgb(255, 255, 255); fill-opacity: 1; white-space: pre;" transform="translate(567.2725,347.1953125)">
                  <tspan class="line" dy="0em" x="0" y="0">
                    <tspan style="font-weight:bold">63 %</tspan>
                  </tspan>
                  <tspan class="line" dy="1.3em" x="0" y="0">(126)</tspan>
                </text>
              </g>
            </g>
          </g>
          <g class="trace bars" shape-rendering="crispEdges" style="opacity: 1;">
            <g class="points">
              <g class="point">
                <path d="M581.46,372.6V329.4H661.2V372.6Z" style="vector-effect: non-scaling-stroke; opacity: 1; stroke-width: 1px; fill: rgb(172, 173, 185); fill-opacity: 1; stroke: rgb(255, 255, 255); stroke-opacity: 1;"/>
                <text class="bartext bartext-inside" text-anchor="middle" data-notex="1" x="0" y="0" style="font-family: 'Alegreya Sans', sans-serif; font-size: 12px; fill: rgb(255, 255, 255); fill-opacity: 1; white-space: pre;" transform="translate(647.621875,347.1953125)">
                  <tspan class="line" dy="0em" x="0" y="0">
                    <tspan style="font-weight:bold">12 %</tspan>
                  </tspan>
                  <tspan class="line" dy="1.3em" x="0" y="0">(24)</tspan>
                </text>
              </g>
              <g class="point">
                <path d="M574.81,156.6V113.4H661.2V156.6Z" style="vector-effect: non-scaling-stroke; opacity: 1; stroke-width: 1px; fill: rgb(172, 173, 185); fill-opacity: 1; stroke: rgb(255, 255, 255); stroke-opacity: 1;"/>
                <text class="bartext bartext-inside" text-anchor="middle" data-notex="1" x="0" y="0" style="font-family: 'Alegreya Sans', sans-serif; font-size: 12px; fill: rgb(255, 255, 255); fill-opacity: 1; white-space: pre;" transform="translate(647.871875,131.1953125)">
                  <tspan class="line" dy="0em" x="0" y="0">
                    <tspan style="font-weight:bold">13 %</tspan>
                  </tspan>
                  <tspan class="line" dy="1.3em" x="0" y="0">(26)</tspan>
                </text>
              </g>
              <g class="point">
                <path d="M551.55,264.6V221.4H661.2V264.6Z" style="vector-effect: non-scaling-stroke; opacity: 1; stroke-width: 1px; fill: rgb(172, 173, 185); fill-opacity: 1; stroke: rgb(255, 255, 255); stroke-opacity: 1;"/>
                <text class="bartext bartext-inside" text-anchor="middle" data-notex="1" x="0" y="0" style="font-family: 'Alegreya Sans', sans-serif; font-size: 12px; fill: rgb(255, 255, 255); fill-opacity: 1; white-space: pre;" transform="translate(647.85625,239.1953125)">
                  <tspan class="line" dy="0em" x="0" y="0">
                    <tspan style="font-weight:bold">17 %</tspan>
                  </tspan>
                  <tspan class="line" dy="1.3em" x="0" y="0">(33)</tspan>
                </text>
              </g>
              <g class="point">
                <path d="M548.23,102.6V59.4H661.2V102.6Z" style="vector-effect: non-scaling-stroke; opacity: 1; stroke-width: 1px; fill: rgb(172, 173, 185); fill-opacity: 1; stroke: rgb(255, 255, 255); stroke-opacity: 1;"/>
                <text class="bartext bartext-inside" text-anchor="middle" data-notex="1" x="0" y="0" style="font-family: 'Alegreya Sans', sans-serif; font-size: 12px; fill: rgb(255, 255, 255); fill-opacity: 1; white-space: pre;" transform="translate(647.85625,77.1953125)">
                  <tspan class="line" dy="0em" x="0" y="0">
                    <tspan style="font-weight:bold">17 %</tspan>
                  </tspan>
                  <tspan class="line" dy="1.3em" x="0" y="0">(34)</tspan>
                </text>
              </g>
              <g class="point">
                <path d="M544.91,48.6V5.4H661.2V48.6Z" style="vector-effect: non-scaling-stroke; opacity: 1; stroke-width: 1px; fill: rgb(172, 173, 185); fill-opacity: 1; stroke: rgb(255, 255, 255); stroke-opacity: 1;"/>
                <text class="bartext bartext-inside" text-anchor="middle" data-notex="1" x="0" y="0" style="font-family: 'Alegreya Sans', sans-serif; font-size: 12px; fill: rgb(255, 255, 255); fill-opacity: 1; white-space: pre;" transform="translate(647.496875,23.1953125)">
                  <tspan class="line" dy="0em" x="0" y="0">
                    <tspan style="font-weight:bold">18 %</tspan>
                  </tspan>
                  <tspan class="line" dy="1.3em" x="0" y="0">(35)</tspan>
                </text>
              </g>
              <g class="point">
                <path d="M544.91,318.6V275.4H661.2V318.6Z" style="vector-effect: non-scaling-stroke; opacity: 1; stroke-width: 1px; fill: rgb(172, 173, 185); fill-opacity: 1; stroke: rgb(255, 255, 255); stroke-opacity: 1;"/>
                <text class="bartext bartext-inside" text-anchor="middle" data-notex="1" x="0" y="0" style="font-family: 'Alegreya Sans', sans-serif; font-size: 12px; fill: rgb(255, 255, 255); fill-opacity: 1; white-space: pre;" transform="translate(647.496875,293.1953125)">
                  <tspan class="line" dy="0em" x="0" y="0">
                    <tspan style="font-weight:bold">18 %</tspan>
                  </tspan>
                  <tspan class="line" dy="1.3em" x="0" y="0">(35)</tspan>
                </text>
              </g>
              <g class="point">
                <path d="M538.26,210.6V167.4H661.2V210.6Z" style="vector-effect: non-scaling-stroke; opacity: 1; stroke-width: 1px; fill: rgb(172, 173, 185); fill-opacity: 1; stroke: rgb(255, 255, 255); stroke-opacity: 1;"/>
                <text class="bartext bartext-inside" text-anchor="middle" data-notex="1" x="0" y="0" style="font-family: 'Alegreya Sans', sans-serif; font-size: 12px; fill: rgb(255, 255, 255); fill-opacity: 1; white-space: pre;" transform="translate(647.559375,185.1953125)">
                  <tspan class="line" dy="0em" x="0" y="0">
                    <tspan style="font-weight:bold">19 %</tspan>
                  </tspan>
                  <tspan class="line" dy="1.3em" x="0" y="0">(37)</tspan>
                </text>
              </g>
              <g class="point">
                <path d="M531.62,426.6V383.4H661.2V426.6Z" style="vector-effect: non-scaling-stroke; opacity: 1; stroke-width: 1px; fill: rgb(172, 173, 185); fill-opacity: 1; stroke: rgb(255, 255, 255); stroke-opacity: 1;"/>
                <text class="bartext bartext-inside" text-anchor="middle" data-notex="1" x="0" y="0" style="font-family: 'Alegreya Sans', sans-serif; font-size: 12px; fill: rgb(255, 255, 255); fill-opacity: 1; white-space: pre;" transform="translate(646.66875,401.1953125)">
                  <tspan class="line" dy="0em" x="0" y="0">
                    <tspan style="font-weight:bold">20 %</tspan>
                  </tspan>
                  <tspan class="line" dy="1.3em" x="0" y="0">(39)</tspan>
                </text>
              </g>
            </g>
          </g>
        </g>
      </g>
      <g class="overplot"/>
      <path class="xlines-above crisp" d="M0,0" style="fill: none;"/>
      <path class="ylines-above crisp" d="" style="fill: none; stroke-width: 1px; stroke: rgb(0, 0, 0); stroke-opacity: 0;"/>
      <g class="overlines-above"/>
      <g class="xaxislayer-above">
        <g class="xtick">
          <text text-anchor="middle" x="0" y="445" transform="translate(104,0)" style="font-family: 'Alegreya Sans', sans-serif; font-size: 12px; fill: rgb(0, 0, 0); fill-opacity: 1; white-space: pre; opacity: 1;">0 %</text>
        </g>
        <g class="xtick">
          <text text-anchor="middle" x="0" y="445" style="font-family: 'Alegreya Sans', sans-serif; font-size: 12px; fill: rgb(0, 0, 0); fill-opacity: 1; white-space: pre; opacity: 1;" transform="translate(236.24,0)">20 %</text>
        </g>
        <g class="xtick">
          <text text-anchor="middle" x="0" y="445" style="font-family: 'Alegreya Sans', sans-serif; font-size: 12px; fill: rgb(0, 0, 0); fill-opacity: 1; white-space: pre; opacity: 1;" transform="translate(368.48,0)">40 %</text>
        </g>
        <g class="xtick">
          <text text-anchor="middle" x="0" y="445" style="font-family: 'Alegreya Sans', sans-serif; font-size: 12px; fill: rgb(0, 0, 0); fill-opacity: 1; white-space: pre; opacity: 1;" transform="translate(500.72,0)">60 %</text>
        </g>
        <g class="xtick">
          <text text-anchor="middle" x="0" y="445" style="font-family: 'Alegreya Sans', sans-serif; font-size: 12px; fill: rgb(0, 0, 0); fill-opacity: 1; white-space: pre; opacity: 1;" transform="translate(632.96,0)">80 %</text>
        </g>
        <g class="xtick">
          <text text-anchor="middle" x="0" y="445" style="font-family: 'Alegreya Sans', sans-serif; font-size: 12px; fill: rgb(0, 0, 0); fill-opacity: 1; white-space: pre; opacity: 1;" transform="translate(765.2,0)">100 %</text>
        </g>
      </g>
      <g class="yaxislayer-above">
        <path class="ytick ticks crisp" d="M103,0h-5" transform="translate(0,405)" style="stroke: rgb(68, 68, 68); stroke-opacity: 1; stroke-width: 1px;"/>
        <path class="ytick ticks crisp" d="M103,0h-5" transform="translate(0,351)" style="stroke: rgb(68, 68, 68); stroke-opacity: 1; stroke-width: 1px;"/>
        <path class="ytick ticks crisp" d="M103,0h-5" transform="translate(0,297)" style="stroke: rgb(68, 68, 68); stroke-opacity: 1; stroke-width: 1px;"/>
        <path class="ytick ticks crisp" d="M103,0h-5" transform="translate(0,243)" style="stroke: rgb(68, 68, 68); stroke-opacity: 1; stroke-width: 1px;"/>
        <path class="ytick ticks crisp" d="M103,0h-5" transform="translate(0,189)" style="stroke: rgb(68, 68, 68); stroke-opacity: 1; stroke-width: 1px;"/>
        <path class="ytick ticks crisp" d="M103,0h-5" transform="translate(0,135)" style="stroke: rgb(68, 68, 68); stroke-opacity: 1; stroke-width: 1px;"/>
        <path class="ytick ticks crisp" d="M103,0h-5" transform="translate(0,81)" style="stroke: rgb(68, 68, 68); stroke-opacity: 1; stroke-width: 1px;"/>
        <path class="ytick ticks crisp" d="M103,0h-5" transform="translate(0,27)" style="stroke: rgb(68, 68, 68); stroke-opacity: 1; stroke-width: 1px;"/>
        <g class="ytick">
          <text text-anchor="end" x="95.6" y="4.199999999999999" transform="translate(0,405)" style="font-family: 'Alegreya Sans', sans-serif; font-size: 12px; fill: rgb(0, 0, 0); fill-opacity: 1; white-space: pre; opacity: 1;">Wirkungslosigkeit</text>
        </g>
        <g class="ytick">
          <text text-anchor="end" x="95.6" y="4.199999999999999" transform="translate(0,351)" style="font-family: 'Alegreya Sans', sans-serif; font-size: 12px; fill: rgb(0, 0, 0); fill-opacity: 1; white-space: pre; opacity: 1;">Verhinderung</text>
        </g>
        <g class="ytick">
          <text text-anchor="end" x="95.6" y="4.199999999999999" transform="translate(0,297)" style="font-family: 'Alegreya Sans', sans-serif; font-size: 12px; fill: rgb(0, 0, 0); fill-opacity: 1; white-space: pre; opacity: 1;">Überforderung</text>
        </g>
        <g class="ytick">
          <text text-anchor="end" x="95.6" y="4.199999999999999" transform="translate(0,243)" style="font-family: 'Alegreya Sans', sans-serif; font-size: 12px; fill: rgb(0, 0, 0); fill-opacity: 1; white-space: pre; opacity: 1;">Desinteresse</text>
        </g>
        <g class="ytick">
          <text text-anchor="end" x="95.6" y="4.199999999999999" transform="translate(0,189)translate(0,-7.800000000000001)" style="font-family: 'Alegreya Sans', sans-serif; font-size: 12px; fill: rgb(0, 0, 0); fill-opacity: 1; white-space: pre; opacity: 1;">
            <tspan class="line" dy="0em" x="95.6" y="4.199999999999999">Bedeutungslosigkeit</tspan>
            <tspan class="line" dy="1.3em" x="95.6" y="4.199999999999999">der eigenen Stimme</tspan>
          </text>
        </g>
        <g class="ytick">
          <text text-anchor="end" x="95.6" y="4.199999999999999" transform="translate(0,135)translate(0,-7.800000000000001)" style="font-family: 'Alegreya Sans', sans-serif; font-size: 12px; fill: rgb(0, 0, 0); fill-opacity: 1; white-space: pre; opacity: 1;">
            <tspan class="line" dy="0em" x="95.6" y="4.199999999999999">Vergessen</tspan>
            <tspan class="line" dy="1.3em" x="95.6" y="4.199999999999999">teilzunehmen</tspan>
          </text>
        </g>
        <g class="ytick">
          <text text-anchor="end" x="95.6" y="4.199999999999999" transform="translate(0,81)translate(0,-7.800000000000001)" style="font-family: 'Alegreya Sans', sans-serif; font-size: 12px; fill: rgb(0, 0, 0); fill-opacity: 1; white-space: pre; opacity: 1;">
            <tspan class="line" dy="0em" x="95.6" y="4.199999999999999">Ergebnis</tspan>
            <tspan class="line" dy="1.3em" x="95.6" y="4.199999999999999">sowieso klar</tspan>
          </text>
        </g>
        <g class="ytick">
          <text text-anchor="end" x="95.6" y="4.199999999999999" transform="translate(0,27)" style="font-family: 'Alegreya Sans', sans-serif; font-size: 12px; fill: rgb(0, 0, 0); fill-opacity: 1; white-space: pre; opacity: 1;">Unentschlossenheit</text>
        </g>
      </g>
      <g class="overaxes-above"/>
    </g>
  </g>
  <g class="polarlayer"/>
  <g class="smithlayer"/>
  <g class="ternarylayer"/>
  <g class="geolayer"/>
  <g class="funnelarealayer"/>
  <g class="pielayer"/>
  <g class="iciclelayer"/>
  <g class="treemaplayer"/>
  <g class="sunburstlayer"/>
  <g class="glimages"/>
  <defs id="topdefs-2cdd75">
    <g class="clips"/>
    <clipPath id="legend2cdd75">
      <rect width="315" height="45" x="0" y="0"/>
    </clipPath>
  </defs>
  <g class="layer-above">
    <g class="imagelayer"/>
    <g class="shapelayer"/>
  </g>
  <g class="infolayer">
    <g class="legend" pointer-events="all" transform="translate(104,475)">
      <rect class="bg" shape-rendering="crispEdges" style="stroke: rgb(68, 68, 68); stroke-opacity: 1; fill: rgb(255, 255, 255); fill-opacity: 1; stroke-width: 0px;" width="315" height="45" x="0" y="0"/>
      <g class="scrollbox" transform="" clip-path="url(#legend2cdd75)">
        <g class="groups">
          <g class="traces" transform="translate(0,14.5)" style="opacity: 1;">
            <text class="legendtext" text-anchor="start" x="40" y="4.680000000000001" style="font-family: 'Alegreya Sans', sans-serif; font-size: 12px; fill: rgb(0, 0, 0); fill-opacity: 1; white-space: pre;">trifft zu</text>
            <g class="layers" style="opacity: 1;">
              <g class="legendfill"/>
              <g class="legendlines"/>
              <g class="legendsymbols">
                <g class="legendpoints">
                  <path class="legendundefined" d="M6,6H-6V-6H6Z" transform="translate(20,0)" style="stroke-width: 1px; fill: rgb(36, 139, 204); fill-opacity: 1; stroke: rgb(255, 255, 255); stroke-opacity: 1;"/>
                </g>
              </g>
            </g>
            <rect class="legendtoggle" x="0" y="-9.5" width="77.34375" height="19" style="fill: rgb(0, 0, 0); fill-opacity: 0;"/>
          </g>
          <g class="traces" transform="translate(79.84375,14.5)" style="opacity: 1;">
            <text class="legendtext" text-anchor="start" x="40" y="4.680000000000001" style="font-family: 'Alegreya Sans', sans-serif; font-size: 12px; fill: rgb(0, 0, 0); fill-opacity: 1; white-space: pre;">trifft nicht zu</text>
            <g class="layers" style="opacity: 1;">
              <g class="legendfill"/>
              <g class="legendlines"/>
              <g class="legendsymbols">
                <g class="legendpoints">
                  <path class="legendundefined" d="M6,6H-6V-6H6Z" transform="translate(20,0)" style="stroke-width: 1px; fill: rgb(36, 139, 204); fill-opacity: 0.502; stroke: rgb(255, 255, 255); stroke-opacity: 1;"/>
                </g>
              </g>
            </g>
            <rect class="legendtoggle" x="0" y="-9.5" width="103.109375" height="19" style="fill: rgb(0, 0, 0); fill-opacity: 0;"/>
          </g>
          <g class="traces" transform="translate(185.453125,22.1)" style="opacity: 1;">
            <text class="legendtext" text-anchor="start" x="40" y="-3.1200000000000006" style="font-family: 'Alegreya Sans', sans-serif; font-size: 12px; fill: rgb(0, 0, 0); fill-opacity: 1; white-space: pre;">
              <tspan class="line" dy="0em" x="40" y="-3.1200000000000006">weiss nicht / keine</tspan>
              <tspan class="line" dy="1.3em" x="40" y="-3.1200000000000006">Angabe</tspan>
            </text>
            <g class="layers" style="opacity: 1;">
              <g class="legendfill"/>
              <g class="legendlines"/>
              <g class="legendsymbols">
                <g class="legendpoints">
                  <path class="legendundefined" d="M6,6H-6V-6H6Z" transform="translate(20,0)" style="stroke-width: 1px; fill: rgb(172, 173, 185); fill-opacity: 1; stroke: rgb(255, 255, 255); stroke-opacity: 1;"/>
                </g>
              </g>
            </g>
            <rect class="legendtoggle" x="0" y="-17.1" width="126.359375" height="34.2" style="fill: rgb(0, 0, 0); fill-opacity: 0;"/>
          </g>
        </g>
      </g>
      <rect class="scrollbar" rx="20" ry="3" width="0" height="0" style="fill: rgb(128, 139, 164); fill-opacity: 1;" x="0" y="0"/>
    </g>
    <g class="g-gtitle"/>
    <g class="g-xtitle"/>
    <g class="g-ytitle"/>
  </g>
</svg>
